app_id	nb_instances	core	memory	inter_degree	inter_aff
1	3	2	8	5	[(93, 8), (26, 6), (57, 2), (195, 1), (30, 1)]
2	2	4	8	1	[(53, 9)]
3	2	1	8	3	[(121, 4), (80, 0), (2, 7)]
4	6	3	8	1	[(36, 1)]
5	4	1	8	1	[(69, 1)]
6	3	2	8	3	[(184, 1), (33, 4), (139, 4)]
7	3	1	8	4	[(181, 2), (12, 6), (101, 2), (85, 10)]
8	1	1	8	0	[]
9	2	1	8	1	[(21, 3)]
10	1	6	8	2	[(62, 4), (19, 4)]
11	37	1	8	1	[(142, 1)]
12	3	4	8	4	[(141, 0), (68, 5), (11, 3), (34, 5)]
13	1	1	8	4	[(49, 7), (64, 4), (134, 9), (166, 2)]
14	6	5	8	2	[(2, 4), (187, 7)]
15	1	2	8	0	[]
16	20	3	8	0	[]
17	1	1	8	2	[(30, 4), (21, 6)]
18	5	1	1	6	[(49, 0), (91, 5), (73, 7), (11, 2), (188, 3), (181, 7)]
19	2	1	8	2	[(194, 3), (128, 4)]
20	2	1	8	0	[]
21	3	1	1	3	[(159, 10), (6, 0), (76, 7)]
22	2	1	8	2	[(75, 2), (7, 1)]
23	1	1	8	1	[(18, 7)]
24	2	2	8	2	[(94, 8), (71, 4)]
25	4	1	16	1	[(18, 1)]
26	1	2	16	4	[(140, 10), (84, 1), (26, 7), (142, 4)]
27	1	1	8	0	[]
28	2	1	8	1	[(76, 10)]
29	2	1	8	0	[]
30	7	1	8	4	[(182, 10), (79, 7), (43, 4), (84, 8)]
31	1	1	8	4	[(63, 6), (182, 8), (61, 2), (173, 3)]
32	3	4	5	2	[(61, 10), (75, 7)]
33	1	4	2	4	[(185, 6), (58, 7), (171, 9), (190, 5)]
34	2	1	8	3	[(79, 5), (48, 7), (7, 5)]
35	2	5	8	0	[]
36	8	4	8	3	[(69, 1), (81, 0), (114, 10)]
37	1	1	8	1	[(2, 2)]
38	4	1	4	1	[(170, 8)]
39	2	2	8	2	[(196, 3), (5, 4)]
40	2	1	8	2	[(108, 1), (72, 10)]
41	2	1	8	0	[]
42	4	1	8	2	[(63, 6), (102, 0)]
43	2	3	8	1	[(107, 10)]
44	2	1	8	7	[(72, 10), (66, 7), (13, 1), (4, 4), (93, 5), (87, 3), (187, 3)]
45	1	2	8	3	[(110, 8), (31, 3), (99, 3)]
46	1	4	8	0	[]
47	4	4	2	1	[(102, 0)]
48	6	6	8	1	[(100, 9)]
49	1	1	8	0	[]
50	2	1	8	2	[(26, 7), (94, 0)]
51	2	2	8	2	[(13, 6), (175, 7)]
52	1	1	8	2	[(25, 8), (131, 4)]
53	2	1	8	2	[(89, 10), (70, 3)]
54	1	1	8	0	[]
55	5	3	8	1	[(42, 9)]
56	2	12	7	2	[(17, 2), (143, 0)]
57	2	3	9	3	[(156, 1), (92, 5), (100, 5)]
58	2	1	8	1	[(70, 7)]
59	19	2	2	4	[(129, 10), (135, 7), (34, 7), (75, 5)]
60	2	2	6	3	[(142, 9), (12, 8), (138, 0)]
61	2	1	8	2	[(175, 4), (120, 1)]
62	2	1	2	4	[(182, 5), (5, 7), (75, 9), (63, 6)]
63	3	1	2	1	[(93, 0)]
64	13	3	8	1	[(96, 8)]
65	1	6	32	4	[(102, 1), (167, 1), (165, 1), (178, 2)]
66	2	1	32	1	[(195, 8)]
67	6	1	8	3	[(38, 0), (151, 6), (2, 1)]
68	1	1	2	2	[(105, 7), (84, 0)]
69	3	2	8	3	[(181, 5), (136, 5), (185, 5)]
70	2	1	8	1	[(67, 6)]
71	2	1	8	1	[(61, 1)]
72	2	6	8	4	[(24, 7), (80, 0), (166, 0), (117, 10)]
73	1	1	8	3	[(78, 9), (172, 10), (155, 4)]
74	9	1	8	0	[]
75	4	4	8	2	[(170, 5), (180, 0)]
76	1	4	16	2	[(89, 9), (37, 0)]
77	1	1	8	0	[]
78	11	1	8	1	[(7, 1)]
79	5	5	8	0	[]
80	2	1	6	3	[(22, 9), (106, 0), (130, 1)]
81	85	1	8	1	[(125, 3)]
82	1	4	4	5	[(98, 2), (153, 7), (200, 2), (122, 7), (69, 9)]
83	2	1	8	2	[(162, 0), (79, 7)]
84	22	1	8	2	[(126, 8), (200, 10)]
85	6	1	8	3	[(144, 7), (140, 4), (42, 2)]
86	6	1	1	1	[(66, 5)]
87	1	1	8	0	[]
88	2	1	8	3	[(79, 10), (92, 8), (34, 9)]
89	1	4	8	2	[(116, 5), (76, 0)]
90	1	2	2	2	[(67, 2), (32, 10)]
91	2	1	8	4	[(16, 4), (193, 6), (80, 7), (127, 6)]
92	2	4	8	1	[(120, 6)]
93	3	1	8	0	[]
94	2	1	8	0	[]
95	2	6	2	2	[(3, 4), (56, 2)]
96	4	2	8	4	[(143, 10), (121, 2), (149, 8), (8, 9)]
97	3	6	8	1	[(57, 3)]
98	1	3	8	6	[(9, 10), (36, 2), (184, 9), (168, 8), (117, 2), (176, 6)]
99	1	4	8	2	[(95, 3), (91, 3)]
100	1	4	8	1	[(194, 10)]
101	1	1	10	3	[(171, 2), (189, 1), (73, 6)]
102	4	4	2	1	[(151, 6)]
103	11	1	8	2	[(51, 0), (173, 3)]
104	2	1	8	3	[(168, 2), (155, 2), (145, 1)]
105	37	1	8	1	[(179, 1)]
106	6	2	2	3	[(178, 7), (181, 9), (152, 7)]
107	6	2	16	2	[(122, 7), (74, 7)]
108	2	4	8	1	[(151, 7)]
109	19	1	16	1	[(50, 4)]
110	4	2	8	3	[(35, 1), (15, 3), (36, 3)]
111	1	2	2	1	[(128, 4)]
112	2	6	8	5	[(52, 9), (160, 7), (8, 4), (155, 3), (19, 0)]
113	3	10	8	1	[(150, 10)]
114	1	1	8	2	[(50, 8), (152, 1)]
115	2	1	8	1	[(53, 10)]
116	10	1	8	2	[(183, 2), (37, 9)]
117	1	2	8	0	[]
118	1	1	8	3	[(60, 0), (130, 2), (99, 6)]
119	8	1	8	1	[(172, 1)]
120	1	1	8	1	[(200, 7)]
121	1	1	8	1	[(151, 2)]
122	2	12	8	3	[(198, 3), (49, 0), (23, 5)]
123	2	1	8	3	[(83, 8), (184, 3), (84, 8)]
124	1	1	7	2	[(199, 9), (153, 0)]
125	2	1	8	2	[(150, 2), (185, 0)]
126	2	1	8	3	[(1, 2), (124, 9), (197, 7)]
127	2	1	7	3	[(170, 2), (3, 3), (41, 5)]
128	3	6	5	2	[(25, 7), (110, 10)]
129	3	1	8	4	[(93, 7), (181, 3), (188, 4), (150, 8)]
130	71	2	8	0	[]
131	2	1	8	3	[(83, 9), (176, 6), (170, 1)]
132	2	1	8	3	[(186, 10), (165, 1), (77, 7)]
133	3	1	8	3	[(142, 5), (126, 3), (52, 5)]
134	1	2	8	1	[(166, 3)]
135	2	1	8	5	[(151, 10), (175, 2), (182, 2), (94, 3), (31, 8)]
136	1	1	8	1	[(101, 7)]
137	1	12	8	0	[]
138	6	4	16	2	[(171, 5), (183, 3)]
139	2	1	8	2	[(159, 1), (87, 2)]
140	2	1	8	0	[]
141	3	1	8	2	[(155, 6), (29, 7)]
142	2	1	8	2	[(64, 0), (112, 1)]
143	8	1	8	2	[(17, 10), (30, 1)]
144	1	1	16	2	[(194, 6), (190, 4)]
145	8	1	8	0	[]
146	2	2	8	0	[]
147	1	1	8	1	[(154, 3)]
148	2	2	8	1	[(58, 3)]
149	4	1	10	4	[(129, 5), (188, 10), (20, 1), (31, 2)]
150	12	1	2	0	[]
151	2	1	8	2	[(5, 4), (188, 4)]
152	12	1	2	3	[(31, 10), (78, 8), (132, 1)]
153	10	2	8	1	[(193, 0)]
154	2	1	8	2	[(104, 2), (11, 4)]
155	6	2	8	0	[]
156	2	8	8	3	[(74, 0), (13, 9), (57, 9)]
157	2	1	8	0	[]
158	4	2	8	5	[(176, 1), (1, 5), (14, 7), (42, 0), (3, 4)]
159	8	1	8	1	[(165, 1)]
160	16	1	8	0	[]
161	2	7	8	1	[(185, 10)]
162	1	1	8	6	[(150, 9), (183, 0), (106, 8), (142, 7), (180, 1), (109, 3)]
163	2	2	8	2	[(66, 2), (191, 4)]
164	1	1	8	4	[(87, 1), (144, 0), (33, 10), (173, 5)]
165	2	1	8	1	[(133, 6)]
166	1	1	8	2	[(128, 0), (10, 9)]
167	1	1	8	2	[(16, 2), (159, 9)]
168	1	4	8	2	[(8, 7), (138, 7)]
169	2	4	8	1	[(40, 2)]
170	2	2	1	1	[(150, 10)]
171	7	1	8	0	[]
172	2	1	8	3	[(92, 1), (54, 8), (142, 9)]
173	8	6	8	3	[(3, 8), (111, 4), (34, 2)]
174	4	1	8	1	[(190, 8)]
175	18	1	3	0	[]
176	2	9	8	3	[(15, 3), (157, 2), (14, 4)]
177	2	1	3	2	[(88, 7), (10, 3)]
178	1	1	8	0	[]
179	4	2	32	2	[(35, 6), (101, 0)]
180	26	1	8	3	[(14, 10), (26, 0), (119, 2)]
181	1	4	16	1	[(40, 3)]
182	57	6	8	4	[(20, 8), (151, 2), (117, 1), (135, 6)]
183	4	4	8	2	[(114, 4), (188, 7)]
184	2	4	8	2	[(39, 10), (142, 6)]
185	6	3	8	5	[(103, 1), (116, 5), (11, 4), (141, 6), (62, 6)]
186	9	2	8	3	[(106, 6), (162, 1), (43, 5)]
187	2	1	8	0	[]
188	7	1	8	1	[(198, 2)]
189	6	1	8	2	[(165, 3), (122, 0)]
190	8	2	8	2	[(97, 8), (185, 7)]
191	3	1	8	4	[(69, 10), (53, 2), (151, 5), (41, 1)]
192	1	1	8	4	[(171, 0), (75, 8), (141, 6), (111, 1)]
193	7	1	8	2	[(23, 4), (197, 6)]
194	1	1	8	1	[(182, 9)]
195	1	2	8	6	[(50, 7), (86, 2), (176, 10), (196, 9), (48, 5), (132, 5)]
196	6	1	8	2	[(101, 4), (98, 5)]
197	2	1	4	2	[(11, 4), (166, 2)]
198	2	3	2	1	[(40, 3)]
199	3	2	8	4	[(23, 4), (152, 1), (29, 10), (171, 8)]
200	7	1	8	3	[(76, 5), (42, 1), (64, 1)]
