app_id	nb_instances	core	memory	inter_degree	inter_aff
1	2	2	8	35	[(140, 7), (28, 6), (31, 7), (187, 7), (26, 8), (120, 1), (207, 5), (194, 10), (103, 5), (162, 1), (121, 1), (17, 6), (218, 3), (105, 1), (64, 2), (215, 4), (225, 3), (149, 4), (37, 3), (134, 1), (30, 7), (4, 6), (249, 9), (229, 0), (182, 5), (138, 5), (128, 0), (7, 4), (77, 8), (247, 6), (1, 1), (35, 1), (13, 0), (220, 7), (67, 10)]
2	2	2	16	35	[(13, 0), (209, 2), (118, 1), (72, 4), (219, 8), (61, 3), (108, 5), (150, 5), (141, 9), (172, 6), (156, 2), (248, 6), (228, 8), (1, 10), (66, 4), (6, 7), (31, 1), (203, 0), (231, 0), (191, 4), (155, 3), (87, 0), (146, 7), (128, 7), (140, 2), (201, 10), (184, 4), (9, 7), (193, 10), (62, 8), (237, 9), (58, 0), (24, 3), (148, 4), (175, 1)]
3	1	1	8	37	[(241, 4), (196, 10), (179, 3), (248, 7), (222, 7), (91, 5), (27, 4), (115, 3), (174, 1), (166, 7), (151, 10), (203, 7), (192, 10), (126, 7), (157, 8), (84, 9), (188, 7), (220, 4), (118, 4), (154, 1), (43, 3), (141, 10), (167, 7), (242, 0), (4, 3), (88, 9), (17, 0), (204, 1), (77, 5), (117, 8), (215, 0), (181, 2), (82, 10), (25, 8), (147, 6), (218, 1), (219, 3)]
4	2	1	8	33	[(184, 1), (81, 7), (54, 10), (105, 9), (202, 7), (113, 6), (19, 7), (128, 4), (78, 4), (143, 5), (69, 5), (201, 0), (14, 8), (212, 7), (152, 8), (162, 3), (226, 9), (140, 0), (189, 6), (30, 9), (221, 7), (37, 8), (193, 9), (216, 8), (133, 7), (200, 0), (139, 3), (59, 8), (190, 6), (52, 7), (142, 1), (11, 4), (237, 10)]
5	90	1	8	39	[(93, 5), (135, 0), (57, 3), (14, 2), (249, 3), (97, 3), (209, 3), (189, 5), (182, 6), (165, 9), (91, 7), (68, 1), (161, 8), (120, 3), (224, 4), (47, 6), (95, 6), (83, 9), (6, 0), (216, 8), (147, 2), (162, 6), (42, 2), (240, 3), (103, 10), (158, 8), (27, 9), (99, 3), (102, 0), (175, 5), (116, 6), (145, 8), (192, 2), (52, 9), (20, 1), (65, 7), (34, 5), (213, 3), (107, 0)]
6	1	1	8	38	[(92, 0), (204, 5), (126, 8), (148, 0), (2, 3), (74, 10), (142, 6), (14, 9), (187, 4), (23, 3), (215, 3), (54, 2), (224, 0), (237, 5), (17, 2), (101, 3), (120, 6), (175, 4), (178, 8), (79, 1), (236, 1), (50, 10), (163, 2), (108, 5), (168, 8), (219, 7), (214, 8), (193, 1), (164, 10), (15, 9), (102, 6), (63, 7), (111, 3), (229, 3), (81, 0), (97, 4), (40, 5), (104, 5)]
7	1	6	8	34	[(221, 5), (174, 6), (225, 7), (87, 8), (91, 0), (119, 0), (160, 7), (232, 3), (52, 8), (238, 4), (176, 0), (208, 1), (180, 8), (31, 5), (116, 1), (40, 2), (200, 0), (134, 9), (10, 6), (89, 2), (165, 6), (196, 0), (122, 6), (20, 9), (247, 10), (12, 1), (148, 5), (193, 10), (212, 6), (103, 7), (53, 3), (154, 1), (79, 8), (144, 8)]
8	1	1	8	42	[(247, 6), (31, 4), (154, 6), (181, 10), (234, 8), (45, 7), (25, 4), (233, 3), (108, 10), (57, 10), (215, 8), (81, 6), (39, 9), (185, 8), (145, 1), (198, 5), (137, 7), (157, 4), (159, 9), (102, 6), (176, 2), (163, 4), (124, 9), (66, 7), (207, 7), (119, 7), (158, 2), (219, 1), (107, 9), (162, 3), (95, 10), (58, 6), (98, 1), (141, 9), (4, 4), (201, 4), (85, 10), (32, 10), (133, 1), (86, 0), (21, 1), (83, 0)]
9	2	1	8	32	[(195, 9), (96, 2), (184, 6), (135, 0), (31, 1), (147, 3), (118, 7), (122, 6), (162, 6), (178, 5), (90, 9), (186, 8), (114, 4), (237, 5), (13, 8), (127, 5), (244, 5), (8, 10), (125, 2), (64, 3), (83, 4), (164, 7), (73, 5), (82, 5), (202, 3), (42, 4), (47, 7), (154, 5), (199, 3), (168, 7), (238, 1), (227, 4)]
10	2	1	8	32	[(99, 7), (35, 6), (180, 1), (133, 8), (136, 4), (71, 10), (246, 5), (117, 6), (9, 10), (130, 2), (56, 6), (235, 6), (199, 6), (70, 2), (210, 3), (65, 3), (185, 2), (122, 1), (28, 0), (25, 8), (5, 1), (145, 10), (178, 5), (232, 5), (88, 4), (226, 1), (87, 3), (168, 8), (114, 1), (38, 5), (121, 0), (18, 6)]
11	1	1	8	38	[(131, 6), (6, 7), (103, 10), (57, 6), (187, 8), (46, 3), (188, 10), (67, 6), (5, 9), (146, 2), (173, 3), (101, 8), (21, 2), (98, 4), (50, 5), (86, 0), (163, 10), (71, 7), (176, 6), (235, 5), (65, 10), (233, 7), (172, 6), (180, 10), (160, 7), (32, 4), (204, 3), (38, 8), (249, 7), (166, 7), (69, 2), (133, 7), (95, 9), (105, 0), (70, 2), (91, 0), (218, 1), (25, 7)]
12	5	3	4	31	[(176, 8), (139, 8), (226, 2), (123, 0), (39, 3), (61, 6), (223, 1), (27, 10), (173, 3), (84, 8), (157, 6), (150, 6), (181, 8), (169, 7), (204, 9), (199, 8), (179, 1), (71, 8), (62, 6), (56, 4), (203, 3), (60, 6), (198, 3), (140, 10), (162, 7), (232, 2), (79, 4), (130, 3), (243, 0), (45, 8), (241, 9)]
13	13	4	8	37	[(27, 0), (193, 4), (61, 2), (7, 1), (225, 9), (101, 7), (60, 3), (198, 4), (136, 1), (82, 6), (139, 1), (76, 8), (133, 6), (189, 8), (10, 10), (186, 3), (110, 9), (231, 2), (64, 10), (81, 6), (88, 9), (185, 10), (34, 1), (220, 7), (120, 10), (97, 10), (56, 7), (3, 4), (162, 8), (183, 5), (149, 3), (238, 4), (100, 4), (114, 0), (24, 10), (98, 10), (171, 1)]
14	2	4	8	31	[(30, 1), (81, 9), (180, 5), (218, 7), (56, 7), (163, 6), (67, 6), (122, 1), (77, 8), (246, 6), (21, 1), (222, 8), (219, 1), (199, 1), (27, 4), (242, 7), (91, 8), (193, 3), (97, 0), (68, 0), (106, 4), (238, 3), (118, 8), (190, 5), (113, 4), (143, 0), (209, 0), (15, 2), (14, 3), (24, 8), (158, 10)]
15	2	1	15	41	[(91, 6), (170, 4), (34, 5), (75, 5), (220, 6), (50, 8), (248, 4), (140, 6), (48, 8), (245, 0), (110, 6), (198, 4), (234, 3), (113, 1), (20, 9), (84, 3), (108, 6), (90, 9), (250, 3), (128, 8), (155, 2), (223, 6), (32, 2), (237, 1), (99, 9), (177, 3), (148, 8), (144, 9), (24, 4), (200, 10), (207, 9), (97, 0), (107, 7), (236, 7), (123, 10), (63, 6), (1, 5), (181, 9), (134, 7), (174, 8), (40, 1)]
16	4	1	8	34	[(168, 0), (118, 6), (230, 6), (36, 10), (179, 4), (146, 0), (110, 6), (96, 5), (248, 7), (170, 1), (98, 3), (54, 8), (43, 8), (208, 7), (113, 8), (35, 1), (137, 7), (144, 6), (228, 0), (44, 8), (31, 1), (196, 4), (215, 4), (140, 6), (38, 7), (16, 8), (84, 8), (41, 0), (34, 10), (121, 5), (202, 1), (40, 2), (164, 0), (70, 6)]
17	4	1	1	37	[(61, 8), (84, 9), (133, 4), (95, 0), (88, 7), (134, 7), (130, 10), (172, 4), (79, 5), (235, 6), (20, 10), (183, 2), (155, 3), (211, 2), (157, 1), (19, 4), (37, 2), (233, 1), (173, 2), (2, 6), (234, 10), (51, 0), (193, 3), (209, 3), (113, 3), (41, 7), (195, 10), (122, 10), (241, 1), (164, 2), (15, 8), (26, 7), (176, 3), (145, 7), (23, 6), (96, 0), (104, 2)]
18	1	1	8	34	[(23, 3), (123, 9), (185, 2), (206, 0), (246, 7), (227, 5), (105, 1), (57, 6), (147, 3), (32, 2), (193, 2), (58, 0), (102, 4), (219, 4), (6, 4), (77, 7), (201, 4), (44, 9), (20, 10), (148, 8), (160, 9), (241, 5), (99, 3), (121, 3), (51, 5), (91, 7), (8, 2), (194, 5), (170, 2), (165, 9), (172, 7), (115, 8), (107, 1), (215, 4)]
19	2	1	8	46	[(173, 10), (30, 2), (126, 2), (120, 1), (60, 6), (74, 7), (142, 6), (206, 6), (195, 10), (66, 5), (29, 6), (127, 8), (73, 8), (162, 2), (156, 8), (87, 6), (234, 3), (122, 0), (178, 10), (172, 6), (91, 10), (197, 2), (130, 0), (83, 1), (112, 1), (244, 3), (151, 0), (47, 4), (52, 8), (28, 0), (180, 5), (51, 4), (176, 1), (154, 6), (183, 7), (227, 0), (109, 7), (13, 3), (31, 8), (16, 10), (1, 0), (71, 0), (249, 3), (153, 6), (237, 1), (241, 0)]
20	3	1	8	29	[(240, 10), (223, 1), (92, 2), (215, 8), (180, 0), (209, 1), (150, 6), (140, 6), (165, 0), (138, 7), (23, 7), (57, 7), (35, 9), (14, 0), (8, 1), (129, 0), (12, 8), (16, 4), (72, 9), (205, 10), (42, 0), (237, 9), (67, 9), (210, 6), (69, 2), (48, 1), (207, 1), (135, 5), (123, 2)]
21	1	4	8	35	[(137, 4), (90, 3), (162, 8), (123, 10), (229, 7), (30, 3), (56, 10), (173, 10), (48, 9), (175, 10), (51, 1), (139, 2), (69, 4), (233, 0), (21, 5), (168, 2), (239, 0), (19, 0), (25, 0), (13, 6), (94, 9), (6, 3), (79, 1), (193, 9), (132, 4), (144, 2), (226, 0), (76, 3), (220, 3), (37, 8), (119, 0), (240, 0), (106, 1), (81, 0), (242, 7)]
22	94	1	8	43	[(249, 6), (141, 7), (51, 1), (143, 7), (84, 8), (195, 3), (145, 6), (90, 6), (177, 2), (150, 6), (158, 5), (26, 6), (216, 1), (56, 9), (173, 0), (101, 8), (237, 0), (231, 6), (104, 9), (14, 3), (134, 1), (55, 5), (230, 3), (118, 4), (81, 2), (68, 0), (223, 7), (6, 9), (73, 5), (49, 1), (138, 9), (44, 3), (54, 10), (228, 9), (139, 3), (113, 4), (13, 6), (100, 8), (48, 6), (233, 4), (182, 6), (12, 10), (106, 7)]
23	2	1	16	33	[(37, 4), (46, 7), (200, 5), (182, 5), (31, 10), (230, 6), (28, 5), (11, 3), (86, 9), (99, 4), (40, 5), (52, 2), (84, 8), (85, 1), (130, 2), (127, 7), (123, 1), (174, 7), (248, 1), (64, 6), (186, 7), (178, 6), (162, 9), (122, 8), (19, 2), (221, 7), (25, 2), (22, 1), (87, 2), (73, 4), (117, 8), (74, 3), (220, 5)]
24	3	1	8	29	[(195, 10), (212, 5), (127, 0), (100, 3), (85, 0), (125, 6), (233, 0), (95, 1), (36, 3), (162, 1), (130, 3), (59, 9), (206, 10), (169, 10), (40, 4), (171, 0), (80, 0), (232, 8), (159, 2), (20, 1), (31, 6), (56, 6), (70, 2), (4, 6), (18, 10), (2, 8), (112, 5), (219, 4), (16, 1)]
25	24	2	8	31	[(103, 2), (68, 10), (141, 4), (53, 1), (107, 1), (82, 10), (250, 10), (247, 8), (138, 2), (85, 1), (49, 3), (42, 0), (60, 8), (131, 2), (219, 7), (92, 10), (26, 3), (158, 10), (189, 3), (57, 1), (212, 8), (175, 8), (169, 7), (111, 7), (51, 6), (132, 4), (155, 4), (67, 5), (167, 10), (109, 7), (241, 2)]
26	2	1	8	33	[(203, 0), (43, 9), (144, 8), (199, 0), (44, 5), (76, 5), (114, 6), (184, 1), (186, 2), (34, 3), (128, 1), (235, 3), (104, 7), (204, 6), (246, 3), (20, 0), (245, 3), (51, 9), (176, 9), (100, 2), (13, 2), (231, 10), (37, 7), (64, 7), (142, 2), (5, 6), (191, 8), (187, 7), (152, 8), (106, 6), (164, 3), (207, 10), (81, 5)]
27	25	1	8	29	[(149, 10), (23, 6), (49, 1), (197, 10), (170, 2), (181, 2), (125, 2), (31, 9), (153, 8), (227, 10), (116, 3), (204, 2), (166, 4), (219, 1), (94, 2), (32, 7), (19, 5), (129, 2), (159, 3), (173, 2), (184, 4), (144, 10), (76, 8), (180, 9), (53, 5), (122, 4), (75, 10), (69, 6), (93, 0)]
28	3	2	8	28	[(235, 5), (237, 9), (67, 1), (60, 7), (233, 5), (213, 10), (180, 5), (95, 0), (246, 7), (184, 2), (98, 2), (240, 0), (232, 10), (73, 5), (31, 2), (193, 0), (160, 0), (18, 7), (227, 4), (219, 6), (179, 4), (9, 7), (100, 7), (76, 3), (120, 2), (217, 8), (28, 7), (203, 0)]
29	2	1	8	48	[(112, 0), (132, 6), (211, 3), (21, 7), (174, 4), (87, 8), (89, 4), (215, 9), (61, 9), (162, 3), (111, 3), (139, 10), (208, 9), (110, 8), (233, 4), (172, 2), (171, 5), (185, 5), (163, 6), (63, 3), (28, 4), (184, 9), (159, 3), (65, 5), (131, 4), (239, 7), (150, 6), (82, 3), (200, 1), (85, 0), (219, 6), (62, 6), (151, 4), (143, 5), (104, 9), (95, 5), (15, 9), (23, 6), (76, 1), (222, 8), (88, 5), (40, 6), (225, 7), (226, 0), (18, 5), (81, 8), (113, 1), (242, 2)]
30	3	1	8	35	[(219, 2), (33, 2), (203, 8), (1, 10), (120, 6), (62, 0), (176, 3), (11, 0), (192, 7), (103, 4), (142, 6), (217, 0), (38, 9), (237, 0), (9, 10), (113, 5), (124, 5), (19, 8), (110, 0), (206, 9), (57, 9), (157, 8), (145, 9), (140, 2), (2, 9), (121, 2), (195, 3), (153, 9), (205, 2), (155, 6), (161, 7), (15, 7), (47, 6), (216, 8), (77, 6)]
31	10	1	8	39	[(131, 8), (27, 10), (222, 10), (9, 1), (185, 1), (137, 9), (56, 7), (234, 4), (5, 2), (52, 0), (159, 9), (60, 2), (71, 10), (7, 0), (47, 0), (39, 7), (54, 10), (31, 4), (108, 5), (180, 4), (226, 1), (84, 4), (81, 9), (96, 6), (50, 6), (16, 5), (77, 3), (148, 7), (212, 4), (92, 3), (173, 0), (124, 7), (143, 4), (193, 1), (216, 10), (20, 2), (34, 8), (158, 7), (101, 2)]
32	12	4	8	37	[(196, 4), (113, 5), (209, 5), (222, 0), (3, 8), (2, 0), (217, 10), (181, 2), (86, 9), (132, 2), (158, 9), (247, 0), (248, 1), (73, 1), (208, 3), (151, 4), (64, 3), (50, 10), (121, 10), (59, 2), (187, 2), (104, 4), (7, 1), (120, 6), (33, 3), (102, 0), (154, 2), (145, 4), (130, 1), (74, 5), (236, 8), (141, 9), (127, 9), (37, 8), (90, 1), (122, 3), (72, 6)]
33	1	1	16	29	[(170, 6), (73, 0), (113, 7), (249, 10), (62, 10), (120, 6), (92, 1), (10, 9), (107, 6), (180, 1), (190, 4), (197, 5), (216, 7), (112, 10), (205, 9), (121, 0), (194, 6), (50, 0), (93, 6), (66, 7), (90, 8), (126, 0), (86, 3), (18, 9), (7, 6), (173, 1), (87, 3), (174, 4), (220, 10)]
34	59	1	16	43	[(55, 7), (242, 4), (209, 8), (76, 9), (234, 4), (221, 9), (178, 9), (225, 3), (152, 6), (128, 10), (248, 5), (240, 3), (38, 5), (9, 2), (90, 0), (137, 9), (214, 7), (93, 10), (98, 3), (243, 5), (194, 7), (59, 6), (200, 1), (19, 3), (174, 7), (69, 9), (37, 6), (61, 4), (179, 9), (206, 7), (172, 7), (124, 1), (43, 7), (176, 2), (96, 10), (211, 10), (195, 4), (125, 7), (81, 5), (196, 7), (220, 8), (48, 8), (173, 4)]
35	1	8	8	35	[(122, 7), (1, 3), (246, 6), (107, 3), (80, 0), (100, 2), (144, 7), (146, 0), (28, 4), (189, 1), (118, 1), (161, 3), (16, 4), (91, 6), (102, 5), (129, 0), (233, 8), (148, 4), (225, 9), (38, 3), (237, 7), (109, 10), (70, 8), (138, 6), (231, 2), (114, 7), (244, 5), (229, 5), (52, 9), (209, 3), (105, 9), (176, 1), (12, 5), (47, 7), (202, 0)]
36	16	1	8	33	[(35, 3), (121, 1), (106, 7), (163, 8), (43, 3), (40, 10), (232, 3), (247, 6), (138, 7), (27, 10), (45, 2), (31, 1), (183, 4), (46, 4), (99, 7), (151, 0), (249, 8), (139, 1), (75, 6), (156, 8), (32, 9), (144, 0), (116, 9), (222, 6), (79, 10), (197, 2), (4, 9), (101, 10), (178, 0), (104, 8), (196, 8), (133, 10), (204, 4)]
37	1	1	8	25	[(76, 1), (68, 6), (99, 3), (45, 1), (227, 5), (135, 0), (134, 4), (57, 6), (78, 5), (185, 8), (89, 8), (231, 10), (118, 4), (40, 2), (138, 2), (236, 2), (219, 7), (42, 1), (24, 3), (190, 2), (207, 2), (115, 3), (16, 5), (130, 6), (206, 7)]
38	1	1	8	28	[(28, 3), (250, 10), (95, 9), (191, 9), (54, 5), (1, 10), (67, 9), (143, 6), (26, 4), (29, 7), (7, 9), (202, 1), (156, 2), (80, 0), (201, 7), (169, 6), (115, 8), (20, 10), (30, 6), (133, 5), (51, 8), (203, 9), (53, 2), (98, 9), (177, 2), (155, 6), (136, 7), (247, 5)]
39	1	2	8	36	[(160, 7), (65, 9), (175, 1), (127, 5), (4, 7), (218, 6), (87, 0), (184, 8), (225, 6), (215, 4), (33, 7), (210, 4), (132, 9), (130, 3), (67, 6), (66, 5), (235, 0), (208, 0), (188, 1), (23, 2), (133, 1), (149, 7), (148, 7), (38, 8), (15, 8), (106, 0), (128, 8), (103, 4), (167, 6), (223, 1), (76, 9), (45, 4), (198, 2), (95, 10), (102, 9), (57, 0)]
40	1	1	8	34	[(19, 5), (160, 4), (20, 9), (72, 1), (238, 8), (73, 1), (178, 3), (161, 4), (206, 10), (15, 6), (133, 1), (60, 4), (108, 10), (236, 1), (189, 7), (204, 10), (118, 1), (10, 10), (245, 10), (66, 5), (186, 0), (70, 3), (74, 4), (137, 3), (196, 0), (210, 8), (219, 3), (134, 0), (62, 3), (116, 5), (29, 5), (209, 0), (131, 0), (122, 10)]
41	6	1	8	34	[(51, 6), (230, 9), (136, 8), (11, 3), (178, 9), (76, 6), (74, 5), (61, 10), (152, 0), (30, 1), (118, 6), (121, 5), (102, 1), (239, 5), (245, 7), (133, 9), (128, 5), (215, 6), (57, 10), (54, 8), (29, 9), (85, 8), (214, 2), (126, 5), (35, 0), (233, 0), (175, 2), (72, 2), (41, 10), (25, 4), (82, 7), (173, 6), (217, 4), (65, 10)]
42	1	4	8	41	[(27, 2), (170, 0), (138, 5), (211, 5), (67, 6), (46, 8), (50, 7), (61, 7), (65, 6), (36, 9), (213, 4), (129, 0), (125, 7), (214, 1), (204, 9), (11, 0), (68, 7), (131, 7), (135, 9), (181, 3), (5, 5), (105, 3), (140, 5), (157, 9), (158, 5), (151, 3), (163, 0), (209, 4), (223, 0), (199, 0), (10, 2), (85, 10), (142, 6), (95, 5), (219, 8), (177, 2), (241, 1), (40, 1), (197, 0), (212, 8), (34, 8)]
43	2	2	8	41	[(96, 9), (168, 10), (25, 7), (13, 9), (113, 8), (18, 6), (34, 3), (211, 6), (62, 8), (192, 4), (92, 9), (104, 5), (63, 5), (176, 2), (139, 2), (78, 0), (135, 10), (119, 2), (161, 9), (146, 1), (112, 6), (52, 6), (43, 4), (238, 8), (198, 5), (98, 6), (33, 2), (75, 3), (236, 9), (131, 2), (170, 8), (65, 6), (16, 4), (6, 5), (14, 6), (39, 8), (169, 3), (203, 8), (10, 6), (230, 0), (194, 3)]
44	1	1	24	29	[(224, 2), (220, 6), (47, 8), (221, 10), (136, 4), (209, 5), (192, 6), (126, 7), (49, 3), (118, 4), (166, 5), (6, 5), (242, 2), (60, 0), (127, 10), (21, 6), (132, 9), (77, 7), (205, 9), (141, 4), (243, 3), (216, 6), (133, 10), (146, 1), (250, 10), (95, 1), (102, 10), (121, 7), (151, 2)]
45	11	4	8	32	[(47, 7), (76, 10), (110, 5), (232, 5), (163, 5), (36, 4), (129, 7), (85, 10), (49, 10), (20, 1), (209, 2), (140, 1), (58, 10), (10, 8), (26, 4), (211, 7), (103, 5), (73, 4), (25, 1), (113, 3), (28, 7), (22, 10), (112, 7), (148, 0), (181, 7), (208, 3), (203, 9), (175, 8), (169, 5), (46, 0), (95, 4), (237, 0)]
46	4	10	8	34	[(190, 1), (68, 9), (58, 3), (222, 0), (19, 1), (1, 7), (120, 10), (56, 1), (14, 2), (169, 8), (239, 7), (85, 8), (132, 5), (126, 7), (199, 7), (37, 0), (125, 1), (155, 5), (114, 1), (21, 9), (226, 4), (141, 7), (119, 7), (124, 2), (25, 5), (234, 8), (3, 0), (230, 5), (198, 9), (136, 0), (99, 6), (229, 7), (81, 4), (228, 10)]
47	1	1	8	33	[(237, 4), (148, 3), (18, 7), (241, 9), (97, 5), (121, 9), (170, 0), (117, 5), (51, 4), (85, 9), (209, 1), (31, 7), (83, 9), (9, 3), (96, 1), (247, 2), (229, 6), (173, 7), (126, 1), (145, 3), (41, 8), (95, 9), (146, 8), (68, 6), (71, 7), (100, 6), (208, 5), (42, 10), (10, 0), (90, 8), (78, 7), (80, 5), (35, 8)]
48	5	2	8	29	[(62, 0), (29, 4), (65, 1), (59, 9), (46, 3), (157, 3), (145, 1), (247, 2), (164, 4), (176, 8), (24, 7), (122, 6), (118, 3), (43, 9), (95, 4), (35, 10), (224, 3), (23, 4), (210, 5), (56, 4), (42, 4), (228, 4), (37, 8), (66, 0), (229, 10), (248, 7), (47, 5), (183, 10), (115, 8)]
49	5	1	8	34	[(149, 4), (144, 8), (72, 0), (189, 5), (24, 8), (146, 8), (184, 7), (6, 3), (140, 9), (27, 8), (83, 7), (109, 10), (68, 5), (21, 8), (100, 1), (30, 4), (111, 2), (9, 5), (206, 10), (35, 8), (101, 5), (173, 0), (141, 6), (56, 3), (82, 4), (211, 0), (125, 8), (39, 4), (220, 5), (170, 8), (233, 8), (81, 9), (51, 3), (1, 6)]
50	1	1	32	40	[(133, 3), (32, 7), (108, 1), (9, 10), (75, 7), (48, 7), (178, 4), (119, 9), (190, 3), (215, 9), (3, 10), (131, 1), (162, 4), (167, 1), (27, 5), (80, 4), (214, 7), (180, 7), (69, 6), (120, 7), (143, 3), (17, 9), (213, 7), (203, 7), (184, 1), (232, 2), (51, 0), (249, 4), (122, 9), (35, 6), (31, 1), (221, 5), (34, 8), (42, 1), (73, 1), (53, 5), (186, 9), (123, 0), (81, 1), (1, 7)]
51	1	1	8	37	[(88, 1), (38, 3), (240, 8), (98, 7), (15, 0), (34, 4), (202, 6), (95, 1), (163, 2), (162, 10), (225, 7), (230, 5), (48, 3), (80, 9), (47, 7), (26, 6), (44, 4), (173, 3), (218, 3), (1, 10), (27, 6), (172, 0), (25, 2), (51, 2), (156, 10), (184, 8), (194, 8), (164, 5), (23, 8), (59, 9), (85, 2), (168, 1), (193, 5), (105, 2), (45, 2), (223, 0), (5, 2)]
52	2	2	8	49	[(228, 5), (143, 0), (221, 10), (181, 3), (234, 9), (169, 2), (173, 9), (226, 6), (244, 8), (53, 8), (191, 3), (154, 8), (203, 3), (59, 10), (25, 4), (101, 5), (12, 9), (8, 7), (248, 2), (132, 5), (146, 3), (28, 7), (159, 8), (241, 6), (38, 2), (212, 9), (96, 3), (60, 5), (214, 3), (213, 7), (42, 8), (145, 4), (222, 5), (24, 10), (93, 10), (6, 8), (103, 10), (220, 3), (11, 4), (246, 2), (247, 3), (250, 3), (104, 9), (109, 10), (22, 9), (204, 6), (164, 1), (205, 6), (166, 2)]
53	2	1	8	35	[(178, 0), (30, 1), (111, 2), (55, 8), (60, 2), (193, 8), (16, 7), (81, 6), (182, 5), (110, 2), (53, 4), (3, 8), (213, 1), (91, 6), (156, 0), (138, 5), (188, 1), (200, 10), (46, 1), (201, 7), (165, 2), (223, 1), (205, 2), (237, 0), (88, 3), (122, 10), (4, 10), (74, 1), (236, 3), (56, 1), (92, 7), (190, 4), (28, 5), (135, 4), (164, 2)]
54	1	1	8	37	[(15, 7), (220, 2), (24, 1), (193, 4), (217, 3), (40, 9), (25, 2), (163, 9), (174, 2), (74, 4), (83, 2), (71, 0), (211, 3), (166, 1), (192, 0), (99, 7), (89, 0), (245, 9), (113, 1), (26, 9), (32, 7), (203, 5), (249, 8), (46, 1), (148, 7), (243, 3), (155, 0), (246, 10), (238, 5), (55, 6), (75, 5), (231, 6), (54, 1), (39, 6), (126, 3), (51, 0), (236, 2)]
55	4	1	8	33	[(222, 3), (208, 5), (93, 8), (212, 2), (228, 9), (53, 9), (15, 1), (159, 4), (151, 4), (115, 7), (236, 7), (30, 3), (86, 6), (27, 0), (97, 0), (95, 5), (2, 8), (109, 9), (219, 7), (153, 10), (181, 2), (60, 7), (156, 9), (54, 8), (44, 7), (167, 1), (19, 6), (66, 4), (224, 3), (211, 6), (145, 7), (122, 2), (11, 3)]
56	11	4	8	36	[(64, 0), (82, 6), (23, 4), (200, 6), (216, 3), (83, 6), (16, 2), (241, 1), (63, 3), (167, 6), (41, 6), (214, 10), (109, 2), (204, 4), (97, 1), (239, 1), (144, 1), (59, 10), (98, 1), (92, 0), (15, 8), (111, 4), (206, 3), (93, 8), (181, 6), (212, 7), (243, 4), (45, 8), (67, 9), (70, 2), (174, 2), (9, 8), (132, 9), (27, 3), (192, 5), (189, 0)]
57	2	1	8	36	[(94, 2), (59, 8), (65, 7), (234, 4), (165, 1), (180, 3), (152, 1), (114, 8), (154, 3), (46, 0), (131, 3), (126, 2), (197, 10), (99, 9), (90, 9), (143, 9), (106, 0), (117, 0), (144, 4), (190, 3), (69, 10), (245, 10), (155, 1), (196, 3), (149, 4), (205, 7), (10, 3), (120, 5), (159, 4), (242, 2), (6, 5), (215, 2), (178, 2), (112, 7), (48, 5), (108, 9)]
58	8	3	1	36	[(94, 7), (234, 7), (44, 1), (53, 5), (106, 6), (96, 0), (56, 5), (224, 9), (156, 5), (29, 7), (245, 3), (88, 1), (206, 10), (16, 9), (232, 4), (131, 9), (186, 0), (146, 6), (75, 3), (179, 9), (189, 0), (199, 6), (123, 6), (138, 8), (184, 9), (25, 6), (229, 0), (11, 5), (237, 1), (210, 4), (150, 1), (101, 8), (67, 9), (36, 9), (17, 4), (241, 7)]
59	4	1	8	31	[(6, 10), (25, 6), (26, 2), (101, 4), (149, 9), (213, 4), (214, 1), (108, 1), (175, 8), (245, 0), (83, 10), (94, 5), (181, 5), (1, 4), (124, 0), (227, 6), (159, 8), (145, 10), (205, 2), (9, 4), (120, 10), (66, 10), (129, 6), (46, 9), (168, 3), (90, 10), (14, 1), (223, 4), (15, 3), (139, 4), (104, 9)]
60	3	1	32	30	[(54, 0), (90, 2), (154, 10), (35, 0), (247, 6), (155, 6), (225, 10), (20, 9), (59, 6), (156, 1), (32, 10), (188, 1), (101, 6), (139, 8), (2, 9), (91, 0), (66, 3), (98, 1), (157, 1), (196, 9), (213, 10), (119, 0), (77, 8), (37, 0), (202, 5), (240, 7), (127, 5), (108, 8), (106, 0), (22, 0)]
61	1	1	8	35	[(199, 4), (87, 5), (86, 2), (225, 3), (11, 10), (149, 1), (163, 7), (147, 1), (113, 2), (224, 9), (21, 0), (137, 10), (151, 8), (57, 10), (191, 3), (157, 5), (69, 8), (18, 9), (125, 3), (4, 2), (106, 8), (131, 3), (159, 0), (1, 1), (14, 8), (230, 3), (247, 1), (211, 3), (107, 1), (55, 9), (178, 5), (105, 0), (36, 1), (141, 10), (139, 2)]
62	8	4	8	33	[(29, 9), (223, 2), (227, 8), (53, 10), (135, 4), (79, 1), (101, 2), (8, 6), (178, 7), (202, 6), (237, 2), (225, 8), (125, 7), (18, 0), (54, 5), (11, 0), (165, 8), (111, 7), (22, 5), (249, 3), (194, 10), (160, 8), (248, 8), (16, 4), (76, 6), (179, 1), (46, 9), (219, 8), (49, 9), (9, 6), (40, 3), (218, 9), (173, 10)]
63	1	1	8	37	[(136, 6), (32, 4), (112, 8), (134, 0), (71, 0), (230, 3), (102, 5), (224, 5), (172, 2), (111, 2), (72, 9), (179, 10), (223, 9), (100, 1), (5, 2), (159, 7), (232, 6), (124, 2), (151, 9), (227, 9), (213, 4), (244, 5), (75, 5), (113, 3), (203, 3), (85, 7), (200, 3), (239, 3), (183, 1), (126, 10), (121, 4), (18, 2), (108, 5), (192, 4), (234, 3), (68, 3), (237, 2)]
64	1	4	8	32	[(211, 2), (71, 5), (164, 6), (223, 2), (63, 3), (216, 1), (96, 6), (233, 0), (193, 5), (162, 3), (27, 3), (4, 0), (140, 2), (62, 5), (155, 4), (130, 4), (98, 8), (189, 6), (7, 3), (147, 1), (91, 3), (45, 10), (213, 10), (93, 5), (49, 6), (157, 0), (184, 8), (108, 1), (97, 10), (199, 0), (246, 0), (171, 8)]
65	1	1	8	25	[(62, 9), (183, 5), (195, 1), (211, 3), (149, 1), (38, 6), (88, 5), (155, 1), (234, 3), (53, 4), (169, 0), (126, 6), (141, 10), (20, 1), (23, 6), (140, 10), (102, 0), (187, 3), (185, 6), (241, 3), (207, 7), (73, 6), (250, 9), (90, 4), (7, 2)]
66	1	1	8	22	[(182, 6), (117, 1), (241, 7), (223, 10), (12, 7), (164, 6), (94, 6), (248, 6), (148, 0), (43, 1), (98, 8), (20, 6), (156, 5), (105, 0), (240, 8), (214, 8), (150, 6), (215, 9), (206, 7), (99, 4), (229, 7), (181, 2)]
67	2	1	8	42	[(189, 4), (214, 9), (160, 6), (56, 1), (75, 7), (94, 0), (128, 6), (90, 7), (183, 9), (225, 5), (125, 9), (226, 4), (84, 7), (50, 4), (97, 9), (80, 0), (195, 3), (144, 0), (53, 5), (239, 9), (63, 5), (38, 5), (124, 6), (83, 4), (89, 10), (35, 7), (5, 1), (228, 10), (115, 4), (219, 9), (201, 3), (173, 4), (215, 8), (111, 2), (204, 1), (187, 5), (60, 3), (156, 5), (88, 8), (87, 6), (165, 5), (103, 0)]
68	8	1	8	36	[(172, 7), (136, 5), (248, 0), (249, 1), (41, 9), (54, 1), (15, 0), (226, 10), (110, 9), (170, 9), (150, 7), (24, 4), (215, 6), (148, 7), (58, 7), (231, 0), (214, 5), (163, 0), (90, 2), (14, 10), (77, 6), (87, 10), (125, 7), (205, 4), (128, 9), (94, 4), (46, 4), (106, 8), (113, 0), (177, 2), (96, 10), (104, 2), (206, 1), (185, 2), (238, 0), (100, 1)]
69	1	1	8	28	[(234, 8), (76, 0), (17, 10), (117, 6), (151, 7), (204, 9), (202, 9), (12, 5), (148, 4), (13, 0), (218, 7), (173, 8), (46, 1), (89, 6), (48, 2), (50, 0), (109, 2), (51, 4), (66, 8), (23, 0), (37, 10), (84, 1), (219, 8), (189, 8), (126, 9), (199, 7), (167, 6), (205, 10)]
70	8	1	8	41	[(21, 3), (189, 1), (7, 6), (10, 7), (73, 1), (211, 8), (61, 8), (111, 10), (249, 2), (216, 6), (213, 2), (125, 4), (212, 6), (107, 2), (40, 4), (19, 9), (225, 10), (42, 4), (167, 7), (1, 2), (119, 2), (36, 6), (87, 9), (15, 7), (141, 1), (45, 1), (219, 1), (184, 4), (142, 3), (78, 10), (57, 8), (246, 0), (13, 2), (79, 6), (194, 4), (75, 5), (160, 5), (12, 10), (206, 3), (179, 6), (74, 4)]
71	1	1	8	32	[(166, 7), (68, 1), (59, 8), (153, 10), (45, 7), (66, 2), (13, 8), (122, 2), (116, 2), (109, 4), (199, 1), (24, 5), (33, 10), (224, 4), (233, 10), (151, 0), (225, 7), (87, 0), (56, 4), (127, 5), (168, 6), (149, 3), (239, 0), (46, 0), (21, 8), (6, 6), (37, 5), (74, 2), (55, 9), (61, 2), (102, 6), (201, 7)]
72	1	1	8	30	[(80, 2), (128, 4), (20, 7), (200, 10), (189, 8), (39, 1), (50, 0), (109, 8), (8, 2), (182, 9), (206, 3), (42, 6), (176, 1), (23, 5), (38, 10), (127, 6), (108, 0), (249, 0), (144, 5), (36, 7), (79, 9), (117, 6), (214, 1), (112, 10), (202, 3), (47, 10), (44, 0), (185, 7), (24, 10), (87, 5)]
73	2	1	8	28	[(103, 9), (77, 8), (204, 6), (165, 6), (141, 6), (84, 6), (92, 1), (129, 6), (247, 3), (209, 5), (238, 9), (246, 10), (224, 4), (41, 3), (107, 7), (34, 8), (192, 5), (127, 4), (137, 5), (234, 8), (237, 5), (133, 4), (130, 9), (144, 5), (64, 0), (38, 4), (148, 10), (126, 7)]
74	2	1	8	41	[(124, 2), (9, 4), (167, 0), (250, 9), (193, 5), (195, 4), (119, 1), (209, 8), (121, 1), (90, 2), (45, 8), (166, 0), (225, 1), (200, 2), (207, 4), (56, 6), (57, 8), (19, 10), (227, 7), (132, 4), (104, 10), (117, 5), (157, 1), (76, 6), (234, 5), (4, 1), (71, 7), (77, 8), (176, 1), (247, 8), (68, 3), (145, 4), (89, 2), (113, 6), (222, 8), (81, 2), (107, 8), (29, 0), (158, 7), (204, 8), (245, 10)]
75	1	6	2	37	[(123, 5), (41, 9), (193, 9), (131, 6), (209, 5), (72, 6), (16, 1), (161, 0), (38, 7), (67, 2), (22, 10), (80, 7), (222, 10), (126, 4), (159, 2), (2, 2), (165, 3), (150, 9), (147, 3), (194, 9), (166, 4), (90, 8), (27, 5), (214, 8), (149, 2), (81, 4), (125, 10), (117, 2), (61, 7), (42, 7), (86, 4), (109, 4), (15, 8), (171, 1), (30, 5), (155, 1), (9, 4)]
76	3	1	8	46	[(204, 5), (99, 5), (29, 3), (186, 9), (132, 7), (148, 1), (202, 3), (157, 6), (30, 6), (107, 10), (72, 0), (173, 6), (40, 3), (35, 4), (89, 0), (111, 1), (231, 8), (64, 5), (95, 0), (212, 7), (63, 7), (76, 9), (141, 4), (131, 4), (189, 6), (110, 3), (156, 9), (223, 2), (106, 8), (19, 7), (193, 5), (118, 1), (246, 6), (2, 10), (93, 3), (117, 6), (180, 1), (232, 8), (58, 10), (154, 3), (109, 7), (83, 9), (10, 6), (14, 1), (49, 7), (211, 7)]
77	2	1	8	42	[(55, 3), (209, 6), (246, 1), (201, 4), (207, 5), (231, 1), (40, 5), (180, 2), (200, 9), (46, 8), (36, 0), (171, 6), (139, 8), (148, 4), (224, 7), (19, 4), (166, 4), (37, 7), (94, 5), (7, 4), (52, 4), (29, 4), (102, 10), (64, 4), (157, 0), (154, 10), (169, 4), (84, 7), (241, 9), (77, 6), (17, 10), (162, 1), (78, 0), (204, 2), (125, 7), (60, 2), (244, 2), (240, 6), (111, 4), (237, 0), (1, 5), (196, 0)]
78	2	1	8	36	[(156, 3), (238, 5), (33, 4), (77, 5), (7, 7), (164, 10), (26, 6), (47, 1), (123, 1), (175, 10), (120, 2), (228, 10), (52, 3), (224, 8), (233, 0), (71, 9), (239, 2), (107, 10), (250, 2), (134, 6), (139, 1), (118, 10), (136, 1), (248, 4), (112, 4), (66, 2), (214, 2), (154, 2), (59, 0), (9, 1), (128, 5), (16, 5), (80, 10), (94, 7), (103, 1), (176, 3)]
79	2	1	3	35	[(148, 10), (89, 0), (201, 4), (90, 1), (111, 8), (94, 2), (149, 8), (138, 1), (118, 4), (5, 3), (116, 7), (26, 0), (232, 5), (166, 6), (102, 5), (3, 10), (241, 4), (27, 10), (154, 5), (167, 4), (48, 5), (144, 3), (112, 3), (228, 9), (182, 5), (250, 4), (61, 7), (163, 0), (243, 7), (23, 3), (215, 9), (209, 1), (208, 4), (247, 2), (86, 4)]
80	1	1	8	30	[(109, 7), (26, 8), (121, 6), (39, 0), (149, 10), (162, 0), (202, 4), (76, 10), (217, 4), (242, 1), (200, 10), (248, 2), (134, 0), (65, 5), (151, 0), (57, 0), (188, 9), (86, 4), (43, 7), (164, 0), (131, 5), (64, 6), (163, 6), (235, 7), (168, 2), (152, 9), (227, 8), (115, 10), (75, 2), (93, 0)]
81	1	1	8	33	[(39, 4), (178, 0), (199, 0), (88, 0), (56, 7), (135, 6), (168, 3), (117, 10), (79, 2), (21, 3), (29, 2), (1, 6), (85, 4), (169, 0), (102, 5), (113, 7), (19, 5), (22, 9), (245, 2), (32, 8), (7, 7), (185, 7), (161, 8), (25, 6), (103, 7), (119, 5), (203, 9), (220, 1), (121, 3), (182, 8), (212, 4), (10, 8), (17, 3)]
82	3	1	8	34	[(54, 0), (155, 9), (196, 7), (189, 9), (22, 1), (68, 2), (123, 3), (221, 9), (71, 1), (140, 3), (181, 4), (58, 2), (148, 3), (212, 3), (121, 7), (220, 7), (149, 0), (118, 10), (201, 8), (44, 1), (137, 7), (166, 6), (105, 6), (122, 0), (110, 8), (241, 1), (159, 6), (246, 1), (160, 9), (218, 7), (108, 3), (12, 8), (170, 4), (203, 4)]
83	1	2	8	37	[(93, 2), (175, 6), (42, 2), (111, 7), (166, 6), (187, 3), (29, 8), (34, 9), (219, 6), (131, 0), (6, 0), (73, 6), (210, 8), (53, 1), (139, 7), (7, 5), (43, 7), (67, 4), (244, 2), (149, 9), (183, 6), (1, 4), (238, 2), (39, 5), (158, 8), (99, 5), (117, 5), (181, 8), (51, 8), (142, 10), (189, 2), (102, 3), (49, 1), (230, 4), (196, 5), (114, 9), (218, 7)]
84	17	1	8	42	[(220, 4), (240, 1), (102, 6), (205, 9), (228, 2), (19, 2), (216, 9), (212, 2), (124, 9), (131, 9), (171, 5), (84, 1), (8, 10), (40, 2), (167, 8), (33, 4), (178, 3), (156, 6), (226, 0), (50, 8), (125, 9), (11, 3), (140, 9), (138, 3), (9, 1), (151, 10), (103, 6), (130, 3), (90, 0), (41, 7), (85, 0), (64, 1), (38, 8), (98, 0), (170, 0), (1, 7), (26, 7), (109, 0), (58, 8), (24, 10), (237, 4), (120, 1)]
85	1	4	8	39	[(18, 10), (201, 9), (240, 9), (151, 0), (20, 8), (100, 5), (56, 4), (213, 0), (31, 2), (202, 10), (126, 9), (3, 7), (89, 5), (46, 3), (173, 2), (33, 2), (186, 7), (105, 7), (139, 10), (71, 8), (137, 5), (55, 5), (219, 6), (155, 1), (131, 3), (177, 2), (180, 7), (32, 5), (190, 6), (23, 6), (160, 7), (140, 1), (148, 3), (45, 6), (70, 8), (195, 10), (26, 4), (48, 7), (214, 10)]
86	1	1	8	47	[(20, 0), (213, 2), (64, 5), (181, 3), (85, 6), (174, 0), (215, 1), (81, 1), (49, 10), (249, 5), (112, 1), (100, 2), (36, 2), (170, 10), (126, 2), (97, 4), (83, 3), (42, 6), (161, 1), (196, 5), (22, 7), (195, 1), (191, 8), (143, 0), (91, 1), (238, 7), (94, 6), (190, 3), (248, 4), (172, 3), (235, 8), (14, 6), (99, 5), (228, 2), (117, 6), (225, 5), (185, 3), (226, 1), (206, 3), (224, 1), (66, 4), (86, 8), (74, 5), (147, 7), (109, 10), (179, 0), (65, 0)]
87	5	1	16	33	[(225, 10), (47, 0), (11, 6), (106, 2), (79, 4), (46, 1), (22, 1), (141, 1), (24, 3), (134, 8), (103, 4), (169, 4), (62, 10), (136, 4), (95, 7), (32, 10), (8, 5), (67, 1), (36, 7), (131, 10), (236, 9), (97, 8), (212, 10), (56, 9), (193, 1), (247, 1), (224, 6), (150, 0), (21, 8), (228, 6), (161, 1), (83, 3), (3, 4)]
88	3	1	8	44	[(3, 4), (199, 0), (114, 2), (238, 10), (61, 10), (119, 1), (72, 0), (215, 4), (26, 0), (158, 3), (132, 7), (4, 1), (116, 6), (245, 3), (40, 8), (12, 5), (115, 0), (117, 5), (76, 6), (186, 1), (179, 3), (13, 5), (147, 7), (34, 9), (44, 9), (125, 1), (20, 1), (160, 1), (42, 3), (22, 2), (87, 10), (228, 5), (128, 7), (109, 5), (204, 2), (21, 1), (71, 3), (155, 5), (198, 2), (37, 9), (172, 2), (143, 2), (79, 5), (151, 1)]
89	4	1	16	42	[(194, 6), (13, 2), (210, 9), (27, 1), (32, 9), (132, 10), (157, 1), (75, 1), (173, 10), (231, 10), (7, 3), (240, 4), (190, 1), (130, 4), (248, 10), (105, 5), (189, 0), (230, 7), (52, 4), (153, 4), (61, 4), (129, 6), (200, 10), (64, 3), (2, 4), (101, 6), (98, 4), (208, 5), (46, 7), (29, 3), (8, 10), (59, 8), (174, 6), (60, 5), (249, 10), (228, 0), (119, 7), (242, 6), (18, 3), (16, 2), (123, 5), (37, 7)]
90	2	1	8	29	[(77, 10), (9, 3), (93, 6), (148, 9), (198, 8), (157, 10), (66, 5), (51, 6), (111, 10), (150, 5), (120, 4), (17, 9), (183, 6), (123, 10), (11, 6), (149, 10), (173, 6), (47, 9), (220, 6), (33, 10), (12, 5), (144, 4), (201, 8), (189, 9), (91, 8), (140, 1), (52, 9), (114, 0), (58, 6)]
91	3	3	8	30	[(141, 0), (234, 2), (247, 10), (183, 7), (184, 8), (102, 0), (1, 1), (101, 0), (174, 5), (128, 6), (224, 7), (246, 9), (32, 6), (68, 5), (151, 1), (194, 9), (203, 2), (244, 1), (201, 3), (162, 8), (227, 6), (188, 10), (73, 7), (94, 4), (25, 3), (17, 4), (19, 9), (139, 9), (44, 1), (104, 4)]
92	3	2	8	40	[(176, 2), (209, 10), (93, 7), (140, 1), (14, 5), (106, 2), (149, 9), (105, 5), (170, 2), (36, 5), (69, 0), (165, 1), (129, 7), (92, 3), (164, 6), (118, 9), (122, 8), (91, 4), (66, 0), (234, 8), (230, 5), (206, 6), (71, 6), (82, 2), (95, 7), (152, 2), (16, 9), (6, 2), (221, 0), (67, 6), (44, 10), (190, 7), (113, 7), (75, 7), (148, 7), (62, 0), (11, 6), (19, 0), (49, 4), (214, 7)]
93	2	2	8	50	[(66, 2), (143, 8), (212, 0), (10, 7), (200, 3), (116, 0), (60, 4), (118, 8), (234, 1), (204, 7), (203, 6), (154, 6), (216, 6), (169, 0), (87, 3), (111, 0), (88, 2), (194, 9), (69, 9), (86, 0), (188, 5), (221, 3), (241, 6), (230, 3), (168, 7), (237, 0), (112, 7), (145, 10), (198, 3), (229, 9), (78, 6), (68, 5), (148, 8), (160, 1), (152, 8), (226, 1), (61, 2), (33, 5), (210, 7), (18, 6), (161, 1), (12, 5), (225, 0), (132, 3), (217, 6), (191, 8), (47, 1), (205, 7), (222, 1), (238, 8)]
94	1	6	8	35	[(81, 6), (102, 8), (48, 2), (94, 1), (120, 9), (143, 4), (199, 9), (117, 0), (185, 5), (147, 7), (141, 10), (149, 9), (72, 6), (163, 8), (116, 4), (234, 6), (28, 8), (179, 0), (167, 8), (193, 2), (229, 10), (93, 7), (22, 8), (30, 4), (127, 4), (74, 1), (1, 0), (40, 5), (138, 7), (62, 3), (212, 4), (152, 10), (221, 7), (95, 7), (97, 3)]
95	2	1	8	31	[(201, 7), (126, 7), (118, 4), (135, 0), (111, 8), (147, 10), (234, 2), (141, 0), (106, 6), (166, 8), (16, 3), (227, 2), (115, 0), (93, 0), (243, 0), (235, 10), (36, 2), (109, 9), (107, 2), (6, 3), (62, 3), (74, 5), (34, 5), (206, 1), (47, 10), (21, 4), (60, 10), (29, 5), (35, 8), (61, 9), (170, 5)]
96	1	1	8	33	[(178, 2), (213, 0), (80, 8), (143, 4), (94, 8), (107, 1), (114, 9), (3, 7), (210, 7), (184, 0), (248, 9), (66, 4), (239, 2), (169, 1), (146, 5), (163, 5), (38, 0), (119, 2), (97, 0), (220, 10), (172, 4), (205, 6), (48, 1), (241, 10), (147, 3), (26, 10), (4, 10), (150, 7), (129, 8), (58, 7), (135, 2), (13, 7), (46, 9)]
97	1	1	8	35	[(116, 6), (114, 6), (4, 5), (1, 6), (233, 5), (235, 4), (9, 1), (155, 4), (118, 1), (239, 3), (13, 4), (81, 6), (6, 8), (99, 10), (227, 7), (43, 2), (3, 3), (220, 5), (68, 7), (243, 6), (20, 0), (24, 5), (215, 10), (211, 10), (156, 3), (64, 4), (12, 5), (102, 4), (63, 7), (83, 7), (190, 3), (90, 9), (45, 3), (169, 0), (39, 9)]
98	46	1	8	26	[(231, 10), (141, 6), (244, 3), (147, 8), (234, 9), (235, 9), (135, 8), (145, 0), (165, 2), (240, 1), (20, 1), (52, 6), (173, 6), (143, 7), (121, 0), (191, 3), (210, 1), (181, 7), (158, 4), (161, 8), (236, 1), (132, 0), (19, 10), (22, 5), (89, 10), (59, 7)]
99	1	1	8	40	[(154, 8), (93, 3), (131, 2), (177, 4), (232, 2), (109, 4), (209, 0), (156, 1), (53, 7), (22, 10), (134, 9), (67, 4), (238, 8), (167, 8), (91, 8), (54, 0), (78, 2), (197, 5), (141, 1), (146, 1), (6, 6), (106, 9), (13, 4), (90, 10), (243, 7), (210, 1), (100, 3), (97, 10), (63, 7), (182, 8), (136, 10), (51, 9), (61, 8), (81, 6), (144, 1), (82, 10), (205, 7), (19, 3), (223, 1), (212, 9)]
100	1	1	8	37	[(120, 0), (143, 7), (232, 10), (40, 5), (13, 4), (197, 9), (115, 7), (181, 5), (167, 0), (106, 9), (20, 0), (248, 2), (213, 1), (51, 8), (35, 5), (21, 4), (217, 4), (119, 9), (71, 5), (127, 2), (177, 10), (228, 9), (187, 7), (222, 1), (178, 2), (152, 1), (31, 6), (223, 1), (88, 9), (91, 9), (30, 10), (66, 3), (226, 3), (164, 6), (75, 4), (117, 3), (39, 7)]
101	4	1	1	33	[(224, 7), (94, 1), (159, 9), (144, 1), (130, 9), (213, 3), (179, 9), (114, 3), (121, 7), (162, 2), (39, 10), (218, 8), (140, 4), (203, 10), (112, 2), (120, 5), (115, 2), (208, 4), (139, 9), (221, 10), (245, 9), (79, 5), (186, 9), (249, 5), (132, 9), (105, 3), (14, 7), (78, 7), (57, 6), (191, 4), (101, 1), (166, 7), (219, 10)]
102	2	1	8	37	[(226, 3), (165, 7), (180, 6), (146, 0), (241, 4), (71, 5), (80, 1), (242, 3), (42, 7), (111, 1), (18, 0), (97, 7), (176, 5), (128, 1), (217, 10), (22, 2), (136, 3), (182, 4), (60, 9), (58, 3), (215, 1), (106, 6), (159, 1), (188, 6), (96, 1), (116, 6), (109, 9), (143, 9), (167, 5), (142, 10), (187, 10), (164, 7), (127, 9), (37, 7), (171, 8), (72, 4), (78, 6)]
103	25	4	8	29	[(55, 9), (98, 9), (126, 6), (74, 8), (181, 2), (242, 1), (24, 2), (171, 10), (38, 5), (236, 3), (49, 4), (227, 1), (97, 2), (47, 2), (106, 4), (249, 2), (168, 7), (222, 3), (101, 10), (58, 7), (83, 3), (175, 6), (19, 4), (174, 0), (68, 6), (34, 0), (46, 8), (191, 1), (87, 10)]
104	1	2	8	26	[(222, 2), (211, 9), (93, 8), (138, 1), (105, 4), (159, 5), (213, 0), (106, 3), (173, 9), (223, 9), (208, 1), (10, 0), (144, 9), (64, 4), (87, 0), (221, 9), (212, 6), (79, 7), (117, 9), (187, 4), (80, 2), (50, 4), (150, 10), (20, 10), (30, 6), (220, 9)]
105	7	1	8	45	[(215, 1), (174, 7), (115, 7), (218, 6), (173, 10), (6, 5), (230, 0), (125, 4), (148, 6), (232, 3), (129, 7), (216, 5), (26, 0), (150, 5), (28, 9), (91, 7), (27, 0), (24, 10), (100, 7), (21, 9), (224, 9), (76, 4), (101, 1), (120, 9), (118, 4), (178, 0), (223, 6), (193, 5), (69, 9), (168, 9), (75, 2), (213, 10), (201, 2), (158, 4), (124, 6), (11, 1), (235, 3), (22, 7), (162, 0), (77, 9), (233, 10), (159, 8), (134, 7), (217, 6), (7, 3)]
106	7	3	8	37	[(12, 8), (56, 10), (107, 5), (73, 2), (115, 0), (34, 3), (104, 9), (81, 2), (219, 1), (164, 8), (224, 9), (222, 8), (240, 1), (171, 4), (102, 8), (46, 6), (156, 9), (52, 3), (184, 8), (230, 8), (167, 6), (91, 3), (83, 9), (113, 6), (41, 1), (109, 2), (106, 4), (204, 5), (225, 2), (68, 7), (18, 9), (128, 6), (189, 10), (77, 10), (181, 2), (238, 4), (22, 2)]
107	1	6	8	37	[(244, 5), (101, 5), (211, 1), (117, 5), (7, 8), (180, 8), (133, 10), (97, 7), (2, 7), (167, 2), (41, 10), (47, 5), (12, 1), (201, 5), (80, 3), (181, 8), (18, 2), (79, 8), (138, 1), (171, 5), (112, 4), (11, 5), (48, 3), (172, 1), (114, 2), (45, 4), (176, 7), (87, 7), (85, 2), (75, 7), (43, 2), (160, 1), (63, 4), (5, 0), (193, 10), (162, 4), (184, 9)]
108	1	1	8	36	[(119, 7), (179, 4), (132, 2), (164, 8), (83, 7), (244, 6), (22, 2), (40, 9), (98, 4), (204, 7), (221, 8), (194, 6), (72, 7), (69, 3), (200, 6), (127, 0), (168, 5), (183, 2), (248, 0), (192, 2), (191, 8), (39, 10), (99, 1), (10, 6), (47, 7), (58, 8), (181, 10), (209, 9), (180, 0), (79, 7), (86, 10), (185, 8), (151, 9), (6, 0), (218, 0), (171, 6)]
109	1	1	8	34	[(202, 10), (122, 10), (15, 9), (57, 6), (216, 1), (199, 2), (189, 5), (22, 1), (213, 5), (102, 6), (54, 7), (64, 0), (13, 0), (51, 7), (182, 7), (217, 3), (228, 5), (245, 5), (146, 9), (96, 8), (153, 6), (221, 7), (214, 3), (171, 6), (115, 10), (35, 7), (114, 10), (239, 7), (204, 2), (225, 9), (101, 10), (191, 6), (244, 3), (170, 3)]
110	1	1	8	43	[(168, 5), (197, 8), (182, 8), (141, 10), (249, 10), (60, 1), (82, 8), (110, 3), (109, 3), (80, 2), (40, 2), (201, 0), (208, 6), (131, 9), (230, 9), (50, 1), (235, 10), (183, 2), (227, 9), (103, 5), (69, 9), (211, 4), (128, 10), (19, 4), (1, 6), (30, 10), (221, 9), (175, 4), (188, 5), (26, 3), (112, 3), (140, 0), (133, 1), (38, 6), (88, 9), (226, 9), (22, 9), (84, 3), (138, 8), (42, 8), (142, 2), (196, 3), (205, 4)]
111	2	1	8	38	[(71, 3), (245, 8), (208, 8), (232, 2), (122, 4), (78, 2), (219, 9), (193, 9), (85, 8), (177, 9), (130, 7), (47, 7), (87, 6), (201, 1), (157, 6), (147, 9), (199, 7), (15, 5), (185, 8), (135, 3), (8, 3), (143, 5), (194, 7), (60, 3), (188, 3), (77, 1), (140, 5), (250, 8), (88, 10), (30, 2), (244, 5), (215, 3), (190, 7), (150, 3), (105, 4), (227, 2), (107, 1), (158, 4)]
112	4	1	32	37	[(13, 6), (204, 2), (47, 1), (71, 7), (16, 1), (35, 1), (234, 6), (198, 2), (221, 6), (217, 2), (229, 7), (85, 6), (167, 9), (38, 3), (155, 10), (203, 6), (227, 0), (128, 4), (90, 0), (129, 4), (237, 5), (69, 0), (149, 9), (150, 0), (201, 2), (250, 5), (84, 6), (4, 9), (120, 3), (63, 3), (143, 10), (68, 8), (184, 6), (86, 9), (66, 5), (187, 3), (137, 10)]
113	3	4	8	39	[(70, 0), (210, 5), (209, 1), (24, 1), (100, 6), (97, 1), (16, 8), (158, 9), (147, 10), (216, 6), (141, 4), (228, 3), (185, 6), (122, 4), (55, 10), (186, 7), (149, 9), (193, 6), (58, 10), (156, 2), (212, 0), (113, 2), (85, 5), (248, 6), (195, 3), (208, 4), (171, 0), (81, 9), (225, 3), (27, 7), (160, 1), (177, 4), (105, 5), (184, 10), (26, 1), (63, 5), (22, 6), (53, 3), (84, 6)]
114	2	1	8	45	[(5, 0), (61, 6), (97, 1), (76, 2), (173, 5), (171, 2), (225, 8), (111, 1), (14, 9), (204, 0), (49, 1), (9, 4), (147, 7), (142, 0), (197, 2), (4, 8), (234, 2), (164, 4), (138, 5), (245, 5), (232, 10), (55, 7), (161, 9), (178, 7), (200, 0), (248, 5), (119, 0), (120, 1), (103, 2), (158, 3), (216, 9), (68, 4), (95, 10), (166, 8), (96, 9), (132, 5), (29, 8), (20, 1), (51, 4), (60, 8), (189, 8), (176, 10), (181, 10), (224, 7), (150, 9)]
115	1	1	8	26	[(242, 10), (207, 4), (123, 10), (196, 7), (52, 1), (150, 7), (211, 7), (172, 10), (189, 5), (19, 6), (108, 6), (182, 4), (69, 7), (9, 3), (49, 4), (110, 4), (198, 7), (139, 4), (118, 2), (4, 8), (245, 2), (25, 10), (231, 3), (50, 0), (134, 8), (41, 7)]
116	6	2	8	34	[(127, 9), (38, 5), (164, 9), (84, 3), (89, 2), (20, 10), (87, 5), (63, 8), (105, 2), (43, 5), (188, 2), (76, 1), (214, 6), (146, 8), (7, 0), (46, 7), (52, 1), (17, 8), (226, 5), (51, 6), (32, 5), (104, 8), (218, 2), (192, 6), (67, 7), (138, 10), (68, 9), (111, 7), (163, 8), (136, 3), (74, 10), (180, 0), (201, 4), (160, 0)]
117	2	2	2	37	[(18, 9), (166, 4), (55, 5), (94, 10), (123, 7), (67, 10), (85, 10), (248, 2), (78, 7), (198, 7), (249, 6), (108, 4), (84, 0), (164, 1), (192, 4), (203, 4), (235, 8), (70, 8), (196, 0), (222, 4), (92, 1), (71, 4), (113, 6), (204, 1), (144, 8), (239, 5), (23, 9), (28, 4), (244, 10), (16, 0), (233, 7), (25, 3), (180, 10), (48, 0), (236, 2), (15, 4), (24, 7)]
118	2	1	16	37	[(159, 7), (201, 3), (180, 2), (168, 3), (170, 9), (80, 9), (185, 3), (5, 9), (174, 7), (107, 5), (188, 5), (91, 1), (167, 7), (10, 2), (222, 2), (78, 1), (23, 5), (30, 6), (149, 10), (82, 0), (41, 1), (39, 4), (179, 2), (106, 6), (90, 10), (103, 1), (138, 5), (46, 9), (161, 0), (16, 0), (79, 3), (249, 8), (97, 4), (72, 9), (145, 3), (116, 1), (119, 6)]
119	2	1	8	50	[(8, 6), (164, 10), (249, 0), (209, 6), (138, 5), (198, 4), (50, 5), (18, 5), (27, 5), (242, 10), (184, 4), (191, 7), (3, 7), (172, 5), (35, 7), (136, 4), (194, 2), (97, 4), (37, 9), (106, 7), (234, 5), (241, 5), (129, 8), (31, 3), (64, 9), (93, 4), (72, 9), (170, 10), (40, 0), (163, 0), (176, 5), (78, 7), (117, 0), (183, 4), (116, 5), (147, 8), (13, 6), (224, 3), (124, 10), (58, 2), (85, 8), (247, 7), (105, 8), (200, 5), (142, 8), (223, 7), (168, 5), (6, 2), (222, 3), (161, 7)]
120	2	1	8	31	[(233, 6), (179, 3), (125, 0), (97, 8), (76, 6), (69, 7), (106, 0), (91, 6), (145, 4), (121, 1), (202, 9), (232, 4), (3, 0), (213, 0), (214, 9), (167, 9), (141, 5), (74, 3), (88, 2), (132, 10), (65, 5), (221, 6), (166, 6), (216, 10), (164, 1), (173, 4), (188, 10), (242, 8), (62, 0), (77, 6), (45, 5)]
121	16	1	8	35	[(121, 3), (48, 7), (146, 7), (100, 3), (188, 7), (227, 1), (143, 9), (203, 5), (211, 9), (111, 10), (29, 4), (232, 6), (89, 10), (175, 8), (212, 4), (56, 4), (63, 8), (97, 7), (210, 3), (206, 6), (217, 10), (155, 9), (207, 7), (77, 5), (15, 0), (145, 4), (126, 4), (189, 9), (130, 2), (47, 1), (166, 4), (228, 7), (31, 0), (17, 5), (192, 2)]
122	2	2	8	27	[(206, 2), (175, 5), (85, 1), (178, 9), (26, 3), (93, 9), (131, 10), (125, 2), (46, 10), (230, 4), (3, 8), (236, 9), (44, 1), (111, 8), (191, 3), (211, 2), (47, 4), (127, 6), (177, 10), (154, 5), (135, 2), (201, 6), (70, 0), (247, 6), (164, 6), (150, 2), (138, 0)]
123	2	1	1	37	[(78, 4), (131, 7), (207, 2), (22, 6), (112, 9), (14, 0), (219, 7), (238, 6), (172, 3), (71, 6), (75, 1), (122, 2), (5, 5), (159, 9), (87, 6), (83, 4), (204, 0), (106, 2), (124, 1), (123, 9), (79, 5), (217, 6), (129, 5), (127, 9), (164, 6), (145, 6), (46, 5), (198, 10), (170, 2), (232, 5), (130, 4), (17, 8), (10, 1), (113, 3), (125, 2), (221, 4), (96, 9)]
124	2	1	2	30	[(124, 6), (77, 6), (57, 7), (58, 5), (29, 1), (65, 3), (180, 2), (38, 8), (136, 9), (122, 5), (153, 5), (162, 2), (201, 2), (39, 2), (198, 6), (102, 8), (139, 5), (4, 6), (2, 7), (3, 6), (123, 1), (193, 4), (178, 5), (81, 3), (70, 2), (19, 2), (115, 4), (197, 5), (134, 9), (228, 5)]
125	3	2	8	26	[(59, 3), (66, 9), (21, 4), (2, 3), (50, 2), (38, 2), (61, 0), (60, 6), (22, 0), (106, 0), (242, 9), (173, 1), (194, 6), (73, 4), (10, 5), (84, 7), (235, 1), (191, 2), (153, 1), (168, 10), (138, 3), (167, 4), (80, 3), (1, 2), (45, 4), (192, 1)]
126	18	4	8	36	[(214, 4), (87, 4), (92, 7), (112, 4), (38, 4), (191, 5), (18, 0), (42, 7), (3, 10), (226, 7), (111, 5), (193, 0), (97, 1), (244, 1), (83, 10), (142, 4), (102, 4), (150, 5), (46, 6), (186, 0), (189, 3), (174, 9), (136, 9), (26, 7), (67, 2), (242, 5), (50, 2), (74, 4), (51, 0), (88, 1), (94, 2), (9, 1), (63, 0), (109, 10), (75, 3), (249, 10)]
127	2	1	2	41	[(226, 2), (12, 3), (232, 3), (19, 2), (94, 3), (107, 2), (188, 6), (81, 5), (144, 10), (64, 7), (46, 6), (186, 10), (242, 5), (77, 8), (116, 8), (250, 6), (241, 5), (155, 0), (169, 2), (11, 2), (133, 0), (224, 7), (211, 3), (48, 1), (151, 2), (129, 6), (182, 9), (136, 2), (177, 3), (126, 3), (114, 8), (178, 1), (179, 6), (214, 6), (55, 7), (34, 5), (223, 10), (93, 7), (95, 4), (246, 2), (50, 1)]
128	1	4	8	26	[(181, 9), (128, 4), (75, 6), (54, 10), (93, 4), (118, 1), (40, 8), (197, 8), (105, 6), (71, 4), (238, 4), (64, 9), (126, 3), (144, 10), (193, 9), (165, 0), (177, 0), (88, 2), (151, 4), (127, 7), (34, 3), (223, 10), (22, 3), (76, 5), (235, 7), (24, 5)]
129	1	5	8	35	[(160, 2), (165, 1), (143, 10), (168, 10), (30, 1), (2, 5), (15, 7), (196, 6), (236, 4), (141, 4), (161, 7), (7, 3), (52, 8), (42, 0), (137, 3), (14, 5), (78, 6), (22, 2), (228, 9), (170, 3), (132, 5), (249, 1), (213, 8), (23, 6), (169, 4), (32, 4), (25, 5), (172, 4), (139, 9), (134, 5), (58, 4), (177, 5), (46, 1), (200, 10), (176, 1)]
130	1	6	8	27	[(76, 7), (6, 10), (187, 4), (249, 4), (139, 3), (106, 1), (235, 3), (202, 3), (217, 2), (89, 8), (228, 2), (29, 1), (225, 4), (80, 8), (148, 6), (70, 4), (178, 4), (127, 10), (36, 8), (216, 4), (60, 3), (121, 6), (18, 9), (77, 3), (166, 4), (108, 6), (169, 6)]
131	2	1	8	36	[(171, 2), (109, 3), (84, 3), (103, 5), (228, 8), (113, 0), (16, 0), (33, 9), (218, 6), (190, 0), (210, 3), (223, 2), (30, 4), (129, 9), (55, 10), (230, 3), (36, 8), (91, 0), (6, 5), (244, 2), (135, 8), (123, 10), (174, 7), (2, 3), (29, 3), (4, 10), (77, 10), (229, 1), (102, 4), (148, 5), (112, 1), (182, 10), (234, 3), (72, 8), (201, 6), (139, 3)]
132	3	4	2	34	[(190, 1), (240, 2), (161, 1), (127, 8), (230, 5), (200, 5), (149, 0), (189, 4), (8, 10), (195, 8), (87, 0), (29, 2), (216, 7), (211, 9), (140, 9), (213, 3), (102, 8), (106, 4), (212, 3), (86, 3), (27, 4), (115, 4), (152, 5), (207, 3), (79, 10), (151, 5), (224, 5), (132, 2), (148, 4), (147, 2), (67, 1), (182, 10), (199, 10), (55, 4)]
133	2	1	8	31	[(61, 8), (54, 1), (29, 5), (110, 0), (89, 6), (233, 7), (186, 0), (88, 3), (52, 6), (45, 4), (212, 9), (135, 10), (69, 2), (37, 2), (79, 6), (123, 6), (17, 10), (224, 8), (84, 1), (10, 5), (162, 1), (181, 5), (206, 6), (66, 3), (73, 7), (15, 8), (57, 10), (8, 3), (195, 2), (158, 2), (154, 6)]
134	2	3	8	30	[(64, 10), (145, 5), (137, 6), (200, 9), (97, 7), (179, 8), (243, 3), (123, 10), (209, 1), (249, 1), (87, 5), (93, 4), (215, 0), (230, 7), (61, 1), (139, 6), (184, 4), (250, 9), (36, 0), (12, 3), (173, 5), (219, 6), (58, 3), (31, 1), (89, 10), (169, 8), (164, 4), (214, 2), (246, 6), (62, 5)]
135	6	1	16	28	[(17, 2), (162, 7), (246, 10), (112, 9), (93, 2), (2, 5), (21, 2), (34, 9), (184, 1), (234, 5), (227, 9), (224, 3), (167, 6), (249, 1), (142, 1), (56, 1), (140, 1), (49, 0), (148, 1), (247, 3), (3, 9), (12, 5), (29, 0), (196, 0), (231, 4), (190, 3), (58, 2), (183, 2)]
136	1	2	8	36	[(134, 10), (211, 5), (111, 0), (136, 3), (246, 2), (27, 10), (101, 5), (127, 0), (112, 6), (115, 7), (123, 10), (54, 7), (179, 0), (96, 7), (77, 6), (209, 5), (249, 2), (168, 3), (65, 2), (122, 8), (59, 7), (247, 8), (203, 10), (173, 10), (72, 8), (43, 7), (174, 9), (88, 4), (128, 5), (239, 6), (36, 7), (148, 7), (126, 10), (139, 0), (224, 1), (137, 8)]
137	1	1	8	28	[(235, 0), (250, 6), (115, 7), (77, 10), (194, 9), (95, 7), (196, 0), (162, 0), (236, 5), (38, 7), (167, 5), (7, 8), (75, 5), (220, 8), (146, 0), (57, 1), (119, 10), (43, 7), (212, 1), (178, 9), (86, 8), (27, 2), (200, 5), (171, 10), (97, 2), (247, 10), (28, 2), (2, 7)]
138	2	4	7	37	[(237, 3), (1, 4), (124, 7), (239, 0), (238, 3), (248, 8), (249, 3), (168, 2), (57, 3), (174, 6), (227, 5), (86, 10), (15, 5), (16, 8), (147, 5), (138, 7), (163, 3), (70, 10), (226, 1), (172, 7), (166, 7), (200, 3), (49, 1), (206, 2), (29, 5), (134, 0), (75, 0), (234, 4), (89, 1), (193, 5), (27, 4), (34, 2), (186, 3), (196, 7), (182, 3), (77, 1), (96, 8)]
139	1	1	8	38	[(183, 1), (222, 5), (199, 0), (76, 5), (210, 2), (157, 10), (40, 10), (57, 2), (198, 3), (98, 8), (75, 9), (112, 8), (141, 7), (22, 2), (188, 1), (130, 6), (8, 4), (49, 8), (175, 2), (140, 0), (67, 1), (209, 5), (53, 6), (37, 9), (184, 3), (132, 10), (246, 7), (241, 10), (232, 4), (15, 8), (103, 8), (152, 1), (60, 3), (128, 4), (107, 10), (182, 4), (101, 8), (61, 8)]
140	1	1	2	29	[(171, 4), (17, 9), (236, 0), (109, 5), (28, 0), (199, 3), (172, 6), (226, 3), (159, 10), (205, 9), (154, 10), (53, 9), (69, 10), (217, 4), (63, 0), (227, 5), (122, 10), (88, 1), (169, 9), (45, 3), (230, 3), (153, 2), (39, 6), (36, 2), (234, 8), (90, 4), (50, 3), (84, 10), (209, 1)]
141	2	1	10	29	[(176, 6), (132, 1), (136, 1), (217, 10), (107, 3), (224, 6), (31, 4), (206, 4), (127, 8), (3, 6), (114, 8), (96, 6), (229, 4), (92, 0), (142, 7), (49, 0), (32, 3), (190, 9), (144, 3), (111, 1), (244, 8), (77, 2), (200, 3), (16, 2), (118, 2), (108, 7), (131, 2), (153, 4), (245, 6)]
142	5	1	8	29	[(63, 9), (220, 1), (141, 7), (120, 9), (207, 2), (85, 6), (115, 3), (227, 2), (1, 3), (72, 10), (96, 2), (114, 0), (128, 9), (192, 9), (133, 0), (53, 5), (206, 3), (71, 0), (154, 8), (8, 9), (201, 1), (153, 7), (50, 10), (169, 8), (60, 3), (28, 9), (191, 1), (199, 9), (125, 6)]
143	1	1	8	38	[(155, 6), (238, 10), (149, 6), (168, 3), (248, 4), (227, 7), (143, 5), (185, 8), (237, 0), (175, 0), (98, 6), (210, 1), (246, 1), (105, 3), (133, 7), (226, 3), (183, 1), (122, 9), (214, 4), (139, 8), (32, 0), (135, 4), (13, 1), (236, 9), (27, 2), (40, 3), (100, 2), (26, 2), (126, 8), (1, 8), (21, 1), (239, 1), (34, 3), (181, 9), (235, 4), (65, 3), (166, 5), (78, 2)]
144	9	1	8	27	[(208, 9), (12, 7), (144, 8), (37, 6), (56, 8), (53, 5), (143, 0), (114, 5), (3, 5), (230, 2), (94, 1), (146, 7), (10, 5), (171, 5), (245, 1), (161, 2), (147, 4), (180, 3), (187, 3), (165, 4), (68, 4), (240, 3), (59, 9), (135, 7), (218, 10), (195, 9), (206, 2)]
145	409	1	7	32	[(50, 4), (51, 8), (224, 4), (65, 8), (64, 7), (82, 6), (234, 9), (150, 10), (163, 4), (202, 7), (39, 8), (170, 10), (72, 5), (43, 0), (152, 6), (31, 7), (221, 4), (60, 10), (10, 1), (90, 9), (24, 1), (54, 3), (174, 3), (7, 10), (235, 10), (92, 8), (141, 0), (232, 7), (13, 3), (101, 6), (48, 4), (37, 1)]
146	2	1	2	30	[(126, 1), (107, 0), (186, 2), (188, 0), (55, 0), (45, 4), (179, 3), (82, 3), (197, 6), (210, 9), (48, 8), (95, 10), (85, 10), (118, 3), (62, 9), (166, 1), (140, 10), (108, 5), (68, 2), (238, 7), (209, 9), (97, 6), (83, 1), (184, 1), (157, 1), (39, 7), (25, 8), (129, 3), (79, 0), (228, 4)]
147	2	5	8	32	[(118, 6), (12, 8), (179, 8), (156, 6), (227, 2), (52, 4), (113, 2), (233, 0), (3, 8), (94, 6), (39, 6), (87, 1), (160, 10), (130, 8), (110, 2), (26, 5), (216, 10), (107, 5), (82, 6), (128, 9), (147, 2), (4, 3), (140, 7), (245, 8), (71, 0), (242, 0), (83, 6), (104, 8), (95, 9), (158, 6), (218, 9), (117, 8)]
148	2	1	8	42	[(140, 10), (207, 2), (186, 1), (3, 7), (118, 10), (217, 3), (103, 7), (165, 4), (231, 2), (222, 6), (63, 9), (144, 2), (41, 5), (241, 5), (35, 4), (22, 2), (44, 2), (1, 1), (141, 7), (226, 6), (168, 4), (172, 2), (59, 6), (145, 2), (129, 8), (80, 1), (29, 8), (65, 4), (149, 0), (119, 5), (187, 8), (180, 4), (178, 3), (138, 9), (248, 7), (57, 3), (228, 2), (184, 3), (220, 0), (94, 6), (79, 10), (124, 2)]
149	6	1	8	36	[(219, 8), (208, 1), (178, 2), (185, 4), (54, 7), (43, 5), (171, 2), (13, 4), (72, 8), (209, 9), (187, 6), (113, 1), (107, 9), (115, 8), (156, 4), (52, 1), (51, 5), (203, 10), (239, 9), (121, 1), (151, 9), (230, 5), (176, 6), (132, 6), (210, 5), (211, 1), (157, 4), (147, 10), (201, 2), (122, 0), (221, 7), (139, 2), (67, 1), (174, 10), (245, 8), (143, 9)]
150	3	1	2	36	[(130, 7), (154, 2), (105, 4), (13, 7), (43, 6), (34, 10), (215, 4), (143, 4), (135, 5), (25, 5), (119, 8), (104, 6), (181, 6), (21, 5), (33, 2), (55, 8), (9, 9), (91, 2), (204, 10), (152, 8), (141, 7), (248, 1), (66, 10), (179, 7), (229, 2), (151, 2), (81, 1), (39, 5), (12, 7), (195, 7), (115, 8), (77, 4), (54, 6), (169, 1), (30, 3), (214, 8)]
151	2	1	8	34	[(221, 8), (5, 2), (81, 10), (34, 6), (193, 5), (13, 4), (89, 2), (136, 6), (7, 8), (94, 5), (178, 6), (91, 1), (213, 1), (32, 2), (152, 0), (133, 6), (245, 8), (38, 1), (68, 5), (115, 2), (228, 0), (124, 6), (29, 3), (118, 6), (161, 6), (9, 9), (222, 5), (12, 4), (122, 1), (242, 3), (179, 9), (11, 0), (128, 4), (112, 6)]
152	2	1	8	29	[(18, 9), (215, 4), (236, 0), (79, 7), (166, 8), (108, 0), (207, 7), (142, 1), (44, 0), (122, 9), (150, 5), (31, 7), (99, 7), (167, 9), (46, 5), (33, 2), (13, 5), (110, 3), (247, 9), (192, 0), (65, 7), (237, 0), (8, 3), (214, 6), (47, 5), (23, 2), (41, 3), (162, 3), (80, 7)]
153	1	1	8	42	[(214, 7), (184, 7), (99, 4), (71, 5), (107, 0), (26, 7), (13, 8), (62, 0), (210, 0), (4, 6), (39, 9), (115, 5), (119, 4), (137, 2), (1, 0), (234, 6), (199, 7), (138, 1), (111, 0), (93, 4), (74, 8), (47, 5), (12, 1), (166, 0), (63, 8), (162, 5), (140, 6), (55, 6), (120, 7), (132, 1), (148, 10), (153, 2), (112, 10), (241, 7), (200, 7), (17, 10), (77, 2), (231, 10), (61, 10), (160, 3), (147, 3), (136, 4)]
154	5	6	8	39	[(72, 3), (165, 1), (213, 10), (197, 4), (134, 9), (47, 2), (78, 0), (89, 6), (11, 2), (100, 8), (66, 8), (34, 10), (125, 8), (46, 3), (209, 10), (133, 3), (57, 0), (132, 6), (18, 1), (53, 0), (126, 8), (196, 5), (117, 4), (225, 6), (181, 1), (245, 6), (147, 0), (207, 10), (120, 10), (179, 0), (106, 1), (200, 1), (90, 2), (3, 2), (142, 9), (25, 3), (44, 10), (151, 10), (186, 1)]
155	1	2	16	37	[(190, 7), (182, 7), (143, 0), (226, 5), (51, 10), (202, 6), (227, 2), (237, 6), (215, 1), (147, 5), (203, 9), (135, 10), (21, 2), (121, 5), (49, 5), (148, 0), (9, 7), (25, 8), (130, 4), (82, 2), (7, 2), (246, 1), (160, 8), (132, 0), (15, 8), (212, 1), (146, 3), (2, 5), (42, 2), (179, 9), (39, 4), (164, 9), (81, 10), (92, 0), (16, 4), (199, 1), (79, 1)]
156	4	1	8	30	[(155, 2), (191, 0), (39, 1), (161, 0), (180, 6), (99, 8), (160, 3), (139, 8), (245, 5), (166, 3), (75, 8), (134, 4), (111, 3), (235, 5), (168, 2), (237, 6), (97, 3), (8, 1), (122, 3), (140, 7), (130, 8), (214, 10), (18, 4), (227, 9), (64, 6), (61, 1), (53, 3), (73, 3), (152, 7), (236, 4)]
157	2	1	8	30	[(174, 3), (138, 7), (74, 10), (55, 7), (197, 8), (160, 6), (113, 5), (187, 4), (151, 4), (214, 3), (244, 5), (176, 10), (137, 8), (50, 2), (219, 4), (65, 5), (232, 1), (199, 4), (63, 8), (73, 10), (140, 0), (169, 1), (150, 6), (185, 2), (66, 5), (69, 7), (35, 10), (201, 2), (188, 3), (231, 3)]
158	15	1	8	40	[(41, 9), (87, 1), (74, 0), (210, 8), (83, 8), (131, 3), (97, 2), (169, 8), (116, 0), (76, 9), (183, 10), (192, 1), (3, 5), (172, 7), (201, 3), (63, 6), (190, 7), (178, 1), (140, 2), (7, 7), (39, 2), (214, 6), (36, 8), (189, 2), (43, 0), (238, 0), (220, 4), (75, 7), (156, 0), (16, 7), (239, 9), (64, 6), (45, 9), (188, 5), (203, 0), (35, 5), (193, 6), (205, 2), (115, 0), (151, 8)]
159	1	2	8	35	[(182, 0), (193, 2), (188, 10), (35, 4), (144, 7), (216, 3), (212, 4), (47, 7), (67, 2), (6, 8), (18, 4), (122, 3), (100, 8), (126, 8), (146, 8), (89, 9), (48, 4), (134, 6), (54, 2), (90, 8), (185, 0), (96, 1), (86, 10), (201, 7), (186, 4), (28, 9), (230, 0), (207, 5), (34, 0), (49, 1), (115, 4), (84, 1), (63, 9), (99, 7), (148, 9)]
160	1	4	9	37	[(153, 3), (105, 2), (241, 9), (117, 8), (38, 0), (97, 1), (3, 1), (71, 5), (179, 5), (126, 9), (100, 8), (120, 2), (32, 9), (125, 10), (157, 7), (212, 2), (93, 4), (106, 8), (80, 9), (37, 0), (195, 9), (227, 7), (234, 5), (198, 3), (108, 2), (187, 5), (7, 6), (154, 7), (99, 2), (35, 8), (133, 3), (116, 8), (129, 5), (114, 8), (70, 6), (73, 8), (172, 1)]
161	1	1	2	36	[(81, 4), (85, 3), (126, 9), (104, 5), (217, 1), (54, 10), (23, 2), (199, 4), (59, 10), (16, 6), (3, 9), (204, 6), (19, 4), (55, 4), (41, 0), (223, 5), (8, 9), (211, 5), (220, 5), (244, 6), (99, 6), (158, 9), (208, 1), (65, 6), (106, 1), (124, 10), (162, 8), (57, 8), (160, 7), (127, 10), (30, 2), (11, 4), (219, 1), (69, 1), (90, 0), (227, 2)]
162	3	1	8	36	[(3, 8), (57, 2), (166, 2), (202, 8), (58, 9), (162, 8), (216, 5), (170, 9), (26, 7), (99, 6), (88, 4), (74, 8), (83, 10), (237, 4), (36, 7), (198, 10), (50, 1), (154, 9), (165, 7), (7, 4), (68, 1), (226, 0), (21, 10), (246, 6), (148, 6), (117, 2), (120, 1), (150, 3), (27, 1), (152, 8), (14, 1), (220, 6), (89, 10), (138, 2), (229, 10), (161, 7)]
163	2	1	16	32	[(142, 4), (239, 9), (219, 1), (216, 2), (139, 3), (221, 6), (78, 9), (176, 8), (11, 5), (205, 3), (2, 0), (144, 9), (63, 5), (44, 9), (185, 10), (141, 7), (39, 8), (218, 7), (37, 6), (234, 6), (4, 0), (233, 0), (20, 8), (66, 8), (5, 0), (124, 0), (170, 5), (135, 7), (26, 6), (130, 9), (178, 8), (24, 3)]
164	5	1	8	38	[(118, 4), (158, 4), (103, 10), (4, 9), (38, 8), (180, 1), (115, 8), (148, 4), (72, 3), (156, 8), (135, 5), (56, 4), (128, 1), (171, 2), (225, 3), (105, 0), (44, 4), (92, 1), (108, 7), (86, 7), (136, 6), (244, 4), (111, 0), (212, 10), (76, 1), (209, 10), (165, 8), (37, 7), (75, 4), (59, 2), (238, 10), (48, 4), (113, 10), (24, 4), (199, 6), (194, 4), (121, 3), (141, 9)]
165	4	1	8	41	[(92, 3), (3, 7), (142, 1), (215, 0), (219, 3), (140, 2), (180, 0), (126, 10), (132, 5), (14, 2), (122, 7), (151, 0), (178, 6), (4, 4), (39, 1), (216, 6), (2, 2), (147, 6), (167, 2), (202, 3), (227, 8), (116, 1), (62, 9), (97, 8), (234, 10), (115, 0), (24, 1), (81, 8), (43, 8), (235, 4), (77, 10), (55, 5), (210, 6), (54, 9), (182, 3), (78, 7), (246, 4), (102, 9), (237, 2), (63, 8), (36, 6)]
166	1	2	8	37	[(57, 9), (66, 4), (228, 3), (188, 8), (198, 1), (102, 1), (159, 10), (243, 7), (41, 6), (241, 1), (140, 0), (201, 9), (160, 1), (218, 10), (111, 10), (65, 5), (246, 3), (38, 5), (233, 9), (192, 3), (248, 7), (170, 5), (12, 8), (64, 2), (225, 9), (203, 4), (83, 0), (101, 1), (137, 9), (122, 5), (24, 2), (150, 10), (166, 7), (18, 3), (20, 1), (84, 3), (70, 10)]
167	5	1	8	42	[(44, 10), (179, 3), (144, 6), (154, 2), (59, 1), (70, 5), (206, 6), (191, 6), (90, 1), (224, 4), (81, 4), (182, 1), (126, 6), (216, 9), (147, 4), (188, 10), (178, 4), (105, 0), (10, 7), (153, 5), (9, 8), (55, 9), (172, 1), (174, 10), (239, 5), (54, 5), (171, 10), (14, 4), (113, 4), (175, 4), (94, 8), (40, 3), (201, 4), (129, 9), (102, 3), (49, 4), (197, 1), (228, 2), (208, 6), (189, 4), (61, 6), (142, 10)]
168	2	11	8	31	[(68, 6), (94, 6), (247, 7), (12, 3), (179, 5), (52, 8), (41, 7), (62, 4), (175, 4), (196, 10), (113, 1), (220, 10), (49, 9), (93, 7), (183, 1), (129, 2), (204, 6), (67, 10), (111, 1), (79, 2), (186, 6), (194, 5), (27, 4), (106, 1), (2, 2), (193, 2), (178, 7), (199, 10), (104, 10), (21, 4), (120, 0)]
169	2	3	8	44	[(163, 3), (171, 10), (241, 6), (56, 9), (120, 4), (60, 2), (221, 6), (110, 7), (170, 10), (95, 7), (142, 3), (146, 3), (40, 9), (63, 10), (68, 10), (79, 0), (59, 7), (179, 5), (34, 6), (11, 0), (156, 0), (166, 6), (76, 4), (135, 0), (237, 9), (30, 7), (212, 2), (101, 10), (17, 10), (152, 4), (182, 0), (98, 9), (155, 2), (145, 5), (36, 8), (157, 0), (235, 10), (66, 10), (70, 7), (91, 1), (67, 5), (114, 9), (167, 4), (97, 7)]
170	8	1	1	40	[(9, 6), (228, 5), (95, 8), (189, 5), (92, 5), (216, 8), (62, 9), (10, 7), (17, 6), (120, 10), (15, 5), (61, 4), (172, 10), (190, 0), (212, 10), (206, 10), (81, 0), (214, 4), (2, 3), (200, 6), (70, 4), (49, 1), (131, 10), (13, 9), (221, 1), (114, 1), (129, 1), (132, 7), (75, 1), (231, 2), (63, 8), (151, 1), (86, 7), (119, 8), (50, 5), (207, 10), (133, 10), (135, 10), (79, 0), (245, 7)]
171	2	1	8	34	[(5, 2), (26, 4), (214, 10), (16, 2), (109, 5), (194, 3), (54, 7), (123, 1), (217, 10), (91, 3), (17, 7), (138, 4), (10, 6), (4, 3), (79, 3), (197, 1), (224, 7), (165, 4), (173, 7), (147, 4), (169, 5), (118, 6), (139, 1), (168, 9), (207, 5), (3, 10), (119, 10), (166, 6), (141, 3), (180, 6), (48, 8), (114, 3), (102, 5), (56, 8)]
172	2	3	7	40	[(249, 3), (27, 0), (250, 7), (195, 3), (26, 2), (185, 9), (165, 8), (217, 1), (234, 8), (98, 3), (126, 4), (180, 7), (4, 4), (58, 9), (90, 5), (12, 9), (11, 8), (206, 8), (213, 3), (175, 4), (246, 3), (66, 1), (137, 0), (1, 9), (80, 3), (87, 5), (232, 3), (2, 4), (76, 7), (13, 0), (245, 2), (100, 1), (183, 8), (74, 2), (162, 3), (181, 6), (52, 2), (124, 4), (92, 5), (129, 4)]
173	1	1	8	35	[(20, 4), (76, 5), (238, 3), (169, 0), (64, 2), (137, 7), (205, 1), (39, 10), (45, 5), (227, 7), (95, 6), (14, 8), (123, 0), (176, 1), (70, 8), (3, 6), (180, 8), (194, 9), (219, 5), (226, 10), (235, 10), (225, 1), (181, 4), (233, 6), (26, 10), (165, 1), (115, 1), (222, 10), (195, 7), (83, 10), (51, 9), (78, 1), (224, 8), (118, 7), (246, 6)]
174	2	5	8	35	[(170, 8), (52, 7), (190, 4), (137, 4), (102, 6), (115, 8), (83, 4), (147, 0), (191, 7), (237, 9), (21, 9), (12, 4), (46, 0), (183, 6), (150, 0), (109, 1), (58, 1), (117, 2), (182, 0), (5, 9), (16, 0), (54, 9), (247, 10), (19, 8), (50, 1), (86, 3), (88, 0), (200, 9), (34, 5), (78, 7), (20, 10), (146, 7), (243, 6), (120, 5), (1, 0)]
175	2	2	8	35	[(209, 7), (20, 4), (63, 3), (74, 8), (45, 3), (150, 6), (149, 3), (202, 1), (165, 8), (30, 6), (50, 10), (144, 8), (111, 9), (153, 8), (160, 1), (143, 1), (223, 10), (114, 7), (16, 1), (8, 6), (55, 1), (39, 4), (216, 0), (56, 5), (15, 9), (243, 5), (62, 7), (126, 4), (108, 7), (233, 7), (208, 1), (136, 5), (101, 9), (34, 4), (118, 9)]
176	2	1	8	31	[(179, 0), (212, 9), (246, 2), (134, 1), (124, 7), (202, 5), (188, 0), (196, 7), (235, 6), (86, 5), (210, 8), (32, 2), (125, 7), (248, 8), (99, 5), (10, 5), (157, 10), (110, 10), (139, 6), (109, 0), (34, 2), (118, 10), (65, 10), (5, 0), (227, 10), (49, 1), (42, 6), (77, 8), (128, 1), (105, 3), (84, 7)]
177	1	2	3	36	[(53, 1), (84, 1), (99, 2), (227, 6), (203, 6), (12, 0), (201, 9), (21, 4), (88, 4), (27, 6), (168, 0), (15, 2), (155, 0), (193, 3), (226, 0), (208, 4), (47, 2), (162, 4), (104, 2), (171, 0), (10, 0), (95, 1), (68, 4), (249, 2), (97, 3), (209, 9), (13, 10), (211, 4), (228, 9), (60, 9), (73, 5), (83, 6), (125, 6), (93, 6), (98, 9), (77, 9)]
178	1	1	8	31	[(29, 1), (93, 4), (99, 9), (170, 10), (2, 4), (141, 1), (74, 1), (78, 9), (84, 4), (132, 1), (22, 2), (143, 6), (179, 9), (171, 7), (201, 3), (97, 6), (28, 2), (86, 6), (168, 1), (123, 4), (6, 9), (151, 8), (182, 5), (73, 6), (136, 2), (222, 7), (189, 2), (200, 3), (214, 5), (48, 5), (16, 4)]
179	23	3	2	39	[(250, 8), (59, 3), (184, 4), (163, 5), (176, 2), (110, 4), (143, 1), (212, 2), (177, 9), (99, 6), (28, 4), (57, 0), (231, 10), (150, 2), (43, 8), (198, 3), (62, 2), (41, 6), (187, 2), (140, 8), (16, 8), (245, 9), (157, 6), (81, 5), (50, 3), (116, 1), (47, 10), (77, 9), (158, 3), (1, 3), (26, 10), (239, 6), (45, 0), (34, 8), (181, 2), (235, 3), (147, 0), (167, 6), (17, 2)]
180	1	1	16	29	[(127, 10), (115, 0), (58, 7), (82, 10), (18, 7), (122, 10), (153, 10), (168, 1), (65, 3), (231, 0), (99, 1), (31, 10), (46, 0), (50, 5), (80, 9), (159, 4), (20, 0), (101, 2), (217, 9), (114, 4), (164, 5), (137, 3), (29, 1), (216, 1), (43, 8), (63, 3), (78, 1), (228, 4), (12, 10)]
181	7	1	8	42	[(198, 7), (202, 8), (226, 9), (147, 1), (245, 6), (119, 2), (51, 1), (187, 8), (172, 6), (220, 10), (197, 8), (171, 3), (150, 1), (88, 0), (61, 1), (117, 2), (216, 4), (185, 5), (126, 5), (62, 0), (238, 3), (133, 6), (95, 5), (111, 5), (98, 2), (207, 1), (4, 4), (230, 2), (127, 8), (164, 6), (24, 5), (50, 4), (248, 7), (175, 9), (169, 3), (105, 2), (110, 0), (11, 1), (239, 3), (149, 8), (225, 1), (231, 10)]
182	3	1	8	35	[(78, 2), (21, 7), (214, 9), (128, 0), (150, 5), (143, 7), (194, 1), (14, 1), (94, 10), (17, 5), (11, 9), (233, 9), (64, 2), (216, 1), (144, 3), (224, 1), (185, 6), (72, 2), (192, 4), (217, 5), (182, 2), (125, 7), (98, 4), (103, 9), (81, 7), (226, 10), (7, 5), (44, 6), (238, 6), (116, 7), (222, 2), (142, 6), (246, 7), (172, 1), (188, 7)]
183	2	1	8	31	[(73, 1), (162, 2), (175, 3), (195, 6), (199, 0), (44, 4), (43, 1), (126, 10), (59, 6), (192, 10), (20, 3), (204, 8), (58, 10), (135, 1), (17, 7), (131, 2), (236, 7), (92, 9), (229, 8), (154, 10), (211, 9), (219, 6), (38, 8), (187, 10), (240, 8), (246, 5), (234, 4), (220, 9), (201, 4), (116, 0), (94, 6)]
184	2	1	8	40	[(70, 4), (241, 4), (213, 3), (229, 9), (72, 1), (20, 6), (161, 9), (83, 3), (193, 3), (48, 4), (191, 7), (98, 0), (113, 2), (69, 3), (158, 0), (18, 3), (25, 2), (89, 7), (165, 2), (141, 10), (232, 6), (247, 3), (239, 4), (71, 5), (10, 5), (236, 6), (228, 4), (9, 0), (250, 0), (248, 4), (227, 7), (127, 6), (120, 0), (194, 3), (164, 6), (139, 3), (183, 2), (37, 6), (74, 8), (175, 2)]
185	3	1	2	48	[(145, 10), (103, 7), (192, 10), (105, 9), (164, 2), (156, 7), (208, 6), (109, 2), (104, 1), (2, 3), (217, 4), (166, 4), (14, 2), (225, 8), (42, 5), (122, 6), (110, 3), (46, 5), (163, 1), (167, 5), (150, 9), (39, 7), (212, 7), (224, 5), (189, 5), (78, 8), (199, 9), (116, 8), (67, 9), (100, 9), (232, 8), (65, 8), (111, 5), (172, 6), (198, 5), (138, 3), (153, 8), (159, 0), (128, 3), (196, 1), (202, 6), (68, 7), (157, 8), (20, 2), (135, 3), (200, 1), (21, 7), (64, 2)]
186	2	2	8	27	[(56, 2), (70, 3), (57, 2), (71, 3), (24, 6), (23, 7), (128, 1), (212, 4), (6, 10), (15, 10), (174, 4), (51, 2), (114, 6), (127, 0), (31, 5), (196, 6), (180, 8), (43, 4), (45, 9), (79, 0), (85, 0), (191, 6), (101, 7), (72, 6), (119, 2), (10, 10), (80, 7)]
187	2	1	2	46	[(171, 2), (132, 8), (43, 1), (221, 3), (213, 7), (68, 5), (60, 1), (106, 1), (173, 4), (19, 2), (181, 6), (215, 4), (139, 2), (210, 1), (247, 8), (162, 5), (165, 6), (84, 8), (37, 6), (53, 3), (250, 2), (107, 0), (114, 1), (47, 2), (186, 2), (144, 5), (154, 7), (140, 3), (218, 4), (21, 8), (126, 8), (234, 7), (155, 4), (175, 8), (148, 8), (176, 2), (141, 4), (238, 9), (41, 6), (199, 2), (62, 7), (75, 9), (169, 10), (115, 2), (81, 7), (73, 5)]
188	1	4	7	36	[(85, 3), (193, 0), (108, 4), (50, 2), (170, 5), (58, 8), (92, 10), (207, 4), (99, 10), (40, 8), (14, 4), (159, 6), (228, 4), (214, 3), (231, 5), (67, 6), (63, 4), (107, 2), (150, 7), (84, 0), (31, 2), (183, 9), (147, 6), (243, 4), (102, 2), (61, 10), (175, 0), (26, 3), (226, 3), (202, 1), (93, 4), (2, 8), (80, 1), (112, 7), (222, 9), (22, 10)]
189	2	3	8	30	[(105, 9), (166, 0), (74, 5), (195, 1), (179, 4), (244, 9), (92, 9), (171, 10), (128, 5), (234, 5), (95, 1), (228, 10), (39, 5), (54, 4), (76, 6), (94, 7), (44, 10), (7, 2), (133, 5), (6, 5), (230, 9), (204, 7), (138, 9), (155, 5), (51, 9), (139, 7), (190, 3), (118, 3), (62, 10), (182, 2)]
190	1	5	8	34	[(150, 3), (154, 10), (38, 6), (231, 2), (96, 6), (145, 5), (213, 10), (153, 8), (214, 3), (84, 5), (237, 10), (151, 5), (197, 1), (205, 5), (177, 1), (201, 4), (218, 1), (53, 2), (32, 5), (48, 3), (203, 10), (117, 4), (89, 9), (193, 6), (67, 7), (75, 1), (111, 8), (80, 9), (110, 10), (249, 2), (124, 7), (62, 1), (194, 1), (187, 2)]
191	1	2	8	39	[(54, 3), (199, 8), (169, 4), (28, 7), (201, 5), (6, 2), (1, 3), (121, 3), (23, 4), (25, 10), (187, 7), (192, 9), (204, 0), (65, 0), (13, 4), (177, 4), (30, 6), (108, 2), (94, 8), (101, 8), (84, 4), (79, 9), (155, 2), (63, 0), (26, 3), (60, 7), (80, 3), (53, 2), (45, 2), (229, 7), (43, 4), (34, 5), (88, 0), (151, 1), (161, 5), (107, 9), (120, 10), (78, 6), (93, 5)]
192	1	1	8	42	[(146, 6), (31, 10), (13, 10), (173, 8), (83, 5), (170, 2), (60, 5), (248, 9), (77, 6), (1, 2), (21, 9), (27, 5), (153, 1), (92, 3), (68, 1), (214, 4), (198, 5), (195, 3), (203, 3), (247, 9), (181, 3), (129, 1), (65, 0), (59, 8), (229, 7), (61, 9), (76, 7), (196, 5), (79, 10), (73, 1), (69, 4), (88, 6), (130, 3), (105, 9), (46, 9), (125, 5), (32, 4), (182, 9), (102, 9), (176, 8), (154, 0), (53, 4)]
193	5	4	2	33	[(237, 5), (80, 4), (200, 3), (136, 6), (212, 4), (132, 0), (102, 10), (185, 7), (49, 3), (108, 6), (78, 7), (178, 7), (189, 1), (238, 8), (133, 9), (43, 9), (85, 10), (176, 3), (41, 5), (188, 6), (123, 4), (197, 7), (19, 8), (225, 4), (18, 5), (155, 0), (240, 2), (170, 3), (33, 2), (3, 7), (109, 8), (192, 2), (160, 5)]
194	2	1	8	27	[(63, 7), (195, 7), (196, 6), (192, 4), (180, 3), (173, 4), (119, 3), (137, 0), (144, 1), (72, 3), (141, 10), (19, 4), (153, 4), (49, 5), (200, 9), (240, 0), (43, 8), (92, 2), (81, 10), (207, 4), (76, 0), (201, 0), (233, 8), (204, 3), (239, 7), (160, 2), (62, 4)]
195	1	1	8	38	[(108, 9), (6, 9), (237, 1), (103, 3), (120, 9), (244, 8), (248, 3), (71, 3), (22, 10), (164, 3), (183, 8), (124, 2), (91, 2), (77, 0), (169, 7), (131, 3), (197, 4), (203, 3), (178, 5), (202, 2), (47, 8), (181, 9), (87, 2), (176, 9), (12, 6), (174, 0), (211, 0), (64, 5), (199, 6), (75, 3), (39, 7), (122, 1), (190, 0), (73, 4), (83, 0), (9, 2), (35, 5), (36, 0)]
196	1	1	8	34	[(220, 5), (30, 3), (166, 6), (145, 6), (76, 10), (35, 4), (205, 2), (226, 3), (111, 10), (22, 3), (136, 0), (37, 3), (9, 4), (199, 3), (153, 4), (2, 7), (79, 0), (169, 3), (5, 3), (48, 10), (195, 4), (119, 1), (121, 1), (50, 4), (191, 9), (120, 1), (114, 2), (180, 4), (28, 2), (172, 4), (54, 3), (65, 8), (94, 9), (91, 10)]
197	2	1	8	35	[(180, 7), (154, 7), (177, 6), (101, 6), (41, 10), (243, 9), (74, 7), (193, 2), (146, 6), (125, 1), (176, 8), (137, 5), (126, 9), (227, 5), (238, 8), (129, 5), (127, 4), (28, 5), (196, 10), (201, 4), (3, 6), (192, 4), (84, 7), (40, 8), (73, 5), (12, 0), (87, 10), (199, 2), (232, 6), (106, 4), (75, 10), (25, 2), (119, 9), (229, 7), (55, 0)]
198	5	1	3	38	[(209, 9), (237, 8), (231, 9), (93, 5), (154, 9), (23, 5), (233, 3), (27, 10), (125, 2), (131, 5), (244, 7), (44, 5), (235, 4), (115, 0), (122, 1), (68, 5), (83, 1), (9, 9), (102, 4), (41, 2), (155, 5), (201, 8), (57, 9), (198, 2), (26, 2), (216, 4), (156, 3), (157, 9), (54, 5), (29, 3), (80, 6), (211, 1), (91, 0), (193, 5), (161, 10), (232, 3), (107, 5), (18, 3)]
199	2	1	8	33	[(209, 2), (129, 6), (175, 8), (160, 1), (23, 8), (235, 9), (79, 2), (77, 4), (150, 5), (41, 5), (204, 7), (17, 2), (45, 4), (54, 1), (138, 5), (164, 6), (30, 9), (71, 3), (180, 6), (140, 7), (128, 2), (47, 3), (193, 7), (90, 1), (28, 3), (247, 9), (88, 8), (218, 5), (76, 3), (234, 6), (217, 1), (72, 2), (102, 7)]
200	2	1	5	43	[(244, 1), (81, 4), (139, 4), (72, 2), (92, 4), (37, 7), (52, 1), (39, 2), (158, 3), (134, 3), (112, 3), (235, 1), (76, 3), (118, 0), (44, 4), (135, 9), (152, 8), (232, 0), (24, 1), (154, 7), (245, 0), (169, 2), (180, 8), (17, 4), (202, 5), (144, 7), (131, 9), (19, 2), (168, 5), (159, 7), (120, 9), (97, 6), (8, 3), (248, 2), (11, 2), (190, 5), (223, 5), (221, 4), (53, 6), (78, 3), (215, 9), (181, 10), (88, 8)]
201	2	1	2	37	[(116, 7), (139, 3), (157, 2), (153, 9), (97, 6), (219, 7), (213, 9), (27, 5), (38, 4), (163, 3), (136, 7), (190, 5), (88, 6), (248, 0), (12, 5), (154, 3), (117, 1), (205, 3), (15, 2), (227, 1), (104, 3), (18, 10), (204, 4), (31, 4), (169, 4), (222, 4), (83, 8), (194, 7), (33, 8), (131, 4), (81, 9), (74, 2), (105, 1), (160, 3), (87, 3), (5, 4), (198, 4)]
202	1	1	8	28	[(31, 1), (194, 4), (7, 8), (226, 9), (196, 8), (63, 3), (158, 0), (188, 8), (145, 4), (227, 2), (21, 1), (118, 8), (249, 6), (111, 3), (134, 2), (64, 5), (94, 5), (11, 7), (75, 4), (93, 8), (109, 9), (128, 1), (73, 2), (60, 1), (182, 10), (13, 7), (37, 1), (40, 9)]
203	2	1	1	36	[(191, 9), (241, 5), (135, 4), (124, 9), (158, 2), (111, 10), (48, 3), (140, 0), (31, 4), (67, 8), (119, 4), (70, 0), (174, 3), (214, 2), (129, 5), (36, 3), (6, 6), (107, 10), (22, 3), (240, 4), (137, 8), (221, 8), (5, 10), (156, 7), (25, 9), (64, 7), (189, 9), (249, 1), (19, 0), (162, 7), (76, 7), (165, 5), (99, 8), (153, 9), (222, 8), (227, 7)]
204	2	4	8	40	[(250, 2), (226, 7), (73, 4), (93, 2), (69, 5), (224, 8), (89, 0), (232, 1), (86, 6), (34, 10), (7, 2), (2, 6), (244, 6), (119, 1), (172, 7), (191, 10), (154, 4), (33, 9), (239, 3), (230, 3), (173, 4), (84, 1), (96, 7), (209, 3), (6, 6), (85, 3), (215, 9), (13, 1), (77, 0), (235, 4), (75, 0), (178, 0), (158, 5), (187, 8), (246, 5), (153, 7), (141, 8), (242, 6), (10, 10), (83, 6)]
205	2	4	8	31	[(172, 10), (20, 10), (175, 8), (40, 6), (8, 8), (166, 0), (105, 2), (98, 6), (152, 6), (199, 0), (232, 7), (160, 0), (65, 9), (97, 6), (93, 4), (188, 3), (168, 0), (231, 6), (106, 1), (208, 0), (82, 3), (63, 9), (125, 10), (216, 2), (100, 8), (78, 6), (89, 0), (17, 0), (191, 9), (62, 5), (157, 0)]
206	5	6	7	32	[(7, 5), (105, 8), (190, 8), (75, 0), (246, 7), (33, 8), (27, 8), (136, 4), (15, 5), (210, 1), (47, 6), (24, 10), (172, 6), (184, 8), (239, 5), (173, 1), (191, 4), (67, 3), (125, 3), (228, 4), (49, 1), (243, 8), (142, 7), (217, 1), (250, 5), (22, 4), (40, 4), (43, 5), (227, 8), (98, 6), (203, 0), (29, 8)]
207	17	1	8	32	[(181, 2), (192, 3), (7, 5), (129, 2), (189, 2), (115, 4), (153, 0), (170, 10), (5, 1), (98, 2), (212, 9), (195, 7), (69, 5), (102, 3), (53, 5), (220, 7), (35, 6), (25, 1), (19, 9), (92, 10), (85, 0), (100, 0), (68, 0), (164, 7), (223, 9), (203, 10), (196, 0), (45, 8), (38, 6), (217, 3), (41, 9), (28, 5)]
208	58	2	8	33	[(14, 10), (239, 3), (100, 4), (92, 5), (67, 6), (246, 8), (27, 1), (163, 1), (127, 10), (194, 4), (8, 6), (89, 0), (234, 7), (70, 7), (123, 9), (87, 6), (119, 2), (171, 9), (104, 10), (152, 8), (6, 5), (78, 7), (63, 1), (80, 8), (91, 8), (205, 4), (156, 1), (136, 8), (225, 2), (5, 1), (191, 3), (66, 4), (134, 0)]
209	1	1	16	35	[(70, 9), (151, 4), (66, 8), (86, 3), (73, 6), (245, 8), (215, 1), (38, 3), (220, 6), (44, 1), (126, 4), (75, 5), (161, 4), (186, 8), (207, 6), (15, 10), (89, 8), (132, 2), (120, 10), (100, 7), (127, 9), (180, 5), (162, 0), (200, 4), (87, 7), (204, 0), (129, 5), (119, 0), (78, 8), (133, 8), (41, 10), (23, 4), (227, 8), (77, 5), (177, 2)]
210	4	2	8	36	[(235, 4), (230, 3), (52, 4), (204, 10), (185, 10), (193, 10), (221, 8), (108, 9), (136, 2), (116, 2), (64, 10), (172, 10), (7, 10), (127, 1), (207, 7), (58, 2), (231, 4), (56, 9), (135, 3), (68, 4), (141, 2), (120, 8), (93, 5), (38, 5), (189, 1), (175, 3), (245, 4), (241, 10), (92, 1), (176, 0), (144, 8), (111, 7), (139, 10), (81, 10), (85, 8), (214, 3)]
211	2	3	8	38	[(161, 9), (66, 8), (69, 10), (148, 10), (238, 3), (74, 7), (6, 10), (241, 4), (126, 9), (61, 9), (2, 5), (41, 3), (34, 7), (153, 8), (31, 5), (70, 3), (163, 9), (213, 7), (19, 8), (23, 10), (58, 1), (45, 2), (225, 0), (85, 8), (4, 4), (11, 5), (155, 10), (18, 3), (190, 3), (132, 6), (12, 3), (28, 6), (170, 3), (130, 8), (107, 7), (203, 2), (123, 3), (46, 1)]
212	2	1	8	37	[(73, 10), (193, 8), (227, 7), (172, 3), (188, 2), (155, 6), (99, 4), (177, 9), (132, 5), (21, 1), (57, 2), (74, 0), (138, 8), (204, 0), (134, 2), (37, 9), (152, 0), (205, 5), (144, 7), (207, 1), (33, 1), (201, 0), (70, 8), (218, 1), (5, 3), (92, 5), (166, 5), (62, 0), (23, 2), (87, 6), (249, 1), (71, 3), (161, 0), (239, 5), (145, 0), (203, 9), (194, 8)]
213	2	1	8	32	[(82, 0), (134, 4), (138, 5), (21, 5), (213, 1), (185, 6), (237, 10), (150, 5), (56, 1), (219, 5), (192, 8), (1, 5), (16, 1), (17, 2), (108, 5), (116, 0), (83, 2), (129, 10), (153, 6), (183, 5), (149, 10), (234, 8), (160, 9), (200, 1), (49, 2), (176, 10), (27, 0), (211, 6), (126, 1), (241, 6), (135, 5), (120, 4)]
214	3	1	2	32	[(211, 2), (28, 2), (184, 9), (7, 1), (12, 6), (1, 6), (80, 3), (88, 10), (223, 6), (107, 3), (229, 0), (248, 3), (50, 5), (179, 1), (205, 1), (136, 6), (52, 4), (150, 2), (239, 9), (173, 2), (201, 5), (121, 9), (75, 6), (3, 8), (195, 3), (151, 2), (141, 6), (245, 1), (95, 8), (100, 8), (11, 6), (202, 9)]
215	2	1	8	40	[(149, 9), (110, 0), (156, 1), (195, 2), (247, 4), (166, 1), (132, 2), (3, 5), (6, 2), (207, 5), (211, 5), (114, 5), (232, 3), (167, 3), (88, 4), (75, 9), (177, 4), (91, 6), (112, 0), (55, 9), (116, 2), (70, 0), (29, 8), (120, 6), (12, 8), (191, 5), (185, 8), (79, 8), (58, 5), (145, 3), (159, 1), (176, 5), (215, 10), (226, 1), (162, 9), (137, 6), (179, 9), (121, 6), (220, 9), (200, 1)]
216	1	1	8	35	[(162, 5), (73, 0), (1, 2), (139, 0), (90, 6), (55, 1), (96, 8), (78, 10), (67, 10), (134, 7), (11, 4), (164, 3), (9, 0), (205, 4), (167, 4), (65, 3), (114, 10), (222, 0), (77, 6), (180, 1), (83, 0), (17, 0), (6, 10), (52, 2), (181, 9), (130, 5), (104, 0), (105, 6), (69, 3), (15, 1), (237, 10), (63, 7), (169, 1), (184, 7), (225, 4)]
217	15	1	8	38	[(25, 7), (166, 3), (114, 3), (137, 4), (109, 4), (20, 7), (224, 6), (134, 4), (11, 7), (50, 8), (103, 10), (124, 3), (102, 0), (202, 8), (180, 1), (220, 8), (99, 2), (122, 7), (195, 5), (60, 2), (218, 10), (194, 0), (2, 2), (19, 0), (110, 10), (164, 5), (139, 2), (51, 10), (221, 0), (197, 8), (175, 0), (59, 7), (92, 8), (10, 9), (5, 7), (46, 3), (140, 7), (237, 1)]
218	3	1	16	35	[(96, 1), (3, 5), (104, 7), (132, 7), (118, 2), (245, 1), (226, 9), (56, 9), (22, 0), (65, 6), (220, 3), (186, 6), (102, 3), (47, 1), (138, 1), (228, 1), (148, 9), (124, 5), (41, 10), (79, 0), (133, 7), (172, 7), (223, 0), (50, 2), (153, 3), (244, 9), (60, 1), (55, 7), (49, 2), (225, 3), (116, 1), (211, 6), (57, 8), (33, 3), (98, 3)]
219	1	2	8	32	[(173, 9), (122, 0), (208, 6), (26, 8), (117, 8), (240, 0), (95, 6), (199, 5), (211, 0), (209, 2), (33, 6), (98, 4), (36, 0), (90, 7), (192, 3), (52, 10), (125, 0), (243, 1), (129, 4), (151, 5), (134, 5), (231, 10), (10, 4), (43, 4), (5, 4), (140, 5), (34, 6), (137, 6), (200, 1), (205, 7), (147, 0), (157, 2)]
220	3	1	8	34	[(22, 6), (60, 1), (19, 7), (222, 10), (216, 10), (86, 5), (104, 4), (135, 5), (166, 9), (21, 6), (158, 8), (41, 0), (115, 6), (136, 3), (191, 2), (97, 4), (49, 7), (5, 8), (160, 5), (152, 1), (137, 6), (195, 8), (4, 9), (244, 9), (53, 8), (233, 4), (116, 10), (26, 5), (15, 2), (69, 10), (119, 3), (238, 5), (76, 8), (73, 1)]
221	2	2	4	38	[(100, 6), (240, 1), (57, 3), (9, 10), (37, 10), (45, 10), (32, 3), (39, 6), (55, 6), (76, 1), (222, 9), (34, 1), (29, 4), (177, 5), (152, 8), (147, 0), (237, 8), (227, 7), (79, 7), (47, 8), (217, 7), (25, 10), (206, 5), (235, 9), (219, 1), (194, 3), (43, 8), (62, 3), (135, 1), (64, 4), (112, 8), (113, 1), (18, 0), (36, 4), (141, 1), (60, 10), (169, 1), (83, 4)]
222	15	1	2	40	[(7, 9), (31, 6), (245, 10), (51, 1), (212, 6), (88, 7), (219, 2), (236, 6), (185, 4), (57, 4), (28, 1), (72, 2), (195, 10), (129, 2), (180, 5), (89, 0), (60, 7), (159, 5), (15, 9), (11, 3), (2, 10), (228, 8), (80, 8), (182, 4), (38, 3), (237, 8), (207, 1), (101, 2), (103, 1), (171, 2), (54, 8), (36, 0), (53, 3), (121, 3), (18, 4), (179, 4), (124, 0), (229, 5), (90, 10), (46, 4)]
223	2	6	8	42	[(182, 7), (185, 10), (112, 5), (164, 3), (62, 1), (202, 7), (230, 7), (189, 3), (216, 2), (223, 2), (147, 4), (42, 4), (67, 1), (94, 10), (55, 6), (66, 5), (2, 9), (155, 1), (176, 0), (73, 5), (140, 7), (160, 0), (203, 7), (59, 0), (46, 1), (133, 6), (162, 5), (196, 2), (77, 1), (45, 4), (99, 0), (144, 3), (190, 4), (238, 2), (115, 0), (211, 1), (60, 8), (25, 2), (150, 4), (232, 6), (154, 4), (24, 6)]
224	4	6	1	37	[(102, 10), (131, 1), (85, 7), (55, 0), (126, 9), (127, 6), (178, 7), (192, 2), (108, 5), (30, 7), (114, 4), (227, 0), (183, 10), (168, 2), (212, 8), (9, 8), (130, 9), (164, 1), (12, 0), (200, 5), (94, 5), (52, 9), (99, 2), (121, 9), (53, 8), (199, 8), (157, 4), (82, 9), (148, 6), (171, 9), (165, 3), (47, 2), (57, 5), (139, 1), (54, 10), (169, 10), (95, 8)]
225	4	2	8	32	[(110, 0), (170, 10), (44, 2), (29, 10), (52, 8), (121, 6), (116, 10), (163, 9), (91, 0), (179, 9), (189, 10), (6, 2), (201, 5), (153, 6), (13, 1), (145, 1), (51, 4), (152, 3), (239, 5), (97, 10), (187, 9), (124, 1), (43, 4), (92, 8), (106, 6), (108, 3), (215, 0), (192, 1), (218, 8), (27, 8), (37, 0), (101, 6)]
226	6	1	8	28	[(72, 1), (107, 3), (189, 1), (69, 8), (144, 8), (233, 1), (131, 6), (190, 6), (110, 6), (226, 2), (228, 9), (22, 6), (181, 1), (191, 5), (161, 3), (167, 6), (104, 8), (102, 3), (125, 6), (119, 1), (147, 8), (73, 7), (164, 9), (7, 4), (134, 8), (162, 2), (223, 1), (220, 7)]
227	2	1	8	27	[(106, 4), (135, 5), (218, 4), (126, 6), (147, 2), (225, 8), (49, 10), (111, 9), (228, 2), (201, 0), (176, 9), (241, 2), (131, 4), (110, 0), (209, 0), (193, 2), (153, 1), (222, 6), (199, 8), (41, 3), (81, 0), (125, 9), (188, 10), (78, 0), (239, 0), (184, 1), (149, 5)]
228	2	8	8	43	[(229, 1), (226, 0), (154, 8), (167, 9), (166, 3), (41, 3), (130, 0), (25, 7), (82, 6), (247, 9), (206, 4), (149, 9), (150, 4), (163, 3), (64, 2), (217, 5), (124, 1), (246, 4), (188, 1), (75, 6), (242, 1), (104, 2), (81, 10), (238, 2), (221, 2), (160, 10), (213, 7), (120, 4), (169, 10), (146, 7), (190, 9), (15, 6), (33, 8), (233, 10), (212, 9), (209, 9), (107, 1), (56, 3), (10, 0), (215, 8), (191, 6), (115, 6), (6, 9)]
229	1	1	8	25	[(34, 9), (22, 3), (139, 3), (64, 1), (124, 10), (113, 3), (39, 4), (218, 8), (172, 1), (194, 8), (32, 6), (212, 2), (71, 3), (205, 7), (245, 3), (121, 3), (135, 2), (183, 0), (209, 4), (249, 4), (235, 7), (19, 0), (232, 6), (177, 8), (120, 8)]
230	4	1	8	38	[(90, 7), (201, 1), (163, 5), (213, 1), (84, 5), (108, 10), (126, 5), (232, 5), (222, 9), (196, 6), (180, 4), (156, 10), (94, 3), (184, 8), (122, 6), (132, 3), (243, 0), (166, 6), (195, 5), (187, 3), (181, 9), (218, 2), (52, 0), (67, 5), (18, 5), (19, 7), (44, 0), (197, 8), (220, 1), (171, 10), (32, 0), (9, 3), (101, 0), (247, 3), (146, 8), (12, 6), (41, 5), (131, 8)]
231	36	1	8	25	[(181, 0), (163, 3), (35, 9), (131, 9), (236, 0), (78, 3), (235, 0), (106, 8), (50, 1), (224, 2), (223, 4), (187, 9), (6, 3), (244, 8), (51, 5), (105, 10), (76, 10), (88, 2), (85, 5), (170, 8), (186, 10), (197, 5), (201, 5), (149, 4), (145, 4)]
232	5	12	8	32	[(196, 3), (14, 0), (213, 6), (20, 5), (215, 1), (132, 9), (131, 4), (206, 4), (84, 8), (80, 6), (178, 10), (66, 10), (81, 5), (122, 8), (19, 7), (244, 5), (167, 1), (119, 6), (221, 3), (250, 1), (118, 3), (24, 8), (139, 6), (87, 4), (3, 6), (111, 10), (23, 6), (43, 0), (39, 5), (164, 1), (145, 9), (17, 1)]
233	4	1	8	38	[(3, 6), (140, 9), (227, 5), (143, 4), (148, 0), (186, 10), (57, 4), (89, 1), (125, 1), (100, 3), (149, 9), (177, 3), (81, 1), (20, 9), (158, 8), (98, 0), (2, 5), (107, 0), (101, 4), (65, 5), (99, 3), (138, 10), (162, 1), (26, 7), (225, 8), (84, 1), (72, 10), (202, 4), (80, 9), (133, 6), (223, 5), (40, 3), (250, 10), (19, 1), (49, 3), (127, 0), (181, 3), (135, 2)]
234	1	1	8	36	[(113, 10), (48, 10), (123, 6), (42, 6), (238, 2), (70, 1), (199, 4), (101, 5), (19, 10), (49, 9), (223, 9), (224, 0), (234, 4), (179, 1), (87, 3), (169, 2), (18, 4), (181, 1), (58, 0), (213, 9), (155, 2), (194, 2), (215, 7), (154, 0), (39, 1), (184, 2), (248, 8), (75, 1), (108, 8), (200, 9), (139, 7), (124, 4), (152, 6), (174, 4), (182, 10), (22, 0)]
235	5	1	32	40	[(189, 8), (149, 0), (118, 5), (218, 8), (17, 10), (87, 5), (82, 5), (95, 3), (66, 9), (81, 2), (116, 0), (206, 7), (225, 3), (127, 2), (119, 2), (104, 9), (240, 8), (71, 8), (100, 10), (152, 7), (76, 7), (197, 10), (63, 0), (157, 2), (62, 2), (243, 4), (38, 1), (56, 8), (186, 0), (138, 5), (211, 2), (26, 3), (137, 8), (39, 10), (27, 3), (37, 4), (178, 2), (69, 10), (136, 8), (6, 5)]
236	22	2	8	28	[(185, 9), (240, 4), (18, 2), (23, 8), (120, 9), (42, 10), (108, 6), (129, 2), (43, 9), (6, 2), (79, 7), (48, 9), (220, 4), (57, 0), (195, 9), (9, 6), (32, 5), (51, 3), (91, 10), (85, 5), (55, 1), (97, 1), (136, 6), (33, 10), (217, 6), (126, 9), (218, 9), (49, 3)]
237	2	1	8	25	[(77, 3), (131, 1), (170, 0), (156, 10), (130, 3), (55, 2), (245, 3), (157, 5), (181, 4), (65, 10), (4, 6), (198, 9), (81, 10), (110, 10), (140, 6), (76, 7), (11, 3), (54, 0), (50, 8), (96, 7), (60, 6), (163, 7), (201, 5), (73, 4), (98, 5)]
238	2	1	8	33	[(23, 6), (200, 8), (220, 3), (247, 2), (222, 7), (224, 2), (56, 6), (46, 3), (83, 1), (58, 3), (167, 10), (21, 9), (63, 5), (150, 5), (244, 8), (173, 1), (146, 9), (68, 2), (138, 0), (151, 10), (128, 6), (106, 2), (148, 7), (160, 7), (139, 2), (20, 4), (188, 9), (5, 5), (65, 2), (192, 4), (126, 10), (202, 0), (145, 1)]
239	1	5	2	28	[(90, 8), (69, 8), (56, 7), (221, 6), (74, 0), (209, 9), (101, 5), (228, 6), (193, 4), (76, 4), (146, 1), (34, 8), (211, 1), (207, 6), (78, 0), (217, 0), (118, 6), (218, 0), (23, 0), (110, 5), (246, 5), (235, 4), (93, 7), (138, 7), (145, 4), (28, 9), (31, 5), (43, 3)]
240	1	1	16	32	[(97, 9), (230, 8), (138, 9), (206, 5), (107, 6), (64, 2), (208, 8), (118, 10), (233, 1), (85, 6), (16, 8), (95, 7), (210, 2), (62, 8), (8, 5), (23, 6), (58, 0), (209, 7), (186, 3), (78, 4), (131, 3), (153, 8), (88, 7), (44, 4), (47, 6), (81, 8), (228, 6), (201, 10), (9, 10), (156, 3), (143, 3), (207, 10)]
241	1	1	8	33	[(155, 7), (77, 5), (234, 9), (194, 10), (45, 4), (137, 6), (216, 7), (27, 6), (130, 10), (217, 7), (147, 8), (167, 6), (3, 9), (180, 9), (113, 8), (61, 0), (198, 3), (14, 2), (192, 8), (179, 0), (195, 0), (2, 1), (89, 3), (186, 1), (81, 4), (46, 9), (166, 0), (83, 0), (177, 0), (29, 0), (39, 6), (90, 10), (96, 8)]
242	1	3	8	32	[(35, 0), (208, 2), (32, 10), (235, 8), (11, 0), (165, 1), (28, 10), (142, 8), (243, 6), (46, 7), (218, 1), (175, 8), (173, 3), (229, 4), (221, 0), (61, 9), (242, 1), (7, 7), (117, 6), (171, 4), (93, 8), (145, 7), (88, 0), (6, 10), (82, 2), (55, 10), (130, 3), (216, 10), (97, 1), (109, 3), (127, 7), (63, 9)]
243	2	7	8	36	[(60, 3), (239, 5), (225, 1), (233, 7), (151, 3), (126, 4), (4, 8), (19, 6), (26, 7), (42, 7), (102, 0), (108, 0), (40, 5), (117, 9), (244, 10), (182, 5), (20, 8), (8, 7), (107, 7), (234, 9), (95, 10), (203, 9), (10, 1), (2, 10), (149, 6), (241, 4), (189, 1), (155, 7), (129, 8), (103, 3), (28, 8), (212, 0), (141, 5), (221, 3), (223, 10), (96, 8)]
244	2	1	8	31	[(120, 5), (75, 2), (53, 3), (135, 1), (15, 0), (206, 4), (144, 8), (18, 3), (246, 9), (37, 2), (234, 2), (97, 6), (209, 9), (82, 7), (93, 3), (166, 10), (76, 2), (114, 10), (239, 9), (58, 3), (198, 1), (91, 8), (103, 0), (60, 1), (250, 2), (10, 8), (242, 2), (222, 2), (22, 10), (19, 0), (66, 3)]
245	1	3	8	44	[(215, 8), (49, 9), (247, 9), (212, 4), (9, 10), (174, 3), (40, 4), (128, 2), (53, 8), (127, 9), (162, 10), (84, 4), (192, 6), (203, 2), (234, 2), (119, 5), (236, 4), (52, 3), (45, 3), (226, 2), (175, 8), (95, 1), (68, 10), (225, 0), (65, 5), (34, 10), (75, 0), (91, 2), (147, 10), (46, 9), (217, 6), (199, 0), (158, 2), (47, 7), (246, 8), (103, 9), (92, 6), (145, 3), (219, 1), (169, 9), (13, 10), (170, 2), (61, 10), (113, 7)]
246	1	1	16	31	[(244, 0), (21, 3), (233, 7), (124, 9), (43, 9), (88, 5), (153, 3), (24, 0), (231, 4), (236, 10), (69, 8), (20, 2), (144, 3), (93, 0), (205, 2), (102, 6), (161, 2), (134, 0), (45, 10), (203, 4), (189, 4), (100, 4), (138, 2), (101, 2), (109, 10), (193, 8), (128, 4), (172, 8), (3, 1), (62, 6), (188, 5)]
247	7	1	8	36	[(131, 2), (244, 8), (141, 9), (96, 0), (1, 1), (183, 8), (202, 6), (212, 0), (77, 5), (185, 7), (169, 5), (86, 1), (24, 1), (57, 5), (231, 9), (154, 1), (48, 10), (236, 6), (211, 1), (34, 9), (156, 9), (31, 0), (206, 6), (16, 7), (47, 9), (138, 2), (63, 6), (161, 4), (69, 5), (157, 3), (204, 1), (92, 1), (20, 6), (38, 1), (168, 6), (194, 10)]
248	1	1	8	39	[(35, 1), (65, 2), (182, 5), (57, 4), (151, 3), (211, 9), (208, 10), (160, 9), (133, 2), (174, 1), (69, 8), (127, 4), (143, 4), (244, 7), (190, 3), (52, 4), (61, 4), (85, 3), (104, 8), (250, 7), (175, 1), (89, 10), (80, 10), (201, 9), (5, 7), (155, 10), (67, 6), (18, 2), (111, 0), (158, 5), (230, 3), (248, 8), (102, 0), (123, 0), (73, 2), (115, 0), (9, 7), (210, 9), (184, 5)]
249	2	1	8	34	[(109, 9), (78, 3), (137, 1), (244, 1), (152, 0), (124, 5), (131, 1), (166, 5), (111, 10), (150, 8), (10, 7), (149, 8), (177, 7), (40, 3), (221, 2), (116, 8), (155, 1), (210, 7), (95, 1), (65, 8), (167, 7), (2, 3), (89, 8), (202, 8), (222, 10), (205, 10), (79, 1), (136, 5), (217, 7), (14, 3), (142, 5), (188, 6), (154, 9), (133, 5)]
250	1	1	8	29	[(36, 4), (23, 2), (119, 10), (208, 6), (77, 9), (27, 4), (155, 6), (13, 0), (99, 1), (175, 1), (11, 7), (58, 3), (4, 0), (214, 2), (183, 3), (139, 8), (197, 3), (52, 2), (115, 6), (96, 2), (200, 4), (45, 0), (78, 6), (202, 6), (9, 9), (148, 1), (246, 4), (17, 1), (59, 8)]
