app_id	nb_instances	core	memory	inter_degree	inter_aff
1	1	1	8	0	[]
2	1	1	8	0	[]
3	19	2	2	0	[]
4	6	1	8	0	[]
5	6	6	8	0	[]
6	2	1	8	0	[]
7	26	1	2	0	[]
8	1	1	2	0	[]
9	1	2	8	0	[]
10	5	1	2	0	[]
11	3	1	8	0	[]
12	1	1	8	0	[]
13	5	2	16	0	[]
14	1	1	2	0	[]
15	19	1	2	0	[]
16	14	2	8	0	[]
17	1	6	8	0	[]
18	1	1	8	0	[]
19	2	1	16	0	[]
20	6	2	8	0	[]
21	7	1	8	0	[]
22	87	5	8	0	[]
23	2	1	6	0	[]
24	3	6	8	0	[]
25	1	1	6	0	[]
26	2	2	8	0	[]
27	4	1	8	0	[]
28	2	1	8	0	[]
29	1	1	8	0	[]
30	2	1	8	0	[]
31	2	2	2	0	[]
32	2	1	8	0	[]
33	24	3	1	0	[]
34	2	1	8	0	[]
35	49	1	8	0	[]
36	2	1	8	0	[]
37	4	2	16	0	[]
38	5	1	8	0	[]
39	1	6	8	0	[]
40	2	1	8	0	[]
41	2	6	8	0	[]
42	2	3	8	0	[]
43	2	6	16	0	[]
44	1	5	8	0	[]
45	3	1	8	0	[]
46	6	2	8	0	[]
47	19	1	8	0	[]
48	1	1	6	0	[]
49	1	1	8	0	[]
50	4	1	8	0	[]
51	1	1	2	0	[]
52	2	1	8	0	[]
53	1	1	1	0	[]
54	1	3	8	0	[]
55	1	1	8	0	[]
56	5	1	8	0	[]
57	2	1	7	0	[]
58	1	5	8	0	[]
59	2	1	8	0	[]
60	49	2	8	0	[]
61	3	2	8	0	[]
62	1	4	2	0	[]
63	4	2	8	0	[]
64	1	1	8	0	[]
65	49	1	2	0	[]
66	2	1	8	0	[]
67	2	3	8	0	[]
68	1	4	8	0	[]
69	1	1	1	0	[]
70	3	1	8	0	[]
71	1	1	2	0	[]
72	7	1	8	0	[]
73	2	1	8	0	[]
74	1	1	8	0	[]
75	2	1	2	0	[]
76	2	2	8	0	[]
77	3	1	8	0	[]
78	4	1	8	0	[]
79	1	2	6	0	[]
80	1	2	8	0	[]
81	1	3	1	0	[]
82	1	4	8	0	[]
83	4	1	8	0	[]
84	2	1	1	0	[]
85	11	1	2	0	[]
86	18	3	8	0	[]
87	2	1	8	0	[]
88	2	1	8	0	[]
89	1	1	2	0	[]
90	2	1	8	0	[]
91	2	2	8	0	[]
92	5	1	8	0	[]
93	1	1	1	0	[]
94	1	2	8	0	[]
95	4	1	8	0	[]
96	1	1	8	0	[]
97	2	1	8	0	[]
98	5	2	8	0	[]
99	2	2	8	0	[]
100	14	1	8	0	[]
101	2	1	4	0	[]
102	3	4	8	0	[]
103	2	1	8	0	[]
104	32	1	8	0	[]
105	8	2	7	0	[]
106	2	1	8	0	[]
107	4	3	8	0	[]
108	5	4	8	0	[]
109	1	2	8	0	[]
110	1	1	8	0	[]
111	16	1	8	0	[]
112	1	1	8	0	[]
113	4	1	16	0	[]
114	2	6	8	0	[]
115	1	1	8	0	[]
116	2	1	8	0	[]
117	2	6	8	0	[]
118	2	1	8	0	[]
119	2	1	8	0	[]
120	1	1	8	0	[]
121	1	2	2	0	[]
122	1	1	1	0	[]
123	2	1	8	0	[]
124	64	2	8	0	[]
125	4	1	8	0	[]
126	130	4	8	0	[]
127	2	1	6	0	[]
128	4	1	8	0	[]
129	1	2	32	0	[]
130	1	1	8	0	[]
131	2	4	48	0	[]
132	1	6	8	0	[]
133	4	1	8	0	[]
134	1	1	8	0	[]
135	1	4	8	0	[]
136	2	6	8	0	[]
137	1	1	8	0	[]
138	1	1	2	0	[]
139	2	1	8	0	[]
140	2	1	8	0	[]
141	39	6	8	0	[]
142	5	1	8	0	[]
143	2	1	8	0	[]
144	69	1	8	0	[]
145	1	1	8	0	[]
146	2	1	8	0	[]
147	4	1	2	0	[]
148	28	1	15	0	[]
149	6	1	8	0	[]
150	2	1	8	0	[]
151	1	1	8	0	[]
152	8	1	2	0	[]
153	2	1	8	0	[]
154	1	1	8	0	[]
155	2	1	8	0	[]
156	3	1	8	0	[]
157	2	12	8	0	[]
158	2	6	8	0	[]
159	7	1	8	0	[]
160	8	1	16	0	[]
161	2	1	2	0	[]
162	5	2	2	0	[]
163	2	1	8	0	[]
164	10	2	8	0	[]
165	1	1	8	0	[]
166	2	1	8	0	[]
167	4	1	8	0	[]
168	2	1	8	0	[]
169	1	4	8	0	[]
170	7	2	8	0	[]
171	3	1	16	0	[]
172	1	1	1	0	[]
173	1	1	8	0	[]
174	2	1	8	0	[]
175	2	2	8	0	[]
176	1	1	8	0	[]
177	2	1	8	0	[]
178	1	1	8	0	[]
179	1	1	8	0	[]
180	1	4	16	0	[]
181	3	1	8	0	[]
182	1	1	8	0	[]
183	2	1	8	0	[]
184	1	4	8	0	[]
185	1	3	8	0	[]
186	3	1	8	0	[]
187	21	3	8	0	[]
188	12	1	1	0	[]
189	3	1	5	0	[]
190	2	1	2	0	[]
191	2	2	8	0	[]
192	174	2	8	0	[]
193	2	1	8	0	[]
194	3	1	8	0	[]
195	1	1	8	0	[]
196	1	2	8	0	[]
197	1	2	8	0	[]
198	4	1	1	0	[]
199	2	1	2	0	[]
200	7	1	8	0	[]
201	1	4	8	0	[]
202	2	1	8	0	[]
203	1	1	8	0	[]
204	6	4	2	0	[]
205	24	1	8	0	[]
206	3	1	8	0	[]
207	2	1	8	0	[]
208	5	1	8	0	[]
209	2	1	2	0	[]
210	6	1	8	0	[]
211	1	4	8	0	[]
212	1	2	8	0	[]
213	1	2	8	0	[]
214	7	4	16	0	[]
215	2	3	8	0	[]
216	2	1	8	0	[]
217	5	1	8	0	[]
218	2	1	8	0	[]
219	1	1	8	0	[]
220	1	4	8	0	[]
221	1	1	2	0	[]
222	1	2	8	0	[]
223	210	1	8	0	[]
224	1	1	8	0	[]
225	4	4	8	0	[]
226	1	1	8	0	[]
227	1	2	8	0	[]
228	5	1	8	0	[]
229	1	1	8	0	[]
230	2	1	8	0	[]
231	2	1	8	0	[]
232	3	1	8	0	[]
233	2	1	8	0	[]
234	1	1	8	0	[]
235	2	1	8	0	[]
236	7	4	8	0	[]
237	1	1	1	0	[]
238	4	1	2	0	[]
239	2	1	1	0	[]
240	1	1	8	0	[]
241	1	6	8	0	[]
242	1	4	8	0	[]
243	1	1	8	0	[]
244	2	1	8	0	[]
245	5	1	8	0	[]
246	99	1	8	0	[]
247	1	1	8	0	[]
248	3	1	8	0	[]
249	6	1	8	0	[]
250	2	3	1	0	[]
