app_id	nb_instances	core	memory	inter_degree	inter_aff
1	4	1	6	21	[(2, 8), (205, 2), (199, 1), (40, 10), (50, 9), (85, 7), (201, 4), (170, 9), (237, 4), (202, 3), (39, 3), (214, 9), (80, 9), (101, 7), (233, 9), (84, 7), (121, 0), (61, 8), (168, 7), (88, 7), (247, 6)]
2	6	4	8	15	[(15, 5), (13, 10), (198, 2), (31, 6), (219, 2), (189, 5), (207, 10), (229, 6), (52, 10), (18, 8), (133, 5), (212, 2), (33, 10), (171, 6), (233, 8)]
3	63	3	16	17	[(11, 7), (104, 2), (144, 1), (186, 0), (149, 5), (214, 5), (248, 10), (41, 6), (3, 4), (60, 6), (132, 0), (173, 9), (130, 1), (225, 3), (44, 7), (233, 6), (221, 7)]
4	3	1	8	12	[(29, 9), (154, 2), (204, 10), (229, 3), (172, 2), (223, 2), (178, 2), (168, 10), (244, 3), (19, 5), (63, 2), (59, 8)]
5	3	4	8	19	[(153, 3), (188, 3), (19, 1), (20, 3), (46, 0), (84, 3), (234, 10), (33, 6), (240, 5), (169, 2), (27, 7), (31, 10), (29, 9), (134, 8), (180, 5), (142, 4), (140, 8), (216, 5), (143, 1)]
6	2	1	8	11	[(20, 10), (7, 6), (102, 6), (236, 8), (222, 2), (29, 9), (163, 9), (221, 3), (3, 4), (137, 7), (155, 9)]
7	53	1	8	18	[(129, 0), (29, 10), (239, 1), (12, 4), (88, 10), (116, 5), (32, 4), (194, 5), (199, 7), (138, 5), (110, 5), (191, 6), (114, 2), (90, 4), (77, 2), (127, 7), (100, 5), (179, 3)]
8	2	6	60	18	[(113, 4), (23, 4), (231, 0), (7, 8), (16, 8), (119, 3), (234, 8), (65, 2), (238, 5), (45, 10), (30, 8), (105, 3), (243, 3), (122, 9), (228, 0), (32, 7), (229, 10), (80, 0)]
9	2	1	8	15	[(193, 9), (133, 10), (102, 7), (155, 3), (65, 8), (174, 9), (81, 5), (25, 2), (175, 1), (21, 8), (103, 3), (27, 5), (47, 9), (43, 9), (173, 6)]
10	2	2	8	15	[(121, 5), (91, 5), (127, 4), (16, 4), (214, 6), (81, 9), (33, 1), (244, 4), (100, 7), (236, 1), (158, 7), (180, 6), (115, 5), (149, 10), (31, 10)]
11	25	1	8	9	[(236, 6), (38, 0), (58, 2), (160, 2), (81, 9), (87, 6), (167, 9), (226, 8), (156, 1)]
12	9	4	8	17	[(192, 1), (190, 5), (176, 2), (20, 9), (22, 7), (144, 0), (188, 8), (139, 1), (63, 6), (229, 8), (154, 2), (87, 10), (40, 8), (126, 6), (108, 0), (179, 4), (137, 2)]
13	3	4	8	15	[(104, 8), (195, 2), (135, 3), (214, 8), (146, 6), (187, 0), (105, 2), (168, 9), (162, 2), (193, 2), (215, 3), (51, 8), (64, 1), (47, 4), (152, 2)]
14	2	4	8	16	[(106, 3), (195, 5), (166, 3), (159, 5), (91, 2), (181, 10), (179, 8), (172, 3), (163, 4), (118, 9), (51, 8), (50, 9), (131, 8), (149, 10), (232, 1), (197, 1)]
15	2	1	8	17	[(155, 3), (97, 3), (32, 7), (79, 9), (249, 1), (154, 4), (2, 2), (158, 1), (8, 8), (126, 9), (6, 7), (214, 0), (115, 5), (75, 2), (59, 0), (197, 1), (16, 6)]
16	2	1	8	15	[(57, 1), (145, 3), (116, 2), (203, 7), (65, 7), (21, 0), (16, 10), (90, 0), (160, 2), (243, 3), (148, 2), (161, 0), (88, 8), (134, 0), (233, 9)]
17	6	1	8	16	[(107, 9), (203, 10), (65, 5), (155, 3), (166, 9), (157, 5), (125, 9), (4, 6), (82, 4), (61, 9), (246, 3), (202, 10), (232, 1), (85, 8), (149, 9), (192, 2)]
18	19	1	8	14	[(52, 0), (205, 4), (28, 2), (30, 0), (15, 6), (103, 5), (101, 10), (156, 1), (22, 2), (246, 5), (203, 1), (183, 3), (197, 8), (23, 8)]
19	1	1	6	15	[(110, 2), (143, 0), (250, 5), (16, 10), (194, 3), (121, 9), (122, 10), (60, 7), (182, 1), (192, 8), (21, 8), (18, 0), (172, 5), (52, 7), (236, 6)]
20	2	1	16	22	[(195, 4), (250, 10), (122, 10), (200, 2), (16, 2), (192, 10), (196, 6), (77, 7), (74, 5), (72, 8), (6, 0), (64, 3), (61, 2), (95, 1), (44, 2), (104, 0), (217, 10), (119, 3), (92, 7), (19, 9), (186, 7), (45, 8)]
21	3	1	8	21	[(68, 1), (207, 5), (100, 1), (202, 3), (26, 7), (146, 10), (194, 2), (160, 1), (191, 5), (71, 0), (69, 1), (39, 9), (5, 0), (72, 4), (8, 0), (91, 1), (27, 10), (103, 2), (36, 1), (52, 9), (99, 7)]
22	1	1	8	10	[(137, 10), (216, 7), (116, 0), (226, 0), (242, 10), (167, 2), (162, 5), (100, 10), (104, 5), (232, 2)]
23	8	2	8	14	[(20, 9), (156, 7), (246, 1), (67, 7), (97, 10), (193, 1), (205, 6), (100, 2), (61, 0), (23, 1), (183, 6), (207, 3), (41, 8), (78, 5)]
24	5	4	8	15	[(33, 8), (130, 7), (104, 6), (123, 6), (45, 9), (60, 5), (95, 1), (17, 1), (14, 10), (76, 5), (55, 10), (173, 10), (143, 4), (180, 3), (59, 0)]
25	1	3	1	9	[(207, 7), (126, 2), (176, 0), (225, 0), (167, 8), (226, 3), (110, 2), (121, 5), (165, 6)]
26	2	4	8	14	[(74, 3), (233, 0), (179, 9), (66, 8), (54, 6), (90, 4), (151, 7), (164, 0), (242, 7), (195, 3), (130, 3), (85, 7), (220, 0), (232, 8)]
27	4	1	8	12	[(218, 10), (130, 9), (22, 0), (184, 0), (229, 1), (86, 8), (45, 4), (123, 0), (135, 10), (157, 8), (224, 6), (88, 9)]
28	1	1	8	14	[(218, 1), (3, 1), (2, 0), (228, 0), (243, 7), (154, 4), (64, 3), (167, 0), (208, 8), (32, 2), (132, 7), (235, 3), (45, 8), (12, 7)]
29	5	1	8	10	[(192, 6), (135, 6), (151, 8), (96, 4), (147, 9), (38, 6), (117, 2), (17, 1), (75, 3), (83, 6)]
30	6	1	8	12	[(105, 6), (76, 0), (141, 6), (93, 1), (129, 1), (176, 5), (11, 5), (166, 7), (81, 10), (172, 4), (241, 7), (219, 10)]
31	2	4	8	12	[(16, 5), (95, 7), (224, 5), (68, 10), (24, 4), (203, 7), (191, 1), (111, 10), (40, 10), (184, 6), (97, 5), (228, 2)]
32	10	1	8	14	[(20, 10), (194, 3), (32, 1), (3, 6), (30, 6), (158, 5), (119, 3), (45, 1), (17, 6), (182, 8), (24, 5), (211, 2), (213, 3), (100, 5)]
33	2	1	6	17	[(185, 6), (57, 5), (141, 8), (93, 9), (249, 7), (235, 3), (137, 3), (205, 10), (148, 9), (219, 9), (29, 4), (207, 2), (167, 9), (241, 0), (146, 5), (172, 4), (118, 6)]
34	122	1	8	10	[(119, 3), (225, 9), (61, 0), (209, 2), (235, 3), (36, 7), (133, 5), (89, 5), (17, 8), (98, 3)]
35	4	1	8	9	[(194, 5), (164, 7), (172, 7), (95, 9), (190, 8), (236, 9), (150, 8), (18, 3), (249, 4)]
36	3	1	8	14	[(180, 9), (148, 7), (195, 4), (60, 5), (169, 8), (96, 8), (145, 3), (155, 3), (117, 3), (199, 2), (46, 1), (10, 10), (208, 9), (118, 5)]
37	1	1	8	14	[(50, 3), (191, 0), (141, 7), (39, 3), (209, 0), (148, 9), (159, 0), (59, 8), (136, 5), (65, 0), (95, 6), (85, 6), (61, 5), (147, 1)]
38	5	6	16	10	[(14, 1), (55, 6), (244, 7), (36, 1), (27, 1), (46, 7), (194, 9), (64, 0), (4, 4), (237, 7)]
39	1	1	8	21	[(101, 5), (228, 3), (192, 6), (129, 0), (52, 9), (176, 0), (225, 2), (238, 1), (122, 0), (55, 3), (157, 8), (81, 9), (152, 9), (103, 1), (70, 2), (159, 6), (236, 5), (32, 2), (143, 2), (87, 2), (69, 4)]
40	2	6	8	16	[(75, 0), (90, 0), (77, 7), (106, 8), (72, 4), (70, 3), (57, 5), (154, 9), (68, 9), (141, 0), (239, 10), (162, 2), (14, 10), (190, 8), (249, 10), (134, 5)]
41	10	1	8	9	[(31, 3), (204, 6), (219, 6), (151, 9), (120, 2), (80, 1), (181, 0), (6, 10), (97, 9)]
42	13	1	8	12	[(24, 4), (82, 10), (214, 10), (20, 1), (70, 7), (149, 8), (207, 1), (66, 8), (194, 10), (50, 10), (196, 8), (29, 4)]
43	1	1	1	8	[(71, 10), (44, 1), (102, 7), (125, 1), (181, 2), (32, 8), (61, 4), (23, 2)]
44	5	1	8	16	[(121, 2), (50, 9), (204, 3), (198, 3), (99, 0), (228, 4), (115, 6), (236, 6), (5, 7), (141, 3), (97, 3), (27, 2), (53, 3), (96, 2), (11, 4), (133, 3)]
45	50	1	8	12	[(147, 5), (250, 2), (60, 0), (185, 4), (212, 8), (64, 3), (84, 3), (124, 7), (228, 9), (88, 6), (76, 2), (167, 7)]
46	2	5	8	17	[(95, 4), (109, 5), (23, 1), (94, 0), (58, 8), (41, 6), (181, 3), (209, 9), (13, 4), (61, 1), (243, 6), (150, 8), (153, 8), (226, 8), (141, 8), (188, 3), (145, 9)]
47	2	3	8	20	[(131, 10), (82, 6), (66, 6), (151, 8), (81, 3), (231, 2), (157, 9), (239, 10), (163, 5), (3, 10), (114, 10), (247, 4), (48, 9), (6, 5), (18, 1), (99, 8), (80, 7), (134, 5), (13, 6), (68, 6)]
48	1	4	8	8	[(17, 5), (214, 6), (116, 8), (121, 10), (205, 9), (138, 5), (28, 3), (187, 3)]
49	1	1	8	18	[(191, 5), (187, 9), (159, 1), (216, 9), (203, 9), (129, 10), (108, 0), (228, 10), (37, 9), (30, 2), (128, 1), (104, 4), (13, 2), (206, 4), (56, 3), (2, 0), (71, 1), (238, 4)]
50	57	1	8	10	[(220, 9), (114, 2), (237, 3), (194, 6), (119, 10), (226, 8), (223, 10), (130, 4), (122, 7), (76, 8)]
51	2	3	1	13	[(56, 9), (139, 9), (147, 4), (15, 5), (86, 5), (145, 1), (78, 8), (159, 10), (210, 10), (61, 3), (77, 4), (124, 2), (219, 6)]
52	1	4	8	13	[(84, 2), (152, 10), (156, 9), (80, 6), (135, 7), (118, 1), (170, 8), (111, 2), (33, 3), (169, 3), (211, 5), (145, 4), (174, 4)]
53	2	5	8	11	[(10, 3), (203, 6), (229, 3), (41, 8), (184, 0), (124, 0), (20, 4), (93, 0), (78, 10), (170, 2), (120, 8)]
54	58	1	7	17	[(28, 8), (214, 10), (154, 9), (161, 8), (83, 10), (40, 10), (60, 3), (153, 6), (195, 0), (51, 10), (187, 7), (61, 8), (81, 7), (180, 8), (113, 4), (30, 9), (42, 6)]
55	10	1	2	17	[(220, 7), (83, 5), (13, 6), (50, 3), (15, 4), (161, 0), (55, 8), (181, 8), (125, 0), (246, 4), (59, 3), (82, 8), (43, 1), (222, 4), (214, 0), (235, 4), (247, 7)]
56	2	1	8	16	[(115, 4), (10, 7), (214, 9), (26, 7), (131, 9), (150, 2), (103, 9), (243, 1), (81, 9), (15, 3), (66, 5), (190, 1), (79, 5), (72, 8), (84, 6), (65, 0)]
57	2	6	16	14	[(235, 0), (162, 4), (44, 4), (14, 0), (50, 5), (152, 9), (71, 0), (45, 8), (139, 5), (99, 5), (130, 8), (113, 9), (159, 9), (145, 6)]
58	1	3	8	15	[(191, 0), (76, 1), (130, 8), (81, 7), (24, 1), (210, 1), (134, 5), (107, 6), (196, 2), (226, 0), (44, 10), (57, 5), (87, 8), (52, 2), (67, 7)]
59	52	2	8	15	[(97, 0), (250, 10), (120, 9), (47, 7), (51, 10), (231, 3), (3, 9), (140, 7), (9, 8), (186, 3), (175, 8), (212, 9), (137, 1), (133, 7), (10, 6)]
60	1	1	8	15	[(25, 9), (10, 9), (134, 2), (59, 5), (104, 0), (40, 2), (175, 1), (70, 4), (88, 4), (91, 2), (205, 6), (75, 7), (159, 9), (223, 6), (172, 3)]
61	2	1	2	22	[(43, 10), (114, 2), (191, 9), (41, 1), (46, 9), (96, 3), (221, 4), (136, 1), (240, 2), (185, 0), (142, 6), (17, 1), (110, 0), (134, 3), (204, 0), (107, 8), (19, 2), (122, 10), (178, 6), (22, 3), (124, 6), (225, 6)]
62	2	4	8	16	[(170, 5), (78, 1), (25, 3), (136, 6), (3, 2), (178, 8), (22, 3), (241, 6), (119, 6), (169, 1), (83, 4), (21, 2), (102, 8), (237, 10), (204, 3), (192, 0)]
63	1	5	8	16	[(126, 6), (22, 5), (130, 5), (99, 10), (245, 6), (29, 9), (214, 7), (36, 4), (54, 10), (72, 6), (75, 3), (78, 3), (69, 9), (195, 0), (80, 7), (20, 0)]
64	1	1	8	13	[(137, 5), (149, 5), (49, 3), (173, 8), (218, 10), (88, 6), (83, 7), (40, 8), (142, 2), (79, 2), (216, 0), (17, 3), (172, 5)]
65	1	4	8	22	[(3, 3), (160, 2), (16, 4), (204, 0), (188, 8), (42, 10), (32, 5), (146, 1), (56, 0), (215, 10), (170, 0), (225, 2), (236, 7), (57, 7), (96, 2), (195, 8), (33, 6), (231, 5), (174, 10), (208, 3), (11, 6), (211, 10)]
66	2	1	8	14	[(135, 0), (35, 5), (26, 6), (126, 4), (83, 5), (48, 9), (177, 5), (17, 6), (53, 1), (187, 5), (31, 4), (193, 0), (180, 8), (204, 6)]
67	2	1	8	17	[(31, 10), (224, 2), (7, 10), (122, 3), (156, 1), (198, 4), (53, 0), (232, 1), (121, 7), (17, 9), (231, 8), (59, 4), (104, 8), (76, 8), (63, 9), (169, 0), (155, 3)]
68	7	1	8	13	[(247, 1), (216, 6), (246, 2), (23, 6), (185, 9), (48, 2), (26, 9), (29, 1), (170, 3), (211, 7), (194, 7), (203, 5), (206, 0)]
69	1	2	8	17	[(13, 0), (83, 7), (166, 9), (133, 6), (23, 5), (34, 4), (238, 10), (136, 10), (91, 4), (54, 0), (126, 2), (195, 9), (214, 7), (144, 1), (9, 9), (146, 2), (22, 6)]
70	1	1	8	19	[(126, 6), (111, 9), (238, 10), (206, 9), (46, 1), (2, 2), (237, 10), (221, 2), (202, 0), (63, 4), (120, 3), (144, 0), (235, 0), (176, 3), (214, 6), (23, 3), (5, 1), (26, 7), (79, 8)]
71	3	1	16	15	[(208, 5), (75, 2), (17, 4), (68, 10), (174, 2), (223, 4), (41, 8), (172, 6), (122, 6), (169, 9), (112, 8), (31, 6), (3, 1), (61, 2), (84, 4)]
72	2	1	8	17	[(179, 7), (21, 4), (78, 0), (117, 10), (211, 5), (96, 9), (238, 9), (35, 10), (171, 8), (3, 5), (223, 1), (94, 9), (104, 3), (228, 10), (227, 2), (186, 7), (8, 10)]
73	5	1	1	20	[(208, 6), (81, 10), (130, 2), (60, 2), (180, 2), (178, 10), (61, 3), (177, 1), (138, 2), (37, 10), (59, 0), (78, 3), (238, 9), (14, 9), (136, 9), (202, 10), (127, 6), (98, 3), (244, 9), (206, 4)]
74	5	1	10	9	[(65, 4), (223, 1), (192, 7), (187, 3), (76, 3), (165, 1), (231, 9), (218, 2), (4, 4)]
75	2	1	8	16	[(60, 7), (204, 0), (103, 5), (149, 4), (161, 5), (119, 3), (221, 2), (145, 4), (62, 8), (153, 7), (31, 6), (95, 0), (40, 6), (80, 7), (135, 9), (247, 5)]
76	2	1	16	15	[(144, 3), (54, 5), (135, 5), (170, 9), (152, 0), (21, 9), (242, 2), (118, 0), (75, 2), (192, 2), (62, 2), (166, 3), (9, 8), (11, 9), (180, 1)]
77	1	4	8	11	[(247, 8), (220, 10), (106, 8), (142, 3), (14, 4), (226, 9), (82, 2), (62, 4), (144, 2), (2, 6), (3, 10)]
78	2	4	8	16	[(33, 8), (64, 6), (194, 9), (71, 6), (218, 3), (17, 3), (159, 9), (242, 1), (88, 3), (52, 7), (20, 4), (227, 1), (232, 6), (182, 8), (84, 10), (143, 4)]
79	14	6	8	18	[(183, 6), (218, 10), (203, 8), (130, 6), (121, 6), (73, 10), (81, 10), (210, 4), (76, 6), (154, 5), (175, 1), (192, 9), (100, 10), (46, 9), (53, 6), (220, 1), (163, 1), (156, 0)]
80	3	2	8	15	[(66, 4), (126, 4), (132, 3), (206, 3), (36, 3), (174, 8), (55, 10), (236, 0), (184, 5), (81, 9), (80, 3), (229, 7), (148, 9), (210, 0), (116, 7)]
81	1	4	8	9	[(61, 9), (117, 7), (13, 8), (146, 1), (28, 1), (57, 8), (7, 4), (185, 10), (244, 9)]
82	3	4	8	13	[(127, 7), (181, 10), (201, 10), (184, 3), (95, 8), (16, 3), (82, 1), (49, 10), (12, 6), (185, 9), (160, 5), (169, 10), (240, 3)]
83	1	4	3	12	[(64, 9), (74, 4), (244, 0), (247, 1), (79, 2), (150, 5), (124, 1), (78, 0), (108, 2), (163, 2), (93, 5), (88, 10)]
84	1	1	8	17	[(175, 3), (15, 7), (91, 3), (246, 9), (236, 10), (138, 6), (57, 0), (213, 7), (28, 10), (108, 9), (163, 3), (92, 7), (165, 9), (224, 6), (137, 2), (127, 9), (26, 1)]
85	1	1	8	13	[(206, 5), (171, 3), (89, 6), (68, 2), (79, 2), (106, 3), (139, 0), (150, 5), (27, 7), (26, 3), (110, 9), (207, 4), (185, 1)]
86	1	3	8	11	[(195, 9), (226, 1), (165, 9), (94, 7), (148, 4), (235, 2), (44, 2), (92, 7), (45, 7), (243, 4), (26, 1)]
87	2	4	8	13	[(216, 10), (193, 0), (45, 2), (136, 5), (44, 3), (171, 6), (77, 2), (12, 4), (126, 3), (204, 6), (239, 10), (175, 1), (147, 3)]
88	3	1	16	13	[(41, 8), (69, 7), (136, 3), (131, 10), (205, 9), (171, 3), (43, 10), (219, 4), (191, 6), (12, 5), (195, 5), (32, 3), (213, 1)]
89	2	3	8	15	[(139, 3), (185, 0), (102, 10), (115, 1), (6, 8), (76, 6), (41, 8), (175, 1), (158, 10), (222, 7), (219, 6), (71, 7), (30, 2), (172, 3), (48, 9)]
90	1	1	8	14	[(43, 8), (230, 1), (126, 3), (57, 8), (84, 9), (65, 9), (9, 7), (44, 5), (77, 10), (86, 4), (151, 9), (40, 2), (108, 5), (129, 3)]
91	1	1	8	21	[(163, 9), (161, 8), (248, 1), (79, 9), (213, 4), (180, 5), (88, 9), (47, 4), (104, 2), (230, 7), (204, 6), (21, 8), (128, 0), (231, 9), (186, 4), (85, 0), (110, 6), (199, 6), (174, 9), (109, 8), (196, 1)]
92	1	2	8	17	[(97, 3), (7, 9), (219, 7), (169, 2), (179, 1), (103, 10), (131, 6), (66, 8), (29, 6), (233, 5), (81, 6), (141, 1), (35, 2), (46, 2), (183, 3), (165, 3), (235, 8)]
93	2	2	8	13	[(40, 1), (186, 7), (86, 9), (101, 9), (8, 4), (129, 7), (84, 7), (3, 3), (93, 8), (219, 1), (160, 0), (205, 3), (121, 6)]
94	1	1	8	14	[(131, 10), (223, 3), (84, 8), (93, 5), (12, 10), (129, 9), (248, 2), (169, 2), (229, 0), (70, 0), (174, 2), (173, 7), (24, 1), (179, 6)]
95	1	1	8	16	[(9, 9), (10, 1), (138, 8), (237, 9), (120, 4), (71, 0), (22, 10), (19, 10), (231, 8), (187, 2), (173, 10), (78, 7), (99, 4), (48, 8), (236, 5), (114, 9)]
96	8	2	8	15	[(150, 5), (128, 4), (39, 5), (126, 1), (113, 10), (185, 2), (91, 3), (7, 6), (55, 3), (8, 5), (231, 5), (247, 3), (219, 1), (248, 6), (20, 8)]
97	4	1	8	20	[(127, 4), (161, 9), (202, 2), (214, 7), (169, 5), (117, 3), (200, 10), (153, 0), (226, 1), (131, 0), (170, 4), (207, 5), (220, 3), (43, 8), (182, 2), (231, 0), (148, 1), (15, 9), (190, 1), (187, 1)]
98	4	4	8	18	[(245, 3), (63, 1), (180, 9), (38, 3), (191, 0), (248, 1), (214, 8), (128, 8), (201, 9), (5, 5), (121, 2), (197, 8), (164, 5), (52, 6), (33, 3), (92, 6), (131, 10), (152, 1)]
99	5	4	32	12	[(46, 4), (109, 9), (166, 10), (186, 8), (135, 6), (86, 0), (144, 8), (248, 8), (199, 5), (217, 1), (130, 3), (165, 6)]
100	1	4	8	22	[(188, 4), (166, 8), (167, 9), (244, 2), (45, 3), (208, 4), (105, 2), (218, 6), (241, 10), (136, 9), (191, 3), (28, 7), (144, 7), (99, 4), (228, 2), (73, 6), (130, 5), (103, 3), (211, 7), (79, 9), (75, 8), (33, 3)]
101	2	5	8	12	[(43, 3), (15, 8), (27, 9), (225, 7), (145, 0), (132, 8), (240, 0), (70, 2), (245, 10), (97, 5), (210, 7), (119, 1)]
102	8	1	8	14	[(199, 2), (236, 7), (189, 9), (62, 6), (87, 10), (159, 4), (171, 10), (112, 8), (226, 5), (35, 0), (230, 0), (125, 5), (238, 4), (41, 1)]
103	1	1	8	20	[(233, 0), (51, 2), (187, 1), (143, 8), (39, 0), (236, 8), (205, 0), (157, 8), (209, 5), (98, 1), (223, 10), (195, 3), (11, 9), (191, 0), (101, 1), (72, 9), (19, 6), (129, 9), (200, 8), (193, 10)]
104	1	1	7	18	[(94, 9), (95, 5), (205, 1), (15, 1), (109, 8), (76, 0), (66, 9), (239, 2), (156, 8), (139, 10), (158, 5), (167, 2), (166, 5), (18, 4), (75, 5), (10, 8), (126, 7), (128, 1)]
105	5	2	8	13	[(168, 8), (71, 3), (74, 2), (173, 1), (46, 10), (54, 4), (91, 9), (100, 6), (200, 10), (224, 3), (53, 8), (214, 5), (186, 4)]
106	2	1	8	18	[(131, 5), (210, 3), (119, 1), (107, 3), (164, 3), (140, 4), (24, 10), (42, 10), (160, 4), (216, 6), (34, 3), (161, 8), (55, 0), (25, 3), (85, 0), (214, 9), (100, 3), (127, 6)]
107	103	1	8	12	[(223, 7), (55, 5), (248, 2), (26, 0), (164, 7), (232, 7), (188, 1), (117, 3), (50, 5), (107, 9), (157, 1), (138, 1)]
108	8	1	8	15	[(130, 10), (197, 1), (99, 9), (206, 3), (131, 5), (240, 3), (225, 3), (235, 0), (173, 4), (244, 10), (62, 5), (200, 6), (7, 5), (55, 10), (56, 5)]
109	1	1	8	21	[(52, 3), (30, 6), (110, 5), (145, 8), (167, 4), (193, 10), (48, 10), (74, 4), (72, 3), (199, 6), (16, 8), (73, 5), (104, 6), (21, 4), (237, 6), (162, 9), (4, 7), (64, 0), (57, 2), (219, 1), (233, 1)]
110	1	1	8	12	[(46, 7), (150, 1), (204, 10), (106, 6), (145, 8), (242, 7), (207, 5), (234, 1), (131, 10), (6, 5), (80, 4), (228, 4)]
111	6	1	8	20	[(45, 7), (160, 5), (119, 2), (6, 0), (232, 5), (212, 0), (36, 1), (24, 5), (73, 0), (186, 0), (110, 6), (230, 1), (214, 3), (79, 5), (70, 9), (94, 5), (108, 7), (139, 4), (21, 9), (184, 9)]
112	3	6	8	10	[(126, 7), (227, 10), (162, 9), (42, 10), (247, 9), (217, 0), (91, 10), (142, 1), (233, 5), (214, 6)]
113	4	1	8	12	[(220, 7), (57, 1), (245, 3), (197, 0), (170, 10), (201, 5), (96, 9), (178, 7), (250, 0), (7, 9), (154, 8), (185, 5)]
114	1	1	16	14	[(171, 0), (141, 1), (10, 9), (234, 0), (48, 7), (102, 1), (63, 7), (165, 8), (201, 7), (241, 3), (134, 1), (244, 6), (124, 9), (52, 2)]
115	2	2	2	17	[(93, 7), (169, 5), (154, 0), (88, 6), (165, 1), (195, 5), (67, 1), (224, 4), (219, 10), (148, 2), (11, 6), (108, 3), (38, 3), (77, 6), (146, 8), (206, 2), (104, 0)]
116	8	2	8	24	[(98, 2), (236, 1), (170, 2), (23, 5), (169, 9), (150, 0), (67, 5), (228, 0), (219, 0), (91, 3), (215, 0), (114, 8), (209, 3), (59, 1), (156, 9), (8, 10), (42, 5), (202, 8), (220, 9), (21, 2), (95, 4), (53, 6), (61, 6), (47, 3)]
117	5	2	1	11	[(226, 1), (181, 5), (187, 2), (58, 2), (108, 6), (125, 0), (228, 1), (205, 4), (42, 9), (5, 1), (245, 5)]
118	1	1	16	9	[(64, 6), (162, 4), (196, 8), (1, 0), (23, 3), (239, 0), (20, 8), (74, 4), (92, 2)]
119	1	2	3	21	[(10, 8), (129, 1), (89, 6), (196, 0), (7, 10), (138, 7), (5, 10), (76, 1), (15, 3), (59, 5), (115, 1), (13, 1), (52, 1), (97, 7), (117, 7), (166, 3), (92, 6), (67, 3), (230, 0), (121, 7), (205, 10)]
120	1	1	8	17	[(244, 10), (110, 4), (51, 10), (148, 9), (45, 4), (66, 8), (105, 4), (103, 10), (101, 4), (189, 5), (203, 4), (75, 2), (147, 7), (96, 7), (229, 8), (114, 8), (16, 9)]
121	100	4	8	14	[(131, 7), (79, 9), (113, 7), (67, 5), (40, 7), (144, 0), (237, 1), (250, 4), (111, 3), (142, 3), (63, 3), (214, 0), (223, 3), (5, 9)]
122	3	1	8	22	[(149, 10), (69, 2), (54, 7), (136, 7), (98, 4), (189, 6), (7, 3), (107, 10), (55, 6), (219, 7), (12, 0), (111, 6), (217, 5), (232, 0), (148, 1), (77, 4), (67, 10), (237, 3), (248, 5), (64, 2), (106, 5), (118, 5)]
123	4	1	8	9	[(240, 5), (167, 4), (63, 5), (185, 4), (145, 8), (155, 3), (121, 1), (232, 2), (168, 1)]
124	1	4	8	16	[(102, 7), (59, 9), (68, 0), (243, 6), (168, 1), (241, 10), (95, 8), (141, 3), (63, 6), (90, 1), (92, 1), (74, 0), (13, 1), (176, 5), (10, 8), (11, 5)]
125	1	2	8	15	[(195, 2), (107, 7), (31, 7), (73, 9), (180, 4), (69, 7), (229, 3), (14, 2), (243, 7), (46, 3), (132, 9), (197, 1), (110, 3), (203, 2), (6, 7)]
126	1	1	5	16	[(173, 0), (54, 3), (57, 0), (206, 8), (36, 9), (15, 10), (60, 2), (185, 1), (115, 8), (147, 5), (145, 5), (241, 9), (157, 1), (204, 3), (174, 7), (9, 1)]
127	1	1	8	8	[(11, 2), (67, 3), (51, 6), (37, 0), (40, 3), (20, 6), (135, 6), (86, 8)]
128	6	4	8	19	[(239, 1), (20, 0), (191, 3), (89, 10), (100, 4), (149, 5), (85, 2), (148, 8), (102, 9), (147, 9), (16, 4), (109, 7), (235, 1), (108, 1), (104, 9), (212, 4), (114, 1), (30, 3), (139, 1)]
129	1	1	8	12	[(93, 5), (214, 7), (190, 2), (174, 6), (235, 9), (245, 6), (37, 8), (155, 2), (120, 10), (189, 10), (108, 2), (40, 10)]
130	18	1	13	14	[(232, 10), (42, 0), (38, 9), (153, 3), (66, 0), (196, 10), (23, 7), (67, 10), (190, 4), (122, 6), (65, 8), (86, 7), (206, 7), (179, 3)]
131	16	2	8	13	[(233, 6), (129, 5), (94, 5), (166, 3), (46, 8), (127, 5), (236, 6), (45, 2), (40, 4), (162, 2), (200, 1), (140, 0), (237, 6)]
132	2	1	8	11	[(203, 8), (77, 4), (2, 0), (159, 0), (224, 5), (22, 0), (30, 4), (152, 10), (247, 10), (133, 9), (243, 7)]
133	2	1	8	15	[(144, 0), (95, 7), (247, 4), (174, 1), (60, 4), (209, 0), (243, 2), (150, 8), (146, 5), (110, 2), (34, 10), (229, 7), (122, 9), (126, 4), (91, 9)]
134	1	1	8	11	[(119, 5), (239, 10), (170, 5), (231, 8), (206, 9), (158, 8), (93, 2), (42, 2), (146, 3), (238, 8), (13, 8)]
135	1	1	8	11	[(247, 9), (204, 5), (212, 6), (126, 4), (52, 9), (187, 3), (231, 0), (102, 6), (152, 1), (86, 10), (145, 6)]
136	1	2	8	12	[(8, 6), (44, 0), (238, 5), (178, 7), (56, 2), (140, 3), (206, 7), (57, 6), (115, 3), (116, 1), (157, 10), (235, 6)]
137	2	1	1	19	[(106, 0), (44, 4), (212, 8), (216, 4), (161, 8), (147, 10), (29, 0), (118, 10), (236, 0), (207, 7), (39, 8), (65, 8), (169, 2), (66, 3), (188, 6), (96, 8), (78, 1), (175, 0), (53, 2)]
138	2	1	8	12	[(200, 5), (202, 0), (29, 0), (185, 3), (140, 9), (163, 2), (116, 3), (20, 3), (164, 7), (216, 10), (130, 5), (25, 4)]
139	4	2	8	14	[(216, 10), (247, 7), (130, 1), (41, 5), (176, 3), (181, 9), (113, 1), (152, 6), (211, 5), (210, 4), (213, 4), (137, 10), (12, 0), (101, 7)]
140	2	6	8	12	[(13, 9), (43, 1), (129, 1), (118, 0), (244, 5), (10, 10), (19, 6), (96, 5), (210, 4), (115, 5), (59, 9), (67, 3)]
141	4	1	1	15	[(113, 9), (133, 8), (25, 4), (28, 6), (176, 5), (248, 2), (171, 3), (217, 2), (38, 3), (96, 5), (245, 3), (223, 6), (19, 4), (34, 10), (87, 4)]
142	1	7	8	16	[(202, 3), (167, 0), (125, 10), (56, 9), (118, 6), (121, 8), (215, 4), (237, 1), (168, 10), (210, 1), (181, 8), (221, 0), (120, 7), (135, 9), (75, 9), (143, 7)]
143	1	5	8	14	[(81, 1), (56, 4), (67, 4), (58, 10), (160, 7), (235, 5), (89, 7), (249, 7), (102, 5), (9, 1), (228, 0), (147, 9), (53, 5), (52, 10)]
144	16	1	8	15	[(193, 6), (226, 10), (76, 5), (157, 5), (162, 8), (49, 3), (192, 9), (199, 9), (186, 7), (212, 9), (205, 10), (110, 1), (93, 2), (242, 6), (219, 8)]
145	2	1	2	7	[(48, 6), (58, 0), (186, 9), (197, 6), (105, 6), (161, 1), (50, 4)]
146	2	1	8	18	[(127, 3), (150, 6), (57, 7), (160, 7), (231, 8), (30, 10), (245, 0), (190, 1), (104, 4), (236, 10), (92, 2), (87, 6), (130, 7), (148, 5), (121, 4), (43, 7), (182, 3), (225, 8)]
147	6	3	8	16	[(250, 10), (111, 6), (109, 6), (210, 7), (132, 3), (84, 1), (95, 6), (30, 9), (186, 7), (97, 8), (223, 4), (60, 3), (14, 9), (173, 5), (231, 10), (73, 7)]
148	1	5	8	20	[(210, 10), (16, 9), (74, 2), (218, 0), (95, 5), (131, 3), (96, 7), (248, 10), (29, 4), (206, 8), (228, 0), (83, 3), (200, 0), (84, 1), (223, 0), (47, 1), (138, 9), (75, 8), (91, 8), (3, 0)]
149	29	1	2	14	[(245, 3), (207, 7), (172, 5), (122, 3), (88, 0), (72, 3), (85, 7), (219, 9), (203, 2), (117, 5), (173, 1), (123, 6), (87, 9), (112, 6)]
150	6	1	8	14	[(79, 3), (227, 3), (24, 1), (65, 2), (179, 0), (27, 7), (47, 7), (182, 3), (43, 5), (215, 10), (144, 6), (55, 6), (134, 10), (239, 7)]
151	1	1	8	15	[(4, 6), (83, 0), (55, 1), (8, 2), (46, 8), (40, 6), (210, 9), (125, 9), (70, 1), (204, 0), (130, 9), (71, 3), (72, 1), (164, 7), (199, 7)]
152	14	1	8	13	[(96, 4), (217, 9), (57, 8), (211, 9), (69, 10), (166, 4), (41, 10), (176, 8), (212, 4), (236, 3), (23, 3), (126, 7), (154, 7)]
153	2	1	8	16	[(40, 9), (190, 7), (25, 6), (67, 4), (44, 5), (183, 1), (133, 6), (246, 0), (160, 4), (171, 0), (86, 7), (17, 8), (247, 4), (49, 1), (195, 5), (196, 3)]
154	3	1	8	12	[(134, 0), (185, 6), (156, 8), (237, 8), (24, 9), (29, 4), (149, 7), (97, 10), (36, 3), (188, 1), (15, 7), (213, 8)]
155	1	1	8	15	[(206, 10), (177, 2), (63, 4), (57, 4), (154, 0), (64, 5), (2, 5), (182, 1), (78, 4), (246, 6), (119, 4), (196, 9), (235, 0), (243, 7), (79, 1)]
156	8	1	6	19	[(76, 4), (111, 5), (171, 1), (148, 7), (196, 1), (62, 1), (17, 2), (188, 5), (125, 4), (3, 2), (69, 10), (228, 9), (14, 6), (127, 7), (10, 10), (186, 8), (56, 4), (9, 8), (210, 9)]
157	5	2	8	14	[(222, 4), (226, 0), (100, 5), (51, 3), (141, 1), (39, 8), (101, 2), (232, 9), (144, 8), (201, 7), (140, 7), (42, 7), (150, 6), (7, 9)]
158	3	1	8	20	[(113, 10), (38, 10), (68, 5), (103, 3), (213, 5), (17, 6), (34, 9), (164, 1), (165, 1), (179, 5), (49, 1), (233, 8), (184, 8), (189, 6), (149, 1), (140, 7), (116, 9), (20, 3), (13, 8), (229, 8)]
159	3	2	8	15	[(239, 1), (105, 6), (27, 8), (168, 8), (250, 3), (216, 8), (238, 7), (140, 7), (22, 7), (145, 6), (161, 7), (30, 10), (243, 9), (131, 9), (1, 8)]
160	2	4	8	15	[(213, 5), (61, 9), (152, 5), (203, 0), (128, 3), (81, 2), (16, 3), (1, 9), (199, 10), (133, 4), (135, 9), (166, 9), (80, 1), (82, 2), (78, 7)]
161	1	1	8	18	[(187, 8), (115, 7), (191, 6), (146, 2), (241, 3), (219, 6), (169, 8), (224, 7), (162, 1), (179, 1), (199, 0), (41, 8), (38, 3), (22, 2), (148, 3), (242, 8), (21, 3), (250, 1)]
162	1	1	1	14	[(42, 1), (2, 1), (125, 4), (62, 4), (55, 3), (9, 10), (112, 8), (101, 8), (245, 6), (233, 4), (184, 1), (103, 2), (145, 1), (134, 8)]
163	4	1	8	21	[(33, 0), (21, 8), (232, 7), (132, 6), (66, 10), (107, 4), (150, 6), (39, 3), (96, 8), (247, 8), (10, 8), (27, 8), (152, 7), (7, 3), (138, 6), (193, 4), (117, 5), (175, 1), (86, 3), (239, 6), (233, 0)]
164	4	1	8	16	[(55, 5), (179, 1), (184, 7), (127, 9), (208, 0), (119, 4), (228, 1), (172, 9), (162, 0), (188, 1), (142, 4), (47, 2), (249, 3), (181, 3), (168, 4), (81, 3)]
165	4	4	8	18	[(167, 8), (7, 5), (110, 4), (25, 8), (42, 8), (186, 6), (127, 9), (98, 6), (20, 8), (199, 5), (182, 1), (69, 4), (114, 1), (75, 1), (185, 0), (121, 5), (181, 7), (96, 9)]
166	5	1	32	12	[(4, 8), (194, 4), (59, 8), (110, 2), (226, 9), (191, 4), (161, 8), (180, 6), (249, 3), (166, 10), (101, 3), (223, 8)]
167	1	1	8	13	[(169, 9), (164, 0), (43, 3), (12, 9), (48, 6), (239, 3), (232, 2), (54, 8), (132, 2), (247, 3), (19, 0), (147, 2), (161, 0)]
168	4	2	8	11	[(206, 10), (208, 9), (11, 0), (103, 5), (185, 10), (204, 8), (18, 2), (107, 8), (170, 10), (223, 2), (83, 9)]
169	2	1	5	18	[(66, 1), (234, 2), (207, 5), (27, 10), (162, 2), (222, 4), (183, 2), (117, 1), (144, 1), (41, 7), (227, 1), (125, 1), (107, 3), (19, 9), (228, 4), (219, 9), (67, 8), (178, 10)]
170	3	1	2	10	[(203, 8), (217, 7), (69, 2), (181, 1), (61, 6), (222, 5), (157, 8), (233, 8), (192, 2), (229, 0)]
171	1	1	8	20	[(131, 5), (244, 8), (249, 9), (7, 1), (27, 5), (210, 10), (99, 10), (104, 0), (51, 1), (205, 8), (164, 5), (151, 3), (94, 2), (234, 8), (40, 2), (80, 8), (219, 6), (214, 3), (83, 8), (212, 8)]
172	1	1	8	17	[(96, 4), (241, 5), (227, 9), (52, 2), (98, 7), (128, 7), (63, 9), (130, 1), (31, 3), (121, 1), (229, 6), (1, 7), (97, 1), (186, 6), (224, 8), (9, 2), (104, 5)]
173	4	1	8	12	[(36, 10), (156, 4), (5, 4), (33, 10), (114, 3), (71, 10), (155, 6), (208, 1), (235, 0), (137, 5), (108, 4), (241, 5)]
174	1	1	8	16	[(45, 1), (189, 4), (100, 3), (23, 5), (234, 2), (20, 3), (78, 2), (157, 10), (200, 9), (242, 10), (6, 10), (28, 8), (250, 3), (194, 6), (241, 0), (10, 0)]
175	2	1	8	15	[(76, 7), (90, 2), (217, 1), (229, 2), (57, 4), (203, 7), (29, 5), (119, 2), (182, 3), (205, 0), (239, 6), (225, 7), (96, 10), (79, 0), (41, 7)]
176	5	2	8	18	[(3, 9), (1, 1), (246, 9), (140, 10), (116, 4), (197, 0), (236, 4), (168, 5), (18, 10), (169, 3), (130, 6), (24, 8), (58, 2), (243, 2), (208, 3), (175, 4), (158, 10), (173, 6)]
177	27	1	8	20	[(161, 5), (158, 7), (162, 5), (3, 7), (227, 2), (208, 8), (67, 6), (236, 4), (238, 3), (142, 0), (13, 8), (34, 3), (5, 4), (163, 5), (121, 8), (189, 1), (31, 3), (21, 8), (96, 0), (30, 5)]
178	1	1	8	18	[(219, 8), (202, 1), (11, 7), (231, 6), (74, 0), (40, 3), (39, 10), (95, 0), (112, 1), (12, 5), (5, 2), (124, 1), (196, 10), (245, 1), (108, 9), (24, 10), (29, 0), (139, 5)]
179	1	1	8	12	[(188, 7), (42, 0), (234, 6), (227, 7), (213, 2), (231, 1), (72, 4), (37, 7), (120, 7), (106, 1), (129, 8), (100, 10)]
180	14	6	16	7	[(122, 5), (30, 3), (54, 5), (91, 5), (24, 0), (133, 2), (92, 10)]
181	5	1	1	8	[(132, 9), (66, 1), (219, 8), (58, 6), (147, 1), (27, 9), (162, 0), (226, 4)]
182	1	12	8	17	[(51, 5), (97, 9), (191, 3), (229, 8), (119, 9), (156, 1), (25, 7), (225, 2), (24, 4), (246, 4), (120, 0), (65, 3), (54, 6), (235, 0), (130, 4), (31, 2), (247, 8)]
183	1	1	8	20	[(164, 2), (248, 8), (182, 1), (54, 9), (235, 2), (197, 1), (195, 9), (124, 10), (9, 5), (26, 4), (24, 2), (68, 4), (121, 6), (72, 7), (30, 8), (131, 0), (41, 3), (8, 2), (97, 10), (22, 9)]
184	53	1	16	15	[(32, 9), (99, 6), (6, 6), (191, 10), (210, 10), (158, 5), (18, 5), (11, 3), (113, 4), (147, 8), (228, 3), (81, 4), (91, 1), (2, 0), (69, 10)]
185	1	2	8	17	[(244, 6), (202, 6), (57, 10), (223, 7), (218, 1), (240, 4), (198, 7), (3, 7), (210, 4), (125, 10), (115, 8), (6, 4), (97, 5), (41, 3), (19, 1), (25, 8), (183, 4)]
186	7	1	1	9	[(234, 6), (81, 9), (211, 2), (66, 4), (181, 3), (74, 6), (80, 8), (167, 4), (114, 6)]
187	1	2	8	14	[(156, 4), (182, 0), (230, 1), (184, 5), (4, 8), (137, 5), (183, 2), (114, 2), (231, 1), (35, 7), (20, 8), (12, 1), (65, 10), (209, 3)]
188	2	1	8	11	[(231, 4), (84, 5), (90, 10), (64, 6), (34, 9), (166, 8), (62, 10), (47, 1), (235, 3), (43, 1), (244, 9)]
189	2	6	8	11	[(175, 2), (246, 10), (49, 5), (155, 0), (245, 10), (205, 1), (228, 1), (208, 7), (108, 7), (226, 7), (98, 10)]
190	1	2	8	14	[(241, 0), (237, 1), (227, 4), (213, 6), (135, 7), (44, 10), (78, 10), (79, 6), (223, 1), (13, 5), (48, 6), (245, 6), (230, 9), (231, 0)]
191	2	4	8	12	[(32, 4), (43, 6), (65, 7), (149, 0), (151, 8), (94, 10), (51, 2), (122, 6), (181, 3), (63, 9), (135, 2), (190, 7)]
192	1	1	8	16	[(65, 0), (82, 9), (217, 7), (43, 5), (27, 4), (120, 2), (83, 0), (63, 10), (229, 10), (250, 10), (163, 4), (240, 7), (161, 10), (231, 7), (102, 7), (69, 5)]
193	2	1	8	14	[(18, 2), (232, 6), (221, 0), (16, 7), (49, 2), (241, 2), (191, 6), (212, 8), (7, 9), (60, 7), (99, 8), (28, 8), (77, 10), (219, 7)]
194	2	1	2	8	[(138, 2), (249, 1), (172, 2), (77, 3), (27, 0), (235, 5), (72, 8), (246, 5)]
195	5	4	8	17	[(68, 2), (247, 7), (35, 2), (201, 5), (143, 3), (187, 8), (185, 1), (89, 9), (158, 3), (45, 1), (241, 4), (59, 6), (132, 10), (99, 3), (2, 6), (240, 5), (175, 10)]
196	4	3	32	15	[(218, 7), (10, 0), (240, 10), (108, 10), (245, 3), (82, 4), (83, 9), (13, 9), (88, 3), (81, 9), (51, 0), (104, 0), (101, 2), (126, 3), (249, 1)]
197	40	1	8	17	[(129, 0), (2, 0), (231, 3), (115, 2), (185, 6), (15, 3), (182, 1), (131, 0), (166, 7), (199, 6), (23, 2), (9, 10), (14, 8), (171, 4), (232, 5), (230, 7), (153, 1)]
198	2	12	16	15	[(223, 1), (178, 0), (41, 4), (90, 4), (104, 6), (126, 10), (138, 2), (10, 1), (44, 4), (155, 9), (248, 4), (161, 8), (139, 4), (20, 7), (42, 9)]
199	6	1	8	18	[(29, 2), (88, 10), (69, 1), (240, 3), (87, 1), (3, 10), (166, 4), (90, 2), (147, 3), (165, 8), (74, 10), (149, 4), (16, 10), (41, 8), (239, 1), (116, 8), (10, 3), (204, 1)]
200	1	1	8	12	[(81, 6), (164, 5), (88, 9), (214, 1), (162, 5), (183, 9), (66, 9), (243, 5), (191, 9), (60, 2), (23, 1), (67, 9)]
201	1	6	8	10	[(118, 1), (22, 9), (230, 1), (113, 4), (225, 9), (171, 4), (200, 2), (53, 4), (125, 10), (98, 7)]
202	7	7	8	16	[(226, 6), (79, 5), (144, 10), (87, 7), (170, 1), (22, 7), (120, 8), (102, 5), (32, 5), (27, 9), (228, 7), (235, 8), (23, 3), (25, 4), (10, 5), (40, 10)]
203	27	1	8	10	[(235, 7), (67, 6), (183, 10), (93, 6), (213, 3), (200, 7), (73, 2), (144, 1), (37, 5), (34, 1)]
204	2	1	8	13	[(24, 3), (139, 2), (205, 4), (178, 4), (46, 0), (193, 1), (130, 9), (131, 7), (232, 5), (168, 3), (104, 6), (166, 6), (47, 8)]
205	1	1	8	12	[(42, 9), (66, 9), (174, 7), (186, 0), (206, 7), (82, 8), (85, 6), (90, 0), (150, 9), (243, 1), (45, 8), (14, 4)]
206	2	1	8	9	[(5, 9), (23, 2), (112, 8), (130, 3), (86, 10), (82, 6), (230, 3), (157, 8), (140, 2)]
207	34	1	8	18	[(92, 6), (130, 3), (53, 9), (74, 3), (8, 7), (164, 4), (204, 0), (243, 7), (223, 7), (95, 2), (205, 0), (79, 8), (100, 3), (129, 2), (218, 9), (201, 1), (220, 7), (213, 10)]
208	2	3	16	18	[(63, 6), (53, 0), (92, 9), (247, 5), (44, 4), (36, 8), (54, 6), (128, 1), (38, 4), (170, 7), (72, 1), (187, 0), (31, 5), (157, 3), (198, 5), (24, 10), (89, 4), (83, 6)]
209	1	1	8	17	[(96, 6), (22, 4), (178, 3), (32, 10), (123, 3), (16, 1), (19, 2), (164, 5), (15, 9), (124, 5), (203, 1), (103, 0), (43, 9), (47, 1), (63, 5), (115, 9), (84, 1)]
210	3	1	28	16	[(220, 0), (244, 6), (162, 2), (199, 3), (109, 9), (34, 1), (110, 0), (139, 9), (68, 8), (73, 9), (157, 6), (108, 2), (183, 0), (177, 7), (202, 10), (208, 0)]
211	4	10	2	11	[(40, 6), (230, 10), (36, 9), (2, 10), (111, 6), (158, 2), (65, 9), (116, 2), (71, 6), (60, 0), (200, 0)]
212	2	2	8	11	[(62, 3), (51, 1), (70, 5), (212, 5), (78, 8), (36, 5), (29, 3), (214, 8), (31, 6), (139, 6), (133, 6)]
213	11	2	8	22	[(104, 3), (183, 7), (139, 3), (142, 7), (56, 8), (226, 4), (185, 2), (7, 2), (102, 5), (187, 3), (154, 2), (145, 9), (127, 0), (172, 8), (134, 7), (20, 0), (115, 1), (188, 1), (137, 4), (186, 2), (129, 10), (2, 3)]
214	1	1	8	21	[(233, 1), (60, 4), (44, 2), (216, 2), (73, 0), (83, 4), (231, 9), (143, 6), (217, 8), (168, 8), (215, 2), (116, 6), (240, 5), (129, 4), (246, 5), (38, 4), (144, 0), (93, 10), (31, 0), (156, 9), (134, 2)]
215	4	9	8	15	[(244, 9), (33, 5), (154, 5), (26, 3), (107, 10), (226, 8), (97, 2), (87, 7), (216, 6), (235, 4), (85, 0), (228, 0), (242, 9), (166, 1), (52, 0)]
216	77	1	16	18	[(121, 6), (233, 7), (47, 7), (119, 10), (161, 5), (248, 9), (197, 7), (204, 7), (104, 2), (37, 9), (134, 6), (65, 8), (219, 7), (67, 6), (84, 4), (211, 10), (209, 4), (148, 10)]
217	8	1	8	18	[(71, 8), (209, 4), (73, 2), (125, 10), (95, 1), (3, 10), (15, 2), (61, 2), (217, 6), (214, 3), (140, 2), (14, 7), (78, 0), (113, 3), (23, 2), (231, 5), (239, 5), (163, 9)]
218	22	1	32	16	[(103, 3), (245, 10), (203, 8), (67, 3), (47, 8), (102, 1), (215, 3), (58, 6), (120, 8), (33, 1), (217, 5), (54, 0), (212, 5), (26, 6), (210, 5), (110, 1)]
219	9	4	2	14	[(249, 6), (173, 0), (59, 2), (77, 3), (37, 7), (213, 0), (170, 2), (83, 2), (137, 8), (244, 5), (142, 3), (141, 2), (80, 8), (242, 3)]
220	2	1	1	12	[(112, 3), (19, 8), (8, 6), (118, 6), (181, 2), (236, 0), (161, 6), (11, 9), (144, 10), (124, 9), (68, 1), (102, 7)]
221	2	2	8	15	[(186, 3), (209, 3), (34, 7), (219, 7), (187, 6), (12, 6), (44, 6), (250, 10), (140, 8), (52, 6), (235, 1), (56, 1), (154, 9), (92, 10), (2, 10)]
222	110	4	8	19	[(177, 1), (22, 4), (42, 4), (38, 3), (206, 4), (117, 8), (24, 0), (44, 0), (236, 7), (58, 1), (40, 0), (18, 10), (199, 6), (247, 7), (184, 9), (105, 0), (166, 2), (34, 10), (110, 6)]
223	3	1	8	21	[(170, 1), (159, 5), (226, 9), (92, 2), (53, 4), (10, 1), (75, 2), (86, 2), (43, 2), (23, 8), (127, 1), (209, 3), (123, 5), (168, 5), (125, 10), (58, 1), (174, 4), (155, 6), (238, 5), (214, 2), (218, 0)]
224	2	1	16	14	[(4, 6), (32, 3), (222, 5), (97, 0), (66, 10), (229, 8), (31, 0), (90, 4), (185, 3), (172, 9), (47, 3), (113, 8), (247, 5), (109, 0)]
225	1	4	8	13	[(90, 6), (39, 2), (68, 3), (195, 0), (199, 7), (243, 10), (122, 6), (165, 5), (193, 0), (36, 1), (114, 5), (220, 8), (81, 1)]
226	3	4	8	23	[(184, 10), (47, 1), (186, 4), (32, 8), (150, 7), (119, 0), (211, 2), (81, 6), (172, 1), (103, 10), (43, 4), (154, 7), (205, 7), (70, 2), (92, 2), (51, 4), (195, 5), (18, 2), (218, 5), (140, 6), (59, 3), (76, 9), (33, 1)]
227	2	1	8	18	[(83, 10), (65, 10), (164, 0), (200, 5), (68, 2), (56, 5), (182, 7), (234, 6), (44, 5), (87, 6), (238, 1), (36, 5), (146, 7), (130, 6), (243, 2), (143, 8), (158, 2), (220, 0)]
228	1	1	16	19	[(155, 8), (245, 0), (61, 2), (223, 8), (234, 8), (29, 9), (250, 2), (207, 3), (132, 4), (72, 9), (98, 2), (186, 8), (10, 9), (244, 9), (73, 5), (13, 8), (228, 7), (179, 2), (150, 8)]
229	2	1	2	22	[(113, 6), (213, 10), (145, 3), (89, 5), (185, 5), (35, 6), (125, 6), (97, 4), (30, 9), (202, 9), (130, 6), (198, 8), (2, 8), (44, 7), (224, 6), (201, 7), (191, 5), (72, 8), (39, 9), (109, 0), (121, 2), (20, 4)]
230	1	1	8	17	[(86, 9), (58, 8), (91, 9), (248, 9), (103, 9), (69, 1), (13, 0), (123, 9), (138, 5), (10, 10), (116, 0), (36, 10), (186, 9), (168, 10), (249, 9), (247, 9), (195, 3)]
231	3	1	8	12	[(62, 3), (32, 8), (59, 8), (149, 2), (183, 9), (19, 3), (140, 6), (64, 8), (167, 3), (232, 2), (27, 6), (12, 4)]
232	2	3	8	21	[(186, 6), (27, 7), (14, 6), (202, 0), (68, 9), (250, 2), (143, 0), (192, 1), (104, 6), (151, 0), (56, 0), (135, 8), (170, 5), (141, 3), (210, 1), (93, 6), (31, 3), (154, 6), (33, 3), (111, 1), (54, 8)]
233	1	1	8	11	[(49, 4), (64, 9), (129, 0), (72, 6), (13, 5), (75, 7), (161, 3), (7, 5), (82, 9), (223, 9), (35, 1)]
234	2	1	4	23	[(66, 4), (118, 4), (88, 0), (92, 0), (250, 0), (86, 5), (158, 2), (114, 4), (159, 6), (104, 10), (191, 6), (163, 8), (109, 3), (56, 7), (42, 10), (5, 6), (235, 1), (234, 5), (204, 4), (59, 10), (178, 4), (169, 9), (58, 6)]
235	6	1	8	12	[(7, 6), (139, 8), (201, 2), (228, 0), (138, 1), (40, 0), (90, 6), (120, 6), (100, 5), (32, 2), (210, 6), (67, 3)]
236	2	4	8	17	[(103, 5), (223, 2), (115, 1), (249, 10), (178, 0), (207, 8), (61, 1), (152, 1), (74, 2), (54, 0), (71, 8), (13, 9), (18, 4), (166, 5), (27, 5), (188, 0), (213, 2)]
237	9	2	8	17	[(180, 2), (130, 3), (213, 6), (237, 5), (58, 6), (231, 2), (124, 9), (2, 2), (102, 7), (93, 6), (80, 4), (140, 7), (114, 10), (173, 2), (221, 0), (144, 0), (53, 2)]
238	65	1	8	12	[(221, 8), (181, 6), (198, 5), (19, 6), (239, 4), (9, 5), (14, 5), (205, 1), (152, 6), (10, 7), (62, 8), (146, 1)]
239	98	2	8	17	[(210, 1), (101, 1), (62, 8), (7, 5), (80, 9), (192, 10), (82, 0), (235, 9), (218, 5), (188, 0), (77, 3), (1, 3), (163, 5), (78, 2), (19, 6), (219, 6), (128, 6)]
240	5	2	8	15	[(47, 7), (110, 0), (240, 6), (30, 10), (208, 6), (142, 2), (244, 10), (198, 9), (222, 9), (128, 3), (220, 10), (182, 1), (75, 9), (161, 5), (49, 5)]
241	1	2	10	13	[(21, 5), (153, 6), (53, 10), (216, 8), (4, 10), (110, 6), (248, 0), (13, 9), (199, 4), (220, 7), (117, 5), (113, 1), (120, 8)]
242	9	4	8	15	[(163, 5), (70, 3), (106, 10), (10, 10), (194, 7), (233, 0), (90, 2), (130, 1), (144, 5), (24, 7), (59, 0), (107, 5), (20, 5), (48, 10), (96, 2)]
243	2	1	8	24	[(149, 7), (100, 2), (76, 0), (65, 2), (74, 9), (180, 8), (227, 5), (131, 1), (86, 4), (8, 10), (7, 8), (139, 8), (11, 5), (211, 0), (33, 7), (103, 7), (128, 3), (171, 9), (69, 1), (197, 7), (129, 7), (56, 4), (126, 4), (109, 1)]
244	18	1	8	15	[(200, 1), (246, 5), (29, 9), (234, 5), (206, 7), (85, 4), (126, 2), (172, 0), (120, 3), (79, 5), (215, 7), (131, 0), (125, 1), (153, 3), (205, 6)]
245	4	1	8	16	[(80, 0), (232, 7), (9, 5), (8, 6), (78, 5), (234, 0), (176, 9), (40, 9), (181, 1), (203, 5), (205, 1), (123, 2), (194, 7), (109, 8), (141, 0), (211, 0)]
246	1	1	8	20	[(245, 10), (173, 4), (26, 7), (92, 1), (69, 3), (239, 10), (131, 0), (133, 5), (13, 4), (236, 2), (101, 2), (48, 6), (112, 2), (136, 10), (11, 7), (249, 0), (83, 5), (163, 8), (19, 7), (141, 3)]
247	1	1	8	10	[(183, 10), (196, 1), (117, 4), (205, 10), (65, 5), (122, 0), (43, 8), (33, 2), (217, 9), (106, 3)]
248	20	4	8	14	[(127, 5), (216, 6), (83, 7), (224, 10), (41, 8), (191, 7), (71, 7), (4, 1), (119, 2), (136, 1), (121, 2), (62, 4), (74, 3), (246, 4)]
249	2	3	8	16	[(157, 7), (240, 2), (166, 1), (12, 0), (201, 5), (177, 1), (184, 2), (185, 6), (229, 9), (38, 10), (104, 4), (205, 5), (146, 6), (154, 7), (112, 9), (210, 10)]
250	2	1	8	18	[(243, 5), (115, 2), (247, 1), (57, 1), (161, 8), (132, 7), (224, 1), (2, 4), (15, 3), (8, 6), (180, 7), (163, 10), (83, 4), (158, 6), (165, 0), (86, 0), (96, 8), (121, 0)]
