app_id	nb_instances	core	memory	inter_degree	inter_aff
1	11	1	8	27	[(124, 6), (16, 3), (134, 10), (229, 1), (212, 5), (28, 7), (8, 4), (237, 0), (168, 9), (176, 5), (158, 8), (107, 0), (117, 6), (214, 4), (128, 3), (211, 8), (205, 4), (81, 1), (131, 7), (27, 5), (114, 9), (12, 9), (62, 2), (91, 6), (172, 0), (147, 3), (41, 6)]
2	2	4	8	27	[(93, 10), (32, 4), (128, 9), (144, 1), (249, 8), (112, 6), (190, 4), (151, 7), (183, 6), (53, 8), (184, 4), (129, 3), (35, 2), (22, 5), (179, 2), (8, 2), (70, 9), (98, 3), (21, 7), (230, 7), (24, 5), (23, 1), (248, 6), (146, 9), (46, 8), (117, 9), (19, 10)]
3	1	1	8	31	[(29, 6), (155, 7), (97, 0), (184, 2), (82, 10), (220, 0), (230, 6), (246, 10), (46, 0), (165, 0), (145, 1), (7, 7), (248, 4), (132, 5), (185, 4), (33, 4), (38, 1), (188, 4), (225, 6), (94, 6), (226, 1), (40, 3), (241, 6), (106, 1), (206, 9), (189, 6), (66, 8), (60, 0), (124, 6), (147, 10), (20, 6)]
4	4	1	4	28	[(20, 9), (58, 2), (235, 7), (46, 10), (98, 9), (61, 8), (126, 7), (105, 9), (145, 10), (150, 2), (194, 8), (40, 0), (30, 7), (81, 6), (93, 0), (11, 8), (7, 8), (208, 3), (65, 2), (173, 8), (41, 10), (234, 3), (55, 2), (53, 6), (168, 7), (140, 6), (9, 5), (31, 6)]
5	3	1	8	30	[(222, 7), (210, 1), (124, 5), (79, 4), (83, 10), (69, 7), (214, 1), (199, 2), (244, 0), (178, 7), (180, 9), (231, 3), (139, 6), (245, 6), (127, 6), (194, 0), (240, 4), (219, 9), (1, 8), (131, 7), (221, 5), (72, 0), (6, 4), (215, 1), (9, 7), (212, 2), (196, 1), (20, 7), (61, 2), (122, 7)]
6	2	1	8	35	[(27, 7), (217, 8), (110, 4), (37, 5), (108, 10), (38, 0), (202, 2), (215, 2), (181, 6), (183, 3), (185, 7), (138, 8), (143, 9), (30, 7), (57, 8), (98, 5), (36, 5), (6, 8), (127, 10), (189, 4), (15, 4), (194, 9), (134, 8), (176, 6), (226, 4), (201, 9), (221, 8), (243, 8), (168, 6), (137, 6), (96, 4), (39, 0), (13, 6), (20, 1), (214, 10)]
7	7	1	8	36	[(101, 10), (146, 8), (75, 5), (219, 0), (143, 7), (117, 3), (74, 7), (220, 4), (133, 10), (232, 8), (5, 5), (182, 8), (226, 1), (80, 0), (229, 7), (35, 1), (34, 7), (40, 6), (162, 2), (60, 1), (142, 5), (140, 1), (103, 9), (139, 5), (85, 9), (138, 6), (169, 0), (17, 10), (42, 10), (8, 5), (250, 6), (239, 5), (72, 5), (197, 1), (54, 4), (1, 8)]
8	2	4	8	35	[(196, 7), (226, 8), (227, 9), (146, 3), (236, 4), (178, 4), (197, 3), (187, 5), (246, 1), (166, 3), (173, 1), (88, 1), (90, 7), (165, 5), (111, 3), (5, 1), (168, 6), (105, 8), (202, 4), (229, 6), (241, 8), (142, 1), (78, 2), (25, 10), (63, 8), (189, 4), (16, 1), (70, 2), (118, 6), (45, 1), (172, 2), (1, 9), (102, 9), (233, 9), (77, 0)]
9	2	4	8	32	[(189, 8), (26, 4), (180, 10), (17, 8), (242, 2), (136, 2), (30, 9), (87, 4), (35, 9), (236, 1), (228, 2), (32, 3), (74, 4), (237, 7), (175, 1), (70, 0), (244, 7), (226, 1), (166, 2), (108, 2), (199, 5), (49, 3), (204, 9), (45, 0), (224, 9), (102, 10), (29, 7), (129, 0), (183, 6), (24, 0), (94, 9), (137, 2)]
10	1	1	8	36	[(187, 10), (90, 1), (230, 8), (164, 0), (41, 6), (76, 3), (214, 2), (243, 9), (231, 6), (144, 8), (205, 3), (196, 1), (220, 2), (172, 2), (159, 10), (48, 10), (112, 10), (38, 4), (188, 5), (2, 5), (195, 2), (237, 2), (83, 5), (228, 1), (26, 10), (109, 0), (3, 7), (11, 4), (176, 0), (65, 6), (29, 0), (59, 10), (170, 8), (116, 3), (190, 4), (152, 5)]
11	65	4	8	27	[(244, 7), (60, 4), (159, 2), (179, 6), (134, 7), (85, 6), (70, 3), (200, 8), (151, 2), (238, 9), (114, 7), (189, 7), (168, 1), (163, 6), (167, 9), (10, 9), (132, 4), (105, 10), (44, 9), (74, 4), (22, 2), (71, 10), (73, 4), (201, 0), (66, 4), (107, 6), (86, 2)]
12	2	4	1	30	[(175, 10), (190, 5), (243, 1), (189, 1), (38, 0), (160, 3), (205, 8), (147, 9), (126, 7), (135, 5), (2, 8), (89, 1), (194, 1), (181, 3), (185, 10), (225, 4), (99, 4), (206, 8), (74, 5), (109, 5), (95, 6), (151, 9), (68, 2), (47, 9), (96, 9), (63, 2), (56, 9), (177, 2), (217, 3), (111, 2)]
13	8	3	8	23	[(202, 3), (93, 6), (201, 0), (41, 4), (114, 2), (117, 7), (45, 3), (139, 5), (228, 1), (163, 8), (94, 5), (98, 4), (107, 10), (244, 10), (90, 10), (3, 2), (181, 8), (16, 8), (210, 10), (245, 9), (59, 6), (132, 2), (60, 1)]
14	211	3	8	27	[(17, 5), (4, 3), (124, 7), (114, 7), (134, 4), (46, 2), (84, 10), (117, 8), (73, 5), (106, 9), (29, 10), (69, 6), (189, 7), (37, 8), (12, 8), (8, 0), (145, 1), (22, 8), (127, 5), (50, 9), (181, 2), (177, 4), (166, 3), (140, 10), (147, 6), (13, 4), (173, 2)]
15	2	3	8	31	[(36, 0), (162, 8), (200, 10), (139, 1), (246, 0), (53, 0), (245, 10), (78, 0), (84, 8), (76, 2), (56, 10), (67, 7), (160, 10), (147, 7), (108, 2), (208, 9), (45, 0), (240, 4), (179, 10), (175, 10), (155, 9), (123, 6), (28, 2), (242, 0), (197, 6), (249, 2), (51, 10), (106, 0), (126, 3), (131, 1), (49, 5)]
16	20	1	8	35	[(33, 6), (228, 7), (202, 0), (64, 10), (100, 2), (156, 1), (175, 3), (71, 8), (94, 7), (81, 2), (161, 4), (14, 7), (245, 2), (30, 2), (9, 2), (223, 1), (176, 8), (80, 4), (39, 2), (174, 0), (62, 2), (157, 1), (133, 1), (95, 10), (67, 10), (250, 9), (151, 7), (166, 4), (53, 3), (170, 0), (145, 3), (197, 2), (226, 6), (60, 0), (87, 4)]
17	2	1	8	30	[(216, 1), (163, 0), (59, 7), (190, 8), (40, 0), (103, 9), (239, 3), (208, 7), (143, 5), (162, 7), (146, 5), (147, 3), (58, 7), (200, 0), (144, 5), (30, 0), (219, 10), (176, 3), (46, 8), (226, 1), (215, 5), (1, 4), (49, 2), (88, 6), (31, 6), (18, 0), (79, 0), (21, 7), (52, 10), (140, 10)]
18	1	1	8	33	[(147, 5), (9, 3), (196, 5), (201, 0), (83, 10), (181, 2), (208, 5), (178, 8), (140, 4), (248, 1), (247, 5), (232, 7), (115, 9), (209, 6), (187, 1), (158, 7), (122, 0), (33, 8), (149, 10), (27, 10), (105, 6), (21, 1), (60, 4), (176, 7), (216, 0), (234, 2), (245, 10), (220, 3), (26, 5), (117, 2), (227, 6), (53, 4), (172, 2)]
19	1	1	8	32	[(101, 5), (47, 3), (127, 5), (102, 5), (214, 6), (125, 5), (130, 2), (85, 3), (143, 0), (170, 3), (182, 0), (224, 0), (151, 0), (92, 4), (19, 4), (31, 10), (229, 7), (215, 0), (53, 2), (129, 10), (139, 1), (5, 6), (239, 8), (160, 7), (24, 6), (29, 3), (138, 10), (65, 1), (211, 4), (35, 8), (70, 10), (233, 7)]
20	1	2	8	34	[(129, 4), (118, 0), (83, 8), (11, 6), (38, 0), (154, 6), (20, 10), (86, 6), (141, 0), (135, 1), (78, 6), (206, 5), (45, 6), (245, 6), (2, 3), (62, 0), (9, 10), (171, 3), (159, 5), (183, 2), (46, 6), (61, 9), (186, 4), (170, 8), (121, 1), (120, 4), (34, 6), (178, 5), (175, 2), (172, 3), (67, 3), (52, 6), (100, 3), (76, 7)]
21	7	1	8	30	[(7, 5), (96, 0), (194, 0), (12, 6), (190, 1), (22, 5), (41, 9), (159, 7), (245, 0), (100, 9), (167, 6), (73, 2), (137, 6), (9, 6), (63, 2), (23, 3), (154, 2), (79, 10), (128, 8), (59, 9), (183, 9), (198, 3), (130, 10), (147, 4), (126, 6), (227, 9), (210, 3), (186, 9), (240, 6), (247, 5)]
22	2	1	8	33	[(54, 1), (7, 6), (124, 2), (44, 2), (6, 4), (250, 6), (165, 2), (127, 9), (222, 1), (176, 9), (67, 1), (211, 9), (194, 2), (103, 8), (191, 6), (57, 10), (64, 9), (213, 10), (136, 2), (246, 5), (83, 0), (158, 4), (3, 4), (123, 5), (99, 3), (164, 6), (28, 8), (71, 2), (202, 4), (162, 7), (81, 3), (200, 2), (207, 5)]
23	1	1	8	46	[(53, 7), (186, 9), (195, 0), (17, 5), (203, 9), (52, 8), (58, 4), (239, 7), (168, 1), (176, 6), (80, 10), (178, 1), (192, 1), (230, 5), (2, 4), (243, 10), (200, 7), (56, 4), (95, 5), (214, 5), (249, 8), (155, 5), (198, 9), (98, 1), (215, 10), (125, 2), (124, 8), (68, 1), (132, 2), (29, 9), (44, 10), (91, 8), (55, 1), (167, 1), (7, 8), (26, 9), (37, 10), (4, 2), (45, 3), (236, 9), (73, 3), (209, 7), (49, 6), (189, 9), (118, 1), (11, 4)]
24	4	1	8	45	[(179, 0), (8, 10), (145, 9), (137, 0), (97, 3), (167, 5), (171, 7), (247, 8), (15, 3), (245, 4), (109, 7), (87, 0), (233, 4), (112, 6), (1, 5), (76, 10), (4, 5), (74, 2), (71, 8), (211, 6), (33, 5), (116, 0), (115, 3), (49, 8), (206, 6), (47, 5), (54, 6), (185, 6), (6, 2), (130, 7), (162, 4), (100, 8), (90, 7), (196, 0), (207, 5), (239, 7), (40, 2), (226, 6), (143, 5), (84, 4), (197, 6), (3, 3), (186, 1), (148, 9), (55, 6)]
25	4	1	8	24	[(210, 4), (218, 8), (171, 3), (189, 8), (20, 2), (232, 2), (48, 10), (184, 1), (176, 8), (78, 10), (15, 9), (50, 10), (94, 2), (201, 3), (185, 8), (163, 2), (115, 5), (33, 7), (98, 0), (246, 5), (208, 8), (145, 10), (179, 7), (23, 8)]
26	5	1	8	32	[(202, 4), (74, 0), (239, 4), (144, 3), (60, 0), (11, 0), (178, 5), (61, 1), (199, 5), (132, 9), (145, 0), (196, 10), (209, 8), (221, 1), (91, 0), (207, 10), (153, 0), (33, 4), (166, 0), (148, 10), (24, 5), (83, 5), (34, 6), (215, 7), (210, 4), (208, 1), (235, 6), (95, 5), (85, 4), (205, 9), (25, 9), (230, 4)]
27	2	4	8	26	[(123, 1), (82, 7), (180, 10), (23, 1), (215, 5), (170, 10), (106, 0), (93, 5), (225, 2), (95, 4), (218, 7), (64, 10), (75, 7), (182, 5), (8, 9), (231, 4), (20, 8), (97, 0), (70, 1), (250, 8), (161, 1), (14, 6), (62, 1), (111, 0), (65, 7), (53, 0)]
28	2	2	8	33	[(249, 10), (169, 3), (107, 0), (173, 3), (159, 7), (151, 0), (197, 9), (227, 6), (243, 4), (115, 5), (72, 9), (174, 2), (94, 10), (213, 8), (99, 4), (134, 8), (209, 8), (190, 5), (39, 0), (187, 3), (228, 4), (118, 3), (138, 0), (116, 6), (113, 8), (220, 2), (188, 0), (101, 6), (201, 0), (119, 3), (6, 2), (45, 8), (229, 10)]
29	8	1	2	36	[(56, 6), (79, 1), (151, 4), (88, 10), (5, 5), (51, 6), (54, 3), (192, 9), (134, 6), (201, 8), (43, 7), (169, 7), (156, 3), (124, 1), (144, 3), (190, 0), (8, 3), (33, 0), (98, 3), (64, 0), (16, 1), (72, 2), (19, 10), (200, 1), (23, 3), (115, 6), (75, 7), (181, 6), (140, 5), (231, 9), (206, 10), (237, 0), (42, 8), (220, 2), (87, 5), (111, 10)]
30	4	1	8	36	[(45, 6), (113, 7), (43, 9), (119, 5), (34, 9), (80, 6), (177, 8), (77, 0), (241, 2), (193, 3), (239, 7), (57, 10), (157, 5), (8, 4), (213, 0), (168, 10), (180, 8), (86, 1), (140, 5), (101, 2), (231, 0), (127, 6), (243, 6), (228, 10), (160, 8), (84, 3), (111, 1), (24, 1), (71, 10), (148, 0), (135, 2), (123, 4), (204, 6), (151, 6), (92, 5), (146, 2)]
31	2	1	8	38	[(15, 5), (154, 1), (54, 3), (73, 1), (2, 7), (8, 3), (113, 2), (170, 3), (103, 2), (195, 1), (119, 10), (151, 6), (60, 9), (200, 2), (127, 5), (218, 4), (42, 5), (44, 5), (145, 4), (99, 10), (158, 2), (130, 2), (63, 1), (164, 3), (162, 1), (86, 0), (125, 8), (46, 5), (45, 0), (220, 0), (91, 0), (94, 9), (77, 8), (74, 3), (85, 7), (30, 3), (92, 5), (190, 5)]
32	1	4	8	38	[(57, 8), (64, 9), (94, 6), (23, 9), (99, 4), (169, 3), (52, 9), (249, 6), (114, 1), (133, 8), (48, 1), (75, 3), (72, 6), (63, 7), (149, 1), (237, 3), (24, 1), (21, 2), (19, 9), (110, 2), (16, 9), (179, 7), (38, 1), (188, 1), (218, 0), (207, 8), (226, 10), (162, 0), (29, 0), (168, 9), (225, 2), (40, 2), (224, 1), (86, 5), (166, 7), (126, 0), (87, 7), (192, 5)]
33	2	1	16	29	[(43, 7), (235, 7), (190, 4), (201, 9), (180, 0), (36, 2), (133, 10), (247, 5), (13, 9), (15, 8), (19, 3), (93, 10), (35, 9), (232, 3), (170, 5), (102, 4), (16, 7), (139, 6), (233, 9), (39, 5), (225, 9), (37, 6), (7, 5), (135, 3), (196, 7), (83, 9), (163, 3), (97, 7), (110, 1)]
34	8	4	2	26	[(192, 4), (67, 4), (207, 0), (238, 10), (200, 0), (83, 6), (134, 10), (57, 1), (53, 10), (106, 0), (167, 8), (142, 3), (130, 4), (125, 4), (179, 3), (159, 1), (114, 4), (7, 7), (84, 3), (19, 1), (59, 10), (193, 4), (22, 6), (102, 7), (165, 7), (100, 5)]
35	3	1	8	30	[(176, 6), (238, 9), (184, 1), (236, 3), (47, 5), (173, 1), (141, 5), (157, 9), (144, 10), (163, 7), (67, 3), (247, 10), (136, 4), (161, 0), (92, 6), (82, 0), (85, 4), (122, 9), (237, 7), (230, 1), (48, 4), (225, 4), (179, 7), (60, 3), (210, 8), (87, 3), (152, 9), (79, 3), (250, 4), (186, 0)]
36	3	2	8	31	[(32, 4), (164, 1), (194, 10), (66, 1), (122, 4), (218, 8), (185, 0), (142, 8), (245, 7), (235, 1), (202, 4), (111, 6), (216, 4), (200, 5), (11, 2), (246, 4), (138, 9), (144, 1), (31, 4), (68, 9), (193, 9), (176, 7), (50, 6), (171, 7), (25, 1), (236, 3), (228, 0), (137, 8), (198, 2), (6, 6), (78, 2)]
37	1	3	8	34	[(81, 8), (10, 6), (116, 1), (31, 6), (176, 4), (149, 0), (29, 7), (211, 6), (107, 7), (242, 7), (85, 2), (140, 2), (160, 6), (203, 8), (228, 2), (36, 3), (183, 4), (190, 0), (75, 6), (204, 9), (217, 10), (241, 5), (131, 0), (214, 4), (127, 4), (118, 2), (6, 4), (104, 4), (20, 2), (25, 8), (44, 1), (188, 2), (179, 0), (172, 1)]
38	2	1	8	27	[(62, 4), (145, 9), (169, 2), (120, 1), (117, 0), (155, 0), (26, 3), (214, 4), (106, 10), (101, 2), (239, 10), (99, 8), (127, 9), (199, 6), (61, 10), (185, 4), (195, 9), (82, 9), (130, 1), (85, 6), (141, 6), (37, 6), (134, 5), (225, 6), (233, 4), (41, 1), (15, 2)]
39	5	1	8	38	[(168, 3), (226, 2), (7, 4), (203, 3), (162, 10), (134, 2), (78, 0), (229, 3), (116, 10), (149, 0), (136, 10), (217, 4), (199, 10), (37, 2), (222, 6), (33, 1), (122, 1), (48, 8), (240, 10), (171, 10), (21, 3), (131, 9), (50, 2), (232, 7), (177, 5), (100, 4), (46, 10), (69, 5), (64, 0), (128, 2), (146, 1), (55, 6), (239, 6), (237, 4), (87, 8), (103, 8), (36, 8), (80, 2)]
40	1	1	2	33	[(71, 9), (164, 5), (125, 7), (16, 9), (66, 5), (46, 8), (203, 9), (248, 2), (218, 10), (152, 10), (116, 2), (138, 0), (192, 5), (234, 4), (58, 3), (64, 5), (107, 0), (143, 6), (82, 10), (87, 0), (98, 5), (42, 8), (17, 1), (10, 8), (102, 10), (24, 6), (37, 2), (52, 1), (32, 10), (215, 7), (237, 4), (217, 7), (121, 6)]
41	1	1	8	36	[(55, 5), (31, 3), (47, 0), (27, 6), (61, 2), (130, 10), (43, 5), (150, 9), (117, 1), (56, 6), (209, 3), (25, 1), (77, 2), (193, 1), (90, 4), (179, 3), (167, 10), (29, 1), (228, 4), (21, 7), (103, 0), (114, 3), (100, 1), (165, 7), (194, 1), (73, 2), (78, 3), (58, 9), (122, 0), (9, 5), (59, 4), (2, 6), (248, 9), (180, 3), (242, 3), (101, 9)]
42	2	1	1	30	[(220, 0), (14, 4), (194, 9), (51, 4), (61, 4), (25, 8), (70, 6), (110, 3), (217, 4), (231, 9), (119, 5), (241, 9), (117, 4), (7, 1), (121, 10), (28, 10), (18, 4), (144, 0), (149, 2), (30, 7), (174, 6), (76, 4), (203, 10), (215, 5), (141, 2), (130, 5), (16, 4), (209, 8), (120, 4), (178, 2)]
43	3	1	8	30	[(212, 0), (218, 8), (150, 10), (216, 2), (9, 1), (23, 7), (4, 8), (246, 4), (233, 7), (208, 1), (116, 7), (201, 1), (31, 2), (221, 4), (128, 2), (141, 0), (160, 6), (215, 1), (140, 1), (78, 8), (168, 3), (114, 9), (48, 7), (153, 8), (22, 9), (172, 7), (58, 6), (155, 7), (248, 0), (76, 9)]
44	1	1	8	42	[(40, 6), (208, 0), (164, 4), (150, 3), (85, 6), (115, 9), (78, 1), (119, 6), (93, 10), (76, 10), (92, 4), (66, 2), (231, 6), (18, 0), (158, 8), (112, 9), (235, 0), (39, 0), (105, 9), (232, 4), (33, 8), (17, 2), (229, 3), (68, 4), (190, 6), (213, 6), (161, 9), (187, 9), (141, 6), (228, 0), (134, 0), (64, 10), (38, 10), (57, 7), (245, 5), (224, 4), (183, 5), (77, 7), (155, 6), (170, 6), (107, 2), (240, 7)]
45	14	1	4	32	[(158, 4), (47, 8), (246, 8), (228, 4), (146, 3), (144, 4), (19, 4), (59, 7), (23, 2), (107, 1), (175, 9), (196, 2), (38, 10), (217, 3), (169, 10), (20, 5), (145, 9), (100, 3), (3, 4), (112, 0), (206, 6), (10, 9), (192, 8), (236, 1), (238, 5), (183, 7), (180, 5), (13, 1), (4, 1), (137, 8), (117, 0), (118, 5)]
46	5	4	8	33	[(76, 9), (175, 10), (190, 10), (202, 4), (72, 4), (62, 9), (153, 7), (185, 5), (103, 9), (221, 3), (126, 5), (161, 7), (45, 1), (23, 10), (37, 6), (191, 3), (200, 9), (236, 6), (124, 7), (154, 0), (12, 5), (114, 7), (127, 7), (110, 8), (88, 2), (73, 5), (15, 5), (11, 10), (111, 1), (25, 1), (1, 5), (168, 9), (54, 7)]
47	2	12	8	30	[(134, 10), (137, 1), (54, 2), (35, 6), (171, 10), (98, 10), (222, 9), (27, 3), (127, 2), (225, 3), (250, 3), (42, 4), (70, 1), (118, 5), (40, 8), (113, 1), (77, 7), (131, 8), (136, 3), (91, 5), (109, 4), (186, 5), (197, 7), (191, 6), (119, 5), (161, 8), (213, 4), (108, 3), (36, 10), (16, 1)]
48	12	2	8	26	[(193, 5), (131, 7), (190, 3), (219, 10), (141, 9), (153, 7), (29, 4), (168, 1), (7, 10), (4, 9), (225, 10), (221, 1), (16, 0), (30, 9), (148, 0), (54, 6), (63, 7), (55, 0), (162, 6), (65, 2), (186, 6), (127, 2), (60, 8), (26, 1), (151, 9), (135, 4)]
49	13	1	8	33	[(21, 5), (56, 10), (44, 0), (157, 10), (110, 3), (250, 10), (4, 6), (120, 1), (102, 5), (217, 9), (232, 1), (159, 3), (218, 0), (134, 8), (236, 2), (43, 5), (249, 4), (167, 7), (212, 9), (10, 9), (29, 0), (14, 4), (127, 6), (77, 10), (15, 2), (63, 2), (12, 6), (187, 2), (84, 4), (74, 7), (219, 3), (3, 7), (28, 1)]
50	6	2	8	34	[(85, 2), (35, 5), (65, 0), (116, 2), (240, 8), (231, 0), (47, 7), (95, 2), (210, 6), (33, 4), (37, 5), (25, 8), (206, 1), (191, 4), (57, 2), (92, 7), (14, 2), (143, 5), (198, 3), (114, 3), (239, 6), (98, 9), (236, 9), (80, 2), (73, 1), (52, 7), (154, 9), (134, 3), (208, 0), (3, 5), (105, 5), (202, 5), (212, 8), (135, 9)]
51	5	4	8	25	[(21, 0), (141, 2), (102, 6), (211, 4), (163, 10), (82, 0), (97, 5), (192, 3), (207, 1), (227, 4), (76, 9), (174, 8), (80, 10), (166, 9), (126, 10), (249, 7), (98, 6), (210, 8), (3, 2), (79, 10), (100, 9), (176, 8), (148, 2), (1, 6), (223, 3)]
52	1	2	8	24	[(11, 7), (211, 0), (113, 5), (245, 5), (82, 8), (229, 1), (55, 8), (184, 8), (120, 3), (240, 4), (137, 3), (147, 9), (66, 7), (185, 7), (18, 2), (223, 10), (153, 3), (232, 0), (95, 7), (33, 6), (43, 10), (97, 6), (73, 0), (222, 0)]
53	2	2	8	38	[(144, 10), (137, 6), (29, 2), (26, 4), (239, 3), (9, 5), (28, 7), (77, 5), (243, 3), (121, 1), (197, 6), (91, 3), (22, 8), (12, 5), (4, 0), (194, 2), (111, 3), (225, 10), (23, 5), (223, 10), (129, 6), (145, 2), (228, 10), (245, 2), (221, 10), (45, 3), (139, 9), (62, 6), (93, 6), (156, 9), (5, 5), (53, 5), (216, 9), (38, 7), (138, 5), (158, 3), (177, 8), (198, 7)]
54	1	1	16	46	[(69, 7), (186, 6), (246, 10), (78, 1), (196, 1), (98, 1), (209, 3), (18, 0), (221, 10), (113, 5), (24, 8), (182, 8), (93, 2), (83, 4), (101, 4), (226, 0), (124, 7), (96, 4), (133, 7), (34, 1), (187, 8), (204, 5), (170, 0), (33, 1), (3, 5), (95, 3), (21, 6), (203, 1), (164, 4), (152, 5), (215, 2), (136, 3), (207, 10), (145, 2), (49, 9), (123, 9), (228, 7), (147, 10), (12, 7), (165, 4), (57, 10), (104, 4), (142, 0), (213, 0), (211, 0), (220, 2)]
55	24	1	8	28	[(66, 0), (158, 7), (166, 0), (115, 2), (173, 6), (43, 10), (36, 3), (26, 8), (83, 2), (175, 2), (144, 0), (131, 10), (68, 7), (92, 1), (116, 8), (233, 6), (228, 4), (55, 8), (103, 1), (73, 10), (38, 3), (148, 3), (192, 6), (138, 3), (247, 3), (200, 5), (85, 2), (186, 6)]
56	6	2	4	29	[(8, 0), (128, 6), (29, 6), (6, 5), (27, 6), (115, 0), (158, 8), (5, 9), (2, 7), (88, 8), (38, 5), (189, 8), (69, 2), (39, 3), (166, 9), (245, 7), (32, 9), (1, 9), (45, 7), (152, 7), (3, 10), (62, 6), (183, 0), (242, 0), (231, 8), (246, 4), (24, 2), (81, 3), (149, 1)]
57	2	1	8	26	[(168, 9), (211, 3), (80, 0), (61, 3), (215, 10), (246, 0), (240, 4), (34, 4), (14, 8), (88, 1), (242, 3), (28, 3), (35, 8), (193, 5), (9, 10), (48, 1), (189, 6), (69, 5), (157, 7), (93, 5), (52, 1), (248, 3), (63, 5), (192, 3), (54, 7), (243, 8)]
58	6	1	8	36	[(92, 10), (21, 3), (12, 9), (3, 9), (138, 8), (166, 3), (104, 0), (29, 2), (93, 1), (241, 8), (162, 2), (127, 0), (108, 7), (128, 8), (154, 4), (103, 6), (77, 4), (181, 3), (35, 10), (147, 4), (200, 8), (114, 6), (149, 8), (208, 3), (151, 5), (49, 8), (122, 10), (248, 9), (9, 0), (14, 6), (62, 5), (143, 10), (193, 3), (144, 0), (37, 8), (168, 10)]
59	1	2	8	27	[(148, 8), (170, 2), (139, 2), (15, 3), (119, 5), (29, 6), (195, 3), (11, 3), (93, 8), (244, 0), (201, 10), (166, 4), (145, 3), (216, 7), (236, 9), (110, 3), (36, 4), (117, 8), (1, 2), (221, 4), (164, 4), (163, 9), (199, 8), (122, 1), (184, 10), (243, 3), (225, 3)]
60	69	5	16	34	[(207, 1), (54, 10), (159, 5), (191, 4), (210, 3), (147, 4), (88, 2), (176, 4), (226, 8), (95, 0), (180, 5), (186, 1), (85, 0), (206, 8), (217, 9), (116, 10), (173, 5), (239, 3), (35, 5), (60, 8), (190, 3), (150, 1), (21, 10), (132, 9), (209, 3), (128, 0), (227, 9), (56, 10), (48, 6), (31, 7), (27, 4), (106, 5), (28, 10), (236, 7)]
61	6	6	8	26	[(249, 2), (216, 0), (13, 7), (208, 2), (121, 2), (31, 4), (203, 4), (188, 7), (123, 0), (178, 2), (131, 2), (85, 2), (153, 7), (40, 2), (17, 7), (144, 10), (37, 1), (9, 8), (212, 5), (115, 8), (165, 4), (234, 5), (102, 8), (8, 3), (41, 8), (136, 1)]
62	10	1	8	30	[(131, 0), (211, 3), (17, 2), (143, 4), (7, 8), (88, 2), (216, 3), (169, 8), (221, 2), (207, 7), (249, 6), (162, 3), (105, 2), (147, 8), (62, 10), (242, 3), (178, 2), (192, 0), (39, 7), (82, 5), (44, 1), (224, 0), (72, 0), (203, 9), (167, 8), (30, 0), (137, 8), (193, 9), (246, 9), (1, 6)]
63	4	1	8	33	[(194, 1), (167, 1), (59, 3), (136, 4), (143, 7), (163, 7), (208, 7), (114, 1), (159, 4), (193, 1), (241, 4), (101, 8), (53, 9), (10, 1), (52, 2), (85, 0), (240, 3), (19, 4), (117, 8), (187, 3), (103, 5), (88, 0), (139, 2), (234, 5), (26, 8), (146, 8), (16, 7), (239, 1), (48, 7), (15, 1), (77, 8), (190, 8), (8, 7)]
64	1	2	60	31	[(51, 4), (146, 5), (67, 9), (73, 8), (63, 7), (137, 3), (6, 5), (138, 10), (44, 6), (238, 8), (84, 5), (50, 1), (91, 2), (247, 10), (87, 6), (72, 8), (109, 6), (170, 2), (4, 3), (224, 10), (236, 0), (140, 4), (123, 4), (135, 2), (89, 8), (100, 10), (54, 2), (112, 8), (74, 1), (12, 0), (75, 5)]
65	11	6	8	36	[(238, 1), (200, 9), (144, 5), (40, 0), (197, 8), (121, 4), (15, 2), (122, 7), (248, 1), (170, 7), (178, 5), (19, 0), (81, 2), (110, 10), (175, 7), (217, 6), (36, 5), (152, 9), (26, 10), (44, 10), (115, 9), (50, 3), (188, 1), (139, 8), (235, 3), (37, 5), (6, 6), (137, 3), (171, 9), (204, 3), (52, 1), (165, 7), (51, 7), (215, 8), (151, 9), (57, 6)]
66	5	1	2	34	[(197, 10), (50, 3), (184, 6), (15, 4), (193, 1), (52, 3), (181, 10), (133, 0), (13, 3), (153, 3), (67, 5), (9, 10), (135, 3), (165, 5), (227, 5), (40, 2), (154, 5), (209, 2), (215, 4), (35, 9), (159, 7), (61, 3), (49, 0), (114, 0), (175, 9), (130, 1), (37, 5), (77, 1), (140, 4), (86, 2), (239, 4), (66, 2), (236, 10), (14, 9)]
67	2	4	8	36	[(45, 1), (124, 8), (177, 8), (196, 1), (18, 8), (55, 7), (208, 8), (33, 7), (190, 8), (232, 3), (57, 8), (102, 6), (116, 1), (66, 3), (75, 2), (216, 9), (225, 1), (58, 3), (235, 10), (166, 6), (15, 0), (49, 8), (70, 8), (117, 7), (135, 6), (71, 10), (16, 10), (185, 9), (179, 1), (130, 5), (56, 9), (230, 9), (243, 1), (25, 7), (224, 6), (175, 6)]
68	1	1	8	41	[(237, 2), (41, 4), (175, 9), (226, 5), (192, 10), (211, 9), (242, 5), (11, 4), (77, 5), (200, 9), (171, 7), (240, 8), (157, 1), (45, 4), (108, 5), (72, 8), (66, 3), (52, 7), (4, 0), (75, 4), (183, 7), (53, 3), (107, 2), (205, 8), (235, 3), (236, 4), (51, 7), (37, 9), (121, 0), (212, 8), (18, 4), (148, 5), (133, 3), (160, 1), (59, 9), (219, 4), (207, 8), (104, 2), (243, 4), (214, 7), (174, 0)]
69	2	2	8	31	[(23, 4), (148, 10), (174, 6), (184, 3), (33, 8), (31, 4), (19, 0), (171, 8), (6, 7), (242, 0), (198, 10), (50, 1), (22, 5), (65, 7), (157, 9), (116, 6), (199, 5), (68, 6), (169, 8), (180, 8), (178, 2), (210, 5), (54, 9), (4, 1), (115, 2), (24, 5), (62, 5), (129, 9), (101, 7), (246, 9), (149, 6)]
70	9	6	2	26	[(120, 3), (183, 0), (87, 1), (196, 8), (229, 1), (226, 9), (212, 5), (85, 8), (124, 1), (108, 7), (100, 2), (206, 8), (95, 1), (152, 7), (141, 8), (67, 0), (224, 1), (70, 5), (245, 4), (36, 2), (215, 3), (99, 0), (111, 10), (68, 0), (197, 9), (61, 2)]
71	1	4	8	37	[(167, 2), (122, 7), (139, 8), (222, 7), (35, 4), (133, 1), (7, 1), (61, 7), (137, 1), (75, 6), (215, 2), (77, 2), (83, 1), (249, 2), (96, 10), (49, 0), (93, 4), (162, 5), (120, 6), (95, 4), (170, 2), (143, 8), (146, 4), (25, 8), (22, 4), (234, 4), (106, 1), (223, 1), (190, 10), (155, 9), (116, 2), (10, 7), (195, 5), (128, 4), (42, 10), (243, 10), (165, 0)]
72	1	6	3	27	[(218, 0), (101, 5), (81, 0), (31, 10), (144, 8), (248, 6), (35, 8), (99, 5), (164, 0), (228, 4), (157, 5), (114, 9), (174, 6), (45, 5), (1, 1), (147, 7), (52, 5), (41, 3), (172, 0), (98, 10), (143, 2), (29, 5), (75, 4), (110, 3), (133, 0), (130, 9), (220, 8)]
73	4	1	8	37	[(247, 6), (231, 10), (200, 3), (21, 5), (101, 4), (132, 5), (203, 1), (178, 5), (210, 2), (163, 7), (137, 5), (186, 3), (197, 0), (238, 7), (41, 2), (234, 5), (115, 2), (23, 10), (30, 4), (228, 3), (240, 1), (144, 10), (245, 6), (250, 5), (97, 10), (58, 10), (6, 6), (16, 2), (14, 5), (3, 10), (70, 5), (119, 7), (229, 10), (77, 5), (168, 1), (13, 0), (7, 2)]
74	3	1	8	43	[(53, 8), (229, 2), (161, 5), (225, 7), (68, 8), (4, 0), (244, 7), (27, 0), (85, 1), (239, 1), (83, 3), (125, 5), (35, 9), (23, 6), (74, 8), (200, 8), (7, 4), (42, 9), (127, 7), (162, 1), (240, 4), (104, 6), (57, 8), (71, 3), (159, 3), (234, 0), (77, 1), (120, 7), (9, 0), (183, 1), (21, 3), (193, 7), (172, 10), (41, 4), (169, 3), (188, 6), (82, 3), (220, 7), (224, 7), (13, 1), (179, 8), (11, 9), (112, 5)]
75	2	3	16	34	[(16, 6), (51, 5), (208, 7), (152, 7), (214, 7), (210, 1), (79, 1), (49, 1), (243, 0), (81, 8), (48, 8), (10, 9), (127, 5), (168, 9), (131, 0), (105, 8), (216, 0), (223, 9), (92, 10), (171, 0), (218, 8), (212, 9), (232, 8), (192, 9), (31, 9), (68, 3), (204, 8), (185, 3), (32, 5), (86, 4), (250, 0), (58, 2), (135, 1), (90, 2)]
76	3	1	2	34	[(163, 6), (150, 10), (167, 5), (182, 10), (209, 10), (4, 9), (111, 1), (59, 8), (235, 7), (100, 5), (177, 2), (160, 9), (146, 8), (212, 2), (207, 9), (77, 3), (116, 9), (94, 10), (88, 6), (238, 8), (240, 9), (180, 6), (248, 5), (55, 4), (155, 4), (103, 4), (132, 8), (97, 9), (229, 7), (65, 2), (136, 6), (38, 1), (233, 4), (232, 8)]
77	3	1	6	32	[(9, 7), (222, 8), (148, 5), (169, 5), (241, 7), (191, 7), (214, 6), (156, 5), (189, 1), (107, 10), (146, 7), (65, 2), (73, 9), (32, 10), (94, 0), (45, 9), (127, 7), (104, 6), (98, 9), (144, 4), (174, 7), (145, 4), (117, 3), (242, 10), (246, 7), (33, 1), (142, 7), (196, 3), (154, 6), (190, 0), (234, 4), (29, 5)]
78	1	1	8	33	[(248, 9), (190, 9), (102, 8), (210, 7), (38, 2), (189, 2), (163, 10), (158, 9), (139, 5), (171, 7), (81, 2), (72, 10), (73, 8), (97, 7), (156, 7), (133, 3), (138, 10), (75, 7), (160, 5), (56, 1), (123, 0), (41, 5), (85, 10), (21, 4), (250, 2), (1, 4), (51, 9), (36, 7), (194, 10), (224, 5), (71, 4), (40, 8), (143, 1)]
79	7	6	3	35	[(245, 8), (19, 6), (125, 1), (139, 3), (74, 8), (212, 8), (185, 5), (54, 7), (152, 1), (116, 0), (130, 5), (194, 10), (121, 1), (124, 6), (169, 7), (208, 2), (52, 10), (235, 7), (95, 8), (107, 8), (79, 9), (40, 1), (46, 2), (230, 7), (111, 1), (149, 6), (204, 1), (243, 8), (127, 2), (129, 3), (173, 1), (218, 5), (7, 6), (110, 8), (153, 0)]
80	9	1	8	25	[(233, 0), (69, 1), (43, 9), (234, 6), (23, 7), (50, 8), (221, 10), (169, 5), (108, 10), (226, 1), (182, 2), (87, 7), (231, 6), (120, 9), (225, 7), (210, 1), (184, 2), (89, 0), (77, 0), (176, 2), (196, 5), (241, 5), (55, 3), (207, 5), (72, 2)]
81	2	1	8	33	[(65, 9), (131, 8), (82, 0), (234, 10), (232, 10), (173, 1), (151, 5), (48, 6), (67, 10), (136, 7), (199, 1), (228, 1), (246, 6), (5, 3), (238, 10), (125, 9), (23, 1), (64, 0), (71, 1), (36, 6), (178, 0), (46, 3), (51, 5), (4, 7), (227, 3), (121, 10), (145, 6), (10, 8), (215, 9), (88, 6), (156, 4), (32, 10), (211, 3)]
82	1	1	8	29	[(231, 4), (162, 6), (42, 6), (146, 7), (149, 5), (155, 2), (217, 4), (206, 4), (86, 0), (40, 3), (209, 0), (220, 0), (65, 9), (36, 10), (225, 8), (48, 4), (230, 5), (176, 6), (124, 6), (167, 1), (202, 5), (38, 2), (18, 10), (137, 9), (45, 9), (67, 5), (43, 7), (127, 0), (148, 9)]
83	13	1	8	32	[(97, 5), (128, 8), (51, 8), (207, 0), (172, 4), (69, 5), (193, 6), (4, 4), (197, 2), (153, 10), (183, 10), (245, 8), (15, 4), (39, 1), (133, 9), (89, 9), (79, 5), (2, 0), (36, 7), (63, 4), (98, 4), (158, 7), (186, 9), (120, 2), (19, 7), (114, 8), (179, 0), (81, 9), (132, 0), (110, 9), (142, 6), (85, 8)]
84	1	1	8	41	[(150, 10), (147, 9), (242, 2), (76, 6), (240, 9), (40, 1), (176, 5), (56, 4), (166, 3), (2, 2), (72, 2), (88, 4), (42, 2), (155, 4), (231, 0), (74, 9), (85, 1), (156, 5), (154, 0), (219, 9), (222, 10), (208, 4), (48, 4), (108, 8), (61, 7), (212, 3), (185, 6), (30, 9), (44, 9), (20, 1), (132, 2), (205, 9), (145, 5), (160, 3), (142, 4), (79, 8), (5, 3), (33, 1), (216, 10), (84, 9), (143, 2)]
85	1	1	8	35	[(8, 10), (31, 6), (53, 0), (1, 4), (218, 10), (129, 8), (174, 4), (42, 0), (175, 4), (98, 4), (155, 10), (7, 6), (153, 1), (58, 1), (170, 8), (220, 2), (78, 0), (80, 2), (88, 2), (147, 2), (16, 1), (202, 10), (73, 3), (235, 5), (84, 7), (33, 5), (131, 8), (210, 3), (49, 0), (197, 5), (107, 7), (169, 0), (240, 2), (173, 10), (241, 4)]
86	10	1	8	38	[(93, 5), (48, 10), (136, 8), (96, 8), (176, 5), (195, 7), (184, 6), (199, 10), (79, 1), (241, 10), (141, 6), (60, 9), (126, 1), (174, 6), (183, 10), (101, 1), (40, 0), (202, 3), (12, 1), (250, 6), (189, 1), (2, 3), (170, 7), (115, 9), (33, 8), (25, 9), (27, 3), (100, 7), (236, 6), (131, 4), (50, 4), (53, 5), (120, 2), (247, 0), (188, 10), (76, 3), (186, 4), (102, 1)]
87	2	1	8	33	[(58, 10), (197, 7), (24, 7), (103, 10), (227, 3), (38, 10), (83, 10), (50, 6), (36, 5), (174, 6), (22, 6), (10, 10), (69, 1), (237, 7), (45, 3), (163, 3), (148, 0), (244, 9), (70, 6), (200, 1), (243, 5), (31, 8), (127, 8), (215, 6), (208, 0), (100, 8), (205, 5), (203, 7), (220, 5), (152, 9), (123, 0), (231, 2), (211, 10)]
88	3	1	8	25	[(208, 10), (238, 4), (108, 0), (24, 5), (157, 3), (190, 6), (21, 10), (224, 8), (44, 6), (137, 3), (111, 6), (181, 4), (41, 9), (14, 7), (141, 1), (37, 1), (77, 6), (129, 0), (246, 1), (96, 9), (23, 5), (177, 3), (101, 1), (201, 0), (49, 7)]
89	3	1	8	29	[(127, 4), (147, 7), (63, 5), (213, 1), (233, 2), (89, 1), (13, 7), (198, 7), (108, 6), (157, 7), (169, 0), (240, 7), (174, 0), (126, 1), (149, 0), (111, 3), (156, 4), (195, 0), (16, 7), (49, 6), (7, 10), (23, 0), (128, 5), (84, 1), (136, 10), (202, 4), (250, 1), (218, 7), (83, 8)]
90	2	1	8	42	[(203, 6), (120, 10), (112, 6), (151, 7), (47, 10), (155, 0), (102, 0), (87, 2), (26, 9), (218, 1), (169, 2), (55, 0), (141, 6), (136, 4), (19, 3), (71, 10), (139, 2), (187, 6), (16, 10), (200, 10), (236, 8), (78, 0), (233, 7), (79, 8), (241, 6), (194, 10), (212, 5), (133, 0), (148, 3), (30, 5), (49, 7), (154, 0), (237, 2), (160, 0), (164, 8), (220, 7), (11, 2), (245, 10), (189, 3), (68, 3), (118, 2), (184, 2)]
91	2	4	8	38	[(40, 5), (229, 6), (201, 5), (113, 0), (47, 4), (173, 5), (97, 5), (56, 8), (39, 8), (133, 1), (112, 0), (236, 9), (237, 0), (129, 10), (35, 1), (19, 6), (25, 5), (148, 1), (196, 7), (152, 6), (205, 2), (130, 10), (29, 3), (194, 10), (225, 3), (159, 10), (140, 3), (58, 9), (65, 6), (106, 3), (175, 4), (193, 3), (191, 2), (61, 8), (227, 2), (181, 7), (107, 5), (100, 7)]
92	2	1	8	31	[(52, 7), (146, 2), (41, 7), (127, 7), (142, 5), (201, 5), (139, 4), (90, 10), (50, 1), (152, 5), (87, 0), (82, 4), (212, 1), (103, 0), (33, 7), (202, 6), (170, 0), (134, 1), (172, 3), (151, 7), (181, 5), (57, 8), (129, 3), (124, 8), (23, 6), (110, 7), (37, 8), (248, 1), (138, 6), (157, 4), (95, 10)]
93	5	1	8	33	[(180, 8), (80, 4), (160, 0), (186, 10), (34, 3), (94, 1), (1, 8), (44, 9), (63, 0), (92, 6), (166, 3), (240, 9), (174, 3), (25, 5), (229, 10), (13, 2), (40, 9), (206, 5), (101, 6), (144, 0), (183, 10), (158, 8), (73, 3), (30, 9), (76, 6), (78, 0), (199, 0), (102, 0), (61, 8), (54, 7), (32, 6), (14, 4), (213, 6)]
94	1	1	8	27	[(54, 1), (159, 3), (125, 10), (107, 3), (204, 0), (198, 1), (74, 5), (103, 2), (150, 1), (188, 0), (69, 4), (229, 8), (13, 9), (1, 0), (70, 8), (33, 6), (173, 7), (10, 5), (225, 3), (213, 8), (31, 8), (243, 0), (42, 10), (4, 5), (130, 7), (37, 2), (64, 2)]
95	2	3	8	35	[(119, 8), (225, 1), (228, 1), (141, 0), (62, 8), (73, 5), (146, 0), (245, 0), (33, 2), (50, 9), (233, 2), (32, 3), (216, 8), (183, 8), (41, 10), (121, 9), (176, 9), (85, 0), (82, 6), (127, 9), (227, 10), (182, 10), (120, 6), (221, 7), (220, 2), (169, 2), (59, 1), (65, 1), (230, 3), (110, 2), (232, 10), (108, 3), (44, 8), (80, 1), (58, 9)]
96	6	1	8	29	[(117, 6), (203, 6), (196, 10), (113, 9), (239, 6), (147, 3), (70, 10), (37, 4), (95, 5), (12, 9), (116, 3), (118, 5), (3, 2), (171, 3), (178, 5), (34, 2), (125, 5), (123, 9), (100, 0), (219, 7), (53, 2), (32, 9), (115, 1), (91, 8), (38, 9), (142, 7), (156, 0), (182, 4), (236, 6)]
97	1	1	8	31	[(213, 3), (31, 4), (189, 3), (48, 8), (8, 0), (144, 4), (87, 9), (24, 0), (145, 0), (83, 9), (157, 2), (222, 0), (166, 0), (162, 9), (237, 5), (60, 4), (18, 8), (93, 7), (241, 1), (104, 9), (43, 0), (233, 10), (88, 8), (82, 4), (158, 1), (121, 10), (91, 5), (142, 1), (223, 5), (180, 2), (21, 6)]
98	5	4	2	30	[(214, 8), (61, 3), (185, 5), (109, 2), (127, 7), (149, 6), (12, 6), (194, 6), (21, 4), (217, 1), (42, 7), (96, 7), (249, 1), (177, 0), (84, 5), (132, 10), (53, 10), (151, 8), (85, 0), (137, 1), (158, 10), (206, 6), (247, 1), (123, 8), (165, 1), (174, 7), (195, 3), (63, 5), (68, 1), (90, 4)]
99	33	1	5	32	[(176, 4), (194, 0), (185, 4), (30, 8), (211, 5), (197, 5), (100, 1), (54, 5), (49, 7), (65, 4), (208, 8), (9, 5), (42, 8), (39, 0), (215, 6), (205, 6), (203, 5), (101, 2), (249, 7), (93, 10), (92, 5), (61, 5), (158, 8), (210, 7), (206, 3), (21, 0), (248, 3), (128, 8), (75, 7), (58, 7), (72, 0), (108, 4)]
100	1	3	8	33	[(60, 5), (180, 9), (44, 7), (223, 8), (169, 3), (148, 0), (226, 8), (46, 9), (211, 10), (131, 7), (124, 8), (190, 4), (174, 6), (138, 1), (183, 4), (248, 3), (68, 8), (199, 4), (1, 5), (30, 9), (37, 7), (149, 10), (83, 3), (109, 6), (62, 8), (127, 2), (10, 2), (81, 9), (41, 6), (101, 10), (67, 4), (206, 6), (53, 7)]
101	5	1	8	37	[(104, 7), (229, 6), (64, 9), (83, 9), (9, 2), (131, 5), (77, 5), (84, 7), (160, 10), (102, 0), (128, 5), (168, 6), (91, 10), (15, 9), (118, 10), (126, 8), (81, 3), (237, 3), (54, 8), (119, 0), (158, 3), (55, 4), (16, 9), (153, 1), (159, 6), (157, 2), (245, 6), (243, 6), (121, 2), (210, 9), (177, 10), (206, 1), (105, 7), (167, 8), (231, 4), (246, 8), (51, 0)]
102	2	3	8	34	[(27, 10), (176, 4), (85, 0), (210, 7), (45, 8), (56, 9), (175, 10), (167, 6), (143, 1), (103, 6), (237, 5), (33, 8), (5, 9), (156, 10), (29, 2), (107, 8), (61, 1), (157, 2), (174, 10), (194, 1), (79, 9), (15, 10), (140, 0), (202, 0), (105, 5), (37, 7), (179, 5), (114, 3), (188, 5), (224, 0), (152, 8), (116, 8), (108, 9), (52, 3)]
103	2	1	5	35	[(194, 3), (201, 6), (152, 3), (116, 0), (177, 2), (88, 1), (246, 3), (106, 4), (51, 9), (34, 4), (243, 8), (150, 8), (12, 10), (35, 4), (123, 3), (92, 0), (10, 2), (138, 2), (13, 4), (172, 2), (32, 10), (245, 0), (21, 2), (100, 10), (170, 4), (207, 9), (187, 6), (90, 6), (86, 10), (63, 3), (121, 5), (232, 0), (208, 0), (69, 5), (165, 1)]
104	5	5	8	26	[(232, 2), (177, 6), (83, 9), (37, 9), (153, 2), (210, 4), (17, 5), (36, 2), (128, 2), (86, 6), (45, 4), (2, 10), (74, 5), (229, 4), (161, 5), (241, 9), (55, 8), (90, 3), (244, 7), (1, 5), (200, 2), (79, 7), (224, 0), (100, 0), (10, 4), (206, 6)]
105	1	1	8	31	[(168, 6), (60, 7), (31, 0), (155, 2), (134, 6), (194, 5), (244, 9), (139, 10), (46, 8), (39, 8), (193, 1), (10, 6), (79, 9), (110, 10), (182, 4), (144, 7), (137, 4), (247, 4), (81, 7), (208, 1), (159, 7), (224, 2), (58, 3), (131, 9), (41, 3), (126, 9), (178, 7), (25, 9), (191, 1), (202, 0), (53, 5)]
106	6	1	8	34	[(83, 8), (155, 10), (170, 6), (196, 8), (70, 3), (140, 3), (23, 9), (158, 1), (156, 0), (36, 2), (16, 6), (247, 10), (42, 1), (19, 3), (242, 0), (103, 10), (64, 1), (214, 8), (91, 2), (72, 3), (43, 6), (107, 5), (143, 2), (236, 3), (100, 3), (134, 6), (202, 8), (49, 10), (7, 3), (4, 7), (108, 1), (245, 1), (37, 3), (119, 4)]
107	5	1	8	23	[(121, 5), (71, 7), (174, 7), (140, 7), (184, 1), (190, 10), (213, 4), (156, 4), (107, 5), (59, 5), (143, 3), (63, 5), (185, 9), (150, 2), (163, 5), (183, 10), (215, 6), (125, 8), (94, 9), (193, 7), (34, 2), (166, 7), (148, 1)]
108	2	2	8	22	[(38, 4), (6, 0), (113, 2), (27, 4), (229, 2), (249, 5), (158, 6), (138, 6), (235, 1), (220, 6), (215, 10), (205, 4), (29, 8), (250, 10), (226, 5), (106, 7), (99, 5), (3, 10), (221, 8), (160, 1), (101, 5), (214, 6)]
109	2	1	8	23	[(236, 5), (216, 1), (52, 1), (104, 1), (123, 4), (158, 3), (36, 7), (215, 9), (136, 3), (59, 4), (130, 10), (125, 9), (175, 2), (108, 9), (245, 8), (224, 1), (97, 6), (62, 8), (223, 5), (160, 2), (171, 1), (246, 7), (83, 6)]
110	1	1	2	33	[(19, 2), (211, 6), (141, 4), (169, 10), (227, 6), (71, 0), (79, 4), (89, 8), (158, 10), (143, 9), (130, 7), (64, 4), (61, 3), (131, 10), (3, 8), (133, 7), (116, 5), (32, 2), (7, 8), (166, 4), (88, 2), (219, 8), (212, 1), (159, 3), (229, 6), (149, 0), (214, 6), (63, 3), (73, 2), (99, 2), (68, 9), (123, 1), (193, 5)]
111	6	1	8	38	[(102, 3), (140, 4), (229, 5), (20, 3), (112, 5), (184, 0), (198, 10), (50, 6), (243, 4), (187, 3), (4, 0), (218, 5), (77, 3), (110, 5), (138, 1), (220, 10), (180, 2), (94, 5), (14, 6), (10, 9), (75, 3), (231, 2), (124, 0), (28, 2), (133, 9), (16, 2), (141, 8), (143, 5), (51, 8), (91, 8), (149, 3), (125, 6), (147, 5), (53, 8), (86, 4), (13, 3), (117, 5), (182, 1)]
112	2	2	2	33	[(115, 3), (153, 0), (17, 9), (163, 1), (193, 10), (221, 5), (243, 10), (171, 2), (1, 10), (108, 7), (102, 1), (63, 4), (99, 0), (105, 1), (247, 3), (5, 8), (64, 4), (91, 5), (54, 7), (128, 3), (11, 10), (70, 0), (48, 7), (174, 10), (188, 2), (135, 10), (228, 1), (219, 7), (208, 3), (238, 7), (133, 8), (149, 4), (111, 9)]
113	1	1	8	30	[(191, 10), (194, 2), (245, 0), (88, 5), (93, 9), (116, 10), (128, 2), (234, 8), (205, 1), (22, 4), (207, 10), (16, 4), (105, 9), (156, 1), (238, 5), (39, 2), (187, 7), (130, 3), (99, 2), (63, 4), (95, 0), (159, 6), (222, 3), (188, 0), (164, 7), (62, 3), (122, 0), (135, 0), (151, 9), (223, 5)]
114	2	2	8	38	[(172, 3), (41, 3), (106, 3), (3, 6), (28, 9), (78, 7), (42, 8), (238, 4), (121, 5), (190, 2), (198, 9), (166, 3), (194, 0), (232, 9), (26, 0), (231, 7), (178, 10), (169, 5), (179, 1), (242, 5), (230, 8), (215, 2), (122, 1), (132, 3), (151, 4), (195, 8), (135, 8), (136, 10), (246, 3), (40, 4), (80, 1), (81, 9), (124, 6), (119, 10), (174, 1), (147, 4), (107, 7), (117, 0)]
115	5	2	48	41	[(68, 0), (247, 2), (110, 0), (215, 7), (17, 0), (15, 1), (22, 6), (86, 2), (221, 7), (231, 5), (75, 7), (203, 0), (128, 8), (27, 10), (56, 1), (174, 8), (67, 10), (161, 2), (21, 10), (218, 1), (81, 4), (178, 6), (227, 4), (41, 5), (91, 4), (112, 7), (244, 5), (118, 2), (219, 2), (179, 6), (20, 1), (198, 10), (216, 8), (147, 3), (249, 3), (25, 5), (190, 0), (33, 9), (163, 5), (71, 3), (107, 10)]
116	1	1	8	44	[(232, 1), (139, 1), (85, 10), (141, 0), (121, 9), (113, 5), (210, 4), (79, 10), (163, 1), (18, 0), (165, 10), (81, 8), (194, 0), (5, 8), (215, 10), (247, 2), (32, 3), (94, 7), (240, 8), (102, 9), (214, 0), (58, 5), (227, 7), (89, 0), (198, 6), (233, 2), (33, 6), (49, 8), (109, 3), (99, 8), (69, 3), (82, 2), (87, 3), (221, 7), (14, 3), (228, 6), (97, 1), (138, 1), (73, 9), (27, 4), (105, 7), (197, 3), (220, 7), (238, 0)]
117	10	1	8	35	[(37, 2), (172, 10), (222, 5), (244, 8), (64, 8), (53, 8), (143, 9), (43, 1), (102, 8), (148, 3), (193, 7), (21, 6), (166, 8), (249, 9), (144, 5), (117, 6), (206, 4), (135, 8), (110, 2), (45, 2), (83, 1), (247, 4), (98, 5), (62, 6), (241, 5), (231, 2), (194, 10), (164, 8), (195, 6), (81, 4), (178, 0), (201, 0), (92, 4), (36, 1), (72, 5)]
118	1	1	8	27	[(218, 2), (220, 6), (215, 1), (14, 1), (72, 7), (145, 9), (36, 2), (180, 1), (228, 7), (49, 7), (201, 4), (110, 5), (13, 9), (32, 6), (189, 1), (48, 0), (99, 10), (159, 0), (153, 6), (231, 3), (68, 2), (51, 5), (4, 10), (142, 5), (10, 1), (163, 8), (190, 4)]
119	2	1	8	33	[(115, 7), (246, 2), (44, 7), (101, 2), (175, 7), (155, 1), (70, 8), (236, 0), (5, 10), (121, 8), (205, 3), (131, 3), (32, 8), (21, 9), (117, 9), (39, 2), (3, 6), (227, 10), (46, 10), (49, 6), (98, 10), (191, 0), (234, 2), (250, 10), (201, 5), (222, 5), (79, 10), (249, 1), (188, 4), (215, 1), (60, 3), (218, 2), (85, 4)]
120	8	36	8	22	[(237, 2), (130, 10), (75, 0), (36, 2), (42, 4), (38, 7), (138, 2), (119, 4), (139, 4), (3, 10), (157, 4), (132, 4), (145, 9), (129, 8), (161, 7), (186, 7), (246, 2), (91, 6), (201, 3), (156, 9), (6, 7), (225, 10)]
121	1	1	8	32	[(224, 9), (64, 5), (43, 8), (117, 2), (128, 6), (88, 10), (46, 5), (212, 4), (72, 8), (111, 10), (114, 6), (248, 2), (170, 8), (71, 5), (201, 0), (52, 7), (189, 10), (159, 5), (241, 10), (199, 5), (143, 10), (63, 9), (45, 8), (112, 7), (21, 5), (160, 6), (62, 10), (107, 10), (147, 6), (95, 1), (126, 2), (51, 5)]
122	1	1	8	37	[(220, 3), (236, 8), (129, 3), (186, 2), (36, 2), (82, 10), (119, 3), (55, 9), (132, 5), (242, 4), (212, 8), (99, 2), (72, 6), (29, 10), (4, 4), (138, 7), (88, 5), (41, 5), (35, 4), (135, 0), (165, 3), (109, 3), (227, 1), (15, 10), (164, 7), (206, 6), (152, 3), (232, 4), (218, 4), (122, 5), (49, 0), (38, 4), (90, 0), (61, 5), (68, 0), (233, 7), (148, 7)]
123	2	1	8	32	[(49, 5), (33, 9), (140, 2), (187, 0), (68, 0), (132, 8), (135, 1), (106, 1), (241, 8), (143, 2), (38, 1), (185, 8), (217, 8), (137, 8), (250, 4), (249, 7), (164, 5), (14, 5), (111, 3), (197, 9), (25, 1), (171, 3), (201, 5), (157, 6), (129, 7), (34, 4), (208, 3), (32, 8), (116, 2), (170, 3), (242, 6), (124, 10)]
124	2	2	8	30	[(139, 9), (3, 4), (138, 2), (104, 2), (243, 8), (177, 5), (118, 9), (202, 7), (189, 10), (130, 3), (219, 10), (156, 1), (99, 6), (164, 1), (22, 10), (247, 5), (221, 7), (171, 2), (16, 6), (13, 1), (4, 0), (2, 10), (218, 8), (108, 7), (230, 0), (102, 5), (227, 1), (23, 7), (75, 8), (121, 3)]
125	4	2	8	38	[(199, 4), (203, 4), (68, 10), (154, 2), (92, 2), (189, 9), (129, 3), (125, 5), (94, 4), (221, 1), (87, 7), (109, 6), (238, 5), (148, 2), (155, 2), (162, 7), (124, 9), (8, 2), (65, 7), (99, 3), (57, 5), (177, 2), (6, 1), (206, 2), (69, 10), (183, 3), (147, 2), (86, 8), (149, 8), (23, 10), (141, 1), (30, 9), (103, 4), (205, 1), (47, 1), (209, 10), (119, 0), (164, 7)]
126	2	1	8	32	[(103, 1), (143, 0), (234, 9), (126, 2), (4, 4), (160, 6), (72, 8), (3, 4), (168, 1), (188, 1), (60, 2), (181, 4), (238, 10), (152, 4), (63, 5), (208, 10), (155, 10), (196, 1), (121, 5), (42, 7), (177, 3), (14, 1), (2, 2), (97, 6), (93, 4), (176, 3), (27, 6), (24, 0), (138, 9), (186, 9), (5, 2), (25, 6)]
127	2	1	7	27	[(237, 1), (136, 4), (104, 8), (177, 7), (56, 7), (17, 6), (172, 8), (168, 6), (226, 7), (139, 1), (38, 9), (179, 5), (102, 4), (12, 3), (190, 10), (250, 9), (89, 10), (39, 10), (36, 5), (218, 2), (25, 10), (162, 1), (15, 3), (6, 7), (246, 4), (2, 10), (169, 6)]
128	3	2	2	30	[(74, 4), (60, 3), (1, 0), (208, 2), (194, 0), (37, 9), (96, 2), (152, 5), (144, 5), (70, 8), (82, 6), (156, 6), (91, 9), (136, 7), (111, 0), (13, 6), (206, 5), (79, 10), (31, 7), (163, 9), (151, 3), (16, 3), (84, 1), (124, 7), (153, 5), (202, 6), (231, 5), (215, 10), (123, 3), (66, 3)]
129	1	6	8	31	[(14, 7), (5, 6), (199, 9), (105, 9), (71, 5), (97, 10), (56, 6), (223, 2), (115, 8), (191, 3), (121, 8), (249, 0), (228, 1), (62, 9), (176, 9), (17, 7), (41, 1), (185, 9), (77, 5), (134, 8), (208, 3), (109, 0), (242, 3), (205, 7), (221, 8), (198, 10), (43, 7), (120, 6), (159, 1), (6, 0), (147, 10)]
130	3	1	8	28	[(39, 4), (147, 9), (186, 3), (210, 2), (239, 7), (190, 0), (220, 4), (235, 9), (51, 1), (189, 6), (33, 7), (155, 10), (68, 1), (60, 4), (232, 0), (249, 10), (250, 6), (35, 1), (116, 2), (111, 0), (146, 8), (182, 7), (57, 4), (180, 9), (246, 2), (216, 1), (153, 5), (93, 7)]
131	2	1	3	36	[(236, 7), (97, 10), (203, 10), (154, 6), (182, 9), (120, 7), (196, 5), (177, 4), (84, 7), (107, 7), (202, 6), (170, 1), (214, 4), (80, 1), (217, 6), (100, 8), (173, 10), (187, 9), (134, 6), (216, 9), (42, 5), (213, 2), (59, 8), (9, 9), (108, 0), (126, 0), (113, 8), (40, 10), (61, 10), (141, 0), (48, 3), (46, 10), (148, 3), (195, 2), (136, 5), (57, 10)]
132	4	1	8	31	[(25, 5), (226, 9), (129, 3), (204, 7), (82, 4), (140, 5), (43, 7), (149, 1), (138, 8), (58, 6), (136, 3), (111, 3), (133, 0), (51, 6), (68, 3), (5, 5), (3, 6), (250, 1), (15, 9), (62, 9), (107, 2), (98, 9), (13, 1), (195, 9), (66, 9), (60, 8), (117, 9), (134, 9), (85, 4), (110, 3), (35, 4)]
133	7	1	5	31	[(94, 0), (41, 7), (198, 8), (57, 2), (5, 6), (133, 2), (232, 6), (146, 5), (127, 8), (120, 0), (19, 7), (73, 1), (238, 1), (119, 4), (139, 5), (147, 5), (245, 10), (85, 2), (46, 0), (152, 6), (114, 5), (186, 6), (172, 10), (195, 6), (97, 7), (168, 0), (79, 4), (45, 2), (113, 2), (128, 0), (35, 8)]
134	1	1	2	26	[(44, 3), (181, 0), (81, 3), (219, 8), (53, 6), (84, 1), (158, 9), (182, 10), (189, 1), (52, 2), (134, 1), (156, 10), (13, 3), (145, 0), (20, 1), (217, 1), (127, 3), (171, 9), (191, 4), (23, 5), (43, 2), (68, 9), (61, 5), (201, 0), (214, 5), (209, 3)]
135	7	1	8	30	[(121, 8), (107, 7), (26, 0), (128, 5), (175, 3), (92, 8), (228, 7), (56, 0), (232, 5), (14, 8), (146, 6), (41, 10), (212, 5), (223, 5), (85, 10), (37, 0), (22, 8), (23, 5), (72, 0), (215, 4), (241, 6), (106, 1), (171, 3), (149, 8), (179, 0), (177, 0), (76, 8), (52, 5), (53, 9), (114, 9)]
136	14	1	2	34	[(39, 7), (203, 1), (219, 7), (93, 7), (217, 0), (225, 3), (53, 2), (68, 1), (7, 1), (174, 10), (21, 10), (119, 2), (172, 8), (246, 5), (49, 5), (162, 9), (56, 10), (19, 8), (182, 0), (124, 0), (142, 1), (101, 6), (76, 5), (201, 1), (220, 1), (18, 3), (206, 7), (63, 9), (58, 5), (105, 7), (92, 7), (136, 4), (232, 9), (47, 2)]
137	8	2	8	30	[(68, 4), (180, 3), (2, 3), (136, 5), (59, 4), (56, 5), (119, 6), (73, 0), (154, 9), (93, 1), (69, 2), (191, 1), (116, 6), (35, 3), (207, 1), (120, 3), (109, 10), (224, 3), (82, 6), (74, 0), (38, 4), (24, 3), (193, 0), (185, 2), (11, 3), (133, 2), (167, 0), (97, 2), (178, 4), (20, 8)]
138	2	2	2	40	[(107, 1), (193, 9), (205, 3), (223, 4), (60, 6), (172, 10), (76, 1), (48, 7), (68, 1), (70, 3), (8, 7), (190, 7), (102, 7), (232, 6), (208, 8), (38, 7), (202, 2), (133, 8), (118, 1), (108, 8), (73, 0), (120, 0), (125, 10), (155, 1), (246, 7), (157, 5), (140, 6), (231, 7), (82, 0), (158, 5), (116, 2), (13, 7), (2, 6), (128, 4), (9, 5), (66, 9), (181, 7), (40, 5), (207, 10), (65, 10)]
139	4	1	8	37	[(40, 6), (132, 0), (27, 0), (153, 10), (93, 7), (16, 6), (89, 10), (136, 1), (152, 7), (32, 2), (155, 9), (151, 1), (150, 8), (36, 6), (225, 2), (249, 8), (217, 4), (189, 3), (57, 1), (233, 1), (131, 4), (97, 5), (239, 1), (41, 2), (146, 9), (4, 4), (87, 9), (121, 10), (37, 7), (129, 7), (196, 7), (116, 5), (204, 2), (61, 0), (48, 10), (26, 8), (173, 0)]
140	3	1	8	35	[(92, 10), (77, 5), (47, 5), (197, 9), (219, 4), (103, 8), (184, 5), (130, 2), (173, 4), (187, 8), (151, 0), (166, 5), (224, 7), (123, 6), (91, 4), (60, 2), (55, 4), (250, 10), (154, 4), (189, 9), (15, 2), (86, 9), (125, 2), (128, 5), (97, 1), (34, 0), (162, 1), (107, 8), (207, 5), (237, 9), (66, 5), (74, 4), (49, 0), (139, 4), (136, 4)]
141	1	1	8	31	[(57, 8), (3, 10), (189, 1), (9, 10), (105, 7), (182, 1), (209, 1), (183, 10), (110, 9), (174, 3), (193, 1), (119, 10), (5, 1), (215, 6), (94, 1), (48, 5), (26, 5), (84, 2), (225, 5), (231, 0), (56, 0), (10, 10), (195, 6), (229, 10), (202, 4), (111, 5), (128, 7), (216, 0), (190, 4), (31, 1), (132, 7)]
142	1	1	8	32	[(143, 9), (176, 0), (90, 3), (206, 0), (7, 3), (126, 6), (99, 10), (17, 8), (65, 3), (182, 9), (48, 10), (188, 7), (86, 9), (212, 7), (116, 5), (3, 7), (237, 5), (12, 8), (11, 5), (74, 6), (114, 1), (194, 10), (55, 9), (30, 9), (76, 4), (164, 10), (223, 8), (125, 6), (193, 0), (2, 3), (236, 7), (148, 5)]
143	2	1	8	31	[(165, 6), (196, 6), (218, 10), (3, 8), (157, 3), (84, 3), (17, 0), (197, 0), (15, 8), (128, 8), (40, 3), (126, 5), (155, 5), (135, 2), (220, 0), (222, 8), (108, 4), (104, 7), (119, 4), (53, 10), (194, 10), (42, 1), (70, 8), (18, 5), (2, 8), (193, 10), (229, 0), (80, 8), (200, 9), (66, 8), (14, 8)]
144	3	2	16	28	[(167, 8), (146, 9), (43, 7), (87, 10), (242, 4), (60, 8), (86, 8), (78, 5), (160, 1), (49, 3), (25, 0), (54, 2), (13, 5), (57, 9), (23, 3), (22, 3), (8, 6), (204, 10), (110, 5), (104, 2), (44, 4), (220, 3), (234, 3), (225, 2), (83, 7), (214, 1), (71, 7), (135, 10)]
145	1	6	8	31	[(64, 1), (23, 7), (136, 3), (125, 6), (198, 5), (223, 5), (59, 1), (39, 6), (122, 0), (199, 9), (99, 6), (228, 3), (76, 2), (242, 0), (191, 9), (215, 10), (180, 9), (36, 2), (84, 8), (5, 0), (111, 6), (74, 4), (14, 2), (80, 1), (134, 9), (79, 4), (139, 10), (232, 9), (146, 5), (2, 4), (1, 8)]
146	2	1	8	33	[(62, 7), (191, 5), (241, 1), (225, 0), (179, 1), (214, 10), (8, 0), (73, 2), (216, 3), (228, 3), (151, 10), (34, 5), (131, 9), (60, 0), (79, 5), (233, 2), (43, 3), (149, 3), (226, 4), (155, 9), (189, 0), (164, 2), (82, 4), (24, 7), (92, 8), (217, 5), (108, 0), (2, 6), (170, 5), (96, 10), (150, 9), (65, 9), (169, 3)]
147	1	5	8	32	[(22, 9), (165, 7), (247, 9), (213, 9), (52, 6), (91, 1), (5, 4), (190, 8), (203, 6), (188, 5), (164, 9), (186, 3), (180, 5), (232, 10), (86, 10), (241, 4), (192, 3), (42, 9), (124, 7), (152, 0), (50, 6), (112, 1), (9, 7), (102, 5), (167, 9), (103, 8), (189, 7), (113, 3), (135, 6), (55, 4), (177, 7), (115, 1)]
148	2	3	8	30	[(55, 1), (227, 7), (154, 1), (165, 3), (139, 6), (247, 4), (121, 7), (68, 2), (32, 6), (132, 6), (176, 6), (11, 8), (64, 9), (40, 4), (20, 10), (31, 5), (25, 5), (24, 5), (76, 6), (175, 1), (140, 1), (230, 5), (135, 4), (137, 7), (164, 2), (213, 1), (161, 6), (18, 2), (4, 10), (171, 10)]
149	2	2	8	31	[(240, 4), (214, 6), (122, 6), (35, 2), (13, 7), (175, 0), (104, 7), (134, 7), (70, 0), (42, 4), (223, 2), (249, 5), (198, 10), (100, 3), (36, 1), (215, 0), (132, 5), (18, 3), (168, 10), (30, 4), (92, 2), (55, 5), (178, 4), (53, 6), (115, 0), (200, 6), (8, 0), (43, 0), (203, 3), (127, 4), (40, 5)]
150	1	1	8	38	[(4, 1), (22, 4), (153, 1), (79, 2), (210, 9), (134, 0), (14, 7), (19, 1), (231, 7), (21, 8), (129, 7), (119, 8), (171, 2), (194, 4), (42, 4), (108, 10), (131, 7), (102, 9), (164, 9), (81, 10), (182, 8), (51, 6), (216, 10), (120, 10), (193, 7), (222, 7), (64, 7), (112, 0), (189, 3), (241, 6), (240, 6), (173, 2), (177, 10), (6, 6), (245, 6), (62, 7), (168, 10), (135, 8)]
151	1	2	8	36	[(101, 9), (30, 4), (235, 0), (23, 3), (215, 3), (181, 1), (180, 7), (238, 1), (160, 10), (24, 7), (188, 4), (140, 3), (113, 6), (40, 2), (6, 5), (2, 2), (236, 3), (124, 0), (222, 2), (25, 1), (46, 2), (9, 5), (38, 7), (135, 10), (224, 6), (48, 2), (91, 2), (232, 7), (221, 9), (88, 5), (127, 10), (67, 7), (191, 0), (41, 6), (97, 1), (248, 6)]
152	2	1	8	34	[(85, 7), (220, 1), (46, 8), (174, 1), (112, 0), (116, 3), (187, 6), (135, 4), (180, 9), (9, 10), (245, 0), (144, 5), (230, 5), (241, 5), (178, 2), (211, 1), (7, 10), (83, 6), (247, 6), (169, 3), (213, 9), (195, 8), (161, 5), (147, 9), (159, 3), (3, 6), (54, 3), (11, 9), (6, 2), (131, 2), (181, 2), (236, 1), (86, 6), (108, 7)]
153	2	5	8	28	[(176, 3), (247, 8), (88, 8), (2, 1), (66, 2), (107, 4), (118, 4), (174, 5), (24, 9), (44, 1), (210, 3), (39, 8), (137, 3), (180, 6), (28, 7), (108, 4), (156, 3), (157, 8), (94, 7), (205, 5), (62, 6), (124, 6), (191, 10), (60, 6), (200, 10), (53, 10), (43, 4), (32, 0)]
154	2	1	1	28	[(198, 8), (202, 7), (227, 7), (63, 3), (169, 9), (150, 2), (186, 0), (29, 10), (18, 2), (145, 7), (228, 7), (204, 5), (214, 2), (243, 8), (46, 8), (141, 5), (85, 9), (212, 0), (139, 6), (41, 5), (4, 4), (108, 5), (113, 1), (195, 7), (153, 4), (106, 2), (173, 3), (183, 2)]
155	18	4	8	31	[(179, 0), (250, 9), (87, 1), (158, 1), (168, 6), (88, 7), (159, 8), (165, 3), (18, 6), (107, 8), (38, 8), (40, 9), (14, 4), (101, 4), (211, 8), (104, 8), (31, 6), (27, 2), (233, 3), (231, 2), (22, 6), (247, 9), (134, 8), (237, 4), (55, 6), (138, 9), (75, 2), (194, 4), (227, 1), (84, 7), (125, 9)]
156	1	1	3	35	[(210, 3), (229, 8), (153, 6), (240, 6), (160, 9), (189, 8), (18, 9), (43, 9), (24, 6), (3, 0), (67, 3), (81, 6), (197, 8), (88, 7), (177, 2), (50, 3), (128, 1), (9, 7), (106, 9), (91, 5), (79, 6), (176, 2), (114, 6), (97, 8), (241, 1), (166, 3), (120, 3), (31, 2), (191, 9), (65, 3), (174, 10), (158, 1), (104, 0), (51, 6), (142, 2)]
157	2	1	8	40	[(175, 5), (169, 6), (87, 2), (100, 7), (97, 2), (237, 9), (4, 10), (11, 6), (20, 7), (215, 5), (170, 4), (223, 6), (245, 1), (162, 4), (60, 8), (230, 5), (148, 3), (58, 2), (240, 7), (164, 2), (116, 2), (10, 2), (137, 6), (27, 7), (246, 1), (136, 0), (39, 0), (200, 9), (124, 2), (41, 5), (206, 0), (2, 1), (163, 7), (210, 1), (235, 1), (13, 6), (6, 8), (93, 8), (161, 8), (130, 4)]
158	1	1	3	33	[(78, 7), (231, 3), (204, 9), (31, 1), (245, 7), (85, 4), (207, 7), (223, 4), (57, 3), (169, 5), (133, 0), (171, 3), (214, 1), (114, 10), (39, 4), (184, 4), (188, 0), (72, 7), (205, 6), (84, 4), (175, 4), (23, 3), (226, 6), (76, 2), (106, 8), (216, 2), (248, 1), (154, 6), (103, 1), (137, 0), (21, 1), (47, 7), (182, 10)]
159	2	1	16	30	[(139, 0), (14, 4), (70, 0), (141, 8), (233, 7), (7, 2), (145, 3), (96, 7), (242, 7), (49, 5), (60, 7), (32, 4), (240, 7), (10, 6), (160, 1), (13, 0), (105, 8), (179, 7), (248, 5), (218, 7), (237, 2), (66, 3), (53, 5), (20, 0), (235, 7), (228, 3), (31, 5), (119, 4), (11, 4), (59, 1)]
160	1	1	8	40	[(250, 6), (163, 5), (198, 7), (195, 4), (131, 2), (54, 5), (102, 9), (127, 4), (55, 4), (135, 0), (134, 7), (137, 5), (202, 0), (3, 9), (196, 2), (245, 3), (45, 7), (43, 1), (30, 10), (53, 7), (41, 9), (70, 9), (115, 0), (200, 6), (118, 6), (116, 4), (239, 0), (136, 4), (241, 4), (158, 1), (237, 4), (171, 0), (203, 2), (190, 6), (96, 8), (67, 1), (249, 8), (71, 5), (186, 9), (138, 8)]
161	1	1	16	37	[(37, 10), (246, 2), (96, 4), (249, 8), (45, 10), (146, 0), (107, 7), (212, 9), (192, 4), (86, 3), (102, 3), (52, 1), (190, 4), (70, 5), (191, 0), (149, 2), (55, 9), (33, 5), (211, 1), (108, 1), (82, 9), (24, 6), (242, 10), (156, 4), (134, 6), (84, 2), (5, 10), (128, 9), (185, 1), (97, 7), (110, 2), (106, 6), (138, 8), (218, 1), (188, 5), (162, 2), (30, 7)]
162	1	1	8	36	[(46, 6), (76, 6), (209, 8), (158, 2), (34, 10), (37, 9), (55, 3), (233, 10), (59, 1), (214, 4), (66, 8), (191, 3), (27, 3), (60, 9), (247, 1), (103, 3), (203, 8), (57, 2), (6, 0), (40, 1), (223, 4), (215, 2), (185, 4), (13, 4), (154, 1), (167, 10), (84, 5), (45, 10), (92, 8), (42, 4), (61, 0), (48, 2), (31, 0), (168, 3), (184, 8), (229, 2)]
163	2	2	8	25	[(22, 2), (232, 7), (92, 2), (222, 0), (117, 8), (202, 3), (233, 5), (84, 3), (113, 2), (225, 5), (206, 4), (26, 4), (197, 5), (160, 0), (145, 6), (107, 8), (63, 0), (136, 7), (78, 4), (199, 6), (77, 6), (102, 7), (164, 6), (108, 7), (13, 2)]
164	2	1	8	38	[(84, 9), (21, 9), (37, 9), (63, 6), (105, 2), (9, 9), (163, 3), (211, 5), (52, 3), (88, 2), (158, 3), (225, 6), (117, 6), (210, 5), (147, 3), (78, 8), (188, 9), (243, 2), (106, 7), (36, 6), (150, 1), (31, 10), (133, 2), (69, 5), (209, 8), (30, 9), (167, 10), (13, 4), (189, 7), (64, 3), (72, 3), (187, 8), (201, 3), (227, 2), (23, 6), (234, 3), (207, 0), (110, 0)]
165	1	4	8	42	[(249, 0), (163, 5), (245, 6), (103, 3), (202, 9), (22, 3), (205, 6), (217, 5), (44, 0), (26, 1), (224, 4), (92, 6), (203, 6), (250, 8), (232, 0), (100, 1), (123, 2), (211, 10), (8, 9), (10, 9), (157, 9), (27, 4), (68, 4), (233, 9), (102, 2), (43, 8), (188, 4), (235, 10), (239, 0), (189, 3), (118, 9), (41, 2), (112, 8), (204, 4), (247, 8), (53, 10), (159, 9), (121, 10), (142, 1), (101, 4), (170, 3), (141, 7)]
166	2	1	8	36	[(165, 5), (32, 8), (107, 0), (61, 7), (216, 7), (214, 3), (5, 8), (3, 6), (89, 0), (47, 10), (8, 4), (176, 4), (189, 4), (147, 6), (144, 8), (226, 3), (2, 3), (126, 3), (4, 2), (146, 7), (29, 6), (203, 0), (130, 10), (207, 5), (50, 3), (19, 7), (243, 0), (136, 2), (250, 0), (142, 1), (58, 2), (54, 2), (205, 1), (232, 3), (193, 5), (43, 10)]
167	2	1	8	40	[(62, 6), (118, 9), (34, 8), (200, 7), (243, 7), (175, 0), (249, 7), (94, 2), (142, 2), (194, 1), (23, 5), (199, 8), (48, 1), (111, 10), (165, 6), (153, 2), (231, 7), (222, 8), (53, 1), (50, 7), (203, 7), (90, 10), (192, 10), (37, 10), (220, 4), (207, 7), (72, 10), (190, 1), (224, 9), (28, 8), (246, 2), (52, 0), (163, 8), (26, 4), (148, 1), (247, 10), (134, 9), (245, 2), (70, 3), (179, 1)]
168	2	4	8	38	[(55, 2), (111, 6), (206, 3), (224, 8), (134, 4), (53, 2), (154, 9), (29, 1), (4, 3), (248, 3), (207, 5), (150, 9), (126, 2), (185, 0), (135, 2), (198, 6), (133, 3), (166, 3), (115, 9), (114, 2), (215, 1), (41, 4), (22, 9), (136, 7), (210, 2), (128, 8), (121, 10), (245, 1), (17, 7), (188, 9), (95, 5), (64, 0), (205, 3), (158, 8), (159, 8), (20, 2), (161, 1), (79, 4)]
169	1	1	1	29	[(248, 8), (146, 5), (45, 5), (165, 5), (231, 3), (61, 8), (137, 9), (119, 9), (164, 8), (188, 1), (95, 6), (240, 7), (214, 5), (110, 5), (136, 8), (47, 3), (115, 5), (2, 2), (204, 0), (144, 10), (223, 7), (150, 3), (216, 7), (68, 10), (209, 10), (182, 0), (99, 7), (167, 2), (140, 4)]
170	5	1	8	42	[(23, 3), (201, 7), (60, 2), (224, 5), (108, 7), (124, 5), (82, 10), (176, 6), (203, 0), (160, 10), (80, 0), (240, 4), (208, 10), (249, 2), (235, 10), (16, 1), (206, 8), (173, 10), (114, 7), (231, 3), (205, 6), (157, 8), (96, 0), (99, 8), (88, 0), (126, 6), (247, 1), (127, 8), (69, 6), (73, 2), (62, 6), (105, 0), (115, 9), (248, 10), (171, 3), (33, 5), (66, 6), (104, 7), (90, 5), (35, 5), (87, 9), (30, 0)]
171	10	1	8	28	[(137, 3), (55, 4), (249, 8), (18, 0), (154, 5), (99, 6), (53, 2), (185, 5), (100, 5), (144, 10), (237, 1), (56, 1), (6, 3), (29, 6), (235, 5), (75, 6), (51, 7), (139, 4), (90, 7), (117, 8), (220, 8), (194, 3), (68, 2), (60, 8), (104, 5), (244, 7), (63, 7), (138, 9)]
172	2	1	8	35	[(65, 5), (176, 7), (211, 8), (136, 2), (239, 6), (25, 8), (112, 5), (79, 10), (45, 6), (131, 7), (36, 2), (223, 9), (53, 1), (104, 8), (48, 3), (80, 6), (183, 10), (202, 7), (143, 8), (68, 6), (105, 5), (140, 4), (29, 3), (69, 7), (246, 0), (169, 4), (163, 9), (188, 4), (198, 8), (122, 4), (222, 2), (193, 2), (218, 3), (35, 6), (141, 2)]
173	1	3	8	30	[(156, 8), (76, 6), (159, 10), (249, 1), (89, 10), (130, 9), (118, 7), (72, 1), (148, 6), (152, 8), (92, 0), (13, 4), (212, 1), (154, 10), (209, 7), (153, 7), (69, 2), (179, 9), (119, 0), (88, 7), (41, 4), (48, 2), (7, 8), (194, 6), (151, 5), (2, 8), (120, 8), (247, 4), (111, 3), (135, 7)]
174	1	2	1	32	[(209, 1), (101, 3), (24, 1), (110, 1), (191, 4), (11, 3), (177, 6), (222, 4), (26, 4), (200, 10), (174, 8), (106, 8), (109, 8), (168, 2), (206, 9), (102, 2), (171, 7), (104, 4), (211, 2), (237, 7), (122, 4), (164, 4), (242, 7), (37, 7), (68, 0), (96, 8), (183, 4), (32, 7), (126, 6), (228, 10), (224, 5), (187, 5)]
175	1	6	1	45	[(36, 4), (16, 5), (224, 8), (182, 4), (139, 7), (106, 6), (226, 10), (181, 5), (156, 3), (102, 9), (122, 9), (105, 3), (86, 4), (125, 2), (110, 3), (28, 1), (112, 4), (71, 8), (140, 0), (220, 7), (130, 10), (176, 6), (50, 4), (159, 0), (171, 6), (161, 6), (187, 2), (197, 5), (244, 5), (111, 1), (69, 2), (199, 10), (249, 3), (173, 2), (20, 3), (137, 6), (41, 0), (63, 9), (119, 9), (10, 8), (138, 1), (85, 9), (45, 5), (74, 2), (64, 1)]
176	1	1	2	34	[(241, 6), (205, 4), (139, 9), (70, 6), (63, 1), (8, 1), (6, 0), (49, 10), (220, 1), (91, 9), (181, 2), (168, 5), (113, 6), (217, 9), (57, 10), (243, 2), (219, 7), (36, 4), (204, 1), (92, 6), (65, 9), (210, 2), (61, 2), (83, 8), (196, 9), (158, 5), (131, 2), (230, 0), (136, 8), (201, 9), (17, 3), (15, 1), (96, 9), (67, 3)]
177	1	4	8	35	[(233, 10), (208, 10), (89, 5), (132, 2), (17, 4), (64, 0), (221, 7), (13, 1), (3, 9), (175, 3), (247, 6), (30, 7), (202, 4), (207, 2), (50, 2), (65, 5), (26, 10), (76, 9), (59, 10), (176, 8), (188, 7), (41, 8), (167, 1), (226, 5), (246, 6), (229, 1), (162, 7), (6, 0), (74, 2), (243, 9), (103, 4), (198, 6), (216, 9), (95, 6), (211, 9)]
178	2	3	8	30	[(162, 9), (181, 6), (121, 10), (164, 3), (202, 5), (157, 5), (101, 9), (218, 10), (79, 3), (215, 7), (98, 0), (168, 5), (132, 9), (20, 9), (186, 0), (119, 9), (32, 5), (23, 8), (110, 4), (66, 10), (220, 8), (36, 1), (197, 3), (97, 10), (26, 6), (24, 2), (40, 8), (48, 7), (172, 3), (126, 4)]
179	1	1	8	26	[(218, 4), (196, 9), (115, 2), (73, 3), (207, 9), (21, 3), (239, 9), (9, 0), (143, 6), (85, 4), (4, 10), (100, 6), (144, 0), (90, 6), (82, 3), (116, 8), (134, 4), (54, 1), (18, 3), (136, 8), (185, 2), (94, 7), (69, 3), (204, 5), (164, 2), (232, 2)]
180	6	1	8	42	[(145, 5), (191, 0), (134, 9), (230, 5), (83, 8), (42, 9), (98, 7), (146, 0), (82, 8), (179, 1), (63, 9), (154, 9), (35, 7), (54, 10), (107, 6), (11, 4), (52, 4), (72, 6), (87, 3), (198, 8), (20, 2), (153, 5), (166, 1), (33, 9), (94, 9), (115, 1), (109, 5), (93, 0), (125, 5), (138, 10), (203, 9), (239, 6), (3, 10), (228, 7), (148, 6), (174, 7), (210, 6), (164, 9), (10, 4), (165, 1), (71, 4), (97, 8)]
181	5	3	8	27	[(243, 7), (10, 3), (105, 8), (115, 9), (175, 0), (189, 0), (23, 8), (125, 8), (8, 1), (177, 5), (171, 6), (74, 3), (220, 4), (111, 2), (126, 3), (225, 2), (40, 8), (15, 5), (168, 1), (104, 10), (123, 2), (76, 3), (83, 5), (4, 4), (58, 1), (210, 4), (197, 9)]
182	8	1	8	30	[(66, 5), (38, 2), (13, 6), (163, 5), (56, 3), (218, 5), (243, 7), (120, 1), (95, 6), (127, 3), (179, 9), (2, 4), (53, 0), (247, 6), (225, 10), (71, 3), (44, 3), (180, 2), (232, 2), (14, 8), (65, 4), (64, 7), (216, 2), (87, 10), (110, 6), (94, 6), (192, 8), (4, 10), (194, 1), (77, 9)]
183	1	1	1	44	[(103, 6), (182, 7), (126, 7), (172, 9), (131, 6), (233, 8), (249, 7), (15, 5), (75, 2), (152, 5), (166, 1), (161, 4), (136, 0), (16, 6), (87, 6), (212, 10), (104, 9), (119, 9), (43, 5), (122, 5), (79, 0), (55, 4), (4, 5), (48, 3), (95, 2), (226, 0), (12, 6), (187, 7), (148, 3), (241, 2), (223, 6), (102, 7), (85, 0), (234, 6), (13, 10), (66, 3), (204, 10), (138, 6), (109, 3), (199, 8), (94, 2), (36, 4), (76, 10), (6, 5)]
184	2	2	8	28	[(250, 4), (144, 0), (46, 1), (174, 0), (179, 10), (206, 9), (37, 6), (199, 1), (38, 0), (92, 2), (127, 10), (22, 1), (156, 5), (17, 5), (234, 5), (15, 4), (44, 2), (168, 2), (112, 4), (231, 0), (24, 4), (125, 9), (249, 6), (161, 8), (119, 3), (193, 0), (28, 6), (158, 1)]
185	6	1	8	35	[(195, 5), (244, 0), (122, 3), (22, 8), (115, 5), (74, 1), (117, 8), (159, 9), (62, 1), (80, 10), (188, 3), (191, 2), (21, 2), (27, 8), (114, 2), (84, 9), (5, 6), (147, 5), (179, 7), (202, 6), (172, 2), (200, 2), (156, 9), (4, 3), (214, 2), (210, 2), (234, 7), (12, 1), (14, 1), (30, 2), (73, 6), (95, 9), (8, 4), (18, 3), (205, 10)]
186	6	2	2	33	[(127, 9), (75, 8), (167, 5), (123, 6), (224, 5), (213, 4), (190, 1), (47, 8), (88, 1), (90, 4), (101, 1), (108, 2), (228, 10), (217, 1), (231, 7), (65, 2), (238, 4), (35, 1), (98, 4), (210, 4), (67, 8), (162, 3), (152, 5), (49, 7), (30, 8), (6, 8), (168, 6), (56, 10), (85, 6), (151, 3), (48, 3), (80, 3), (68, 8)]
187	2	1	8	41	[(182, 3), (40, 6), (106, 1), (36, 8), (77, 8), (33, 0), (157, 2), (65, 7), (194, 3), (129, 0), (37, 6), (203, 3), (49, 10), (222, 3), (207, 5), (232, 10), (78, 10), (204, 7), (48, 7), (57, 8), (180, 4), (39, 0), (96, 8), (18, 2), (17, 8), (175, 8), (162, 1), (158, 4), (169, 7), (86, 2), (105, 4), (63, 9), (21, 6), (27, 2), (112, 5), (198, 9), (246, 4), (118, 3), (224, 2), (83, 10), (239, 6)]
188	2	1	24	36	[(148, 3), (63, 4), (113, 6), (14, 5), (102, 8), (82, 1), (169, 2), (193, 7), (45, 0), (115, 4), (121, 7), (209, 7), (226, 7), (13, 8), (217, 6), (112, 4), (220, 9), (196, 1), (60, 5), (191, 9), (96, 3), (171, 9), (108, 8), (56, 3), (214, 2), (161, 1), (146, 1), (236, 10), (229, 10), (54, 9), (174, 4), (189, 0), (153, 0), (32, 7), (53, 0), (84, 0)]
189	27	3	8	32	[(118, 7), (36, 6), (157, 0), (183, 4), (201, 9), (114, 8), (43, 0), (71, 3), (194, 0), (136, 2), (28, 1), (135, 4), (26, 3), (102, 5), (213, 3), (52, 0), (225, 4), (53, 3), (8, 10), (161, 2), (238, 7), (6, 0), (189, 7), (31, 7), (178, 5), (241, 8), (39, 8), (32, 5), (147, 0), (47, 5), (191, 9), (51, 8)]
190	1	1	8	30	[(212, 3), (131, 2), (237, 2), (134, 6), (246, 6), (191, 4), (124, 1), (14, 3), (51, 0), (133, 4), (202, 5), (174, 0), (154, 7), (85, 3), (165, 5), (56, 6), (148, 5), (4, 6), (229, 0), (209, 10), (67, 1), (189, 1), (211, 5), (120, 6), (135, 9), (215, 5), (10, 1), (170, 4), (55, 3), (62, 2)]
191	2	1	8	37	[(193, 10), (246, 6), (197, 4), (53, 9), (149, 6), (88, 8), (28, 8), (216, 0), (94, 6), (33, 1), (247, 1), (2, 8), (100, 2), (35, 10), (101, 8), (244, 5), (48, 1), (224, 0), (174, 10), (71, 1), (144, 0), (57, 5), (217, 3), (24, 2), (130, 6), (23, 8), (199, 9), (114, 1), (204, 8), (145, 2), (60, 6), (69, 2), (105, 0), (240, 5), (146, 1), (13, 9), (182, 2)]
192	1	1	8	34	[(76, 3), (36, 6), (245, 2), (8, 0), (173, 5), (166, 1), (33, 4), (207, 6), (91, 9), (174, 10), (163, 1), (189, 1), (198, 9), (186, 6), (31, 9), (59, 1), (217, 6), (219, 9), (202, 6), (1, 0), (220, 1), (60, 9), (51, 6), (143, 7), (24, 2), (81, 6), (83, 4), (242, 4), (124, 1), (185, 4), (28, 10), (79, 6), (37, 10), (110, 9)]
193	23	1	8	32	[(143, 1), (175, 3), (17, 9), (163, 4), (30, 8), (250, 9), (135, 5), (151, 1), (136, 8), (4, 10), (154, 6), (10, 5), (54, 2), (78, 2), (153, 4), (197, 5), (171, 10), (79, 8), (149, 4), (147, 8), (70, 0), (72, 7), (239, 0), (177, 7), (199, 5), (101, 9), (172, 6), (40, 6), (174, 3), (9, 1), (53, 5), (230, 5)]
194	2	1	8	26	[(36, 8), (218, 1), (182, 5), (122, 1), (231, 4), (25, 1), (131, 5), (38, 6), (247, 0), (95, 0), (30, 6), (216, 10), (118, 1), (43, 0), (112, 1), (209, 7), (146, 0), (225, 4), (211, 7), (241, 5), (81, 8), (215, 2), (141, 1), (21, 1), (45, 1), (26, 10)]
195	3	4	8	29	[(58, 3), (144, 3), (138, 0), (199, 8), (6, 7), (175, 1), (46, 3), (183, 3), (137, 8), (180, 2), (141, 7), (120, 3), (11, 4), (182, 2), (121, 5), (42, 10), (41, 9), (148, 1), (107, 10), (135, 6), (235, 7), (73, 10), (222, 1), (36, 6), (63, 7), (204, 2), (50, 9), (35, 3), (147, 5)]
196	2	1	8	25	[(105, 5), (24, 6), (45, 7), (94, 0), (127, 0), (199, 3), (146, 8), (174, 4), (125, 3), (144, 9), (50, 8), (177, 5), (44, 10), (202, 10), (172, 0), (142, 1), (14, 5), (117, 0), (195, 9), (68, 8), (131, 3), (8, 2), (154, 10), (38, 0), (167, 6)]
197	7	1	3	28	[(54, 10), (2, 8), (230, 4), (168, 10), (193, 8), (21, 0), (50, 5), (154, 8), (232, 5), (106, 0), (132, 1), (166, 0), (226, 10), (157, 4), (118, 10), (194, 8), (243, 5), (127, 10), (141, 5), (177, 3), (40, 1), (155, 6), (112, 3), (100, 0), (110, 8), (111, 8), (22, 8), (210, 3)]
198	3	4	8	22	[(9, 0), (131, 10), (192, 0), (25, 7), (60, 4), (180, 8), (85, 6), (211, 9), (105, 10), (87, 7), (33, 9), (51, 1), (234, 4), (193, 0), (14, 0), (188, 4), (12, 9), (197, 9), (156, 5), (205, 10), (208, 3), (165, 9)]
199	2	1	8	46	[(50, 4), (52, 8), (204, 8), (107, 6), (128, 5), (208, 5), (183, 2), (166, 9), (122, 1), (160, 3), (171, 10), (54, 1), (177, 1), (186, 3), (224, 4), (127, 6), (28, 1), (248, 3), (11, 4), (147, 10), (60, 2), (223, 6), (201, 1), (203, 8), (90, 4), (72, 4), (141, 5), (240, 10), (138, 3), (43, 7), (25, 1), (20, 5), (165, 8), (53, 2), (48, 5), (135, 4), (106, 0), (95, 2), (79, 10), (123, 6), (238, 10), (93, 5), (77, 7), (42, 1), (124, 6), (221, 8)]
200	15	1	8	40	[(224, 10), (7, 5), (165, 8), (210, 8), (229, 2), (198, 8), (39, 9), (110, 1), (111, 0), (247, 5), (101, 5), (150, 7), (147, 7), (187, 1), (180, 4), (53, 1), (167, 1), (127, 0), (92, 2), (106, 6), (122, 0), (236, 3), (145, 4), (144, 9), (186, 2), (192, 4), (225, 3), (70, 7), (142, 1), (98, 2), (40, 2), (104, 6), (189, 2), (49, 0), (209, 4), (233, 6), (138, 6), (170, 4), (191, 3), (85, 4)]
201	2	1	8	31	[(7, 3), (192, 7), (174, 7), (72, 7), (167, 1), (26, 4), (228, 7), (131, 3), (242, 4), (151, 0), (139, 5), (71, 1), (35, 4), (195, 3), (119, 1), (212, 8), (56, 7), (29, 1), (169, 9), (30, 9), (115, 6), (189, 9), (223, 3), (113, 0), (12, 1), (230, 6), (116, 7), (229, 6), (25, 1), (82, 3), (57, 5)]
202	2	2	1	27	[(249, 5), (135, 5), (108, 9), (55, 7), (83, 8), (63, 9), (133, 4), (178, 1), (150, 10), (240, 2), (113, 3), (112, 0), (211, 4), (187, 7), (117, 7), (47, 3), (154, 4), (75, 6), (184, 4), (101, 10), (71, 7), (205, 7), (147, 8), (5, 8), (2, 0), (246, 1), (193, 4)]
203	1	4	8	34	[(73, 2), (133, 4), (57, 8), (144, 7), (46, 6), (249, 10), (52, 0), (99, 0), (25, 3), (223, 4), (204, 1), (245, 4), (214, 6), (84, 6), (183, 7), (69, 3), (86, 7), (5, 2), (236, 1), (75, 1), (111, 2), (140, 4), (141, 8), (21, 2), (104, 6), (139, 9), (36, 9), (186, 2), (95, 5), (93, 5), (248, 9), (195, 9), (59, 9), (216, 3)]
204	1	2	8	29	[(226, 8), (119, 0), (99, 4), (103, 8), (108, 4), (15, 2), (188, 3), (176, 2), (23, 3), (167, 0), (151, 7), (93, 1), (229, 0), (177, 5), (147, 0), (56, 0), (156, 9), (68, 6), (207, 0), (73, 3), (48, 5), (149, 5), (232, 4), (209, 4), (25, 7), (201, 0), (142, 10), (95, 5), (1, 3)]
205	1	3	7	31	[(242, 6), (46, 4), (163, 1), (206, 10), (131, 8), (119, 3), (170, 8), (35, 0), (197, 3), (201, 10), (172, 4), (191, 5), (179, 2), (10, 9), (158, 10), (137, 4), (30, 0), (244, 3), (9, 6), (171, 2), (26, 6), (151, 6), (14, 6), (190, 2), (25, 1), (200, 1), (153, 8), (15, 6), (112, 6), (135, 2), (6, 4)]
206	2	5	8	32	[(143, 9), (188, 9), (57, 3), (141, 4), (220, 0), (166, 6), (154, 9), (172, 6), (245, 4), (190, 8), (59, 2), (43, 1), (142, 10), (115, 6), (89, 3), (244, 6), (234, 10), (46, 7), (222, 8), (12, 1), (94, 9), (107, 2), (49, 0), (181, 7), (127, 2), (238, 0), (146, 9), (72, 2), (70, 2), (71, 2), (189, 3), (84, 5)]
207	1	1	8	43	[(12, 6), (3, 1), (100, 2), (243, 5), (8, 5), (188, 0), (97, 1), (22, 8), (158, 1), (179, 3), (212, 4), (142, 2), (108, 5), (71, 7), (69, 5), (199, 5), (28, 2), (203, 3), (201, 9), (225, 1), (35, 8), (52, 5), (247, 8), (207, 1), (72, 8), (184, 5), (134, 8), (2, 4), (144, 7), (29, 0), (129, 0), (234, 6), (32, 3), (83, 9), (33, 10), (95, 0), (202, 4), (165, 4), (4, 4), (91, 8), (154, 2), (79, 10), (15, 10)]
208	10	1	8	22	[(150, 1), (82, 1), (40, 4), (49, 3), (201, 8), (247, 6), (78, 9), (121, 2), (55, 1), (217, 3), (6, 8), (73, 7), (139, 2), (3, 1), (67, 5), (36, 2), (238, 2), (102, 6), (23, 8), (97, 0), (177, 1), (204, 5)]
209	3	1	2	28	[(129, 8), (49, 3), (173, 1), (97, 10), (234, 1), (114, 3), (147, 7), (212, 6), (39, 8), (137, 0), (123, 10), (50, 3), (9, 7), (5, 4), (211, 7), (34, 9), (67, 2), (135, 3), (138, 8), (78, 5), (160, 2), (70, 8), (14, 0), (75, 1), (172, 1), (111, 5), (216, 1), (72, 8)]
210	123	4	8	37	[(218, 6), (1, 10), (134, 0), (226, 10), (79, 2), (121, 1), (197, 10), (141, 1), (54, 10), (203, 7), (74, 6), (207, 6), (27, 4), (188, 8), (94, 2), (97, 5), (130, 8), (233, 10), (178, 6), (102, 1), (95, 3), (120, 2), (112, 8), (151, 3), (147, 10), (158, 2), (33, 5), (240, 9), (156, 9), (28, 2), (180, 6), (135, 0), (200, 6), (65, 10), (221, 10), (137, 0), (227, 2)]
211	1	6	8	33	[(194, 0), (221, 7), (168, 0), (8, 1), (79, 8), (17, 9), (91, 4), (24, 4), (233, 10), (145, 6), (69, 8), (166, 10), (164, 2), (130, 4), (76, 2), (177, 8), (66, 5), (118, 6), (152, 8), (40, 7), (2, 9), (51, 0), (197, 3), (71, 3), (10, 1), (220, 1), (44, 5), (32, 10), (64, 1), (53, 8), (132, 10), (212, 2), (111, 7)]
212	6	1	8	30	[(84, 2), (175, 10), (249, 9), (243, 5), (250, 2), (194, 9), (101, 4), (53, 9), (59, 6), (157, 0), (151, 1), (212, 6), (15, 8), (187, 10), (202, 5), (223, 1), (146, 3), (206, 0), (136, 10), (67, 1), (121, 2), (38, 5), (13, 8), (47, 10), (170, 5), (28, 7), (130, 9), (234, 7), (76, 2), (119, 10)]
213	4	1	8	38	[(14, 2), (140, 8), (30, 4), (61, 4), (159, 2), (138, 10), (42, 6), (176, 8), (34, 1), (220, 4), (121, 9), (222, 5), (128, 2), (127, 7), (74, 1), (206, 2), (141, 1), (187, 2), (117, 3), (46, 3), (47, 5), (154, 9), (226, 3), (229, 0), (82, 0), (113, 3), (94, 5), (125, 5), (158, 0), (3, 3), (194, 5), (53, 6), (33, 9), (79, 4), (246, 6), (25, 1), (171, 2), (165, 7)]
214	1	5	2	24	[(63, 1), (103, 7), (223, 7), (200, 2), (118, 3), (96, 3), (91, 10), (15, 1), (65, 9), (87, 9), (244, 0), (2, 3), (3, 4), (28, 10), (249, 3), (197, 10), (212, 1), (94, 2), (143, 3), (134, 10), (180, 7), (11, 3), (122, 10), (33, 10)]
215	4	1	8	27	[(201, 1), (84, 9), (211, 6), (214, 9), (111, 2), (151, 1), (172, 10), (83, 7), (222, 1), (53, 4), (119, 7), (123, 10), (182, 6), (242, 10), (70, 5), (153, 3), (207, 3), (85, 4), (50, 3), (35, 8), (124, 2), (46, 7), (146, 3), (157, 10), (26, 8), (62, 3), (149, 5)]
216	2	1	8	36	[(180, 2), (203, 7), (84, 1), (32, 3), (186, 0), (244, 8), (18, 2), (29, 10), (195, 8), (190, 1), (33, 6), (214, 0), (80, 8), (247, 2), (55, 9), (15, 0), (194, 10), (11, 2), (227, 1), (158, 5), (132, 6), (193, 7), (61, 5), (106, 6), (67, 3), (115, 3), (76, 0), (89, 2), (91, 7), (192, 9), (146, 7), (83, 2), (53, 2), (189, 5), (12, 5), (248, 8)]
217	1	1	7	37	[(21, 2), (88, 1), (222, 0), (238, 4), (10, 0), (59, 9), (115, 10), (210, 6), (86, 2), (211, 7), (177, 9), (33, 4), (243, 6), (248, 4), (89, 4), (247, 0), (121, 0), (153, 4), (206, 6), (203, 9), (77, 1), (143, 0), (2, 10), (87, 8), (101, 3), (194, 7), (35, 7), (67, 9), (202, 5), (176, 0), (11, 4), (26, 8), (13, 3), (65, 8), (209, 5), (30, 4), (118, 9)]
218	2	1	8	34	[(22, 5), (205, 8), (237, 4), (51, 10), (37, 7), (152, 4), (54, 0), (119, 4), (11, 7), (180, 2), (106, 10), (72, 8), (126, 0), (85, 3), (144, 2), (40, 4), (9, 5), (184, 9), (42, 1), (118, 1), (175, 0), (225, 10), (236, 1), (81, 9), (243, 6), (164, 0), (159, 5), (91, 6), (88, 0), (223, 0), (52, 2), (82, 0), (210, 10), (209, 10)]
219	2	1	8	35	[(139, 6), (21, 10), (113, 5), (179, 4), (177, 9), (98, 5), (131, 4), (137, 6), (128, 10), (40, 0), (217, 7), (174, 1), (38, 7), (202, 4), (228, 6), (229, 6), (193, 0), (89, 3), (211, 1), (102, 8), (30, 8), (130, 0), (146, 5), (110, 8), (19, 5), (163, 1), (87, 5), (154, 9), (83, 4), (186, 7), (12, 9), (5, 3), (14, 2), (140, 3), (237, 8)]
220	1	1	8	42	[(76, 10), (17, 7), (69, 4), (201, 9), (21, 1), (155, 1), (220, 10), (149, 3), (153, 5), (82, 7), (198, 5), (182, 0), (189, 4), (204, 9), (196, 4), (75, 1), (101, 4), (90, 5), (49, 7), (192, 0), (32, 1), (6, 1), (9, 10), (92, 4), (124, 6), (99, 1), (73, 2), (232, 3), (80, 10), (244, 3), (39, 3), (37, 5), (60, 9), (140, 4), (15, 8), (95, 8), (65, 8), (144, 7), (74, 8), (169, 0), (97, 0), (45, 7)]
221	1	1	8	33	[(54, 3), (43, 0), (10, 7), (87, 5), (185, 2), (182, 7), (62, 1), (79, 3), (39, 10), (241, 10), (103, 3), (150, 0), (42, 3), (9, 7), (213, 4), (193, 4), (67, 10), (135, 7), (236, 5), (152, 3), (83, 2), (219, 2), (123, 5), (60, 8), (105, 2), (12, 10), (169, 0), (52, 1), (124, 6), (184, 5), (114, 3), (230, 5), (238, 4)]
222	1	4	8	36	[(27, 5), (116, 8), (139, 2), (243, 5), (197, 6), (18, 10), (208, 7), (220, 1), (112, 7), (28, 2), (12, 4), (95, 9), (154, 0), (57, 5), (8, 9), (163, 2), (221, 2), (45, 1), (123, 5), (76, 4), (143, 6), (224, 0), (239, 4), (46, 8), (90, 10), (233, 2), (54, 10), (166, 4), (142, 3), (100, 0), (236, 4), (238, 3), (121, 8), (40, 9), (159, 8), (82, 1)]
223	2	3	7	26	[(124, 9), (121, 5), (75, 6), (10, 4), (99, 6), (88, 8), (166, 7), (240, 8), (6, 8), (16, 5), (53, 5), (51, 10), (2, 1), (82, 4), (38, 8), (144, 6), (219, 5), (18, 7), (60, 3), (178, 0), (183, 7), (225, 2), (34, 8), (243, 0), (220, 9), (226, 10)]
224	4	2	8	40	[(140, 10), (76, 1), (112, 5), (182, 1), (27, 9), (201, 5), (193, 1), (93, 4), (181, 10), (126, 4), (100, 9), (113, 4), (210, 4), (25, 3), (55, 10), (189, 4), (28, 3), (51, 8), (150, 0), (96, 8), (80, 9), (69, 2), (105, 3), (160, 5), (111, 3), (146, 9), (9, 1), (249, 6), (228, 8), (74, 7), (78, 5), (127, 3), (240, 3), (32, 5), (18, 0), (198, 1), (61, 9), (123, 5), (233, 3), (70, 1)]
225	4	1	8	20	[(115, 3), (212, 5), (55, 9), (159, 2), (96, 4), (224, 1), (210, 8), (169, 1), (113, 9), (51, 1), (178, 3), (42, 5), (232, 0), (49, 1), (57, 8), (118, 6), (85, 2), (176, 2), (10, 3), (7, 8)]
226	11	6	8	26	[(39, 7), (131, 8), (50, 5), (114, 0), (165, 10), (130, 5), (224, 5), (75, 9), (142, 8), (47, 1), (15, 3), (3, 5), (188, 2), (143, 7), (98, 4), (193, 1), (51, 5), (207, 2), (44, 3), (14, 8), (151, 3), (149, 1), (94, 1), (219, 7), (79, 9), (247, 7)]
227	2	1	8	22	[(36, 3), (37, 9), (85, 10), (155, 2), (247, 6), (153, 3), (30, 9), (21, 4), (109, 1), (95, 9), (236, 4), (228, 6), (27, 7), (108, 10), (43, 0), (213, 5), (124, 5), (41, 3), (38, 0), (170, 1), (67, 3), (11, 4)]
228	3	4	8	32	[(134, 5), (202, 4), (220, 8), (53, 5), (167, 4), (131, 5), (188, 7), (94, 4), (3, 7), (104, 8), (89, 1), (79, 1), (183, 9), (181, 10), (230, 3), (197, 2), (32, 2), (88, 3), (213, 4), (76, 1), (41, 6), (198, 8), (20, 0), (146, 6), (132, 3), (221, 10), (107, 1), (25, 3), (27, 7), (222, 2), (189, 7), (70, 4)]
229	3	1	8	33	[(45, 0), (47, 2), (231, 7), (144, 4), (64, 10), (184, 10), (110, 1), (19, 7), (63, 2), (98, 1), (133, 9), (94, 9), (27, 3), (80, 2), (120, 5), (25, 9), (9, 7), (75, 9), (147, 4), (134, 5), (12, 6), (49, 8), (2, 2), (238, 10), (26, 0), (30, 8), (20, 4), (217, 9), (35, 2), (126, 2), (16, 6), (18, 1), (163, 5)]
230	3	1	2	31	[(110, 4), (138, 1), (13, 9), (240, 2), (152, 3), (149, 5), (85, 0), (50, 7), (185, 7), (128, 8), (230, 7), (189, 7), (164, 10), (48, 9), (153, 6), (10, 4), (77, 1), (17, 2), (160, 6), (123, 8), (79, 4), (45, 4), (89, 2), (51, 10), (58, 8), (114, 5), (29, 0), (107, 5), (39, 5), (57, 1), (203, 2)]
231	2	1	2	16	[(67, 7), (224, 8), (191, 6), (151, 3), (98, 3), (21, 6), (38, 6), (217, 0), (117, 9), (206, 5), (149, 5), (60, 7), (32, 3), (132, 8), (42, 4), (52, 6)]
232	7	1	6	28	[(136, 6), (131, 0), (188, 7), (172, 0), (189, 6), (101, 8), (114, 1), (235, 6), (122, 4), (242, 8), (40, 2), (195, 0), (9, 7), (47, 0), (115, 8), (27, 9), (198, 3), (79, 3), (176, 0), (215, 1), (73, 5), (49, 5), (124, 3), (1, 6), (206, 8), (67, 9), (52, 5), (66, 9)]
233	4	1	2	35	[(81, 4), (5, 9), (122, 10), (37, 7), (110, 9), (111, 9), (246, 4), (38, 0), (236, 3), (168, 4), (226, 1), (205, 7), (85, 9), (124, 5), (178, 6), (245, 1), (138, 10), (23, 6), (131, 6), (32, 2), (57, 9), (189, 9), (240, 5), (40, 5), (3, 9), (77, 10), (95, 5), (158, 1), (190, 7), (172, 3), (19, 9), (150, 7), (113, 9), (72, 5), (67, 10)]
234	1	2	8	28	[(247, 0), (25, 3), (225, 3), (45, 6), (73, 10), (211, 2), (14, 2), (20, 9), (208, 0), (123, 9), (230, 4), (43, 9), (156, 9), (199, 1), (147, 1), (157, 6), (85, 6), (224, 2), (221, 5), (212, 4), (238, 0), (102, 9), (161, 8), (201, 0), (39, 8), (59, 10), (239, 4), (169, 2)]
235	2	4	6	36	[(245, 9), (50, 2), (169, 2), (224, 1), (3, 2), (191, 7), (211, 1), (51, 10), (124, 5), (133, 9), (113, 2), (165, 3), (82, 0), (11, 2), (157, 5), (78, 1), (86, 1), (81, 5), (13, 9), (231, 2), (135, 1), (89, 4), (164, 9), (5, 8), (34, 5), (217, 0), (196, 10), (186, 1), (28, 6), (223, 6), (239, 6), (153, 0), (151, 7), (53, 3), (111, 10), (171, 5)]
236	2	1	8	31	[(47, 5), (182, 9), (219, 5), (202, 1), (129, 5), (38, 4), (137, 6), (200, 7), (180, 0), (141, 6), (223, 1), (155, 8), (239, 6), (13, 8), (62, 3), (247, 4), (194, 6), (131, 6), (119, 0), (226, 4), (43, 9), (80, 6), (109, 9), (76, 4), (98, 3), (60, 4), (174, 7), (117, 10), (25, 2), (63, 0), (146, 4)]
237	1	1	8	32	[(246, 2), (125, 2), (113, 7), (119, 6), (195, 7), (225, 4), (95, 7), (81, 5), (7, 5), (235, 7), (139, 9), (115, 4), (66, 3), (131, 6), (144, 0), (106, 10), (180, 8), (181, 9), (153, 1), (217, 8), (102, 6), (24, 7), (67, 1), (92, 5), (176, 8), (197, 7), (5, 3), (152, 7), (198, 1), (179, 6), (98, 7), (88, 7)]
238	2	1	8	33	[(191, 1), (72, 4), (232, 8), (73, 0), (136, 7), (148, 7), (85, 6), (53, 8), (213, 5), (153, 4), (25, 10), (83, 7), (194, 1), (30, 10), (64, 2), (47, 8), (176, 3), (87, 10), (239, 2), (233, 3), (108, 9), (141, 9), (224, 2), (244, 2), (67, 7), (237, 7), (218, 2), (187, 4), (200, 4), (4, 10), (119, 4), (156, 5), (105, 4)]
239	4	1	2	29	[(183, 9), (139, 7), (165, 3), (194, 4), (142, 4), (216, 0), (90, 10), (164, 6), (54, 8), (77, 10), (163, 5), (180, 8), (196, 0), (14, 3), (223, 3), (225, 1), (207, 7), (219, 1), (5, 4), (234, 4), (154, 4), (114, 4), (205, 7), (56, 5), (179, 2), (37, 7), (233, 1), (250, 3), (198, 4)]
240	7	1	8	39	[(12, 0), (146, 8), (245, 9), (171, 4), (93, 10), (234, 9), (215, 5), (29, 10), (50, 9), (167, 9), (247, 3), (131, 5), (144, 9), (137, 3), (190, 2), (97, 7), (122, 2), (172, 9), (138, 10), (179, 6), (188, 4), (155, 1), (49, 10), (161, 2), (54, 6), (168, 7), (2, 8), (30, 6), (204, 7), (107, 3), (84, 9), (202, 5), (156, 5), (88, 3), (181, 7), (239, 1), (126, 3), (24, 3), (58, 3)]
241	1	1	8	38	[(180, 1), (45, 9), (150, 9), (121, 8), (35, 9), (55, 1), (169, 9), (231, 7), (46, 7), (109, 7), (167, 7), (163, 0), (158, 9), (11, 1), (95, 1), (172, 0), (97, 5), (41, 5), (136, 1), (183, 9), (185, 6), (204, 7), (152, 5), (248, 5), (247, 5), (28, 4), (192, 3), (112, 9), (3, 8), (62, 8), (15, 2), (165, 5), (47, 4), (49, 6), (232, 5), (139, 10), (201, 1), (140, 8)]
242	2	3	2	35	[(194, 9), (185, 5), (161, 9), (32, 3), (221, 6), (130, 1), (176, 6), (158, 5), (191, 7), (169, 1), (17, 8), (57, 6), (108, 9), (121, 4), (240, 10), (95, 9), (56, 4), (92, 9), (165, 8), (75, 0), (120, 3), (157, 1), (14, 1), (6, 5), (51, 6), (247, 9), (200, 5), (132, 0), (207, 1), (46, 6), (48, 5), (236, 4), (199, 1), (172, 5), (110, 4)]
243	1	2	1	36	[(32, 7), (1, 1), (8, 1), (195, 0), (65, 3), (117, 9), (29, 7), (230, 6), (78, 6), (231, 9), (58, 10), (6, 3), (135, 9), (245, 9), (140, 8), (69, 3), (190, 4), (5, 7), (7, 9), (128, 4), (17, 7), (219, 0), (119, 7), (88, 7), (141, 2), (66, 7), (203, 4), (165, 5), (211, 6), (188, 5), (50, 2), (229, 5), (178, 10), (49, 8), (92, 1), (71, 10)]
244	4	1	8	30	[(39, 9), (173, 6), (124, 0), (134, 5), (90, 0), (114, 10), (51, 4), (179, 2), (102, 5), (4, 4), (22, 0), (206, 8), (86, 5), (191, 3), (21, 7), (193, 6), (15, 3), (128, 0), (111, 2), (151, 1), (159, 0), (185, 2), (5, 8), (154, 4), (95, 6), (202, 9), (25, 9), (61, 1), (149, 1), (183, 10)]
245	1	1	8	36	[(165, 6), (15, 0), (58, 2), (109, 9), (37, 5), (138, 4), (2, 0), (45, 2), (82, 4), (161, 0), (203, 0), (7, 7), (113, 2), (243, 4), (80, 0), (74, 9), (225, 3), (106, 0), (196, 0), (105, 2), (162, 8), (129, 9), (71, 7), (236, 4), (230, 5), (78, 2), (144, 0), (150, 10), (224, 9), (239, 0), (207, 9), (242, 6), (233, 7), (232, 3), (229, 1), (168, 9)]
246	1	1	8	35	[(236, 2), (169, 0), (183, 0), (66, 8), (41, 8), (118, 0), (45, 8), (5, 8), (111, 3), (105, 7), (151, 1), (117, 8), (197, 8), (234, 9), (176, 10), (49, 2), (246, 7), (226, 7), (25, 3), (224, 4), (115, 9), (69, 4), (170, 9), (192, 4), (52, 7), (152, 3), (148, 2), (150, 7), (120, 5), (77, 7), (221, 2), (153, 0), (54, 3), (232, 0), (121, 3)]
247	10	1	8	25	[(39, 1), (152, 9), (57, 6), (58, 7), (5, 8), (47, 6), (101, 6), (183, 6), (204, 6), (182, 0), (165, 4), (208, 7), (88, 0), (210, 7), (177, 7), (122, 6), (16, 10), (144, 2), (142, 3), (241, 9), (32, 10), (38, 0), (238, 6), (245, 6), (52, 0)]
248	6	4	16	33	[(182, 9), (70, 1), (188, 10), (114, 6), (144, 3), (98, 9), (109, 6), (117, 2), (10, 0), (248, 5), (71, 4), (220, 10), (247, 0), (231, 2), (202, 4), (224, 6), (153, 2), (62, 1), (60, 1), (141, 9), (40, 8), (198, 3), (237, 0), (138, 2), (213, 3), (90, 10), (175, 3), (185, 1), (181, 4), (57, 7), (131, 7), (180, 0), (34, 8)]
249	2	12	8	27	[(245, 5), (122, 9), (52, 7), (194, 3), (92, 3), (224, 4), (231, 4), (211, 3), (143, 3), (193, 4), (233, 6), (4, 1), (54, 4), (186, 9), (8, 10), (241, 0), (138, 5), (6, 10), (225, 4), (182, 3), (169, 10), (190, 8), (222, 8), (76, 7), (121, 5), (105, 1), (57, 10)]
250	4	1	8	41	[(122, 2), (250, 8), (119, 6), (73, 3), (56, 2), (155, 3), (137, 5), (36, 2), (111, 6), (233, 6), (129, 4), (64, 2), (40, 8), (106, 7), (143, 0), (163, 2), (37, 1), (211, 5), (123, 10), (72, 10), (120, 4), (225, 9), (213, 0), (84, 4), (247, 5), (221, 3), (77, 1), (177, 5), (240, 7), (108, 10), (81, 3), (66, 7), (195, 3), (180, 7), (174, 5), (7, 5), (148, 5), (12, 9), (145, 5), (205, 3), (239, 3)]
