app_id	nb_instances	core	memory	inter_degree	inter_aff
1	1	1	1	0	[]
2	4	1	8	0	[]
3	2	4	8	0	[]
4	12	1	8	0	[]
5	4	1	8	0	[]
6	15	1	8	0	[]
7	23	1	16	0	[]
8	3	12	8	0	[]
9	1	1	8	0	[]
10	1	1	8	0	[]
11	2	1	2	0	[]
12	1	2	8	0	[]
13	34	1	3	0	[]
14	25	1	2	0	[]
15	1	1	8	0	[]
16	1	2	8	0	[]
17	2	2	8	0	[]
18	2	4	8	0	[]
19	1	6	8	0	[]
20	1	12	8	0	[]
21	11	1	8	0	[]
22	1	4	8	0	[]
23	2	1	7	0	[]
24	2	1	1	0	[]
25	2	1	8	0	[]
26	29	2	8	0	[]
27	1	1	8	0	[]
28	12	1	5	0	[]
29	2	1	2	0	[]
30	2	3	8	0	[]
31	2	1	8	0	[]
32	2	5	8	0	[]
33	1	4	8	0	[]
34	3	2	8	0	[]
35	2	2	8	0	[]
36	2	4	8	0	[]
37	6	1	8	0	[]
38	2	1	28	0	[]
39	4	6	8	0	[]
40	1	1	8	0	[]
41	2	3	8	0	[]
42	1	4	12	0	[]
43	2	1	1	0	[]
44	5	4	3	0	[]
45	10	1	7	0	[]
46	1	1	8	0	[]
47	16	1	16	0	[]
48	1	2	8	0	[]
49	2	3	8	0	[]
50	1	1	8	0	[]
51	17	2	5	0	[]
52	2	1	8	0	[]
53	1	1	8	0	[]
54	2	1	16	0	[]
55	4	1	8	0	[]
56	28	1	8	0	[]
57	1	1	8	0	[]
58	6	6	8	0	[]
59	2	1	8	0	[]
60	1	1	8	0	[]
61	2	1	2	0	[]
62	9	1	8	0	[]
63	2	1	8	0	[]
64	3	4	8	0	[]
65	6	1	16	0	[]
66	80	1	8	0	[]
67	2	1	8	0	[]
68	2	1	8	0	[]
69	1	1	32	0	[]
70	1	1	8	0	[]
71	1	1	8	0	[]
72	2	1	8	0	[]
73	2	12	8	0	[]
74	3	1	1	0	[]
75	2	1	8	0	[]
76	1	5	7	0	[]
77	2	1	8	0	[]
78	6	1	8	0	[]
79	3	1	8	0	[]
80	2	1	8	0	[]
81	4	4	8	0	[]
82	1	1	8	0	[]
83	2	1	1	0	[]
84	1	1	8	0	[]
85	2	4	8	0	[]
86	5	1	8	0	[]
87	3	4	8	0	[]
88	3	1	8	0	[]
89	1	1	8	0	[]
90	1	1	8	0	[]
91	2	2	8	0	[]
92	2	1	5	0	[]
93	2	1	8	0	[]
94	3	1	8	0	[]
95	1	6	2	0	[]
96	23	3	8	0	[]
97	3	1	48	0	[]
98	5	1	2	0	[]
99	6	1	8	0	[]
100	2	1	2	0	[]
101	1	4	8	0	[]
102	16	1	1	0	[]
103	1	23	2	0	[]
104	1	1	1	0	[]
105	3	1	2	0	[]
106	2	6	8	0	[]
107	2	4	8	0	[]
108	2	1	8	0	[]
109	1	1	8	0	[]
110	2	2	8	0	[]
111	1	1	8	0	[]
112	1	1	8	0	[]
113	2	1	8	0	[]
114	7	1	3	0	[]
115	25	36	16	0	[]
116	2	1	8	0	[]
117	2	4	2	0	[]
118	4	1	8	0	[]
119	7	1	8	0	[]
120	2	1	8	0	[]
121	1	1	8	0	[]
122	1	1	8	0	[]
123	2	2	8	0	[]
124	2	3	2	0	[]
125	3	1	8	0	[]
126	7	1	8	0	[]
127	3	1	8	0	[]
128	27	1	8	0	[]
129	13	1	8	0	[]
130	2	4	8	0	[]
131	4	1	6	0	[]
132	2	1	8	0	[]
133	1	1	8	0	[]
134	1	2	3	0	[]
135	1	1	8	0	[]
136	125	12	3	0	[]
137	1	1	16	0	[]
138	4	1	8	0	[]
139	2	1	8	0	[]
140	1	1	8	0	[]
141	1	2	8	0	[]
142	44	1	8	0	[]
143	3	1	2	0	[]
144	2	1	2	0	[]
145	4	4	2	0	[]
146	2	1	16	0	[]
147	1	1	12	0	[]
148	1	1	8	0	[]
149	1	6	8	0	[]
150	3	1	2	0	[]
151	1	2	8	0	[]
152	4	1	7	0	[]
153	2	1	10	0	[]
154	10	1	8	0	[]
155	1	1	1	0	[]
156	1	1	2	0	[]
157	2	1	8	0	[]
158	2	6	8	0	[]
159	3	1	16	0	[]
160	5	1	8	0	[]
161	1	3	8	0	[]
162	1	1	8	0	[]
163	2	1	8	0	[]
164	5	1	8	0	[]
165	7	1	8	0	[]
166	1	1	8	0	[]
167	1	2	8	0	[]
168	1	1	8	0	[]
169	1	1	8	0	[]
170	2	1	1	0	[]
171	2	3	8	0	[]
172	10	6	8	0	[]
173	2	1	8	0	[]
174	8	5	16	0	[]
175	2	1	8	0	[]
176	3	1	8	0	[]
177	2	1	8	0	[]
178	3	1	4	0	[]
179	2	1	8	0	[]
180	6	4	8	0	[]
181	7	1	8	0	[]
182	5	1	8	0	[]
183	1	4	4	0	[]
184	2	1	1	0	[]
185	1	1	8	0	[]
186	1	1	8	0	[]
187	1	1	7	0	[]
188	2	2	8	0	[]
189	2	2	8	0	[]
190	4	6	8	0	[]
191	2	1	8	0	[]
192	24	4	8	0	[]
193	2	1	8	0	[]
194	1	1	8	0	[]
195	1	2	16	0	[]
196	1	2	4	0	[]
197	5	1	8	0	[]
198	5	1	8	0	[]
199	1	2	8	0	[]
200	2	4	8	0	[]
201	6	1	8	0	[]
202	2	1	8	0	[]
203	3	1	8	0	[]
204	2	1	16	0	[]
205	1	2	16	0	[]
206	1	1	8	0	[]
207	1	2	2	0	[]
208	5	2	8	0	[]
209	1	4	8	0	[]
210	1	4	8	0	[]
211	2	4	8	0	[]
212	5	1	8	0	[]
213	1	6	1	0	[]
214	2	1	8	0	[]
215	5	1	8	0	[]
216	1	1	8	0	[]
217	2	1	8	0	[]
218	1	1	8	0	[]
219	5	1	8	0	[]
220	1	1	8	0	[]
221	1	1	16	0	[]
222	3	1	8	0	[]
223	2	1	7	0	[]
224	2	1	8	0	[]
225	1	3	8	0	[]
226	1	1	8	0	[]
227	19	1	8	0	[]
228	2	1	2	0	[]
229	2	6	8	0	[]
230	1	6	8	0	[]
231	1	2	1	0	[]
232	2	1	1	0	[]
233	3	6	8	0	[]
234	1	1	8	0	[]
235	3	2	8	0	[]
236	1	1	8	0	[]
237	2	6	8	0	[]
238	2	2	8	0	[]
239	3	1	8	0	[]
240	2	1	8	0	[]
241	2	1	8	0	[]
242	4	1	8	0	[]
243	5	4	8	0	[]
244	2	1	8	0	[]
245	3	6	8	0	[]
246	3	5	8	0	[]
247	4	1	16	0	[]
248	1	4	8	0	[]
249	4	1	8	0	[]
250	2	1	8	0	[]
