app_id	nb_instances	core	memory	inter_degree	inter_aff
1	3	1	8	40	[(69, 5), (196, 4), (227, 4), (182, 3), (89, 7), (136, 5), (140, 8), (224, 7), (23, 1), (178, 8), (102, 0), (247, 10), (25, 3), (192, 7), (234, 0), (93, 9), (36, 1), (116, 9), (59, 8), (166, 7), (132, 0), (109, 6), (217, 1), (169, 4), (49, 9), (189, 0), (80, 10), (243, 2), (113, 8), (5, 3), (147, 0), (26, 3), (164, 7), (50, 0), (174, 6), (193, 0), (94, 4), (216, 2), (162, 8), (40, 9)]
2	108	1	7	33	[(122, 5), (246, 5), (133, 7), (206, 2), (152, 7), (205, 9), (106, 9), (19, 8), (188, 5), (233, 7), (20, 3), (161, 2), (226, 9), (119, 7), (239, 9), (174, 5), (39, 4), (139, 0), (4, 5), (160, 2), (9, 3), (123, 9), (223, 8), (102, 4), (244, 9), (156, 9), (126, 6), (162, 9), (76, 6), (218, 8), (134, 7), (108, 2), (127, 10)]
3	10	1	2	30	[(22, 2), (8, 2), (138, 6), (190, 10), (189, 4), (54, 3), (225, 3), (119, 10), (141, 9), (220, 6), (201, 3), (222, 8), (106, 5), (80, 7), (20, 1), (126, 3), (99, 0), (150, 8), (199, 1), (28, 4), (57, 9), (214, 5), (132, 5), (61, 8), (38, 8), (224, 5), (137, 0), (244, 6), (180, 9), (67, 2)]
4	1	1	8	22	[(221, 5), (216, 6), (25, 3), (48, 3), (115, 2), (63, 5), (7, 8), (177, 4), (16, 0), (104, 3), (225, 3), (196, 6), (151, 1), (141, 5), (107, 0), (176, 8), (146, 1), (217, 4), (40, 7), (100, 9), (79, 7), (120, 6)]
5	1	1	8	38	[(130, 10), (167, 9), (93, 2), (173, 3), (143, 4), (134, 1), (106, 8), (61, 4), (64, 3), (166, 2), (111, 4), (28, 5), (51, 2), (85, 3), (221, 10), (184, 4), (206, 9), (248, 5), (163, 2), (188, 10), (207, 8), (68, 3), (231, 9), (198, 8), (99, 2), (169, 7), (120, 5), (101, 5), (113, 2), (48, 4), (126, 3), (233, 9), (38, 7), (189, 3), (203, 8), (247, 2), (41, 3), (104, 2)]
6	3	4	6	41	[(170, 8), (119, 3), (36, 1), (198, 4), (74, 4), (121, 4), (144, 9), (232, 8), (70, 8), (55, 10), (152, 10), (248, 5), (240, 5), (218, 2), (133, 6), (228, 2), (56, 3), (142, 0), (2, 3), (208, 5), (73, 9), (8, 0), (145, 1), (67, 7), (19, 4), (20, 8), (246, 8), (106, 5), (100, 7), (204, 8), (7, 5), (92, 7), (171, 4), (132, 7), (113, 8), (29, 10), (22, 6), (21, 8), (141, 9), (217, 10), (101, 10)]
7	16	4	2	37	[(174, 9), (38, 9), (70, 6), (50, 10), (210, 6), (103, 7), (57, 0), (124, 1), (53, 0), (205, 8), (246, 10), (194, 8), (21, 6), (7, 10), (168, 0), (33, 8), (71, 2), (142, 7), (172, 5), (65, 9), (107, 2), (101, 3), (136, 4), (72, 2), (147, 5), (34, 4), (125, 6), (16, 5), (219, 9), (44, 1), (209, 5), (48, 0), (111, 7), (235, 2), (221, 8), (143, 8), (41, 4)]
8	7	1	8	30	[(174, 2), (95, 3), (226, 5), (112, 10), (24, 4), (87, 7), (106, 10), (211, 5), (168, 4), (121, 7), (186, 4), (144, 0), (62, 9), (234, 8), (39, 0), (74, 10), (229, 7), (69, 6), (236, 2), (111, 1), (210, 9), (100, 1), (110, 1), (1, 1), (183, 0), (171, 1), (219, 0), (42, 5), (117, 3), (200, 6)]
9	2	1	8	34	[(27, 0), (103, 6), (59, 7), (229, 5), (185, 10), (96, 8), (49, 7), (90, 6), (104, 0), (42, 10), (3, 1), (206, 10), (240, 10), (8, 0), (184, 9), (56, 4), (135, 9), (9, 9), (1, 3), (166, 9), (172, 5), (129, 3), (175, 4), (202, 1), (201, 5), (10, 0), (18, 9), (154, 3), (15, 5), (45, 0), (231, 2), (170, 6), (118, 6), (157, 8)]
10	1	6	8	34	[(154, 8), (52, 2), (67, 10), (92, 6), (44, 9), (18, 7), (74, 6), (136, 0), (17, 4), (57, 0), (5, 4), (23, 9), (15, 4), (177, 2), (170, 6), (42, 7), (247, 6), (59, 1), (126, 3), (150, 9), (245, 6), (29, 7), (16, 2), (191, 7), (7, 5), (119, 6), (6, 7), (176, 10), (162, 6), (114, 8), (218, 10), (54, 5), (48, 8), (97, 1)]
11	2	24	8	37	[(57, 1), (237, 0), (174, 6), (230, 2), (184, 4), (83, 7), (137, 3), (208, 9), (93, 9), (67, 7), (84, 8), (34, 3), (160, 3), (20, 5), (8, 5), (33, 9), (227, 9), (248, 7), (182, 9), (96, 4), (241, 0), (151, 8), (6, 8), (106, 4), (161, 10), (129, 0), (238, 10), (149, 4), (116, 5), (7, 7), (26, 1), (127, 9), (245, 8), (140, 10), (12, 7), (196, 4), (81, 5)]
12	6	4	8	34	[(55, 10), (206, 8), (94, 0), (126, 4), (168, 10), (10, 1), (34, 0), (72, 6), (105, 10), (143, 1), (58, 6), (147, 10), (213, 6), (91, 1), (151, 2), (225, 9), (222, 3), (60, 3), (220, 9), (141, 3), (14, 10), (137, 0), (210, 6), (191, 4), (32, 3), (47, 7), (101, 3), (99, 8), (179, 3), (124, 5), (54, 3), (198, 4), (229, 7), (103, 3)]
13	3	1	8	40	[(23, 3), (144, 4), (59, 4), (242, 9), (225, 2), (247, 3), (94, 8), (210, 10), (143, 7), (21, 4), (100, 5), (12, 2), (17, 1), (79, 7), (193, 3), (107, 6), (52, 8), (134, 6), (73, 3), (123, 8), (49, 8), (228, 5), (97, 10), (197, 10), (4, 0), (203, 1), (80, 7), (192, 7), (66, 8), (135, 3), (125, 4), (64, 2), (205, 5), (145, 8), (215, 0), (236, 8), (13, 10), (18, 1), (185, 9), (19, 7)]
14	1	1	8	36	[(60, 3), (36, 8), (232, 6), (246, 8), (74, 9), (123, 8), (84, 10), (29, 2), (10, 6), (161, 0), (217, 2), (141, 4), (130, 4), (150, 1), (135, 9), (71, 9), (204, 3), (248, 5), (188, 7), (70, 6), (175, 8), (108, 3), (110, 7), (106, 4), (152, 5), (143, 2), (186, 0), (124, 10), (218, 9), (31, 6), (185, 1), (165, 2), (54, 7), (26, 10), (145, 4), (92, 9)]
15	1	1	8	37	[(114, 4), (105, 3), (25, 8), (21, 10), (151, 5), (54, 6), (210, 4), (32, 3), (233, 1), (198, 10), (28, 0), (159, 2), (126, 1), (113, 0), (193, 7), (176, 2), (123, 8), (241, 3), (185, 10), (200, 5), (40, 2), (174, 10), (101, 4), (73, 4), (156, 2), (160, 0), (140, 4), (142, 9), (13, 6), (196, 10), (108, 3), (120, 4), (230, 6), (132, 10), (106, 7), (107, 8), (244, 7)]
16	2	1	8	42	[(169, 4), (64, 3), (162, 0), (157, 8), (32, 5), (15, 10), (240, 2), (160, 9), (219, 9), (116, 0), (1, 2), (40, 5), (23, 1), (35, 6), (76, 10), (107, 5), (13, 1), (58, 1), (33, 7), (233, 1), (183, 6), (43, 2), (161, 0), (36, 8), (186, 7), (50, 1), (170, 7), (163, 8), (45, 6), (241, 3), (220, 10), (134, 0), (154, 1), (80, 6), (177, 0), (17, 0), (102, 8), (208, 7), (155, 1), (237, 8), (198, 6), (225, 3)]
17	1	1	1	33	[(5, 2), (219, 5), (115, 8), (105, 6), (29, 7), (74, 9), (25, 3), (32, 2), (31, 8), (201, 5), (236, 4), (214, 1), (220, 4), (174, 2), (4, 3), (222, 7), (97, 1), (39, 2), (126, 4), (62, 0), (145, 7), (130, 10), (86, 7), (248, 8), (113, 2), (21, 10), (68, 8), (58, 7), (154, 1), (191, 8), (140, 10), (35, 10), (194, 9)]
18	2	1	1	28	[(8, 10), (89, 10), (28, 7), (33, 4), (42, 6), (40, 9), (133, 7), (102, 0), (200, 0), (39, 4), (140, 6), (169, 6), (116, 9), (240, 4), (178, 5), (212, 6), (175, 2), (99, 4), (164, 1), (109, 5), (202, 6), (204, 2), (225, 6), (53, 8), (173, 0), (205, 10), (6, 8), (147, 10)]
19	8	1	8	39	[(248, 9), (30, 4), (139, 6), (26, 6), (226, 6), (163, 6), (127, 3), (190, 2), (47, 8), (154, 6), (221, 1), (187, 1), (75, 10), (165, 10), (117, 7), (200, 3), (138, 6), (218, 7), (178, 5), (146, 10), (186, 3), (93, 7), (155, 9), (48, 1), (90, 7), (22, 1), (245, 1), (243, 4), (120, 8), (36, 3), (192, 0), (217, 5), (247, 5), (208, 0), (185, 0), (66, 8), (181, 7), (201, 6), (142, 3)]
20	29	2	3	24	[(111, 3), (137, 0), (234, 9), (114, 9), (27, 8), (110, 0), (183, 0), (10, 0), (139, 5), (206, 2), (120, 6), (187, 5), (79, 5), (169, 8), (126, 9), (37, 0), (240, 6), (147, 3), (121, 0), (105, 1), (100, 9), (39, 2), (92, 0), (211, 0)]
21	9	2	8	42	[(37, 6), (183, 5), (97, 5), (9, 8), (218, 1), (13, 0), (19, 6), (122, 4), (38, 0), (220, 9), (177, 3), (155, 5), (165, 1), (123, 8), (64, 10), (82, 9), (144, 7), (246, 1), (228, 5), (167, 6), (161, 3), (121, 10), (2, 0), (184, 3), (125, 10), (100, 1), (55, 10), (173, 6), (224, 10), (230, 8), (17, 0), (25, 0), (8, 2), (138, 2), (211, 8), (46, 7), (131, 8), (110, 5), (34, 5), (204, 4), (172, 10), (217, 3)]
22	2	4	1	30	[(181, 1), (47, 2), (45, 4), (192, 2), (141, 8), (101, 4), (193, 2), (199, 0), (86, 9), (179, 5), (200, 0), (233, 6), (12, 1), (116, 10), (125, 0), (153, 5), (88, 7), (170, 2), (102, 9), (121, 1), (130, 8), (229, 5), (140, 4), (188, 10), (70, 7), (106, 9), (244, 8), (237, 7), (24, 7), (2, 9)]
23	1	6	8	39	[(118, 10), (209, 3), (104, 6), (161, 6), (197, 9), (181, 1), (8, 3), (48, 1), (87, 7), (102, 7), (50, 5), (190, 2), (71, 8), (228, 8), (109, 0), (106, 5), (246, 1), (64, 10), (113, 4), (134, 8), (146, 0), (82, 6), (45, 9), (218, 4), (110, 8), (3, 10), (203, 3), (54, 2), (184, 3), (47, 6), (249, 8), (98, 5), (21, 8), (192, 7), (200, 4), (242, 1), (244, 7), (232, 4), (202, 4)]
24	2	2	8	32	[(90, 6), (157, 10), (119, 7), (59, 0), (83, 5), (104, 5), (213, 6), (175, 1), (233, 2), (76, 4), (132, 4), (203, 2), (237, 4), (89, 9), (32, 0), (53, 7), (197, 7), (142, 9), (88, 4), (249, 9), (13, 7), (229, 1), (166, 5), (23, 10), (69, 2), (77, 5), (209, 2), (145, 3), (26, 0), (56, 4), (232, 5), (100, 2)]
25	1	1	8	33	[(50, 4), (27, 9), (202, 10), (203, 8), (28, 0), (152, 7), (158, 0), (43, 0), (82, 3), (59, 3), (192, 4), (247, 2), (51, 9), (112, 0), (217, 5), (242, 10), (95, 1), (208, 7), (199, 5), (229, 2), (183, 10), (172, 5), (144, 7), (137, 1), (81, 5), (104, 9), (97, 4), (150, 10), (131, 2), (134, 10), (188, 6), (178, 9), (204, 1)]
26	60	1	8	27	[(111, 2), (185, 7), (227, 2), (8, 1), (128, 6), (102, 4), (132, 5), (159, 9), (31, 8), (212, 6), (136, 10), (5, 0), (41, 9), (7, 3), (96, 6), (244, 3), (33, 9), (149, 3), (117, 8), (141, 9), (187, 10), (123, 0), (119, 10), (36, 9), (98, 6), (241, 1), (81, 2)]
27	1	1	8	27	[(166, 7), (131, 8), (145, 7), (95, 5), (175, 6), (98, 2), (52, 0), (119, 5), (190, 4), (36, 6), (8, 9), (93, 4), (221, 8), (219, 10), (41, 5), (104, 2), (177, 10), (140, 1), (103, 6), (181, 9), (61, 4), (203, 2), (179, 9), (248, 4), (70, 8), (47, 8), (29, 0)]
28	2	1	8	45	[(101, 6), (27, 1), (239, 8), (182, 4), (221, 4), (60, 5), (196, 5), (149, 3), (43, 0), (111, 4), (37, 7), (241, 2), (210, 0), (10, 3), (191, 10), (39, 2), (168, 3), (134, 3), (218, 10), (93, 3), (96, 0), (78, 7), (158, 9), (144, 2), (110, 5), (50, 9), (167, 2), (1, 6), (184, 4), (90, 8), (22, 1), (9, 7), (92, 10), (34, 0), (138, 4), (183, 7), (79, 5), (7, 6), (135, 0), (87, 9), (229, 6), (230, 3), (176, 1), (248, 1), (19, 8)]
29	1	1	8	33	[(39, 2), (102, 10), (152, 7), (139, 3), (121, 2), (81, 1), (230, 8), (231, 6), (76, 0), (12, 7), (83, 6), (176, 1), (69, 9), (59, 3), (117, 4), (101, 9), (108, 9), (2, 10), (200, 2), (21, 5), (149, 0), (238, 4), (161, 2), (14, 8), (202, 0), (128, 1), (119, 10), (72, 5), (63, 0), (94, 8), (110, 5), (132, 8), (164, 2)]
30	2	1	8	37	[(190, 2), (61, 5), (184, 7), (177, 3), (98, 7), (248, 4), (44, 1), (204, 0), (92, 6), (154, 1), (32, 10), (71, 7), (123, 3), (212, 6), (186, 0), (231, 4), (150, 4), (172, 8), (108, 4), (214, 3), (36, 9), (213, 8), (195, 0), (237, 3), (67, 5), (192, 3), (189, 3), (79, 8), (114, 5), (149, 6), (55, 2), (173, 5), (179, 7), (199, 2), (181, 6), (194, 5), (66, 5)]
31	8	1	8	40	[(116, 9), (99, 1), (131, 9), (67, 5), (33, 3), (87, 7), (217, 10), (158, 2), (14, 8), (85, 1), (227, 2), (232, 3), (102, 4), (221, 5), (4, 9), (42, 0), (96, 1), (11, 3), (21, 6), (187, 10), (164, 2), (185, 2), (219, 0), (203, 5), (159, 6), (40, 3), (32, 3), (141, 3), (183, 4), (50, 2), (119, 4), (124, 2), (13, 2), (60, 7), (172, 4), (151, 1), (109, 10), (143, 6), (51, 1), (192, 2)]
32	7	4	32	37	[(197, 1), (226, 2), (225, 10), (66, 2), (168, 6), (26, 8), (127, 9), (47, 10), (201, 7), (101, 2), (16, 7), (42, 8), (208, 5), (231, 5), (132, 0), (49, 8), (38, 9), (82, 1), (192, 1), (139, 3), (220, 6), (211, 9), (135, 10), (13, 8), (36, 6), (205, 8), (40, 3), (163, 0), (44, 1), (117, 1), (187, 10), (30, 10), (180, 8), (24, 0), (106, 1), (114, 10), (145, 9)]
33	150	1	8	39	[(7, 9), (122, 1), (141, 2), (56, 0), (37, 9), (1, 2), (211, 3), (60, 2), (157, 8), (214, 4), (28, 2), (217, 4), (194, 10), (235, 4), (227, 3), (89, 10), (216, 8), (197, 6), (12, 6), (164, 9), (57, 4), (99, 0), (17, 7), (69, 1), (40, 2), (133, 6), (131, 6), (103, 1), (45, 1), (234, 8), (71, 3), (189, 6), (9, 5), (246, 4), (179, 0), (49, 3), (87, 7), (161, 9), (92, 4)]
34	1	1	8	27	[(56, 8), (40, 4), (37, 1), (141, 5), (51, 7), (39, 6), (16, 2), (80, 3), (245, 1), (156, 10), (192, 3), (111, 2), (181, 0), (217, 9), (247, 9), (165, 10), (207, 5), (36, 0), (70, 8), (123, 10), (75, 6), (208, 4), (231, 1), (61, 0), (194, 1), (177, 9), (73, 8)]
35	1	1	2	33	[(201, 5), (151, 7), (225, 1), (32, 3), (20, 7), (216, 10), (112, 9), (148, 4), (205, 5), (209, 3), (241, 8), (23, 9), (55, 5), (204, 4), (38, 2), (128, 6), (176, 10), (235, 9), (144, 0), (62, 1), (96, 1), (45, 6), (54, 1), (218, 1), (194, 8), (142, 2), (86, 4), (60, 8), (35, 5), (170, 6), (124, 1), (152, 0), (211, 3)]
36	4	1	8	34	[(246, 10), (183, 7), (203, 10), (177, 2), (102, 2), (149, 9), (138, 4), (124, 10), (200, 10), (78, 5), (172, 2), (165, 10), (96, 7), (164, 9), (35, 1), (25, 10), (209, 6), (239, 10), (134, 8), (28, 2), (217, 9), (218, 1), (46, 9), (125, 0), (109, 1), (199, 8), (188, 3), (131, 8), (98, 10), (19, 3), (36, 2), (250, 6), (204, 0), (68, 4)]
37	1	4	8	32	[(193, 0), (18, 4), (15, 7), (60, 2), (212, 0), (46, 2), (80, 0), (40, 1), (47, 1), (39, 6), (144, 0), (66, 6), (190, 8), (142, 5), (19, 8), (214, 3), (130, 0), (176, 6), (131, 10), (56, 3), (128, 9), (112, 10), (185, 1), (55, 9), (156, 9), (249, 3), (37, 10), (95, 6), (221, 9), (200, 5), (2, 1), (245, 2)]
38	5	1	8	30	[(122, 6), (178, 5), (38, 7), (179, 9), (4, 1), (101, 9), (63, 5), (138, 5), (208, 5), (146, 9), (202, 6), (165, 10), (126, 3), (211, 9), (249, 4), (90, 2), (196, 6), (218, 3), (18, 7), (139, 9), (52, 2), (15, 10), (47, 2), (66, 5), (164, 5), (129, 1), (152, 1), (187, 6), (193, 4), (143, 9)]
39	6	1	8	35	[(107, 9), (196, 3), (245, 4), (226, 6), (204, 4), (183, 4), (90, 2), (152, 3), (5, 1), (177, 2), (185, 3), (123, 6), (102, 7), (137, 4), (139, 5), (170, 9), (35, 3), (57, 4), (198, 0), (47, 3), (188, 7), (238, 10), (199, 6), (29, 0), (180, 2), (206, 5), (232, 2), (18, 1), (157, 4), (155, 9), (116, 0), (216, 7), (51, 9), (207, 1), (71, 7)]
40	6	1	8	45	[(32, 2), (24, 8), (184, 5), (160, 5), (23, 8), (56, 5), (136, 8), (240, 5), (214, 5), (216, 1), (77, 4), (246, 8), (3, 3), (14, 3), (62, 2), (79, 3), (243, 1), (198, 10), (139, 10), (113, 2), (140, 10), (235, 3), (21, 6), (45, 10), (145, 0), (35, 6), (225, 10), (58, 7), (12, 0), (128, 3), (180, 4), (91, 2), (49, 9), (42, 7), (80, 4), (169, 3), (116, 8), (60, 5), (121, 10), (109, 10), (8, 8), (146, 6), (222, 5), (11, 4), (72, 6)]
41	1	1	8	27	[(31, 7), (241, 1), (231, 1), (127, 4), (192, 8), (178, 6), (148, 9), (184, 3), (179, 8), (139, 5), (4, 2), (201, 2), (42, 0), (114, 2), (119, 10), (89, 6), (34, 7), (197, 0), (125, 10), (135, 5), (225, 2), (7, 9), (69, 2), (200, 0), (239, 7), (121, 10), (64, 4)]
42	18	4	8	33	[(199, 7), (63, 10), (75, 8), (135, 3), (7, 2), (166, 10), (180, 8), (161, 4), (179, 8), (129, 6), (79, 0), (160, 8), (93, 10), (70, 3), (45, 9), (212, 6), (34, 2), (186, 6), (37, 3), (38, 7), (14, 8), (227, 10), (12, 9), (52, 0), (247, 0), (245, 10), (113, 5), (250, 6), (142, 10), (211, 4), (139, 6), (170, 8), (67, 4)]
43	1	1	16	39	[(55, 0), (134, 0), (192, 4), (49, 9), (85, 6), (87, 2), (222, 9), (145, 6), (171, 10), (179, 9), (93, 9), (22, 10), (162, 2), (195, 5), (157, 10), (172, 9), (140, 0), (64, 4), (53, 6), (84, 9), (51, 0), (76, 5), (209, 5), (58, 5), (201, 5), (141, 1), (59, 2), (149, 1), (227, 0), (94, 2), (114, 9), (184, 2), (196, 9), (31, 1), (124, 7), (199, 1), (218, 5), (198, 0), (129, 9)]
44	2	1	8	33	[(23, 4), (55, 2), (148, 6), (157, 2), (232, 6), (7, 6), (168, 2), (53, 9), (78, 4), (220, 2), (63, 0), (5, 1), (224, 6), (134, 8), (242, 9), (155, 2), (97, 4), (107, 5), (80, 3), (199, 3), (22, 6), (9, 7), (227, 8), (28, 10), (110, 10), (233, 1), (8, 2), (37, 7), (20, 2), (11, 3), (6, 9), (3, 6), (121, 2)]
45	1	1	2	31	[(64, 4), (21, 8), (22, 8), (211, 8), (82, 3), (148, 2), (59, 1), (88, 1), (103, 9), (85, 8), (162, 0), (101, 4), (122, 1), (215, 8), (243, 5), (118, 4), (204, 9), (117, 7), (178, 5), (3, 6), (169, 4), (1, 8), (228, 6), (167, 3), (29, 1), (220, 4), (7, 1), (145, 4), (67, 5), (41, 0), (201, 1)]
46	2	1	8	34	[(243, 10), (103, 1), (236, 5), (194, 4), (159, 9), (115, 8), (177, 7), (199, 0), (34, 8), (36, 6), (56, 9), (73, 5), (216, 3), (235, 9), (2, 8), (166, 10), (181, 2), (118, 10), (74, 2), (210, 3), (107, 5), (140, 2), (175, 6), (190, 8), (69, 7), (125, 9), (84, 10), (33, 5), (37, 6), (186, 6), (202, 7), (14, 2), (113, 4), (49, 9)]
47	2	3	3	27	[(241, 2), (210, 4), (90, 10), (109, 8), (127, 6), (26, 1), (132, 9), (184, 9), (174, 6), (2, 10), (135, 7), (47, 1), (110, 9), (163, 10), (64, 6), (114, 4), (187, 4), (175, 3), (37, 2), (105, 8), (139, 8), (106, 6), (200, 5), (61, 10), (65, 6), (188, 9), (169, 3)]
48	1	2	2	31	[(130, 3), (88, 4), (244, 9), (108, 7), (50, 3), (208, 1), (70, 2), (134, 7), (12, 4), (2, 7), (61, 3), (62, 10), (84, 10), (220, 6), (199, 9), (200, 7), (20, 8), (45, 9), (242, 7), (159, 6), (68, 3), (143, 9), (53, 2), (236, 8), (55, 10), (33, 2), (71, 10), (125, 0), (142, 2), (146, 3), (8, 6)]
49	1	4	8	30	[(121, 6), (170, 10), (30, 6), (3, 8), (23, 8), (166, 10), (213, 4), (118, 5), (219, 10), (82, 10), (177, 3), (158, 2), (171, 10), (151, 1), (200, 3), (163, 6), (238, 5), (164, 6), (175, 5), (149, 6), (36, 0), (34, 9), (41, 4), (25, 6), (241, 7), (80, 1), (183, 10), (198, 4), (138, 3), (86, 9)]
50	4	1	8	30	[(206, 8), (42, 9), (240, 1), (194, 8), (82, 2), (36, 9), (56, 2), (44, 3), (66, 8), (83, 3), (134, 0), (150, 10), (154, 2), (41, 3), (166, 3), (96, 9), (19, 10), (147, 7), (191, 5), (227, 1), (28, 10), (211, 9), (91, 3), (57, 3), (132, 5), (79, 7), (208, 1), (188, 1), (6, 9), (90, 10)]
51	28	4	1	38	[(192, 5), (247, 4), (54, 4), (229, 3), (106, 8), (219, 4), (7, 4), (135, 7), (212, 5), (210, 3), (171, 9), (102, 4), (232, 7), (120, 4), (172, 6), (137, 2), (215, 1), (10, 6), (164, 0), (246, 7), (149, 1), (90, 8), (63, 3), (110, 7), (156, 7), (100, 4), (165, 7), (52, 9), (44, 0), (234, 2), (14, 10), (209, 10), (2, 4), (26, 1), (97, 4), (111, 1), (214, 0), (160, 0)]
52	34	4	8	39	[(208, 4), (225, 10), (17, 9), (95, 9), (62, 2), (141, 10), (35, 10), (98, 1), (110, 1), (157, 10), (16, 0), (9, 3), (169, 10), (21, 7), (39, 7), (170, 2), (250, 7), (8, 6), (99, 6), (182, 6), (209, 10), (247, 3), (101, 10), (222, 9), (112, 9), (212, 1), (163, 9), (183, 1), (103, 10), (203, 5), (165, 7), (23, 1), (87, 6), (186, 9), (205, 4), (61, 1), (229, 5), (216, 2), (13, 8)]
53	2	1	8	29	[(222, 3), (246, 6), (101, 6), (97, 5), (51, 10), (142, 1), (87, 5), (34, 5), (1, 8), (140, 1), (189, 1), (220, 0), (250, 1), (105, 10), (212, 0), (9, 8), (165, 3), (135, 2), (41, 6), (48, 10), (237, 3), (235, 0), (72, 6), (232, 1), (60, 9), (231, 6), (243, 1), (13, 5), (200, 3)]
54	1	2	8	36	[(236, 9), (121, 4), (123, 7), (248, 5), (171, 0), (30, 10), (250, 8), (148, 8), (209, 1), (191, 3), (199, 10), (214, 4), (128, 5), (152, 8), (75, 7), (36, 3), (6, 3), (194, 5), (82, 5), (20, 1), (13, 10), (65, 5), (242, 2), (92, 10), (80, 4), (95, 1), (57, 4), (66, 6), (245, 4), (235, 10), (120, 9), (223, 4), (4, 8), (32, 8), (246, 6), (205, 6)]
55	5	2	8	37	[(81, 0), (39, 7), (76, 2), (245, 1), (142, 0), (85, 1), (121, 9), (89, 3), (241, 8), (152, 8), (244, 6), (72, 4), (54, 10), (226, 3), (66, 8), (78, 0), (179, 0), (116, 9), (21, 6), (140, 0), (232, 3), (110, 7), (165, 6), (84, 1), (33, 2), (3, 0), (250, 8), (10, 3), (61, 7), (157, 8), (248, 0), (70, 10), (15, 3), (104, 8), (37, 2), (65, 10), (83, 1)]
56	2	2	8	31	[(216, 0), (136, 2), (184, 1), (141, 7), (161, 9), (145, 2), (132, 9), (194, 6), (146, 10), (43, 4), (36, 4), (250, 0), (116, 5), (224, 6), (232, 1), (101, 3), (115, 6), (4, 0), (179, 2), (14, 1), (66, 1), (151, 2), (91, 0), (29, 8), (187, 2), (223, 3), (125, 1), (236, 7), (163, 10), (81, 1), (131, 3)]
57	1	3	8	29	[(69, 6), (126, 0), (143, 9), (63, 9), (221, 2), (118, 4), (210, 2), (195, 2), (156, 4), (82, 5), (201, 5), (42, 2), (223, 7), (87, 1), (220, 10), (88, 7), (147, 8), (57, 10), (29, 4), (199, 5), (226, 2), (27, 8), (209, 6), (33, 4), (202, 4), (218, 2), (241, 0), (65, 0), (51, 5)]
58	1	2	8	40	[(220, 1), (196, 8), (4, 10), (195, 6), (33, 10), (241, 8), (84, 4), (42, 5), (190, 1), (135, 5), (221, 8), (87, 9), (121, 6), (146, 2), (244, 7), (37, 10), (21, 2), (228, 9), (154, 1), (22, 6), (147, 7), (231, 9), (207, 1), (124, 2), (29, 6), (30, 6), (92, 5), (232, 1), (17, 9), (39, 3), (222, 4), (141, 0), (133, 9), (242, 0), (115, 9), (165, 2), (194, 4), (68, 5), (79, 2), (156, 6)]
59	15	4	8	31	[(180, 5), (109, 0), (77, 1), (36, 3), (201, 8), (70, 8), (93, 9), (31, 4), (182, 3), (28, 1), (113, 4), (241, 10), (96, 1), (66, 8), (102, 6), (226, 0), (107, 2), (209, 4), (12, 5), (108, 7), (211, 3), (91, 5), (223, 10), (104, 7), (82, 2), (212, 4), (2, 4), (35, 6), (159, 0), (84, 3), (225, 1)]
60	3	1	8	29	[(19, 7), (189, 9), (197, 10), (228, 8), (123, 4), (87, 5), (86, 6), (188, 7), (85, 3), (138, 5), (240, 3), (201, 3), (33, 5), (187, 10), (175, 8), (184, 10), (13, 4), (76, 7), (110, 5), (166, 4), (59, 2), (103, 8), (60, 6), (111, 4), (162, 1), (178, 8), (55, 3), (239, 3), (67, 3)]
61	1	2	8	33	[(210, 1), (249, 8), (126, 5), (140, 5), (99, 4), (243, 9), (192, 5), (66, 2), (219, 3), (146, 0), (28, 4), (15, 4), (158, 1), (67, 3), (151, 5), (123, 5), (181, 5), (157, 6), (185, 9), (8, 2), (186, 2), (33, 5), (139, 7), (229, 3), (75, 6), (190, 4), (220, 3), (203, 10), (130, 2), (105, 0), (160, 8), (102, 7), (90, 4)]
62	1	4	8	41	[(151, 7), (169, 7), (76, 1), (113, 6), (85, 7), (87, 1), (107, 4), (222, 7), (150, 9), (114, 1), (205, 2), (153, 4), (241, 2), (188, 2), (34, 5), (122, 10), (86, 7), (73, 6), (123, 3), (62, 7), (198, 5), (245, 3), (181, 1), (179, 1), (15, 7), (80, 8), (67, 10), (4, 10), (84, 5), (39, 0), (193, 1), (25, 9), (192, 3), (217, 2), (149, 3), (57, 1), (27, 8), (77, 0), (129, 5), (121, 8), (160, 4)]
63	2	1	8	22	[(118, 3), (145, 2), (173, 10), (70, 7), (147, 8), (76, 1), (221, 10), (203, 10), (151, 4), (136, 1), (30, 1), (206, 6), (23, 3), (132, 8), (202, 0), (22, 4), (216, 7), (192, 3), (64, 0), (1, 8), (183, 10), (10, 4)]
64	2	1	8	34	[(89, 2), (135, 5), (186, 6), (131, 8), (187, 0), (65, 9), (183, 2), (182, 7), (168, 7), (100, 7), (35, 3), (44, 6), (218, 7), (123, 6), (175, 9), (33, 5), (176, 5), (93, 7), (184, 3), (188, 0), (220, 4), (117, 10), (234, 0), (247, 6), (231, 1), (40, 3), (75, 10), (215, 0), (39, 8), (26, 3), (69, 10), (193, 4), (224, 8), (24, 1)]
65	1	1	8	36	[(214, 4), (155, 9), (81, 6), (73, 5), (165, 8), (151, 7), (54, 4), (47, 1), (244, 0), (34, 7), (206, 9), (56, 0), (157, 3), (219, 5), (13, 4), (235, 6), (215, 6), (91, 2), (200, 9), (249, 3), (30, 2), (182, 8), (107, 9), (20, 2), (202, 5), (247, 5), (213, 9), (86, 0), (144, 1), (190, 0), (98, 4), (229, 1), (109, 10), (75, 7), (222, 0), (83, 1)]
66	2	1	2	34	[(93, 8), (78, 1), (111, 1), (211, 6), (192, 2), (141, 1), (89, 5), (25, 0), (21, 0), (110, 3), (169, 1), (56, 3), (13, 0), (177, 6), (66, 7), (108, 3), (148, 9), (114, 2), (138, 7), (209, 5), (195, 3), (18, 10), (80, 2), (235, 0), (190, 6), (79, 8), (140, 3), (54, 2), (1, 10), (193, 4), (70, 2), (48, 1), (167, 2), (216, 1)]
67	1	1	16	33	[(84, 6), (122, 2), (73, 9), (165, 1), (214, 10), (238, 0), (169, 7), (49, 2), (63, 1), (236, 9), (175, 0), (102, 5), (219, 10), (16, 1), (231, 4), (111, 8), (200, 8), (83, 3), (112, 6), (228, 9), (58, 9), (88, 5), (155, 6), (11, 4), (204, 10), (10, 0), (140, 7), (114, 5), (91, 2), (141, 0), (146, 3), (143, 3), (222, 6)]
68	6	1	8	38	[(243, 10), (117, 2), (216, 4), (5, 9), (183, 7), (14, 0), (178, 2), (105, 9), (129, 2), (104, 2), (236, 1), (19, 1), (227, 0), (3, 1), (173, 0), (120, 8), (122, 5), (61, 7), (162, 2), (41, 8), (121, 0), (39, 1), (95, 0), (20, 5), (94, 1), (13, 2), (133, 7), (76, 1), (28, 0), (157, 1), (88, 1), (198, 3), (97, 10), (164, 9), (112, 2), (81, 2), (184, 9), (80, 8)]
69	2	1	8	43	[(20, 1), (181, 10), (1, 10), (172, 10), (49, 2), (50, 1), (173, 1), (168, 7), (231, 9), (76, 7), (126, 9), (39, 1), (150, 3), (112, 5), (180, 5), (100, 1), (232, 6), (17, 5), (190, 10), (244, 1), (198, 5), (201, 5), (176, 3), (47, 3), (151, 2), (29, 4), (88, 1), (140, 6), (69, 8), (81, 4), (125, 7), (107, 1), (202, 4), (94, 4), (56, 4), (188, 6), (133, 3), (134, 0), (13, 5), (208, 5), (152, 4), (10, 1), (43, 8)]
70	6	1	8	30	[(37, 8), (105, 5), (24, 4), (121, 5), (69, 4), (60, 8), (202, 7), (67, 0), (120, 7), (59, 1), (6, 7), (125, 3), (162, 1), (71, 8), (110, 6), (112, 0), (179, 1), (116, 3), (138, 4), (130, 5), (27, 10), (186, 5), (119, 1), (191, 2), (152, 3), (77, 10), (15, 2), (35, 0), (51, 0), (34, 1)]
71	2	4	8	36	[(30, 10), (48, 0), (198, 5), (84, 10), (247, 3), (88, 9), (232, 7), (29, 6), (163, 5), (231, 7), (184, 10), (197, 5), (145, 8), (143, 9), (148, 7), (188, 8), (187, 4), (61, 5), (66, 4), (182, 0), (243, 6), (34, 0), (112, 9), (195, 0), (138, 5), (51, 5), (192, 2), (117, 5), (229, 8), (42, 3), (210, 3), (47, 8), (149, 4), (236, 7), (38, 10), (5, 1)]
72	3	1	8	39	[(177, 3), (232, 7), (66, 3), (36, 1), (70, 6), (134, 10), (26, 5), (107, 7), (69, 2), (38, 7), (231, 9), (228, 0), (1, 1), (47, 2), (170, 3), (5, 4), (188, 2), (88, 3), (64, 7), (240, 6), (2, 6), (23, 1), (195, 8), (95, 0), (119, 8), (31, 9), (111, 7), (181, 0), (108, 2), (80, 2), (150, 1), (87, 0), (182, 2), (206, 4), (246, 4), (118, 7), (178, 5), (164, 3), (159, 0)]
73	2	1	8	27	[(173, 6), (113, 1), (61, 5), (72, 7), (125, 2), (149, 1), (57, 2), (147, 6), (227, 8), (34, 0), (229, 1), (30, 1), (225, 2), (56, 6), (198, 8), (144, 4), (71, 5), (186, 2), (232, 4), (190, 7), (19, 6), (176, 4), (42, 8), (52, 3), (110, 9), (170, 4), (203, 4)]
74	1	1	8	38	[(131, 3), (152, 8), (217, 4), (249, 4), (201, 3), (176, 9), (198, 2), (168, 8), (133, 5), (196, 3), (4, 2), (179, 0), (216, 3), (104, 1), (229, 4), (194, 6), (197, 2), (192, 7), (69, 4), (170, 1), (61, 0), (58, 10), (108, 7), (145, 9), (53, 4), (206, 3), (118, 5), (186, 7), (62, 8), (212, 1), (157, 5), (238, 10), (225, 2), (166, 3), (36, 10), (128, 6), (161, 4), (172, 8)]
75	1	1	8	32	[(83, 1), (139, 7), (18, 5), (105, 3), (33, 3), (182, 6), (211, 9), (30, 3), (188, 4), (233, 6), (100, 4), (35, 7), (171, 7), (181, 5), (109, 0), (14, 9), (101, 8), (9, 5), (80, 2), (114, 7), (112, 9), (53, 10), (152, 9), (93, 2), (197, 7), (2, 2), (11, 6), (38, 2), (37, 8), (161, 7), (34, 3), (169, 3)]
76	1	1	2	25	[(99, 3), (210, 7), (238, 0), (5, 0), (27, 9), (60, 8), (180, 8), (208, 4), (63, 9), (103, 1), (245, 3), (174, 2), (87, 2), (105, 0), (92, 9), (34, 6), (193, 3), (16, 5), (187, 3), (154, 1), (117, 3), (133, 9), (72, 1), (163, 4), (152, 9)]
77	2	1	8	31	[(216, 0), (155, 6), (105, 9), (46, 2), (164, 6), (93, 3), (245, 6), (151, 0), (126, 2), (169, 9), (227, 10), (218, 6), (200, 10), (166, 1), (228, 6), (222, 1), (247, 4), (128, 7), (44, 5), (167, 7), (48, 7), (226, 9), (165, 4), (136, 3), (90, 4), (246, 9), (116, 6), (142, 4), (192, 8), (152, 2), (143, 2)]
78	25	1	8	32	[(155, 8), (82, 10), (108, 6), (83, 0), (68, 2), (12, 2), (198, 6), (237, 7), (158, 2), (44, 5), (136, 5), (72, 10), (117, 6), (46, 0), (204, 8), (25, 0), (126, 3), (111, 5), (217, 6), (240, 5), (48, 10), (41, 2), (152, 3), (27, 8), (109, 2), (227, 8), (98, 1), (75, 10), (142, 9), (121, 6), (21, 8), (170, 5)]
79	2	2	8	39	[(246, 10), (202, 3), (70, 0), (5, 5), (57, 2), (249, 8), (208, 4), (35, 10), (171, 10), (185, 3), (34, 2), (244, 7), (124, 6), (158, 0), (167, 7), (183, 9), (42, 10), (22, 5), (87, 7), (105, 1), (173, 4), (111, 0), (146, 0), (195, 7), (78, 6), (106, 7), (247, 7), (160, 9), (175, 8), (73, 7), (151, 7), (49, 8), (75, 7), (140, 4), (24, 5), (178, 8), (144, 9), (127, 4), (54, 4)]
80	3	1	16	36	[(241, 1), (107, 8), (95, 7), (215, 10), (249, 6), (55, 6), (61, 8), (237, 10), (67, 5), (194, 0), (225, 0), (181, 6), (52, 8), (102, 1), (112, 0), (193, 3), (133, 6), (104, 9), (41, 0), (183, 10), (64, 8), (86, 2), (170, 1), (220, 2), (200, 7), (103, 6), (221, 8), (140, 3), (123, 5), (243, 6), (190, 5), (30, 6), (48, 3), (73, 7), (90, 6), (12, 7)]
81	2	6	8	36	[(231, 0), (192, 6), (236, 9), (6, 3), (64, 7), (190, 6), (177, 5), (175, 0), (45, 0), (228, 7), (154, 6), (158, 6), (63, 0), (13, 8), (133, 3), (244, 3), (26, 0), (33, 1), (146, 7), (58, 1), (107, 5), (30, 7), (219, 0), (248, 8), (180, 5), (178, 3), (94, 9), (92, 9), (176, 2), (128, 2), (80, 5), (229, 9), (79, 1), (112, 4), (43, 10), (109, 0)]
82	2	4	8	29	[(76, 2), (43, 4), (228, 6), (248, 10), (154, 3), (176, 3), (207, 3), (144, 2), (51, 3), (231, 3), (4, 6), (114, 6), (12, 10), (219, 0), (98, 8), (37, 7), (47, 10), (177, 6), (217, 8), (232, 3), (229, 10), (17, 4), (88, 2), (113, 10), (247, 4), (163, 0), (101, 3), (99, 1), (239, 4)]
83	2	1	8	22	[(49, 0), (214, 6), (157, 8), (116, 3), (79, 4), (245, 4), (125, 7), (29, 3), (170, 1), (187, 5), (31, 4), (147, 4), (215, 4), (28, 1), (164, 8), (110, 9), (141, 6), (150, 1), (16, 6), (140, 4), (129, 3), (154, 4)]
84	4	1	7	46	[(19, 4), (29, 6), (142, 9), (203, 10), (202, 5), (71, 7), (45, 5), (98, 7), (156, 0), (201, 7), (157, 0), (95, 9), (206, 3), (7, 10), (15, 8), (12, 3), (241, 6), (175, 0), (63, 8), (173, 4), (179, 1), (242, 4), (101, 2), (249, 10), (36, 0), (184, 5), (240, 5), (72, 7), (167, 2), (158, 4), (42, 8), (181, 5), (176, 10), (76, 9), (49, 2), (123, 8), (231, 7), (30, 5), (128, 6), (168, 4), (82, 7), (54, 6), (213, 1), (151, 2), (248, 3), (106, 1)]
85	2	1	8	43	[(193, 2), (182, 6), (28, 7), (106, 10), (220, 10), (238, 4), (118, 3), (63, 0), (198, 5), (30, 2), (216, 3), (155, 0), (47, 10), (10, 6), (41, 8), (174, 0), (110, 10), (100, 7), (50, 8), (190, 8), (168, 8), (241, 2), (194, 7), (173, 2), (90, 3), (161, 8), (178, 1), (32, 10), (55, 7), (51, 2), (54, 6), (143, 8), (7, 10), (24, 10), (144, 5), (125, 6), (167, 0), (209, 6), (21, 9), (70, 4), (59, 4), (242, 1), (119, 9)]
86	5	4	8	30	[(206, 1), (215, 0), (202, 5), (157, 0), (179, 4), (193, 6), (16, 7), (116, 7), (211, 7), (7, 2), (38, 10), (208, 6), (213, 0), (107, 9), (237, 8), (163, 2), (177, 2), (144, 7), (55, 4), (36, 1), (71, 6), (8, 3), (34, 1), (1, 0), (160, 10), (28, 9), (96, 0), (192, 7), (70, 9), (56, 0)]
87	2	1	8	41	[(152, 8), (10, 5), (25, 3), (200, 10), (179, 10), (138, 4), (92, 1), (78, 7), (209, 10), (99, 7), (123, 7), (86, 8), (150, 10), (74, 3), (6, 1), (187, 2), (22, 6), (72, 3), (148, 2), (47, 8), (116, 2), (11, 9), (81, 7), (147, 10), (97, 3), (108, 10), (88, 6), (210, 2), (173, 2), (226, 2), (98, 5), (46, 2), (174, 6), (24, 1), (165, 1), (91, 5), (49, 9), (111, 7), (101, 10), (234, 9), (60, 8)]
88	1	1	1	31	[(53, 4), (135, 6), (163, 7), (205, 9), (239, 6), (58, 0), (21, 5), (184, 3), (202, 2), (241, 2), (204, 9), (33, 6), (198, 2), (22, 4), (183, 4), (69, 3), (82, 3), (116, 1), (157, 0), (195, 5), (46, 1), (177, 6), (113, 6), (62, 5), (187, 7), (77, 10), (138, 6), (68, 1), (172, 1), (54, 2), (94, 6)]
89	2	2	16	34	[(211, 7), (173, 2), (39, 2), (110, 1), (18, 3), (140, 8), (130, 1), (120, 0), (184, 0), (77, 1), (169, 3), (26, 4), (195, 1), (36, 10), (250, 8), (1, 2), (98, 10), (175, 6), (172, 9), (63, 6), (3, 0), (149, 6), (207, 1), (16, 3), (199, 7), (187, 6), (164, 7), (53, 4), (118, 10), (5, 6), (156, 4), (55, 1), (242, 10), (97, 6)]
90	1	1	8	27	[(16, 2), (72, 4), (145, 1), (199, 7), (217, 6), (156, 2), (242, 6), (139, 6), (35, 5), (49, 1), (95, 0), (9, 1), (162, 10), (120, 4), (31, 4), (14, 4), (232, 5), (22, 7), (118, 2), (177, 7), (172, 5), (84, 9), (66, 6), (220, 6), (75, 4), (228, 1), (54, 10)]
91	17	1	8	32	[(178, 1), (127, 9), (6, 3), (10, 0), (215, 5), (176, 1), (242, 9), (150, 10), (1, 8), (30, 1), (108, 9), (38, 8), (249, 9), (93, 8), (128, 9), (37, 10), (229, 5), (27, 5), (88, 7), (169, 8), (237, 4), (102, 1), (199, 9), (219, 6), (173, 9), (226, 4), (130, 0), (234, 4), (84, 4), (59, 9), (82, 6), (218, 5)]
92	2	1	2	39	[(248, 3), (140, 1), (75, 9), (100, 10), (122, 7), (143, 9), (121, 3), (241, 8), (32, 3), (208, 7), (105, 5), (194, 2), (135, 8), (230, 0), (54, 6), (38, 7), (224, 8), (242, 2), (197, 5), (35, 2), (215, 7), (164, 1), (8, 0), (77, 0), (144, 6), (97, 3), (17, 9), (233, 6), (42, 6), (153, 5), (184, 2), (48, 5), (120, 6), (130, 6), (74, 8), (98, 0), (93, 1), (146, 2), (192, 0)]
93	2	2	8	35	[(137, 0), (156, 6), (235, 2), (110, 6), (28, 2), (45, 5), (13, 1), (39, 2), (84, 5), (214, 10), (126, 4), (205, 8), (53, 1), (198, 1), (32, 9), (46, 9), (119, 4), (194, 6), (177, 10), (203, 9), (114, 1), (245, 5), (70, 7), (136, 5), (99, 4), (69, 3), (54, 3), (83, 9), (35, 7), (22, 9), (161, 0), (49, 10), (59, 0), (73, 7), (170, 9)]
94	4	6	8	34	[(143, 7), (142, 9), (128, 1), (90, 2), (70, 6), (10, 5), (245, 5), (203, 10), (150, 0), (190, 8), (134, 9), (41, 9), (146, 8), (227, 10), (77, 10), (93, 3), (250, 0), (166, 3), (212, 3), (73, 5), (50, 1), (187, 3), (89, 8), (114, 7), (216, 10), (69, 9), (6, 8), (153, 3), (106, 3), (51, 0), (220, 3), (45, 6), (197, 8), (206, 3)]
95	1	6	8	32	[(247, 6), (105, 0), (182, 1), (225, 3), (134, 3), (155, 7), (83, 5), (140, 1), (153, 9), (151, 1), (49, 0), (65, 4), (179, 9), (189, 3), (121, 7), (212, 4), (109, 6), (178, 9), (18, 7), (183, 5), (56, 7), (87, 5), (127, 0), (119, 0), (177, 5), (128, 8), (16, 8), (66, 5), (103, 5), (147, 4), (237, 1), (57, 2)]
96	2	1	8	35	[(175, 1), (82, 1), (249, 6), (42, 7), (63, 6), (38, 9), (39, 10), (155, 8), (47, 1), (208, 0), (218, 3), (231, 7), (70, 6), (53, 7), (152, 5), (112, 5), (25, 2), (123, 1), (57, 8), (170, 8), (66, 6), (26, 6), (195, 8), (130, 0), (190, 5), (50, 9), (184, 3), (31, 5), (244, 1), (193, 0), (225, 1), (117, 9), (116, 8), (92, 4), (165, 3)]
97	4	1	8	35	[(144, 10), (71, 5), (135, 9), (22, 5), (172, 0), (226, 5), (242, 3), (33, 8), (51, 4), (81, 10), (53, 6), (247, 3), (116, 2), (176, 10), (127, 6), (26, 0), (106, 1), (88, 3), (163, 8), (77, 7), (12, 1), (118, 7), (35, 7), (62, 9), (157, 10), (240, 5), (21, 5), (40, 5), (236, 1), (59, 10), (102, 10), (171, 4), (34, 5), (174, 9), (47, 2)]
98	1	1	28	29	[(98, 7), (135, 9), (110, 8), (174, 10), (75, 3), (161, 0), (109, 9), (238, 2), (226, 6), (236, 0), (203, 5), (225, 3), (189, 4), (92, 10), (100, 4), (147, 6), (115, 0), (213, 4), (244, 3), (72, 6), (113, 10), (198, 4), (229, 1), (2, 1), (42, 8), (230, 0), (242, 2), (67, 1), (158, 10)]
99	1	1	8	42	[(102, 6), (17, 8), (233, 1), (100, 5), (125, 5), (196, 0), (152, 0), (48, 0), (29, 7), (51, 5), (209, 1), (248, 10), (42, 9), (220, 2), (146, 0), (244, 4), (242, 2), (214, 8), (159, 7), (191, 5), (18, 2), (194, 6), (173, 1), (189, 8), (59, 5), (123, 2), (85, 0), (205, 7), (213, 4), (52, 7), (47, 9), (240, 3), (158, 8), (164, 10), (71, 0), (142, 9), (182, 0), (183, 1), (14, 3), (216, 1), (49, 6), (1, 2)]
100	1	1	2	37	[(197, 7), (117, 0), (179, 0), (45, 1), (40, 5), (29, 0), (99, 10), (59, 7), (216, 3), (163, 5), (134, 7), (218, 2), (71, 8), (166, 3), (112, 9), (115, 8), (13, 1), (122, 10), (25, 9), (196, 1), (84, 6), (58, 10), (23, 8), (143, 3), (141, 1), (70, 3), (228, 7), (238, 5), (173, 2), (88, 9), (185, 3), (219, 4), (188, 8), (78, 6), (210, 2), (204, 7), (42, 2)]
101	1	1	8	40	[(184, 8), (4, 8), (151, 10), (57, 6), (83, 6), (82, 8), (161, 9), (190, 3), (7, 10), (215, 9), (168, 9), (26, 5), (88, 10), (80, 4), (181, 9), (129, 10), (170, 0), (196, 6), (160, 2), (2, 7), (101, 4), (99, 10), (84, 7), (71, 2), (97, 7), (242, 7), (213, 5), (94, 7), (138, 5), (164, 4), (163, 1), (111, 10), (166, 9), (98, 8), (85, 3), (152, 0), (38, 2), (12, 9), (89, 3), (221, 0)]
102	2	1	8	42	[(28, 2), (76, 4), (237, 9), (230, 2), (213, 2), (244, 6), (35, 1), (11, 5), (204, 10), (190, 4), (125, 2), (195, 7), (232, 2), (73, 6), (22, 4), (226, 4), (121, 3), (52, 7), (119, 6), (74, 1), (177, 3), (57, 0), (151, 9), (214, 1), (97, 1), (233, 0), (148, 5), (169, 8), (247, 5), (146, 3), (80, 0), (63, 4), (115, 1), (47, 1), (238, 6), (44, 9), (250, 4), (89, 2), (183, 4), (129, 0), (71, 4), (174, 8)]
103	26	1	8	35	[(114, 9), (211, 10), (215, 1), (247, 10), (204, 4), (47, 1), (112, 1), (35, 1), (152, 10), (2, 3), (21, 1), (11, 10), (125, 4), (131, 8), (164, 0), (210, 10), (27, 8), (103, 5), (214, 8), (56, 5), (221, 4), (213, 7), (34, 0), (86, 6), (249, 3), (17, 8), (28, 3), (1, 5), (189, 3), (179, 6), (19, 7), (75, 10), (91, 6), (98, 1), (23, 0)]
104	2	1	1	44	[(145, 3), (204, 10), (84, 10), (11, 6), (43, 10), (127, 3), (78, 7), (6, 7), (131, 10), (144, 3), (108, 5), (207, 8), (27, 0), (4, 4), (190, 6), (1, 9), (158, 6), (168, 0), (102, 10), (157, 0), (25, 3), (74, 3), (235, 1), (42, 0), (130, 9), (91, 2), (240, 7), (137, 10), (177, 7), (248, 10), (183, 3), (172, 9), (185, 8), (247, 5), (107, 9), (69, 6), (163, 4), (71, 8), (12, 6), (188, 3), (21, 10), (80, 2), (44, 8), (114, 5)]
105	2	4	8	30	[(182, 10), (73, 3), (119, 4), (151, 10), (47, 7), (173, 8), (128, 6), (104, 2), (49, 7), (234, 4), (161, 0), (11, 7), (84, 3), (150, 2), (228, 7), (172, 1), (3, 6), (88, 2), (112, 0), (200, 3), (107, 4), (35, 7), (196, 9), (106, 3), (209, 7), (4, 5), (167, 9), (15, 7), (141, 1), (139, 7)]
106	1	4	8	39	[(155, 8), (197, 2), (56, 3), (129, 5), (228, 3), (78, 3), (93, 1), (41, 8), (2, 2), (219, 2), (246, 0), (17, 7), (215, 0), (217, 2), (223, 0), (241, 1), (104, 5), (55, 5), (28, 1), (87, 7), (135, 9), (32, 6), (137, 0), (82, 4), (8, 7), (163, 9), (221, 4), (224, 1), (21, 10), (166, 0), (64, 7), (70, 10), (35, 10), (123, 9), (58, 1), (176, 1), (96, 7), (161, 6), (248, 1)]
107	4	4	8	45	[(123, 9), (84, 4), (46, 8), (243, 10), (177, 9), (14, 8), (1, 6), (198, 6), (25, 8), (160, 1), (2, 1), (135, 2), (78, 7), (208, 7), (171, 9), (152, 0), (153, 10), (115, 2), (10, 10), (215, 10), (39, 10), (172, 1), (236, 2), (64, 0), (195, 6), (209, 7), (142, 6), (197, 0), (54, 8), (75, 2), (137, 5), (203, 6), (80, 4), (175, 9), (16, 6), (199, 6), (218, 2), (113, 2), (59, 4), (211, 2), (240, 2), (227, 10), (192, 10), (134, 9), (106, 8)]
108	4	4	4	32	[(111, 4), (78, 4), (61, 5), (133, 1), (90, 7), (222, 8), (237, 9), (94, 7), (37, 6), (19, 0), (65, 10), (150, 7), (62, 9), (29, 6), (190, 3), (70, 3), (88, 10), (35, 4), (226, 2), (246, 9), (43, 3), (231, 2), (58, 8), (26, 0), (96, 5), (187, 2), (235, 8), (198, 4), (53, 1), (40, 2), (60, 0), (188, 5)]
109	2	1	8	28	[(44, 4), (219, 6), (91, 6), (38, 6), (102, 1), (197, 1), (21, 5), (140, 8), (174, 9), (211, 2), (114, 2), (185, 6), (49, 6), (158, 2), (96, 7), (87, 2), (8, 1), (133, 6), (89, 6), (148, 4), (193, 3), (55, 7), (243, 5), (217, 6), (120, 4), (165, 0), (69, 7), (234, 10)]
110	2	1	8	37	[(123, 0), (108, 6), (75, 5), (177, 7), (43, 3), (209, 2), (144, 8), (178, 9), (93, 6), (151, 9), (125, 0), (184, 1), (120, 1), (133, 4), (200, 5), (186, 8), (111, 0), (192, 4), (44, 6), (248, 5), (190, 9), (39, 7), (81, 0), (8, 1), (137, 8), (237, 8), (92, 9), (172, 9), (68, 0), (145, 0), (171, 9), (155, 10), (154, 10), (16, 0), (236, 7), (113, 9), (179, 7)]
111	1	1	2	36	[(242, 10), (45, 5), (245, 6), (140, 5), (64, 8), (217, 3), (227, 2), (171, 9), (134, 4), (201, 1), (135, 0), (197, 6), (122, 9), (16, 0), (63, 10), (118, 2), (14, 2), (152, 3), (5, 7), (52, 9), (96, 8), (38, 10), (228, 0), (22, 0), (3, 1), (28, 6), (178, 4), (92, 2), (93, 5), (25, 9), (214, 1), (65, 3), (76, 5), (232, 1), (237, 6), (165, 5)]
112	2	1	7	31	[(25, 4), (206, 3), (117, 3), (94, 7), (39, 7), (249, 9), (229, 2), (182, 10), (195, 4), (118, 4), (144, 7), (2, 10), (146, 1), (110, 4), (37, 2), (58, 7), (225, 5), (28, 2), (152, 1), (54, 6), (109, 10), (186, 6), (116, 2), (218, 1), (219, 5), (141, 1), (4, 10), (169, 4), (178, 9), (74, 10), (148, 5)]
113	1	1	8	36	[(46, 6), (34, 8), (173, 5), (86, 6), (183, 10), (52, 9), (109, 1), (174, 5), (220, 1), (144, 7), (32, 3), (239, 10), (134, 1), (140, 5), (188, 4), (187, 2), (20, 2), (132, 7), (249, 5), (196, 3), (236, 7), (61, 5), (166, 6), (180, 2), (26, 7), (156, 3), (221, 2), (185, 1), (19, 5), (172, 2), (223, 10), (56, 4), (146, 2), (198, 7), (143, 4), (127, 6)]
114	5	2	1	41	[(176, 8), (239, 10), (72, 0), (248, 3), (97, 0), (164, 0), (210, 6), (23, 9), (19, 1), (167, 8), (100, 6), (171, 0), (44, 0), (115, 0), (152, 7), (207, 4), (119, 2), (27, 7), (21, 3), (51, 4), (230, 5), (111, 5), (85, 5), (20, 8), (175, 4), (136, 7), (217, 6), (84, 10), (137, 5), (174, 1), (162, 0), (226, 7), (95, 5), (101, 1), (236, 6), (68, 9), (61, 6), (204, 4), (10, 3), (130, 3), (186, 3)]
115	6	1	8	43	[(247, 8), (21, 5), (231, 0), (239, 10), (49, 3), (157, 9), (72, 4), (225, 7), (177, 5), (218, 1), (81, 0), (212, 4), (193, 3), (111, 4), (12, 1), (51, 8), (95, 2), (122, 5), (228, 4), (142, 4), (215, 3), (107, 3), (159, 10), (125, 6), (84, 5), (153, 6), (221, 7), (77, 4), (17, 2), (76, 5), (194, 7), (14, 9), (11, 6), (3, 5), (23, 9), (99, 9), (80, 1), (10, 8), (188, 6), (182, 4), (85, 8), (151, 7), (82, 5)]
116	12	1	8	36	[(142, 3), (141, 1), (29, 4), (150, 4), (219, 3), (58, 1), (69, 1), (2, 8), (72, 0), (181, 0), (94, 0), (245, 1), (93, 4), (42, 1), (212, 3), (241, 10), (103, 6), (65, 7), (122, 7), (198, 0), (40, 6), (197, 3), (128, 6), (125, 10), (217, 8), (207, 2), (85, 9), (20, 2), (131, 1), (199, 6), (116, 6), (80, 4), (133, 10), (129, 2), (155, 4), (210, 5)]
117	3	4	8	30	[(208, 10), (33, 0), (233, 1), (12, 3), (212, 4), (120, 2), (195, 7), (225, 4), (207, 4), (56, 8), (51, 0), (206, 7), (82, 5), (232, 5), (43, 3), (11, 3), (203, 5), (98, 9), (190, 7), (241, 10), (99, 6), (78, 8), (127, 0), (247, 3), (163, 4), (159, 0), (38, 0), (148, 5), (238, 6), (81, 3)]
118	2	1	8	43	[(32, 3), (52, 0), (75, 0), (194, 7), (84, 2), (60, 0), (129, 1), (180, 0), (199, 1), (125, 4), (113, 3), (115, 7), (4, 6), (152, 8), (190, 9), (196, 5), (204, 3), (134, 5), (72, 8), (28, 6), (83, 4), (21, 0), (168, 6), (101, 4), (224, 10), (7, 6), (2, 6), (58, 4), (164, 4), (47, 4), (94, 7), (3, 4), (202, 6), (214, 10), (182, 1), (157, 8), (112, 6), (133, 10), (25, 10), (211, 8), (14, 2), (123, 10), (41, 7)]
119	24	1	8	28	[(37, 0), (50, 4), (126, 9), (131, 3), (97, 9), (229, 10), (110, 0), (159, 8), (81, 0), (17, 2), (212, 0), (165, 1), (147, 10), (123, 0), (245, 6), (175, 9), (36, 4), (182, 5), (84, 10), (181, 10), (21, 6), (1, 2), (207, 4), (23, 7), (7, 10), (65, 1), (149, 10), (96, 6)]
120	6	1	2	31	[(136, 2), (113, 2), (31, 9), (2, 0), (74, 4), (45, 0), (56, 5), (196, 2), (147, 7), (172, 4), (185, 2), (50, 10), (114, 6), (12, 1), (152, 7), (82, 0), (51, 3), (111, 2), (169, 7), (84, 8), (243, 1), (207, 6), (79, 5), (25, 4), (85, 8), (24, 9), (54, 5), (89, 1), (197, 7), (205, 7), (22, 4)]
121	3	1	8	40	[(36, 8), (67, 9), (209, 0), (159, 1), (22, 0), (234, 8), (192, 3), (166, 7), (6, 7), (44, 0), (239, 6), (13, 7), (177, 2), (122, 8), (232, 8), (66, 1), (145, 7), (237, 0), (190, 6), (59, 7), (18, 6), (179, 2), (51, 3), (83, 5), (23, 10), (156, 1), (79, 10), (65, 10), (54, 9), (1, 1), (230, 7), (34, 6), (250, 7), (90, 8), (125, 1), (198, 4), (27, 9), (97, 9), (91, 6), (193, 9)]
122	1	1	2	30	[(174, 1), (158, 3), (88, 6), (242, 3), (69, 3), (19, 7), (223, 4), (211, 0), (235, 4), (119, 1), (159, 3), (26, 10), (127, 5), (115, 7), (201, 5), (85, 4), (236, 9), (123, 9), (11, 10), (237, 1), (193, 0), (230, 0), (66, 10), (114, 2), (192, 4), (82, 0), (241, 7), (84, 1), (150, 0), (225, 8)]
123	2	2	8	34	[(59, 6), (227, 5), (138, 7), (140, 4), (78, 5), (235, 8), (151, 5), (249, 1), (124, 0), (13, 6), (18, 8), (219, 5), (147, 7), (24, 5), (69, 10), (28, 8), (194, 10), (218, 2), (62, 5), (250, 6), (157, 5), (45, 2), (61, 9), (141, 6), (192, 10), (104, 8), (79, 0), (63, 1), (89, 2), (129, 5), (84, 6), (237, 3), (214, 9), (83, 6)]
124	2	2	8	29	[(142, 8), (30, 3), (86, 4), (32, 8), (208, 3), (109, 2), (132, 6), (92, 10), (209, 10), (61, 2), (238, 6), (4, 7), (77, 7), (117, 5), (114, 7), (120, 9), (233, 3), (160, 2), (158, 2), (57, 0), (27, 8), (101, 5), (153, 3), (199, 9), (6, 4), (185, 8), (207, 5), (95, 4), (198, 4)]
125	1	1	8	36	[(146, 8), (79, 4), (81, 8), (83, 0), (216, 6), (107, 6), (224, 1), (223, 8), (33, 1), (186, 3), (32, 4), (140, 1), (62, 5), (12, 7), (236, 0), (176, 5), (124, 4), (151, 4), (67, 3), (158, 5), (175, 5), (137, 7), (188, 6), (95, 8), (40, 5), (119, 10), (129, 1), (215, 6), (121, 8), (14, 4), (238, 8), (159, 2), (36, 2), (30, 7), (38, 0), (167, 0)]
126	3	5	2	34	[(113, 1), (81, 8), (108, 2), (72, 10), (51, 2), (129, 9), (200, 0), (123, 1), (7, 4), (166, 5), (14, 6), (145, 5), (169, 5), (25, 3), (158, 2), (135, 1), (230, 2), (167, 5), (96, 8), (60, 8), (35, 3), (174, 8), (197, 5), (9, 0), (206, 0), (220, 2), (141, 1), (36, 5), (74, 0), (82, 7), (115, 10), (170, 0), (131, 3), (88, 0)]
127	14	1	2	51	[(57, 5), (188, 4), (220, 8), (102, 4), (43, 7), (186, 8), (196, 8), (195, 10), (120, 8), (103, 9), (27, 5), (168, 6), (227, 4), (30, 4), (91, 7), (85, 5), (119, 2), (140, 2), (182, 2), (151, 7), (101, 7), (36, 7), (65, 1), (161, 5), (187, 9), (1, 4), (52, 3), (206, 0), (28, 4), (135, 9), (173, 2), (97, 0), (6, 5), (14, 1), (149, 4), (84, 7), (51, 10), (77, 5), (98, 9), (75, 8), (198, 9), (224, 3), (23, 0), (132, 9), (118, 6), (67, 2), (55, 3), (33, 0), (61, 6), (164, 0), (208, 9)]
128	2	1	8	43	[(216, 5), (52, 3), (98, 7), (15, 8), (159, 6), (50, 6), (163, 6), (133, 6), (217, 1), (134, 5), (101, 4), (95, 2), (240, 0), (220, 7), (65, 9), (184, 3), (194, 7), (43, 10), (150, 8), (196, 4), (180, 2), (127, 4), (71, 5), (23, 9), (189, 5), (210, 5), (222, 9), (201, 5), (87, 2), (84, 3), (73, 10), (99, 4), (167, 6), (209, 9), (237, 2), (3, 10), (31, 9), (175, 10), (206, 1), (39, 4), (111, 1), (235, 6), (165, 4)]
129	1	1	8	36	[(213, 7), (249, 8), (184, 5), (105, 9), (163, 5), (161, 2), (231, 2), (115, 8), (114, 10), (126, 4), (92, 4), (42, 8), (117, 1), (220, 5), (47, 3), (250, 6), (170, 6), (110, 9), (153, 9), (152, 3), (46, 5), (19, 9), (210, 4), (134, 9), (106, 8), (23, 7), (97, 10), (82, 3), (122, 3), (201, 8), (4, 6), (80, 1), (95, 10), (73, 3), (229, 1), (142, 2)]
130	43	1	8	42	[(20, 0), (83, 9), (179, 4), (46, 10), (133, 6), (114, 2), (88, 7), (33, 9), (242, 4), (232, 10), (48, 10), (38, 3), (201, 5), (72, 8), (153, 2), (22, 0), (151, 5), (210, 6), (141, 10), (192, 4), (12, 7), (97, 8), (102, 0), (68, 10), (186, 8), (159, 1), (13, 2), (11, 6), (15, 10), (6, 1), (219, 3), (213, 0), (224, 8), (177, 3), (235, 8), (234, 0), (28, 1), (139, 5), (172, 9), (126, 5), (189, 7), (180, 6)]
131	2	1	8	39	[(67, 3), (203, 9), (21, 10), (29, 5), (194, 10), (149, 0), (98, 10), (182, 1), (70, 1), (189, 1), (198, 10), (126, 0), (216, 7), (132, 4), (192, 2), (17, 2), (116, 0), (42, 9), (138, 4), (115, 9), (44, 6), (71, 1), (157, 1), (51, 8), (58, 10), (151, 10), (25, 4), (131, 9), (101, 7), (139, 1), (241, 4), (100, 8), (106, 7), (235, 0), (238, 1), (38, 5), (210, 4), (68, 5), (128, 2)]
132	5	1	7	42	[(67, 1), (175, 6), (97, 5), (212, 10), (72, 8), (132, 5), (10, 6), (204, 9), (75, 10), (33, 4), (25, 1), (170, 7), (62, 3), (198, 0), (81, 2), (56, 3), (209, 6), (102, 7), (21, 2), (31, 1), (85, 4), (196, 10), (236, 2), (18, 6), (6, 8), (153, 9), (160, 6), (99, 4), (127, 7), (165, 3), (155, 10), (176, 6), (192, 3), (162, 3), (225, 1), (135, 2), (129, 10), (71, 8), (146, 0), (130, 10), (91, 6), (144, 0)]
133	2	1	3	39	[(186, 2), (131, 2), (20, 8), (201, 0), (61, 1), (38, 6), (164, 8), (191, 8), (117, 9), (238, 9), (144, 7), (98, 9), (140, 5), (196, 10), (90, 1), (55, 7), (43, 9), (70, 6), (210, 5), (158, 10), (226, 3), (232, 9), (25, 5), (204, 1), (30, 2), (8, 5), (153, 3), (152, 7), (178, 3), (44, 0), (6, 4), (96, 0), (231, 0), (171, 5), (114, 2), (190, 0), (35, 3), (69, 8), (246, 6)]
134	47	6	8	37	[(24, 10), (67, 0), (234, 10), (169, 3), (126, 9), (20, 10), (162, 2), (136, 7), (159, 5), (171, 6), (242, 7), (143, 1), (1, 8), (231, 1), (235, 8), (201, 8), (52, 10), (152, 7), (212, 9), (79, 4), (240, 7), (207, 10), (187, 0), (203, 5), (221, 3), (47, 2), (194, 3), (145, 3), (36, 6), (129, 2), (189, 1), (78, 6), (102, 5), (184, 6), (146, 0), (124, 6), (245, 2)]
135	5	5	8	25	[(215, 10), (221, 1), (165, 7), (166, 4), (210, 7), (99, 4), (36, 8), (46, 0), (83, 4), (236, 6), (162, 3), (41, 4), (11, 5), (102, 4), (134, 9), (67, 4), (176, 7), (154, 3), (76, 5), (158, 10), (155, 0), (79, 7), (2, 6), (188, 9), (242, 2)]
136	3	1	3	33	[(127, 0), (21, 0), (222, 3), (59, 10), (180, 4), (108, 3), (177, 1), (50, 3), (206, 3), (101, 0), (69, 9), (118, 9), (159, 10), (88, 10), (205, 2), (81, 1), (233, 6), (163, 4), (74, 2), (187, 0), (104, 6), (200, 6), (217, 5), (80, 2), (186, 7), (198, 7), (45, 7), (12, 8), (178, 7), (223, 1), (37, 7), (76, 5), (17, 9)]
137	2	1	8	41	[(240, 3), (241, 10), (138, 1), (165, 4), (66, 5), (112, 9), (206, 10), (110, 8), (189, 7), (42, 5), (196, 6), (211, 7), (32, 2), (182, 1), (184, 9), (15, 10), (68, 7), (225, 3), (3, 10), (208, 9), (135, 7), (227, 9), (105, 7), (33, 0), (173, 3), (172, 2), (5, 8), (232, 3), (89, 10), (74, 9), (219, 3), (215, 2), (187, 6), (164, 10), (23, 3), (128, 10), (8, 10), (98, 0), (46, 5), (96, 10), (205, 1)]
138	4	1	8	44	[(183, 9), (186, 8), (104, 9), (52, 7), (71, 9), (201, 9), (35, 6), (224, 2), (206, 7), (196, 2), (169, 3), (124, 0), (30, 3), (154, 7), (131, 7), (88, 5), (194, 3), (190, 3), (78, 9), (63, 7), (207, 2), (158, 9), (32, 4), (105, 1), (64, 7), (237, 0), (211, 3), (246, 8), (245, 9), (37, 1), (18, 3), (182, 1), (213, 10), (49, 4), (155, 10), (205, 7), (1, 3), (235, 1), (150, 6), (26, 0), (28, 3), (67, 2), (134, 6), (102, 0)]
139	2	36	8	28	[(35, 9), (122, 1), (147, 0), (99, 9), (216, 6), (229, 10), (249, 7), (91, 4), (78, 9), (26, 8), (17, 2), (65, 8), (213, 1), (127, 5), (74, 4), (161, 2), (130, 3), (238, 5), (243, 6), (125, 6), (195, 7), (247, 0), (28, 4), (14, 9), (204, 3), (1, 1), (189, 2), (221, 2)]
140	1	3	8	33	[(44, 3), (63, 6), (130, 8), (103, 0), (166, 9), (49, 1), (65, 6), (222, 2), (238, 9), (19, 10), (250, 3), (148, 7), (195, 8), (237, 2), (39, 8), (45, 2), (215, 8), (234, 2), (241, 5), (128, 10), (64, 0), (156, 6), (46, 3), (104, 8), (54, 10), (223, 0), (72, 4), (8, 6), (129, 10), (126, 8), (73, 8), (85, 7), (140, 1)]
141	4	1	13	29	[(186, 3), (129, 9), (180, 2), (205, 2), (228, 6), (87, 0), (102, 9), (17, 2), (65, 1), (24, 10), (197, 7), (235, 6), (57, 4), (209, 5), (120, 9), (30, 9), (45, 1), (112, 4), (208, 2), (103, 5), (198, 0), (95, 5), (84, 4), (18, 0), (150, 3), (176, 1), (217, 7), (193, 10), (8, 2)]
142	1	8	8	20	[(205, 4), (29, 2), (8, 3), (198, 1), (129, 9), (28, 3), (114, 9), (118, 7), (111, 4), (248, 1), (143, 9), (101, 6), (176, 8), (191, 3), (153, 2), (82, 4), (22, 7), (188, 4), (175, 10), (164, 3)]
143	3	1	8	30	[(237, 10), (115, 6), (100, 5), (118, 7), (62, 8), (84, 9), (226, 8), (74, 9), (98, 0), (96, 6), (123, 5), (50, 9), (22, 5), (213, 10), (234, 6), (17, 5), (217, 1), (152, 1), (225, 6), (47, 3), (49, 0), (18, 2), (208, 7), (78, 5), (79, 4), (162, 0), (15, 10), (235, 5), (191, 7), (147, 7)]
144	2	1	8	29	[(184, 1), (191, 1), (228, 0), (193, 3), (53, 10), (209, 9), (108, 3), (247, 8), (84, 5), (89, 8), (185, 10), (225, 3), (78, 10), (192, 9), (161, 3), (194, 7), (3, 5), (179, 5), (166, 7), (233, 8), (72, 7), (34, 0), (27, 1), (198, 2), (236, 3), (237, 3), (190, 1), (227, 5), (15, 4)]
145	2	1	8	31	[(32, 10), (205, 4), (37, 4), (137, 5), (143, 9), (154, 2), (9, 4), (3, 6), (180, 10), (199, 6), (22, 8), (101, 4), (188, 7), (145, 3), (193, 8), (247, 1), (173, 6), (116, 0), (156, 9), (89, 0), (41, 0), (8, 6), (245, 1), (44, 5), (40, 6), (35, 1), (70, 1), (195, 6), (34, 4), (226, 7), (176, 4)]
146	2	1	2	35	[(137, 5), (34, 4), (25, 7), (62, 0), (240, 3), (239, 6), (108, 9), (32, 5), (7, 7), (215, 8), (233, 2), (191, 0), (192, 10), (77, 4), (155, 3), (161, 0), (5, 1), (53, 6), (149, 3), (122, 1), (23, 7), (176, 0), (1, 7), (76, 2), (202, 5), (81, 6), (148, 6), (189, 3), (224, 2), (16, 7), (61, 2), (116, 7), (83, 3), (49, 0), (135, 9)]
147	2	1	8	35	[(188, 7), (195, 8), (116, 5), (51, 8), (50, 5), (14, 2), (189, 1), (142, 7), (163, 9), (122, 4), (61, 1), (38, 5), (64, 5), (205, 5), (167, 10), (86, 3), (56, 0), (182, 10), (87, 10), (32, 8), (39, 8), (127, 8), (43, 8), (114, 6), (227, 10), (162, 9), (146, 2), (20, 1), (203, 2), (209, 2), (145, 8), (232, 5), (104, 8), (237, 10), (124, 3)]
148	4	4	8	31	[(114, 8), (65, 6), (200, 8), (66, 1), (186, 5), (141, 4), (231, 5), (206, 5), (205, 9), (58, 6), (218, 3), (166, 7), (115, 5), (196, 2), (16, 2), (22, 10), (249, 0), (204, 4), (40, 9), (88, 7), (1, 9), (150, 5), (172, 3), (83, 5), (98, 2), (71, 9), (105, 1), (238, 10), (215, 7), (42, 2), (56, 0)]
149	1	1	1	38	[(129, 7), (246, 4), (7, 10), (208, 7), (165, 10), (217, 6), (220, 1), (52, 8), (176, 0), (134, 5), (2, 5), (35, 9), (122, 10), (46, 8), (33, 10), (174, 5), (136, 8), (250, 5), (221, 2), (242, 6), (15, 4), (45, 3), (47, 1), (5, 9), (241, 4), (157, 2), (125, 2), (214, 5), (173, 6), (12, 3), (60, 5), (30, 7), (197, 5), (131, 4), (200, 7), (240, 9), (142, 8), (43, 5)]
150	2	1	8	27	[(28, 6), (108, 5), (160, 9), (1, 9), (109, 8), (71, 6), (212, 5), (65, 3), (197, 7), (232, 5), (171, 9), (236, 2), (97, 6), (35, 7), (181, 4), (168, 0), (131, 3), (207, 5), (8, 0), (176, 10), (114, 10), (156, 3), (24, 1), (26, 10), (43, 10), (161, 4), (111, 9)]
151	1	4	8	33	[(61, 0), (243, 6), (20, 3), (202, 9), (161, 7), (114, 4), (155, 10), (160, 0), (143, 3), (5, 3), (212, 1), (162, 9), (86, 4), (182, 7), (194, 6), (131, 0), (223, 8), (204, 1), (245, 7), (126, 4), (97, 9), (47, 6), (83, 7), (22, 3), (43, 0), (17, 5), (60, 0), (152, 4), (23, 3), (129, 3), (176, 8), (237, 7), (189, 1)]
152	19	1	8	38	[(61, 3), (106, 8), (62, 1), (203, 10), (59, 1), (144, 3), (214, 6), (224, 10), (54, 4), (67, 3), (172, 6), (239, 0), (129, 3), (92, 9), (145, 9), (10, 4), (173, 6), (143, 3), (170, 1), (96, 6), (119, 4), (229, 10), (34, 0), (150, 4), (75, 6), (7, 1), (146, 8), (192, 1), (104, 5), (35, 3), (198, 10), (241, 2), (154, 10), (195, 7), (94, 1), (40, 5), (206, 3), (208, 6)]
153	37	2	7	29	[(131, 1), (129, 10), (247, 10), (97, 2), (216, 1), (93, 4), (17, 2), (123, 4), (180, 3), (21, 3), (67, 9), (226, 5), (34, 6), (192, 7), (6, 3), (109, 0), (186, 2), (127, 5), (140, 4), (8, 3), (181, 5), (184, 0), (33, 0), (147, 0), (64, 9), (23, 1), (86, 7), (139, 4), (178, 3)]
154	1	1	2	26	[(217, 2), (5, 3), (41, 2), (52, 5), (166, 8), (100, 4), (11, 6), (42, 4), (86, 7), (107, 7), (245, 5), (232, 4), (81, 9), (221, 3), (216, 9), (191, 8), (37, 4), (2, 5), (114, 3), (71, 0), (64, 6), (56, 1), (188, 9), (250, 4), (230, 0), (33, 0)]
155	7	1	8	44	[(109, 10), (64, 0), (53, 6), (178, 7), (58, 7), (158, 1), (37, 5), (141, 5), (135, 0), (66, 1), (246, 7), (165, 10), (134, 7), (177, 6), (179, 5), (180, 0), (49, 4), (39, 1), (107, 4), (136, 1), (242, 0), (25, 6), (33, 0), (87, 4), (166, 0), (34, 7), (23, 6), (127, 5), (30, 7), (1, 5), (68, 9), (160, 1), (2, 2), (201, 7), (54, 3), (110, 10), (202, 2), (187, 7), (90, 6), (112, 7), (111, 6), (63, 1), (197, 10), (215, 6)]
156	9	4	2	37	[(53, 5), (192, 3), (169, 5), (206, 1), (212, 3), (188, 0), (75, 1), (137, 0), (178, 6), (48, 9), (237, 0), (162, 3), (198, 9), (43, 10), (226, 8), (44, 3), (250, 5), (176, 3), (235, 9), (236, 8), (113, 1), (118, 2), (216, 10), (1, 1), (92, 6), (131, 1), (30, 6), (196, 0), (9, 4), (35, 5), (219, 7), (73, 9), (181, 4), (46, 1), (15, 1), (150, 7), (50, 6)]
157	2	1	8	34	[(101, 7), (69, 7), (107, 0), (158, 6), (39, 8), (10, 9), (123, 9), (173, 0), (29, 8), (164, 10), (190, 0), (94, 0), (203, 10), (194, 2), (223, 2), (130, 10), (172, 8), (204, 4), (150, 0), (90, 5), (153, 8), (64, 3), (2, 10), (243, 0), (134, 7), (35, 4), (136, 10), (49, 8), (206, 8), (12, 9), (15, 6), (152, 1), (86, 6), (26, 5)]
158	4	1	8	45	[(140, 1), (220, 2), (147, 0), (150, 9), (16, 8), (243, 3), (137, 5), (111, 3), (58, 9), (129, 10), (23, 1), (213, 6), (189, 1), (115, 2), (89, 4), (92, 9), (26, 1), (12, 10), (1, 0), (143, 6), (153, 9), (232, 1), (123, 6), (160, 9), (20, 2), (31, 0), (93, 2), (54, 5), (174, 6), (44, 7), (219, 3), (10, 10), (158, 9), (183, 4), (248, 1), (169, 10), (188, 0), (141, 3), (229, 0), (209, 10), (165, 10), (13, 7), (233, 2), (222, 1), (221, 8)]
159	2	1	8	33	[(47, 4), (49, 6), (136, 9), (158, 4), (24, 10), (8, 8), (2, 4), (239, 2), (220, 5), (248, 8), (37, 6), (54, 6), (141, 4), (95, 7), (20, 2), (29, 8), (210, 8), (167, 9), (15, 5), (192, 3), (228, 3), (144, 0), (145, 10), (232, 6), (214, 8), (204, 9), (62, 8), (72, 5), (164, 1), (31, 9), (247, 0), (38, 3), (90, 1)]
160	2	2	7	38	[(171, 0), (208, 5), (247, 4), (115, 10), (151, 1), (230, 6), (98, 6), (149, 0), (91, 8), (145, 1), (180, 10), (249, 0), (81, 9), (46, 4), (161, 5), (227, 3), (52, 1), (111, 0), (48, 1), (94, 3), (192, 8), (47, 0), (229, 6), (125, 6), (183, 1), (219, 9), (23, 6), (181, 5), (74, 8), (55, 7), (1, 0), (231, 2), (78, 3), (133, 0), (220, 9), (73, 4), (173, 8), (185, 3)]
161	54	1	2	36	[(90, 0), (169, 4), (243, 3), (179, 6), (206, 3), (201, 2), (63, 4), (166, 5), (128, 4), (117, 8), (75, 9), (145, 0), (247, 4), (64, 6), (153, 3), (4, 0), (86, 4), (36, 4), (235, 0), (43, 1), (6, 1), (131, 8), (59, 10), (7, 6), (242, 10), (185, 1), (186, 9), (46, 3), (88, 7), (5, 1), (92, 10), (249, 4), (1, 2), (177, 9), (3, 8), (40, 10)]
162	1	4	8	39	[(139, 8), (184, 7), (8, 10), (147, 7), (5, 10), (214, 9), (228, 5), (234, 2), (35, 3), (116, 10), (249, 1), (217, 7), (222, 5), (16, 3), (21, 2), (244, 2), (225, 1), (138, 0), (72, 5), (48, 9), (206, 3), (177, 0), (46, 9), (224, 4), (69, 2), (13, 8), (120, 5), (153, 9), (186, 8), (51, 1), (110, 2), (223, 0), (137, 9), (197, 10), (106, 9), (187, 7), (230, 8), (25, 3), (141, 4)]
163	4	2	8	34	[(112, 4), (233, 7), (250, 4), (55, 10), (43, 4), (235, 7), (245, 8), (93, 0), (201, 4), (181, 5), (240, 0), (99, 10), (144, 5), (38, 6), (108, 0), (152, 2), (19, 2), (117, 5), (243, 2), (64, 6), (191, 4), (237, 3), (178, 2), (58, 10), (157, 5), (172, 1), (21, 7), (215, 8), (204, 6), (141, 0), (45, 1), (28, 4), (15, 4), (60, 7)]
164	17	1	7	34	[(250, 1), (171, 0), (176, 8), (198, 6), (226, 3), (33, 6), (136, 9), (239, 10), (186, 3), (243, 9), (86, 2), (177, 0), (24, 10), (121, 4), (234, 1), (72, 10), (8, 5), (126, 5), (27, 8), (35, 4), (15, 7), (163, 8), (188, 8), (192, 6), (178, 6), (158, 8), (237, 6), (203, 5), (215, 0), (4, 3), (229, 2), (23, 4), (142, 7), (219, 1)]
165	15	1	8	24	[(62, 9), (149, 8), (2, 5), (125, 1), (196, 6), (64, 0), (210, 3), (110, 10), (80, 10), (190, 5), (18, 9), (222, 8), (150, 7), (156, 3), (56, 5), (239, 8), (195, 0), (70, 10), (246, 8), (68, 8), (220, 4), (226, 0), (200, 8), (131, 3)]
166	2	2	8	39	[(191, 8), (31, 5), (67, 9), (232, 10), (149, 7), (139, 7), (123, 3), (74, 2), (134, 1), (216, 8), (169, 0), (124, 0), (72, 0), (145, 9), (19, 2), (81, 6), (205, 1), (120, 8), (164, 9), (88, 4), (168, 5), (147, 2), (200, 7), (98, 0), (218, 6), (47, 7), (199, 8), (73, 2), (126, 9), (152, 10), (102, 4), (228, 4), (27, 7), (210, 0), (129, 2), (109, 7), (121, 8), (58, 8), (11, 8)]
167	2	6	8	38	[(170, 6), (213, 5), (212, 8), (238, 4), (153, 8), (71, 0), (158, 5), (147, 6), (50, 4), (235, 10), (138, 5), (120, 5), (12, 10), (34, 5), (17, 9), (133, 3), (234, 0), (200, 2), (110, 2), (59, 10), (219, 5), (23, 4), (101, 8), (90, 3), (186, 9), (191, 0), (116, 9), (174, 0), (188, 0), (49, 8), (70, 7), (172, 6), (146, 3), (137, 6), (160, 10), (78, 1), (113, 10), (38, 5)]
168	2	1	8	36	[(247, 0), (83, 2), (31, 3), (188, 2), (145, 5), (154, 10), (41, 0), (116, 9), (174, 7), (47, 8), (23, 2), (184, 0), (120, 2), (233, 0), (62, 0), (93, 7), (241, 1), (228, 0), (119, 4), (6, 1), (40, 0), (242, 6), (79, 10), (203, 0), (178, 6), (10, 10), (25, 9), (226, 5), (212, 10), (89, 8), (193, 6), (166, 4), (210, 4), (11, 5), (26, 0), (191, 5)]
169	4	4	2	33	[(195, 6), (2, 5), (225, 2), (247, 8), (86, 8), (4, 7), (143, 0), (171, 0), (217, 5), (132, 9), (101, 6), (72, 4), (31, 9), (18, 10), (243, 8), (236, 3), (199, 5), (191, 7), (114, 6), (95, 9), (218, 0), (142, 8), (22, 9), (234, 1), (24, 7), (75, 7), (150, 7), (5, 7), (232, 5), (94, 10), (175, 5), (26, 2), (244, 9)]
170	2	2	8	36	[(182, 3), (85, 3), (113, 1), (175, 8), (51, 9), (44, 0), (110, 0), (134, 0), (74, 8), (77, 3), (138, 10), (14, 4), (246, 5), (240, 6), (208, 1), (184, 9), (32, 7), (124, 5), (114, 4), (227, 8), (73, 5), (234, 1), (205, 2), (37, 1), (244, 6), (167, 5), (239, 9), (12, 6), (88, 6), (40, 6), (41, 4), (4, 2), (115, 3), (189, 1), (107, 6), (70, 4)]
171	2	1	8	29	[(76, 6), (11, 8), (18, 4), (173, 5), (42, 8), (29, 9), (238, 8), (94, 1), (212, 10), (90, 9), (240, 3), (62, 10), (146, 4), (194, 6), (67, 1), (163, 1), (147, 7), (226, 2), (205, 1), (193, 0), (123, 0), (30, 1), (227, 3), (249, 10), (36, 2), (25, 9), (35, 0), (84, 1), (133, 2)]
172	1	12	8	48	[(8, 3), (6, 4), (150, 3), (223, 2), (185, 7), (155, 0), (10, 9), (60, 6), (37, 0), (124, 8), (102, 4), (216, 7), (39, 7), (145, 1), (206, 5), (44, 6), (54, 4), (35, 5), (36, 1), (220, 3), (49, 2), (215, 10), (103, 9), (169, 6), (186, 2), (225, 5), (231, 7), (115, 4), (136, 2), (7, 6), (108, 8), (183, 10), (106, 1), (98, 2), (96, 10), (133, 9), (80, 8), (72, 8), (21, 5), (160, 10), (52, 7), (46, 6), (105, 8), (81, 1), (198, 5), (158, 7), (212, 9), (153, 2)]
173	49	23	8	35	[(230, 8), (60, 2), (75, 6), (227, 9), (30, 3), (52, 2), (74, 8), (21, 5), (124, 3), (216, 9), (121, 2), (64, 6), (194, 5), (26, 8), (43, 10), (79, 6), (188, 3), (62, 2), (144, 1), (36, 8), (149, 4), (3, 0), (86, 0), (156, 1), (107, 9), (167, 9), (208, 0), (203, 9), (165, 10), (119, 6), (35, 1), (41, 3), (177, 9), (14, 5), (103, 6)]
174	28	2	8	33	[(160, 1), (172, 4), (9, 8), (103, 8), (217, 10), (151, 0), (165, 2), (7, 3), (194, 2), (199, 9), (224, 7), (42, 5), (249, 6), (133, 3), (123, 7), (72, 4), (193, 5), (233, 8), (148, 2), (200, 1), (169, 0), (70, 1), (176, 5), (12, 8), (248, 2), (147, 7), (143, 10), (69, 8), (60, 1), (71, 9), (47, 10), (128, 2), (124, 5)]
175	1	1	8	34	[(198, 5), (191, 4), (43, 8), (123, 7), (78, 1), (104, 4), (236, 2), (209, 7), (97, 8), (171, 5), (224, 0), (58, 5), (151, 5), (36, 9), (143, 10), (111, 3), (69, 2), (246, 8), (142, 8), (88, 5), (182, 2), (166, 5), (226, 8), (11, 6), (153, 6), (237, 3), (37, 3), (197, 8), (20, 1), (57, 4), (127, 10), (243, 8), (47, 0), (137, 3)]
176	1	1	8	35	[(75, 9), (101, 2), (196, 2), (157, 4), (81, 0), (90, 7), (127, 3), (145, 2), (175, 1), (15, 3), (184, 6), (79, 1), (20, 7), (73, 3), (41, 7), (95, 7), (74, 5), (167, 2), (135, 3), (201, 6), (225, 2), (150, 10), (67, 7), (46, 10), (70, 4), (146, 0), (88, 2), (147, 3), (236, 2), (152, 4), (178, 7), (76, 0), (96, 2), (17, 2), (170, 10)]
177	2	4	8	36	[(157, 8), (169, 1), (131, 8), (199, 1), (122, 3), (48, 9), (184, 6), (107, 7), (209, 1), (50, 1), (30, 7), (18, 1), (144, 1), (22, 10), (66, 10), (13, 0), (90, 4), (4, 5), (246, 5), (24, 7), (206, 8), (36, 10), (185, 0), (193, 4), (134, 2), (125, 1), (152, 2), (104, 0), (127, 6), (103, 0), (204, 8), (235, 8), (69, 7), (93, 9), (237, 8), (244, 3)]
178	11	12	8	34	[(131, 1), (78, 9), (164, 10), (113, 5), (77, 7), (141, 9), (107, 10), (169, 0), (147, 9), (185, 0), (245, 1), (102, 2), (165, 7), (61, 1), (224, 5), (230, 7), (27, 10), (132, 7), (152, 0), (3, 2), (213, 2), (116, 3), (235, 6), (212, 0), (64, 0), (143, 8), (193, 9), (106, 6), (38, 5), (215, 8), (126, 4), (98, 10), (129, 7), (110, 8)]
179	5	3	3	45	[(206, 1), (89, 7), (97, 0), (8, 5), (54, 0), (223, 2), (93, 1), (210, 3), (129, 1), (240, 3), (161, 1), (241, 4), (167, 2), (171, 6), (169, 9), (30, 2), (79, 1), (144, 8), (10, 6), (233, 6), (181, 8), (16, 9), (159, 10), (158, 4), (178, 5), (211, 2), (85, 0), (236, 7), (198, 6), (34, 6), (114, 0), (148, 8), (4, 3), (128, 4), (134, 2), (208, 7), (150, 2), (143, 4), (165, 0), (46, 1), (5, 1), (60, 6), (155, 5), (152, 4), (142, 10)]
180	3	1	2	41	[(33, 7), (16, 10), (47, 9), (137, 6), (28, 4), (18, 8), (225, 3), (61, 4), (77, 4), (27, 6), (156, 1), (114, 6), (119, 3), (135, 8), (232, 0), (128, 4), (243, 6), (169, 9), (133, 1), (247, 5), (75, 5), (230, 9), (170, 8), (201, 9), (14, 1), (179, 3), (123, 7), (228, 2), (111, 2), (63, 10), (29, 4), (160, 3), (109, 7), (249, 1), (215, 8), (223, 3), (183, 4), (88, 0), (140, 10), (154, 8), (250, 6)]
181	2	1	8	41	[(215, 4), (226, 2), (143, 4), (9, 0), (52, 7), (204, 4), (8, 7), (2, 9), (28, 3), (229, 5), (11, 9), (64, 3), (149, 4), (183, 1), (126, 0), (98, 10), (196, 4), (95, 7), (67, 7), (68, 6), (80, 7), (117, 10), (105, 2), (212, 10), (109, 10), (245, 8), (132, 5), (141, 10), (159, 0), (123, 1), (167, 6), (154, 8), (49, 7), (160, 2), (21, 3), (23, 2), (219, 1), (155, 6), (51, 10), (161, 4), (209, 10)]
182	1	2	8	39	[(40, 3), (95, 9), (33, 8), (137, 1), (232, 5), (213, 2), (247, 4), (122, 10), (209, 5), (75, 6), (44, 1), (201, 5), (177, 8), (128, 2), (78, 4), (59, 7), (16, 7), (223, 8), (168, 4), (214, 3), (110, 4), (49, 10), (114, 1), (13, 4), (68, 1), (88, 4), (98, 1), (144, 6), (187, 4), (46, 10), (14, 7), (11, 6), (203, 8), (148, 6), (237, 7), (58, 10), (104, 10), (127, 8), (103, 1)]
183	2	4	16	30	[(144, 10), (28, 4), (116, 0), (201, 7), (66, 6), (178, 2), (69, 8), (166, 7), (46, 9), (225, 6), (171, 6), (215, 4), (154, 4), (240, 4), (223, 4), (126, 0), (195, 4), (27, 1), (236, 8), (79, 4), (241, 1), (105, 2), (140, 1), (170, 7), (68, 6), (221, 7), (19, 9), (76, 5), (57, 0), (12, 3)]
184	1	1	8	26	[(170, 8), (187, 2), (196, 10), (185, 0), (212, 0), (116, 5), (173, 0), (164, 8), (227, 6), (184, 2), (109, 7), (229, 5), (220, 10), (248, 3), (35, 9), (7, 4), (206, 4), (30, 5), (113, 10), (168, 3), (156, 4), (245, 1), (242, 0), (65, 6), (9, 3), (244, 3)]
185	2	1	8	32	[(126, 0), (136, 0), (85, 4), (113, 6), (39, 5), (23, 7), (68, 9), (28, 3), (9, 1), (178, 8), (141, 0), (60, 3), (228, 4), (99, 9), (233, 8), (201, 2), (59, 0), (239, 4), (238, 8), (86, 9), (180, 8), (5, 5), (58, 3), (164, 9), (82, 8), (96, 10), (143, 0), (89, 3), (13, 9), (234, 10), (56, 3), (177, 10)]
186	1	1	8	46	[(239, 5), (230, 4), (133, 9), (155, 3), (243, 1), (173, 0), (185, 9), (188, 1), (170, 9), (145, 10), (91, 1), (103, 6), (207, 1), (177, 6), (163, 10), (104, 9), (237, 7), (186, 10), (60, 0), (247, 5), (236, 6), (33, 2), (100, 10), (98, 1), (135, 10), (168, 1), (105, 9), (15, 9), (223, 5), (137, 2), (123, 2), (92, 2), (180, 0), (85, 7), (26, 3), (158, 3), (67, 6), (70, 9), (108, 7), (45, 1), (37, 2), (151, 8), (68, 7), (238, 0), (87, 2), (150, 3)]
187	5	1	8	39	[(55, 5), (98, 6), (214, 6), (47, 4), (148, 3), (38, 7), (127, 0), (93, 1), (123, 9), (198, 0), (249, 3), (100, 7), (84, 10), (155, 4), (199, 8), (223, 9), (160, 5), (141, 4), (15, 1), (9, 1), (140, 4), (248, 3), (106, 10), (17, 9), (212, 9), (216, 1), (35, 1), (110, 9), (101, 6), (235, 8), (128, 9), (156, 3), (157, 0), (178, 5), (147, 7), (49, 10), (37, 0), (34, 5), (8, 7)]
188	3	1	8	36	[(117, 6), (158, 4), (72, 2), (44, 2), (51, 9), (154, 2), (120, 8), (190, 9), (116, 8), (17, 7), (37, 3), (15, 4), (69, 6), (98, 5), (162, 7), (96, 6), (170, 2), (130, 2), (13, 7), (95, 10), (145, 7), (113, 8), (105, 9), (92, 2), (165, 9), (132, 10), (187, 7), (49, 9), (70, 2), (101, 1), (16, 9), (172, 10), (136, 3), (166, 9), (177, 7), (122, 1)]
189	4	2	8	30	[(116, 1), (39, 7), (20, 8), (186, 1), (100, 4), (114, 1), (184, 1), (24, 9), (112, 6), (192, 5), (113, 8), (75, 9), (144, 1), (226, 1), (42, 5), (147, 3), (133, 1), (219, 9), (11, 5), (168, 9), (206, 9), (165, 0), (160, 3), (46, 8), (47, 0), (155, 9), (232, 6), (84, 6), (97, 7), (65, 7)]
190	23	4	8	36	[(188, 10), (189, 3), (22, 1), (184, 2), (105, 2), (106, 1), (85, 10), (167, 0), (248, 9), (170, 5), (112, 3), (36, 0), (229, 7), (136, 1), (198, 6), (176, 0), (222, 9), (117, 4), (126, 0), (46, 9), (155, 5), (66, 8), (86, 10), (115, 10), (43, 4), (181, 3), (130, 9), (14, 10), (247, 8), (44, 7), (110, 8), (191, 7), (225, 10), (59, 9), (192, 9), (5, 9)]
191	24	1	8	44	[(210, 1), (9, 1), (103, 3), (52, 5), (40, 1), (5, 9), (72, 3), (185, 9), (38, 9), (45, 2), (221, 5), (65, 1), (104, 7), (249, 1), (211, 6), (182, 4), (13, 3), (194, 10), (23, 9), (122, 1), (27, 1), (85, 2), (106, 9), (12, 7), (22, 8), (118, 10), (47, 10), (233, 4), (140, 8), (184, 9), (170, 0), (190, 8), (132, 10), (150, 8), (96, 1), (4, 0), (123, 8), (224, 7), (15, 5), (173, 6), (19, 0), (223, 5), (31, 7), (155, 5)]
192	17	1	2	31	[(242, 7), (177, 0), (202, 8), (25, 2), (104, 9), (94, 10), (5, 2), (164, 7), (55, 6), (68, 6), (230, 6), (97, 9), (157, 7), (218, 0), (71, 1), (184, 4), (132, 2), (93, 5), (110, 6), (226, 1), (73, 9), (204, 9), (85, 6), (215, 4), (92, 9), (9, 3), (154, 5), (127, 6), (243, 6), (42, 3), (137, 10)]
193	3	1	8	38	[(110, 6), (211, 7), (247, 5), (140, 5), (176, 5), (158, 6), (75, 7), (65, 1), (86, 0), (108, 7), (199, 0), (34, 7), (141, 4), (214, 9), (46, 6), (39, 8), (96, 5), (122, 6), (209, 0), (8, 9), (92, 4), (11, 3), (55, 4), (83, 3), (4, 2), (183, 1), (130, 8), (27, 8), (74, 6), (200, 3), (152, 6), (143, 6), (208, 6), (133, 10), (236, 8), (149, 8), (73, 10), (31, 6)]
194	1	1	8	30	[(248, 1), (85, 8), (218, 3), (91, 10), (27, 3), (49, 9), (162, 5), (127, 1), (31, 10), (71, 0), (122, 4), (173, 8), (206, 0), (132, 7), (241, 8), (16, 5), (219, 4), (174, 2), (104, 1), (74, 2), (6, 3), (197, 2), (146, 1), (121, 8), (243, 2), (244, 8), (181, 7), (1, 2), (52, 7), (233, 7)]
195	9	4	8	33	[(130, 10), (24, 0), (163, 10), (219, 4), (79, 7), (51, 7), (74, 7), (231, 7), (156, 1), (197, 3), (220, 3), (215, 1), (13, 7), (228, 5), (185, 3), (55, 8), (5, 8), (36, 7), (110, 3), (46, 4), (172, 5), (83, 4), (54, 2), (99, 4), (203, 9), (103, 7), (129, 3), (29, 4), (223, 2), (242, 9), (238, 1), (27, 8), (76, 9)]
196	5	1	8	37	[(178, 4), (183, 5), (221, 9), (82, 5), (86, 9), (97, 7), (77, 10), (98, 7), (193, 7), (67, 10), (181, 8), (116, 4), (15, 2), (131, 5), (157, 9), (14, 2), (172, 7), (232, 0), (140, 9), (125, 8), (37, 0), (58, 0), (220, 8), (110, 0), (135, 9), (235, 8), (126, 4), (102, 3), (170, 9), (46, 7), (165, 10), (53, 1), (138, 1), (208, 2), (7, 6), (143, 7), (234, 8)]
197	4	1	8	36	[(128, 2), (42, 2), (195, 7), (181, 5), (19, 0), (65, 10), (250, 6), (74, 7), (122, 3), (161, 1), (39, 7), (28, 10), (40, 0), (82, 5), (20, 1), (198, 7), (158, 10), (149, 6), (26, 0), (177, 8), (13, 5), (85, 10), (163, 3), (36, 5), (167, 8), (164, 10), (46, 7), (24, 8), (41, 4), (126, 2), (175, 10), (121, 4), (95, 9), (192, 10), (135, 9), (83, 6)]
198	6	1	8	32	[(52, 0), (44, 4), (101, 2), (211, 7), (30, 4), (224, 4), (63, 10), (70, 9), (166, 1), (27, 1), (10, 8), (79, 4), (39, 9), (231, 4), (82, 7), (62, 4), (236, 9), (244, 2), (12, 4), (143, 3), (238, 0), (145, 3), (187, 2), (67, 4), (172, 4), (192, 10), (14, 0), (26, 8), (25, 6), (7, 10), (6, 2), (121, 0)]
199	1	1	8	38	[(24, 9), (92, 3), (147, 6), (228, 9), (35, 1), (119, 1), (63, 9), (227, 8), (94, 8), (248, 8), (136, 9), (8, 4), (230, 7), (128, 2), (173, 7), (1, 0), (175, 5), (17, 6), (20, 6), (207, 7), (152, 0), (103, 9), (104, 4), (76, 2), (232, 0), (87, 4), (229, 3), (40, 8), (195, 9), (78, 4), (47, 5), (68, 7), (138, 5), (183, 2), (29, 2), (3, 9), (117, 3), (91, 5)]
200	2	1	8	50	[(203, 1), (130, 9), (9, 4), (113, 5), (246, 0), (120, 5), (81, 5), (19, 10), (98, 5), (53, 7), (126, 10), (79, 0), (64, 5), (161, 7), (25, 1), (117, 4), (99, 10), (151, 0), (37, 6), (240, 2), (55, 9), (224, 5), (226, 9), (132, 8), (200, 2), (16, 9), (193, 10), (182, 1), (158, 7), (108, 10), (245, 2), (85, 5), (24, 8), (187, 7), (75, 2), (29, 1), (175, 1), (209, 5), (239, 2), (221, 6), (115, 8), (90, 0), (195, 0), (241, 5), (128, 2), (6, 3), (162, 5), (172, 4), (97, 6), (91, 2)]
201	2	1	8	48	[(80, 1), (134, 7), (27, 6), (31, 3), (217, 6), (128, 7), (172, 0), (8, 2), (202, 6), (139, 1), (175, 1), (181, 6), (235, 2), (223, 1), (130, 3), (112, 4), (131, 8), (155, 2), (30, 1), (5, 5), (120, 0), (213, 10), (216, 10), (33, 3), (113, 7), (90, 0), (228, 0), (163, 7), (105, 6), (157, 6), (184, 0), (91, 4), (89, 9), (152, 6), (84, 6), (23, 4), (39, 4), (13, 1), (201, 8), (24, 3), (60, 5), (83, 5), (38, 6), (12, 5), (137, 4), (41, 6), (245, 8), (168, 3)]
202	16	3	2	47	[(138, 10), (238, 1), (29, 5), (187, 6), (25, 10), (156, 4), (235, 0), (215, 5), (220, 6), (210, 0), (89, 7), (142, 2), (159, 5), (137, 10), (226, 10), (15, 4), (234, 1), (147, 6), (229, 1), (154, 0), (21, 1), (41, 5), (102, 9), (198, 10), (45, 9), (231, 3), (128, 3), (9, 9), (87, 10), (150, 2), (249, 10), (224, 1), (69, 5), (155, 4), (97, 10), (44, 5), (43, 10), (173, 0), (63, 9), (185, 7), (161, 6), (59, 10), (60, 8), (47, 0), (8, 8), (211, 8), (222, 9)]
203	1	1	8	25	[(12, 10), (16, 2), (125, 1), (121, 3), (177, 3), (164, 9), (240, 7), (214, 0), (142, 5), (146, 8), (229, 5), (152, 10), (166, 1), (15, 4), (138, 10), (187, 2), (247, 1), (69, 3), (196, 6), (169, 7), (44, 9), (70, 5), (218, 6), (211, 8), (193, 2)]
204	2	3	2	34	[(7, 4), (26, 9), (46, 5), (201, 1), (169, 1), (3, 5), (28, 9), (177, 5), (154, 0), (15, 4), (183, 1), (200, 2), (2, 3), (234, 1), (118, 1), (221, 10), (186, 3), (75, 5), (184, 2), (132, 7), (113, 5), (13, 10), (20, 2), (32, 9), (55, 5), (233, 6), (56, 3), (21, 10), (197, 10), (216, 7), (95, 8), (237, 1), (123, 4), (198, 5)]
205	3	1	8	41	[(54, 7), (108, 0), (250, 4), (166, 7), (133, 10), (151, 10), (185, 9), (147, 1), (137, 7), (237, 7), (98, 7), (149, 9), (25, 4), (182, 10), (66, 6), (138, 9), (42, 2), (216, 3), (11, 2), (64, 6), (15, 3), (99, 10), (87, 4), (89, 6), (200, 10), (148, 9), (23, 0), (152, 3), (119, 5), (69, 2), (19, 8), (160, 9), (249, 9), (238, 4), (172, 2), (177, 7), (73, 6), (68, 6), (218, 5), (136, 9), (163, 6)]
206	4	4	8	31	[(189, 5), (73, 7), (163, 6), (165, 10), (88, 3), (225, 3), (138, 3), (113, 5), (10, 6), (131, 5), (80, 7), (2, 4), (220, 9), (230, 7), (243, 2), (3, 6), (26, 6), (241, 0), (147, 1), (100, 2), (172, 1), (190, 8), (204, 9), (201, 9), (129, 6), (43, 0), (149, 4), (44, 8), (133, 9), (87, 6), (21, 2)]
207	3	1	8	31	[(236, 8), (138, 10), (227, 0), (74, 9), (108, 5), (40, 2), (48, 9), (91, 3), (17, 0), (27, 6), (141, 7), (223, 7), (36, 6), (177, 1), (149, 9), (125, 9), (117, 1), (9, 10), (19, 6), (77, 0), (154, 5), (116, 4), (32, 6), (22, 7), (28, 4), (147, 8), (7, 7), (158, 6), (161, 8), (83, 1), (226, 7)]
208	2	1	8	34	[(211, 7), (82, 8), (130, 9), (50, 9), (27, 0), (48, 7), (208, 6), (158, 0), (231, 9), (37, 9), (206, 1), (144, 3), (145, 2), (46, 7), (132, 10), (159, 2), (113, 6), (235, 8), (76, 7), (133, 1), (193, 0), (98, 8), (170, 9), (2, 7), (201, 10), (92, 10), (28, 4), (43, 6), (215, 9), (106, 6), (103, 9), (16, 6), (149, 4), (38, 4)]
209	6	1	8	45	[(165, 3), (118, 1), (215, 1), (218, 4), (150, 9), (144, 3), (130, 5), (36, 2), (108, 0), (182, 2), (88, 1), (187, 9), (2, 4), (11, 6), (170, 6), (217, 6), (70, 3), (161, 0), (14, 3), (231, 5), (155, 1), (225, 3), (111, 10), (156, 6), (181, 5), (82, 2), (94, 9), (112, 3), (244, 9), (146, 5), (103, 5), (78, 1), (224, 0), (169, 8), (24, 5), (174, 9), (177, 5), (41, 1), (83, 1), (98, 0), (29, 1), (133, 9), (10, 1), (139, 8), (228, 3)]
210	1	1	8	33	[(90, 4), (51, 3), (132, 2), (112, 0), (137, 5), (150, 1), (155, 6), (217, 7), (48, 4), (76, 6), (57, 3), (145, 6), (37, 7), (141, 4), (189, 6), (134, 5), (199, 8), (236, 4), (175, 10), (198, 8), (10, 5), (220, 3), (151, 3), (126, 8), (92, 9), (6, 6), (117, 10), (46, 0), (14, 10), (122, 5), (47, 0), (168, 1), (231, 4)]
211	1	2	8	29	[(222, 5), (26, 2), (245, 8), (42, 4), (59, 2), (66, 2), (186, 10), (104, 4), (231, 7), (138, 1), (141, 7), (176, 10), (78, 3), (4, 1), (246, 7), (40, 10), (114, 0), (94, 0), (157, 2), (91, 2), (100, 9), (27, 0), (213, 6), (50, 10), (221, 0), (148, 1), (155, 7), (16, 4), (43, 2)]
212	1	1	8	41	[(139, 1), (219, 8), (194, 5), (54, 8), (226, 8), (177, 7), (95, 4), (204, 10), (134, 1), (138, 8), (243, 1), (21, 7), (216, 10), (51, 5), (187, 6), (73, 8), (245, 7), (179, 10), (227, 9), (67, 9), (116, 4), (106, 7), (104, 9), (168, 5), (239, 5), (206, 7), (146, 0), (207, 0), (119, 1), (91, 0), (92, 10), (221, 6), (3, 5), (161, 5), (213, 8), (120, 3), (110, 3), (169, 7), (199, 5), (112, 6), (195, 9)]
213	1	1	8	30	[(95, 3), (234, 1), (61, 8), (43, 3), (64, 5), (122, 5), (80, 6), (41, 8), (120, 9), (147, 0), (175, 6), (216, 6), (151, 8), (115, 3), (71, 9), (89, 8), (196, 8), (183, 2), (144, 4), (228, 2), (132, 6), (225, 4), (224, 1), (187, 3), (203, 7), (59, 6), (165, 9), (155, 7), (100, 8), (34, 1)]
214	3	1	8	36	[(236, 0), (99, 6), (153, 6), (1, 10), (128, 1), (194, 10), (66, 10), (123, 4), (209, 1), (97, 6), (70, 8), (196, 9), (115, 9), (170, 2), (41, 3), (22, 1), (101, 1), (79, 3), (82, 6), (85, 8), (45, 6), (84, 7), (98, 10), (167, 9), (157, 2), (243, 1), (93, 1), (247, 6), (87, 9), (223, 8), (35, 7), (95, 6), (90, 9), (172, 8), (144, 10), (27, 5)]
215	4	1	8	26	[(184, 10), (221, 7), (211, 7), (114, 2), (242, 7), (51, 1), (193, 9), (85, 7), (4, 2), (229, 4), (144, 2), (129, 5), (94, 1), (35, 2), (96, 6), (191, 8), (195, 0), (206, 2), (18, 9), (247, 10), (15, 8), (133, 2), (160, 9), (217, 6), (32, 1), (234, 1)]
216	5	1	8	32	[(207, 1), (236, 6), (135, 2), (134, 8), (80, 0), (141, 6), (5, 3), (227, 2), (225, 3), (202, 3), (157, 10), (160, 10), (123, 9), (92, 10), (187, 5), (198, 5), (9, 5), (66, 3), (106, 8), (69, 8), (64, 6), (238, 9), (65, 0), (37, 10), (116, 8), (61, 0), (140, 0), (26, 9), (110, 5), (190, 1), (2, 5), (144, 10)]
217	1	1	2	34	[(111, 8), (181, 7), (224, 1), (141, 7), (121, 8), (200, 10), (15, 10), (186, 1), (33, 1), (25, 10), (180, 8), (155, 2), (173, 1), (120, 7), (228, 2), (195, 0), (145, 7), (163, 4), (206, 6), (176, 0), (172, 5), (117, 4), (58, 2), (71, 5), (42, 10), (140, 4), (246, 7), (104, 7), (241, 8), (223, 6), (115, 8), (112, 8), (243, 8), (161, 0)]
218	1	1	8	34	[(96, 5), (58, 8), (216, 1), (202, 9), (80, 1), (163, 0), (54, 5), (43, 6), (172, 3), (110, 6), (41, 5), (217, 2), (105, 6), (168, 3), (154, 8), (81, 6), (124, 6), (164, 4), (28, 2), (196, 7), (183, 2), (157, 5), (114, 8), (19, 5), (131, 0), (207, 7), (74, 1), (115, 7), (166, 5), (219, 6), (9, 6), (137, 1), (111, 2), (130, 9)]
219	2	4	8	29	[(95, 1), (109, 6), (17, 1), (178, 10), (187, 1), (27, 2), (5, 3), (236, 8), (222, 4), (179, 9), (74, 1), (88, 2), (243, 2), (158, 6), (169, 10), (108, 5), (50, 6), (239, 4), (40, 7), (183, 2), (131, 3), (29, 1), (170, 10), (213, 8), (247, 3), (147, 9), (139, 10), (87, 2), (59, 5)]
220	1	1	8	33	[(18, 2), (150, 7), (73, 2), (198, 9), (104, 2), (62, 10), (212, 4), (34, 2), (83, 7), (108, 0), (166, 1), (22, 3), (121, 6), (133, 10), (97, 3), (213, 10), (126, 2), (237, 5), (159, 3), (146, 4), (10, 0), (164, 1), (173, 10), (38, 2), (163, 8), (201, 1), (205, 7), (123, 3), (195, 4), (160, 6), (217, 8), (43, 2), (80, 4)]
221	1	1	2	43	[(82, 10), (76, 8), (130, 5), (194, 3), (62, 10), (228, 3), (189, 0), (78, 7), (45, 9), (3, 2), (126, 2), (15, 1), (57, 1), (14, 10), (119, 6), (135, 2), (107, 7), (187, 5), (101, 8), (182, 5), (74, 4), (225, 6), (5, 9), (160, 6), (128, 1), (70, 4), (8, 8), (215, 7), (4, 10), (113, 3), (121, 6), (245, 8), (131, 6), (186, 6), (88, 0), (249, 2), (204, 9), (93, 7), (129, 8), (120, 0), (174, 9), (34, 2), (132, 8)]
222	1	1	8	41	[(145, 1), (223, 0), (129, 5), (241, 0), (187, 9), (69, 9), (50, 2), (74, 1), (139, 4), (173, 3), (150, 2), (118, 10), (151, 7), (235, 7), (211, 8), (112, 10), (46, 0), (6, 3), (219, 7), (27, 10), (87, 8), (71, 3), (233, 6), (192, 7), (4, 8), (250, 2), (114, 6), (225, 4), (142, 0), (197, 7), (156, 9), (185, 9), (30, 9), (165, 3), (213, 0), (29, 10), (249, 9), (126, 1), (110, 5), (121, 6), (243, 1)]
223	2	1	8	30	[(107, 4), (29, 7), (207, 9), (204, 3), (185, 4), (248, 1), (34, 9), (64, 4), (217, 6), (86, 4), (32, 2), (159, 7), (102, 0), (224, 9), (245, 6), (30, 2), (9, 10), (138, 8), (180, 2), (5, 10), (74, 7), (213, 1), (69, 8), (164, 1), (77, 8), (222, 7), (80, 2), (196, 2), (33, 2), (137, 1)]
224	1	2	8	29	[(46, 5), (49, 3), (45, 3), (65, 8), (188, 2), (42, 5), (195, 4), (93, 1), (79, 7), (233, 1), (73, 6), (191, 7), (247, 7), (162, 6), (198, 8), (88, 8), (227, 4), (238, 6), (134, 7), (113, 6), (149, 5), (76, 5), (244, 0), (57, 2), (115, 8), (207, 9), (161, 10), (116, 8), (125, 7)]
225	6	1	8	35	[(41, 7), (84, 6), (15, 5), (250, 0), (119, 7), (137, 1), (3, 10), (247, 4), (174, 10), (162, 10), (226, 1), (95, 3), (249, 5), (181, 7), (177, 2), (51, 3), (18, 6), (75, 10), (223, 10), (65, 6), (204, 4), (173, 9), (23, 0), (61, 5), (46, 8), (98, 9), (176, 9), (147, 1), (152, 5), (194, 2), (110, 7), (25, 5), (127, 4), (221, 4), (19, 7)]
226	3	1	8	35	[(25, 4), (204, 1), (185, 1), (102, 4), (207, 6), (6, 10), (108, 2), (54, 0), (187, 4), (13, 9), (229, 7), (69, 2), (100, 8), (28, 0), (79, 2), (234, 6), (197, 4), (97, 3), (201, 2), (35, 4), (4, 6), (175, 1), (133, 9), (11, 10), (105, 2), (77, 3), (20, 9), (200, 6), (228, 8), (117, 0), (51, 10), (48, 2), (216, 10), (15, 9), (176, 9)]
227	2	1	8	30	[(126, 9), (69, 1), (112, 4), (105, 10), (94, 0), (225, 7), (117, 6), (34, 6), (61, 10), (54, 3), (206, 1), (59, 1), (245, 1), (194, 7), (184, 9), (57, 7), (82, 3), (165, 7), (19, 9), (234, 8), (141, 8), (55, 1), (26, 8), (185, 6), (175, 9), (41, 7), (197, 9), (48, 7), (74, 3), (88, 10)]
228	20	4	8	31	[(141, 7), (233, 4), (123, 1), (226, 7), (212, 10), (171, 8), (218, 1), (101, 3), (221, 9), (7, 7), (232, 6), (60, 0), (199, 4), (152, 3), (125, 5), (23, 4), (204, 7), (250, 5), (135, 1), (9, 5), (67, 0), (36, 10), (80, 3), (197, 8), (21, 5), (186, 10), (236, 8), (155, 9), (15, 1), (158, 10), (37, 2)]
229	1	4	7	38	[(244, 7), (99, 3), (56, 10), (150, 6), (109, 1), (193, 4), (143, 2), (206, 10), (47, 2), (153, 1), (162, 2), (146, 0), (118, 0), (174, 3), (242, 7), (154, 3), (135, 5), (60, 5), (119, 2), (115, 8), (14, 8), (53, 4), (160, 1), (85, 6), (108, 1), (230, 0), (130, 1), (88, 4), (235, 4), (75, 6), (159, 2), (36, 1), (28, 7), (2, 6), (29, 7), (110, 3), (132, 2), (183, 7)]
230	1	1	8	34	[(199, 3), (230, 4), (96, 0), (21, 5), (74, 0), (25, 1), (184, 8), (83, 2), (179, 4), (87, 3), (148, 7), (46, 10), (94, 3), (76, 0), (54, 2), (48, 1), (246, 5), (208, 2), (78, 7), (88, 10), (187, 6), (193, 1), (9, 6), (170, 5), (139, 1), (229, 1), (245, 0), (82, 8), (133, 6), (191, 2), (152, 5), (149, 5), (147, 3), (20, 9)]
231	2	1	8	23	[(215, 10), (137, 1), (9, 3), (168, 0), (173, 0), (99, 4), (176, 5), (7, 1), (165, 3), (80, 2), (197, 10), (219, 6), (134, 6), (60, 5), (227, 10), (111, 7), (4, 1), (230, 8), (50, 7), (244, 4), (103, 1), (169, 4), (57, 10)]
232	2	4	8	39	[(111, 9), (94, 1), (170, 0), (17, 0), (88, 6), (78, 2), (132, 10), (28, 4), (19, 4), (127, 1), (244, 0), (233, 8), (119, 10), (191, 4), (13, 9), (118, 10), (236, 3), (18, 3), (33, 6), (41, 4), (98, 7), (10, 4), (145, 5), (23, 10), (246, 8), (102, 8), (151, 5), (234, 4), (56, 8), (238, 2), (179, 2), (9, 10), (187, 4), (40, 5), (204, 1), (165, 7), (25, 4), (91, 3), (245, 9)]
233	5	1	16	40	[(117, 5), (192, 5), (51, 4), (195, 3), (179, 6), (216, 3), (10, 1), (122, 2), (72, 9), (143, 10), (123, 2), (236, 10), (196, 7), (190, 8), (14, 0), (154, 1), (127, 8), (250, 4), (144, 2), (176, 10), (182, 9), (219, 3), (21, 8), (46, 7), (114, 8), (92, 9), (150, 1), (39, 5), (6, 1), (233, 4), (191, 5), (103, 9), (146, 6), (11, 8), (213, 1), (55, 0), (141, 0), (180, 2), (172, 3), (22, 9)]
234	1	6	2	34	[(57, 0), (111, 0), (219, 6), (225, 4), (67, 0), (84, 1), (135, 5), (223, 5), (238, 5), (10, 4), (199, 7), (209, 0), (247, 0), (206, 10), (236, 7), (155, 7), (133, 1), (96, 6), (215, 5), (250, 7), (9, 7), (185, 7), (50, 3), (110, 8), (38, 6), (81, 3), (109, 9), (122, 6), (47, 2), (40, 0), (89, 10), (143, 7), (87, 8), (222, 9)]
235	2	3	2	44	[(225, 3), (59, 3), (65, 9), (127, 1), (246, 5), (221, 6), (11, 0), (46, 4), (21, 8), (122, 1), (28, 10), (157, 6), (69, 6), (184, 5), (123, 6), (149, 9), (82, 4), (32, 10), (181, 1), (89, 1), (103, 0), (208, 7), (66, 7), (211, 10), (236, 0), (120, 8), (77, 7), (76, 3), (190, 8), (44, 9), (144, 7), (47, 10), (178, 2), (40, 6), (5, 2), (167, 3), (51, 4), (117, 7), (78, 6), (81, 6), (232, 1), (241, 5), (116, 8), (171, 6)]
236	2	2	8	42	[(225, 6), (159, 10), (1, 5), (32, 1), (80, 1), (69, 3), (115, 8), (211, 8), (174, 2), (249, 6), (157, 5), (217, 7), (244, 6), (151, 6), (143, 0), (61, 8), (232, 5), (113, 5), (137, 5), (123, 6), (44, 1), (37, 0), (148, 10), (28, 7), (74, 3), (171, 9), (108, 5), (50, 9), (149, 8), (129, 6), (142, 1), (155, 8), (49, 1), (185, 1), (117, 5), (100, 0), (125, 5), (243, 0), (87, 10), (234, 1), (138, 8), (55, 0)]
237	2	1	5	38	[(38, 3), (123, 4), (227, 6), (219, 3), (76, 9), (199, 6), (129, 0), (23, 2), (55, 3), (249, 6), (105, 2), (151, 6), (189, 6), (166, 2), (29, 1), (4, 8), (75, 0), (233, 2), (248, 0), (221, 6), (125, 1), (244, 3), (115, 0), (234, 4), (133, 4), (82, 7), (93, 5), (240, 9), (167, 6), (216, 10), (108, 5), (231, 6), (211, 3), (142, 0), (16, 8), (45, 5), (207, 3), (59, 9)]
238	6	1	8	27	[(82, 8), (20, 7), (63, 8), (232, 6), (155, 5), (164, 2), (220, 0), (157, 7), (133, 10), (101, 8), (77, 3), (111, 10), (8, 3), (89, 7), (24, 10), (12, 0), (64, 8), (218, 6), (57, 7), (241, 2), (125, 7), (42, 4), (110, 1), (98, 8), (141, 7), (97, 1), (38, 2)]
239	1	3	8	41	[(116, 2), (198, 2), (85, 10), (89, 2), (68, 6), (170, 3), (206, 0), (127, 3), (62, 6), (156, 6), (250, 7), (203, 9), (121, 1), (2, 1), (164, 2), (159, 9), (15, 2), (189, 10), (144, 10), (128, 6), (42, 8), (76, 6), (187, 3), (137, 5), (86, 0), (59, 5), (158, 8), (213, 6), (123, 8), (219, 1), (184, 10), (160, 2), (43, 0), (83, 1), (235, 8), (222, 2), (30, 10), (192, 9), (138, 1), (194, 1), (174, 9)]
240	1	4	8	47	[(20, 7), (152, 4), (98, 1), (82, 2), (90, 4), (67, 3), (59, 10), (149, 7), (63, 1), (58, 6), (45, 2), (96, 5), (57, 6), (154, 6), (72, 6), (156, 5), (126, 10), (150, 7), (201, 6), (245, 7), (100, 3), (194, 5), (110, 7), (12, 10), (9, 9), (24, 3), (189, 6), (34, 2), (178, 3), (145, 4), (153, 9), (144, 6), (38, 10), (87, 6), (223, 3), (161, 4), (47, 0), (135, 0), (101, 4), (160, 6), (93, 7), (140, 10), (167, 9), (13, 8), (69, 5), (211, 8), (129, 8)]
241	3	3	8	35	[(70, 10), (117, 9), (81, 0), (197, 0), (146, 0), (72, 4), (166, 1), (30, 0), (224, 1), (225, 2), (165, 0), (242, 0), (220, 1), (214, 5), (85, 6), (93, 9), (114, 7), (222, 10), (200, 10), (107, 1), (124, 5), (1, 1), (148, 1), (181, 5), (241, 8), (116, 7), (156, 10), (173, 2), (18, 8), (157, 10), (64, 8), (236, 10), (208, 10), (105, 7), (120, 5)]
242	51	1	2	26	[(75, 10), (158, 6), (118, 1), (135, 6), (109, 0), (19, 2), (222, 6), (133, 6), (55, 0), (21, 9), (155, 2), (190, 2), (30, 9), (242, 7), (60, 9), (110, 7), (69, 7), (238, 3), (70, 0), (24, 7), (89, 6), (249, 1), (1, 10), (86, 8), (65, 5), (93, 5)]
243	1	1	6	34	[(94, 5), (33, 9), (166, 2), (246, 7), (213, 9), (137, 9), (154, 3), (97, 2), (86, 7), (224, 7), (190, 1), (215, 3), (210, 9), (6, 9), (240, 7), (16, 6), (216, 9), (220, 2), (79, 0), (140, 8), (157, 9), (89, 6), (179, 8), (120, 6), (111, 7), (148, 9), (64, 1), (118, 3), (180, 9), (14, 8), (114, 7), (36, 7), (58, 8), (45, 6)]
244	4	1	16	38	[(97, 9), (205, 9), (93, 8), (189, 5), (76, 2), (27, 7), (36, 3), (225, 8), (167, 5), (106, 8), (172, 1), (109, 2), (153, 6), (66, 4), (29, 6), (169, 3), (160, 0), (162, 5), (84, 5), (216, 0), (34, 6), (20, 5), (64, 5), (70, 1), (179, 7), (190, 4), (208, 9), (111, 0), (176, 4), (25, 3), (38, 0), (1, 5), (81, 1), (83, 8), (227, 3), (128, 7), (134, 4), (50, 4)]
245	4	1	8	39	[(142, 7), (205, 2), (102, 8), (250, 7), (240, 6), (143, 10), (20, 0), (58, 7), (173, 0), (17, 7), (148, 0), (246, 9), (186, 3), (118, 10), (216, 0), (224, 7), (207, 2), (11, 0), (9, 4), (188, 6), (175, 0), (157, 3), (182, 7), (33, 5), (98, 0), (34, 9), (89, 9), (83, 5), (27, 0), (144, 9), (141, 2), (108, 4), (119, 0), (46, 4), (171, 4), (212, 7), (2, 3), (85, 0), (43, 4)]
246	2	1	2	37	[(151, 9), (60, 3), (95, 6), (84, 10), (76, 9), (145, 2), (72, 6), (28, 6), (123, 10), (158, 9), (217, 10), (134, 8), (128, 3), (51, 5), (85, 4), (195, 7), (43, 6), (111, 8), (48, 7), (96, 4), (203, 4), (27, 4), (213, 9), (46, 6), (177, 1), (141, 6), (149, 0), (55, 3), (229, 6), (12, 2), (40, 7), (102, 7), (34, 4), (136, 4), (184, 5), (104, 9), (247, 8)]
247	2	5	8	42	[(244, 10), (7, 2), (192, 1), (222, 1), (33, 8), (126, 9), (200, 5), (135, 5), (193, 9), (184, 2), (118, 6), (45, 0), (210, 3), (58, 7), (205, 5), (240, 9), (79, 8), (61, 0), (230, 8), (232, 7), (76, 4), (41, 1), (140, 6), (31, 2), (123, 10), (197, 2), (225, 2), (196, 9), (93, 3), (6, 2), (74, 5), (211, 4), (233, 2), (155, 0), (224, 4), (69, 10), (176, 4), (24, 7), (97, 9), (189, 2), (14, 2), (29, 7)]
248	6	1	8	44	[(129, 6), (71, 0), (233, 2), (121, 7), (240, 6), (146, 3), (198, 7), (25, 9), (174, 7), (100, 0), (181, 10), (139, 6), (231, 4), (225, 1), (220, 2), (171, 4), (157, 6), (246, 3), (211, 2), (124, 1), (185, 6), (216, 10), (119, 9), (79, 10), (167, 2), (169, 4), (184, 5), (32, 7), (21, 9), (51, 4), (177, 1), (81, 4), (74, 9), (31, 3), (28, 0), (103, 6), (56, 1), (1, 4), (12, 8), (189, 4), (14, 1), (114, 2), (179, 1), (73, 5)]
249	2	1	8	37	[(26, 3), (152, 4), (171, 1), (154, 2), (189, 8), (149, 2), (107, 9), (239, 8), (199, 10), (31, 10), (143, 10), (200, 2), (108, 10), (125, 0), (89, 9), (100, 3), (118, 2), (83, 10), (183, 9), (130, 5), (242, 5), (212, 5), (106, 0), (48, 6), (162, 2), (19, 8), (120, 5), (82, 6), (9, 8), (45, 2), (203, 2), (207, 2), (211, 7), (137, 6), (72, 10), (223, 10), (61, 5)]
250	1	4	8	28	[(60, 1), (184, 2), (250, 9), (20, 4), (188, 2), (57, 3), (244, 4), (214, 2), (71, 8), (59, 2), (31, 1), (226, 8), (180, 1), (24, 4), (134, 7), (216, 5), (228, 9), (222, 1), (150, 3), (38, 1), (199, 8), (235, 0), (47, 6), (61, 3), (1, 7), (144, 8), (74, 10), (69, 1)]
