app_id	nb_instances	core	memory	inter_degree	inter_aff
1	3	1	8	11	[(48, 8), (170, 0), (192, 1), (95, 0), (24, 3), (108, 8), (157, 1), (141, 5), (81, 2), (193, 8), (226, 8)]
2	2	1	8	10	[(5, 2), (112, 6), (204, 7), (24, 8), (27, 6), (211, 7), (166, 5), (160, 8), (88, 3), (209, 4)]
3	5	1	8	15	[(172, 8), (106, 0), (28, 1), (197, 7), (162, 7), (37, 4), (168, 3), (134, 4), (153, 2), (150, 5), (6, 9), (64, 0), (129, 5), (29, 2), (76, 2)]
4	4	1	16	16	[(56, 4), (48, 4), (8, 10), (194, 1), (163, 9), (179, 8), (152, 6), (27, 6), (155, 7), (237, 6), (19, 7), (225, 0), (199, 0), (213, 3), (118, 10), (165, 10)]
5	2	1	8	12	[(208, 1), (180, 8), (162, 4), (231, 1), (61, 1), (229, 8), (98, 8), (78, 1), (228, 4), (174, 9), (163, 4), (116, 9)]
6	1	1	8	20	[(38, 10), (36, 10), (8, 1), (92, 6), (219, 4), (94, 4), (66, 6), (70, 8), (100, 3), (132, 4), (10, 1), (250, 7), (237, 7), (144, 10), (78, 8), (249, 8), (150, 1), (184, 5), (12, 5), (119, 3)]
7	2	1	8	21	[(95, 2), (82, 9), (18, 4), (22, 9), (56, 10), (93, 7), (20, 7), (182, 4), (167, 10), (7, 10), (10, 2), (218, 7), (227, 8), (219, 6), (249, 5), (69, 7), (60, 8), (24, 7), (73, 7), (49, 5), (116, 10)]
8	2	4	2	14	[(171, 0), (226, 2), (77, 7), (17, 5), (221, 3), (240, 7), (233, 8), (129, 3), (33, 4), (194, 8), (246, 3), (89, 10), (15, 10), (179, 6)]
9	1	1	8	12	[(181, 10), (223, 2), (140, 5), (123, 1), (170, 2), (33, 6), (35, 0), (220, 4), (88, 7), (217, 1), (13, 9), (195, 7)]
10	2	3	8	18	[(144, 5), (123, 9), (220, 10), (208, 9), (213, 5), (180, 7), (229, 4), (101, 5), (128, 3), (22, 7), (2, 2), (184, 9), (7, 10), (174, 0), (50, 7), (161, 6), (98, 7), (96, 5)]
11	6	11	8	15	[(158, 4), (110, 1), (168, 6), (150, 4), (215, 4), (209, 0), (222, 2), (9, 0), (198, 1), (237, 1), (97, 7), (133, 6), (101, 1), (162, 6), (23, 4)]
12	2	1	8	20	[(186, 6), (107, 10), (187, 1), (111, 9), (103, 3), (109, 4), (174, 7), (112, 6), (54, 1), (94, 1), (245, 9), (60, 10), (138, 10), (37, 3), (18, 6), (126, 3), (19, 2), (70, 1), (221, 8), (105, 2)]
13	1	6	6	9	[(207, 5), (126, 9), (75, 8), (11, 1), (70, 10), (46, 6), (94, 10), (212, 10), (95, 8)]
14	6	1	8	9	[(128, 4), (191, 1), (4, 0), (100, 9), (58, 5), (141, 3), (94, 9), (49, 6), (145, 7)]
15	1	1	8	17	[(15, 10), (27, 8), (31, 5), (183, 4), (9, 5), (33, 2), (81, 8), (20, 9), (127, 9), (210, 3), (57, 8), (116, 10), (217, 4), (90, 1), (108, 10), (244, 3), (35, 6)]
16	1	2	8	19	[(109, 1), (112, 8), (3, 6), (80, 8), (242, 7), (154, 5), (25, 7), (115, 6), (114, 10), (152, 5), (192, 5), (186, 5), (168, 6), (43, 5), (229, 5), (185, 8), (221, 4), (70, 5), (197, 3)]
17	2	1	7	17	[(137, 2), (198, 6), (206, 2), (182, 10), (31, 9), (219, 0), (16, 5), (226, 10), (181, 10), (184, 6), (61, 7), (131, 5), (127, 3), (147, 4), (228, 4), (145, 0), (199, 1)]
18	94	6	8	10	[(14, 1), (33, 3), (152, 5), (18, 4), (154, 8), (40, 8), (149, 10), (86, 9), (117, 7), (121, 6)]
19	3	1	8	16	[(86, 3), (70, 9), (148, 8), (229, 5), (90, 10), (152, 7), (47, 8), (130, 5), (248, 1), (61, 1), (15, 4), (68, 5), (203, 1), (232, 7), (40, 2), (39, 7)]
20	1	1	8	16	[(188, 3), (86, 1), (8, 6), (83, 9), (142, 5), (101, 2), (121, 8), (53, 5), (19, 9), (117, 1), (49, 4), (191, 2), (181, 5), (123, 4), (245, 9), (141, 10)]
21	1	1	2	12	[(107, 7), (128, 8), (231, 8), (51, 4), (185, 3), (173, 5), (6, 1), (45, 9), (232, 8), (193, 5), (177, 8), (174, 2)]
22	1	1	8	13	[(216, 0), (206, 2), (22, 8), (85, 10), (6, 1), (159, 9), (150, 8), (201, 9), (234, 5), (67, 4), (103, 1), (212, 10), (209, 5)]
23	8	3	8	20	[(119, 1), (155, 6), (68, 1), (129, 9), (35, 0), (120, 0), (71, 2), (245, 4), (104, 8), (179, 5), (223, 8), (87, 10), (184, 8), (58, 3), (217, 1), (126, 7), (236, 1), (136, 7), (167, 10), (99, 8)]
24	3	1	8	18	[(75, 8), (250, 6), (27, 3), (120, 5), (233, 10), (187, 4), (121, 3), (107, 4), (14, 4), (78, 10), (67, 3), (106, 8), (135, 1), (37, 5), (131, 1), (158, 2), (2, 1), (103, 2)]
25	2	1	48	14	[(134, 1), (188, 0), (68, 5), (11, 8), (19, 7), (84, 1), (24, 1), (244, 3), (215, 9), (78, 4), (1, 8), (104, 7), (64, 7), (196, 7)]
26	3	6	8	8	[(220, 2), (25, 4), (78, 5), (250, 6), (40, 3), (210, 0), (179, 10), (125, 9)]
27	3	2	8	13	[(196, 3), (120, 1), (101, 6), (184, 4), (16, 8), (28, 6), (217, 2), (190, 8), (243, 7), (207, 6), (44, 7), (151, 6), (78, 5)]
28	1	1	8	15	[(210, 6), (21, 5), (169, 0), (152, 0), (186, 9), (182, 6), (46, 4), (206, 9), (31, 9), (54, 7), (160, 1), (89, 3), (130, 1), (148, 8), (32, 10)]
29	27	1	8	10	[(74, 9), (159, 2), (213, 6), (156, 10), (147, 4), (32, 7), (63, 1), (21, 3), (75, 2), (87, 8)]
30	29	2	8	15	[(98, 4), (233, 2), (226, 6), (54, 9), (38, 10), (106, 1), (163, 3), (71, 2), (100, 1), (217, 7), (55, 3), (183, 1), (41, 6), (115, 0), (102, 3)]
31	1	1	8	13	[(133, 1), (135, 2), (85, 0), (45, 7), (202, 7), (235, 3), (113, 4), (209, 0), (240, 1), (108, 4), (152, 5), (19, 5), (59, 6)]
32	3	1	8	15	[(72, 8), (183, 9), (201, 2), (134, 8), (34, 2), (237, 8), (249, 9), (200, 5), (31, 0), (224, 9), (219, 0), (241, 1), (198, 2), (103, 5), (51, 5)]
33	3	1	2	15	[(79, 2), (108, 10), (168, 2), (195, 3), (29, 7), (33, 9), (137, 2), (5, 4), (228, 10), (244, 0), (240, 1), (119, 5), (156, 10), (118, 3), (97, 0)]
34	1	1	8	14	[(96, 0), (25, 10), (77, 8), (127, 9), (198, 3), (237, 2), (188, 10), (52, 1), (245, 1), (47, 0), (87, 1), (178, 5), (110, 4), (63, 9)]
35	1	1	8	13	[(104, 8), (66, 8), (125, 1), (51, 6), (169, 8), (153, 2), (167, 7), (23, 1), (36, 9), (83, 4), (21, 1), (95, 3), (162, 8)]
36	2	4	8	19	[(65, 1), (24, 0), (179, 2), (78, 0), (82, 0), (151, 3), (119, 2), (236, 3), (229, 0), (218, 2), (103, 10), (198, 8), (148, 7), (197, 0), (240, 2), (94, 3), (108, 7), (87, 6), (182, 4)]
37	2	2	1	13	[(120, 10), (3, 4), (34, 8), (128, 8), (93, 2), (5, 6), (18, 2), (229, 10), (88, 0), (92, 10), (44, 6), (176, 4), (205, 2)]
38	2	1	8	20	[(20, 2), (15, 1), (161, 0), (154, 6), (193, 8), (127, 4), (103, 1), (177, 6), (207, 1), (99, 0), (142, 7), (176, 7), (114, 5), (192, 3), (149, 2), (111, 9), (153, 7), (172, 0), (57, 6), (198, 0)]
39	3	1	8	17	[(147, 0), (137, 5), (33, 9), (145, 10), (132, 7), (126, 6), (38, 2), (204, 4), (229, 10), (162, 8), (151, 6), (194, 6), (154, 2), (187, 7), (149, 10), (40, 1), (170, 2)]
40	2	1	8	14	[(109, 6), (59, 0), (215, 1), (235, 1), (196, 7), (51, 3), (120, 9), (128, 8), (172, 1), (164, 6), (7, 4), (209, 8), (6, 0), (239, 5)]
41	1	4	8	9	[(186, 4), (36, 2), (153, 7), (50, 0), (11, 2), (91, 4), (41, 2), (248, 2), (80, 6)]
42	2	4	8	17	[(33, 3), (151, 7), (66, 2), (173, 2), (104, 1), (88, 10), (219, 5), (161, 3), (124, 6), (98, 0), (120, 7), (111, 0), (81, 10), (71, 7), (183, 1), (89, 6), (53, 4)]
43	3	2	8	20	[(194, 6), (82, 4), (225, 10), (193, 2), (155, 8), (223, 10), (65, 5), (106, 8), (101, 5), (18, 10), (58, 6), (79, 2), (19, 7), (233, 1), (199, 3), (99, 7), (50, 10), (168, 1), (124, 0), (132, 2)]
44	2	2	16	18	[(225, 1), (179, 6), (99, 6), (63, 7), (14, 4), (54, 3), (10, 6), (41, 0), (102, 3), (29, 6), (138, 3), (248, 9), (176, 4), (182, 1), (220, 6), (69, 10), (30, 10), (158, 9)]
45	8	1	7	12	[(126, 3), (160, 9), (101, 1), (185, 9), (227, 7), (182, 6), (48, 2), (169, 5), (20, 8), (197, 7), (180, 8), (9, 9)]
46	6	1	16	22	[(53, 5), (85, 2), (228, 6), (48, 5), (54, 8), (30, 3), (19, 2), (116, 7), (171, 3), (226, 1), (214, 3), (165, 10), (14, 7), (220, 8), (24, 1), (195, 6), (96, 2), (22, 1), (193, 4), (184, 10), (26, 2), (218, 1)]
47	1	1	8	14	[(100, 4), (164, 6), (204, 8), (8, 9), (134, 8), (53, 4), (116, 9), (225, 7), (196, 10), (126, 6), (173, 10), (27, 3), (203, 2), (39, 4)]
48	1	1	8	19	[(17, 3), (117, 2), (216, 7), (249, 1), (211, 3), (111, 5), (136, 5), (57, 6), (81, 9), (43, 0), (59, 1), (221, 3), (20, 3), (135, 0), (150, 9), (100, 10), (79, 9), (109, 0), (204, 8)]
49	2	1	8	16	[(64, 4), (166, 6), (60, 3), (193, 6), (198, 3), (150, 6), (84, 3), (182, 0), (215, 6), (62, 10), (208, 2), (149, 7), (12, 0), (245, 6), (247, 2), (11, 2)]
50	2	2	8	17	[(157, 4), (200, 8), (249, 3), (57, 10), (79, 0), (154, 3), (102, 5), (223, 3), (171, 3), (239, 8), (133, 3), (78, 7), (232, 10), (191, 5), (189, 8), (63, 3), (129, 2)]
51	1	1	7	11	[(37, 2), (84, 9), (143, 7), (157, 6), (197, 1), (215, 5), (243, 2), (85, 5), (18, 2), (16, 9), (201, 6)]
52	2	3	8	12	[(33, 10), (190, 5), (36, 1), (44, 0), (5, 0), (147, 10), (106, 0), (54, 8), (144, 9), (214, 0), (194, 7), (142, 1)]
53	3	4	8	7	[(16, 2), (33, 7), (143, 4), (231, 0), (62, 6), (106, 0), (19, 4)]
54	5	12	8	16	[(162, 5), (244, 5), (225, 4), (97, 0), (18, 4), (174, 7), (44, 8), (38, 4), (136, 9), (41, 2), (16, 6), (99, 1), (155, 9), (130, 4), (55, 0), (210, 2)]
55	17	1	8	18	[(13, 5), (73, 4), (69, 6), (145, 9), (139, 5), (62, 2), (6, 4), (150, 0), (237, 2), (85, 4), (8, 3), (87, 3), (2, 2), (41, 1), (179, 0), (121, 1), (228, 3), (43, 1)]
56	6	1	16	14	[(80, 0), (167, 5), (40, 8), (87, 4), (29, 9), (52, 2), (137, 7), (194, 6), (205, 1), (142, 1), (25, 5), (105, 2), (160, 4), (212, 0)]
57	18	1	8	12	[(222, 4), (50, 5), (132, 2), (140, 4), (187, 0), (93, 5), (96, 8), (107, 1), (122, 2), (245, 1), (160, 9), (225, 0)]
58	5	3	2	14	[(143, 2), (28, 10), (149, 9), (219, 5), (87, 1), (122, 10), (165, 1), (218, 4), (196, 4), (228, 2), (144, 9), (50, 1), (136, 7), (27, 6)]
59	2	1	1	18	[(229, 3), (207, 0), (112, 0), (38, 9), (248, 6), (7, 3), (14, 1), (83, 8), (64, 3), (136, 10), (87, 10), (156, 10), (49, 2), (97, 1), (234, 8), (132, 2), (93, 1), (88, 1)]
60	21	4	8	16	[(112, 0), (177, 1), (79, 2), (75, 7), (107, 1), (153, 9), (28, 9), (67, 0), (220, 1), (158, 4), (110, 8), (242, 3), (243, 2), (124, 10), (224, 8), (154, 2)]
61	2	2	8	15	[(210, 7), (160, 10), (82, 2), (165, 3), (108, 5), (83, 10), (105, 5), (129, 2), (97, 4), (220, 8), (135, 1), (177, 10), (67, 0), (250, 6), (106, 3)]
62	3	2	8	17	[(110, 4), (178, 8), (225, 10), (42, 3), (193, 10), (48, 4), (161, 10), (57, 9), (122, 0), (52, 8), (56, 1), (199, 2), (58, 10), (92, 8), (21, 1), (30, 3), (137, 5)]
63	25	1	8	11	[(249, 7), (213, 3), (240, 0), (116, 6), (52, 9), (60, 1), (110, 8), (5, 1), (86, 5), (158, 0), (176, 5)]
64	3	1	8	15	[(73, 4), (10, 2), (55, 2), (223, 10), (92, 8), (34, 2), (106, 0), (26, 1), (236, 8), (74, 10), (70, 0), (206, 1), (175, 10), (145, 4), (84, 2)]
65	2	1	8	19	[(238, 2), (209, 7), (121, 6), (234, 3), (125, 9), (70, 1), (34, 6), (58, 0), (185, 2), (25, 2), (168, 7), (101, 1), (155, 4), (13, 3), (229, 2), (48, 5), (98, 8), (147, 2), (78, 0)]
66	1	2	12	20	[(88, 8), (94, 8), (170, 8), (85, 7), (163, 8), (150, 3), (134, 7), (246, 3), (33, 4), (250, 8), (193, 5), (234, 9), (242, 8), (112, 10), (174, 0), (172, 6), (26, 4), (164, 5), (27, 7), (10, 8)]
67	1	4	8	19	[(66, 0), (134, 8), (83, 7), (234, 8), (193, 3), (218, 1), (169, 6), (156, 4), (245, 3), (4, 6), (170, 5), (42, 4), (235, 2), (140, 3), (166, 5), (20, 2), (115, 7), (45, 3), (221, 8)]
68	1	4	8	13	[(119, 6), (56, 3), (187, 0), (80, 1), (244, 1), (158, 5), (238, 3), (107, 8), (136, 6), (84, 9), (60, 0), (29, 2), (13, 10)]
69	33	1	8	24	[(52, 1), (205, 3), (169, 3), (94, 10), (131, 0), (1, 8), (206, 9), (39, 6), (202, 9), (128, 6), (194, 1), (229, 1), (89, 9), (167, 0), (173, 3), (236, 0), (247, 9), (146, 9), (13, 2), (215, 4), (187, 10), (210, 3), (7, 8), (191, 6)]
70	67	1	8	23	[(21, 2), (178, 9), (245, 7), (247, 5), (202, 10), (34, 3), (197, 0), (181, 3), (213, 9), (214, 0), (216, 9), (81, 9), (139, 9), (241, 1), (26, 10), (24, 0), (221, 9), (183, 5), (54, 1), (120, 0), (208, 3), (86, 4), (72, 8)]
71	1	1	8	9	[(98, 10), (163, 6), (108, 0), (250, 6), (112, 8), (149, 7), (34, 4), (93, 7), (76, 8)]
72	3	2	2	14	[(189, 1), (26, 9), (109, 0), (50, 9), (37, 10), (19, 8), (39, 8), (71, 4), (215, 1), (138, 9), (6, 6), (118, 9), (248, 6), (5, 4)]
73	16	1	8	15	[(223, 5), (115, 4), (162, 9), (120, 4), (208, 7), (66, 1), (10, 3), (203, 10), (20, 6), (155, 9), (238, 3), (102, 4), (46, 7), (64, 9), (142, 4)]
74	2	4	8	14	[(155, 6), (25, 3), (106, 3), (20, 9), (188, 1), (108, 7), (21, 3), (201, 5), (243, 6), (249, 10), (166, 2), (36, 1), (214, 6), (246, 7)]
75	2	1	8	13	[(84, 0), (2, 9), (61, 0), (16, 10), (3, 10), (73, 7), (140, 4), (129, 8), (198, 7), (243, 8), (153, 0), (7, 1), (174, 9)]
76	2	4	8	14	[(163, 1), (149, 10), (166, 10), (8, 3), (37, 0), (33, 7), (116, 9), (137, 7), (61, 6), (10, 10), (150, 8), (127, 2), (183, 1), (58, 0)]
77	2	1	8	21	[(134, 5), (1, 5), (178, 5), (69, 8), (16, 8), (224, 8), (227, 10), (51, 3), (75, 6), (206, 9), (129, 8), (60, 5), (160, 5), (81, 2), (183, 10), (162, 5), (13, 6), (43, 8), (111, 3), (237, 9), (23, 4)]
78	1	1	8	15	[(240, 10), (135, 7), (227, 1), (143, 6), (136, 9), (178, 2), (54, 2), (151, 3), (88, 0), (58, 10), (27, 5), (82, 2), (98, 10), (44, 0), (196, 3)]
79	1	6	8	16	[(1, 3), (56, 9), (200, 4), (118, 8), (69, 0), (133, 10), (39, 0), (240, 10), (108, 4), (217, 1), (159, 1), (68, 0), (238, 10), (129, 4), (88, 10), (79, 4)]
80	2	4	8	10	[(228, 7), (92, 7), (22, 4), (81, 2), (173, 0), (40, 7), (43, 8), (63, 10), (135, 5), (86, 0)]
81	2	1	8	10	[(51, 2), (166, 0), (20, 3), (123, 6), (246, 7), (25, 10), (75, 3), (217, 10), (211, 8), (130, 4)]
82	2	1	1	18	[(195, 1), (220, 2), (214, 7), (83, 8), (227, 9), (14, 6), (186, 6), (206, 6), (43, 4), (32, 3), (9, 9), (204, 3), (45, 4), (21, 5), (196, 1), (232, 9), (184, 0), (240, 4)]
83	1	4	8	20	[(35, 2), (118, 2), (131, 1), (194, 8), (107, 0), (65, 2), (211, 4), (225, 4), (171, 6), (43, 4), (199, 2), (203, 5), (50, 6), (207, 5), (234, 2), (214, 4), (145, 9), (155, 3), (31, 8), (127, 5)]
84	1	12	16	7	[(243, 4), (170, 8), (69, 2), (112, 4), (174, 7), (57, 3), (13, 6)]
85	2	1	48	18	[(5, 1), (65, 4), (122, 8), (111, 5), (144, 2), (52, 6), (75, 0), (55, 7), (46, 4), (24, 4), (108, 3), (220, 2), (232, 2), (16, 9), (3, 1), (31, 5), (86, 0), (130, 0)]
86	1	1	8	18	[(79, 0), (181, 3), (24, 5), (174, 10), (60, 8), (164, 4), (230, 9), (139, 6), (169, 1), (122, 4), (248, 8), (88, 9), (218, 7), (116, 3), (10, 6), (82, 3), (39, 10), (11, 1)]
87	1	1	8	13	[(239, 0), (101, 3), (17, 8), (170, 1), (184, 5), (150, 9), (16, 10), (79, 4), (192, 9), (188, 4), (8, 2), (229, 1), (245, 10)]
88	3	1	8	23	[(203, 6), (9, 3), (204, 10), (153, 8), (41, 0), (106, 2), (245, 10), (62, 7), (32, 3), (133, 8), (175, 0), (230, 1), (211, 10), (18, 8), (17, 5), (148, 6), (209, 0), (183, 0), (150, 4), (25, 10), (112, 5), (228, 1), (222, 3)]
89	2	1	16	12	[(17, 5), (62, 4), (43, 6), (180, 8), (240, 2), (162, 1), (177, 2), (40, 0), (242, 1), (16, 9), (231, 0), (145, 3)]
90	2	1	8	17	[(131, 10), (199, 0), (84, 5), (70, 6), (55, 4), (109, 5), (164, 0), (176, 0), (47, 2), (71, 6), (96, 0), (97, 1), (129, 10), (137, 6), (198, 4), (24, 7), (187, 8)]
91	1	1	8	11	[(10, 8), (196, 1), (210, 5), (82, 3), (240, 8), (225, 8), (64, 8), (95, 9), (115, 7), (228, 5), (86, 9)]
92	4	4	16	16	[(12, 3), (183, 10), (158, 3), (193, 4), (55, 10), (231, 2), (139, 8), (232, 2), (90, 2), (201, 5), (196, 1), (134, 5), (67, 1), (148, 5), (190, 0), (5, 0)]
93	36	1	8	10	[(74, 8), (28, 1), (170, 0), (58, 6), (139, 10), (169, 3), (79, 6), (15, 1), (90, 0), (200, 3)]
94	6	2	8	18	[(247, 0), (102, 6), (56, 2), (184, 7), (173, 4), (92, 10), (37, 8), (110, 9), (19, 6), (36, 6), (232, 1), (10, 3), (8, 3), (13, 0), (240, 3), (161, 0), (7, 7), (27, 2)]
95	2	1	8	8	[(37, 0), (231, 6), (167, 2), (46, 1), (96, 9), (154, 9), (1, 5), (14, 1)]
96	1	1	8	11	[(79, 2), (144, 1), (150, 0), (141, 3), (35, 5), (97, 9), (80, 0), (94, 10), (196, 7), (239, 0), (237, 7)]
97	1	4	8	17	[(17, 6), (195, 6), (47, 5), (141, 8), (145, 0), (67, 2), (20, 9), (249, 1), (79, 1), (190, 0), (2, 9), (203, 0), (64, 7), (72, 1), (80, 3), (183, 5), (248, 0)]
98	5	1	2	12	[(106, 4), (239, 9), (117, 5), (7, 7), (104, 8), (101, 4), (87, 5), (3, 8), (8, 0), (98, 5), (24, 6), (158, 5)]
99	1	4	32	15	[(101, 1), (6, 8), (119, 3), (247, 8), (56, 4), (35, 7), (65, 6), (192, 9), (69, 1), (250, 0), (11, 9), (136, 9), (34, 9), (80, 6), (213, 3)]
100	3	1	8	20	[(94, 0), (10, 2), (234, 9), (128, 8), (167, 2), (145, 3), (102, 2), (51, 3), (179, 0), (165, 4), (168, 6), (39, 10), (47, 3), (122, 3), (68, 10), (82, 1), (87, 0), (161, 6), (217, 8), (187, 4)]
101	1	3	6	14	[(214, 8), (59, 6), (75, 7), (28, 2), (70, 2), (2, 9), (157, 6), (222, 3), (191, 7), (47, 8), (129, 3), (124, 6), (179, 1), (203, 10)]
102	1	4	8	14	[(14, 3), (55, 6), (159, 3), (141, 4), (136, 0), (135, 9), (1, 8), (246, 7), (60, 2), (24, 1), (77, 1), (53, 10), (9, 7), (206, 4)]
103	12	1	8	19	[(240, 0), (43, 3), (98, 5), (6, 3), (186, 2), (118, 4), (197, 0), (117, 5), (46, 10), (77, 0), (212, 10), (102, 3), (9, 2), (34, 3), (174, 4), (177, 4), (104, 8), (145, 3), (11, 3)]
104	1	1	4	17	[(172, 7), (5, 5), (64, 7), (141, 4), (78, 6), (167, 2), (124, 4), (150, 8), (100, 9), (158, 5), (50, 2), (154, 4), (34, 5), (191, 3), (217, 7), (166, 8), (168, 3)]
105	6	1	8	21	[(31, 3), (228, 10), (114, 6), (120, 7), (27, 1), (41, 4), (194, 1), (58, 0), (69, 6), (127, 7), (148, 2), (126, 5), (124, 9), (237, 7), (196, 3), (98, 3), (105, 4), (232, 4), (244, 8), (40, 5), (154, 10)]
106	1	3	8	21	[(12, 5), (20, 7), (57, 2), (69, 2), (94, 2), (4, 2), (160, 8), (217, 0), (13, 9), (117, 4), (75, 10), (81, 6), (107, 8), (154, 4), (143, 7), (51, 8), (215, 1), (173, 0), (58, 3), (97, 5), (84, 5)]
107	2	1	8	10	[(103, 4), (112, 2), (23, 7), (195, 2), (70, 4), (186, 5), (58, 9), (164, 10), (85, 8), (80, 9)]
108	1	1	8	16	[(100, 8), (147, 0), (30, 5), (171, 1), (197, 5), (131, 1), (47, 4), (60, 4), (233, 0), (212, 8), (216, 4), (168, 10), (153, 0), (198, 6), (119, 7), (61, 1)]
109	4	1	8	14	[(161, 6), (226, 2), (222, 3), (55, 5), (29, 5), (206, 5), (82, 6), (124, 4), (34, 1), (179, 7), (114, 7), (84, 1), (240, 3), (140, 2)]
110	10	1	8	13	[(67, 1), (159, 1), (156, 8), (107, 4), (124, 0), (20, 8), (132, 2), (74, 5), (49, 2), (129, 7), (187, 10), (99, 1), (153, 4)]
111	1	1	8	15	[(156, 8), (83, 7), (63, 3), (124, 2), (183, 0), (152, 7), (214, 7), (162, 4), (62, 7), (134, 0), (186, 4), (250, 1), (184, 0), (3, 3), (125, 1)]
112	5	4	8	22	[(87, 2), (48, 3), (208, 9), (239, 10), (151, 7), (175, 6), (246, 8), (11, 6), (168, 5), (35, 9), (223, 5), (95, 6), (174, 4), (122, 7), (179, 0), (15, 4), (143, 4), (160, 1), (28, 3), (111, 3), (211, 5), (190, 7)]
113	9	2	8	16	[(231, 8), (194, 10), (121, 5), (55, 1), (53, 3), (242, 1), (122, 9), (35, 7), (145, 5), (9, 10), (250, 4), (62, 3), (187, 0), (10, 3), (71, 4), (143, 7)]
114	2	1	8	19	[(233, 0), (86, 8), (137, 4), (128, 7), (6, 4), (221, 9), (117, 2), (196, 5), (217, 0), (40, 5), (144, 1), (154, 8), (3, 2), (2, 2), (141, 0), (28, 5), (216, 7), (102, 10), (75, 9)]
115	1	1	8	7	[(93, 9), (73, 5), (28, 7), (60, 2), (16, 3), (11, 10), (6, 6)]
116	7	1	8	8	[(172, 8), (101, 2), (47, 3), (123, 9), (167, 4), (139, 7), (173, 5), (212, 3)]
117	1	1	8	17	[(31, 0), (83, 5), (184, 10), (149, 6), (139, 7), (175, 8), (134, 9), (205, 9), (85, 4), (136, 2), (198, 6), (163, 0), (41, 6), (72, 0), (115, 8), (183, 9), (74, 3)]
118	2	1	8	12	[(36, 0), (2, 9), (28, 5), (80, 7), (221, 2), (240, 8), (218, 7), (87, 10), (97, 8), (206, 7), (62, 4), (99, 0)]
119	77	1	8	19	[(2, 0), (61, 7), (249, 10), (11, 0), (129, 7), (98, 7), (16, 4), (154, 0), (211, 2), (32, 7), (181, 0), (22, 10), (99, 0), (213, 1), (148, 1), (13, 10), (139, 7), (127, 8), (205, 4)]
120	1	1	8	9	[(16, 9), (196, 8), (83, 2), (194, 1), (31, 1), (160, 0), (5, 3), (80, 4), (151, 6)]
121	4	4	8	13	[(234, 0), (144, 7), (65, 4), (74, 3), (212, 5), (4, 8), (131, 8), (186, 3), (67, 0), (104, 6), (19, 4), (188, 1), (218, 0)]
122	1	1	8	12	[(124, 3), (92, 7), (145, 7), (63, 2), (230, 2), (246, 7), (35, 8), (9, 1), (57, 10), (144, 7), (48, 3), (172, 1)]
123	1	2	1	9	[(141, 6), (10, 6), (237, 1), (153, 5), (218, 5), (31, 5), (49, 7), (238, 4), (20, 1)]
124	5	1	8	19	[(127, 4), (113, 0), (50, 0), (109, 6), (118, 3), (231, 0), (65, 7), (12, 2), (212, 1), (124, 5), (248, 6), (225, 1), (159, 8), (62, 9), (233, 0), (28, 3), (247, 6), (236, 5), (160, 2)]
125	1	10	2	8	[(56, 10), (166, 0), (201, 2), (95, 1), (134, 8), (249, 8), (105, 5), (118, 0)]
126	62	1	8	13	[(223, 8), (162, 4), (62, 8), (81, 6), (129, 2), (71, 7), (219, 4), (196, 0), (59, 5), (53, 2), (187, 2), (141, 3), (78, 6)]
127	4	1	1	14	[(155, 7), (68, 10), (119, 6), (29, 2), (51, 0), (22, 6), (180, 2), (167, 8), (88, 5), (46, 5), (5, 8), (104, 4), (76, 6), (32, 3)]
128	2	1	8	18	[(82, 8), (138, 9), (221, 1), (73, 10), (6, 8), (17, 0), (159, 7), (212, 3), (208, 9), (177, 5), (63, 3), (199, 8), (68, 0), (33, 6), (55, 6), (3, 2), (240, 2), (46, 5)]
129	4	3	8	18	[(36, 1), (245, 3), (67, 4), (63, 1), (213, 3), (175, 0), (207, 7), (109, 5), (171, 3), (182, 8), (29, 10), (4, 9), (99, 7), (162, 3), (25, 5), (142, 7), (92, 5), (124, 2)]
130	18	34	8	20	[(227, 7), (190, 3), (196, 8), (200, 7), (139, 3), (37, 5), (175, 1), (27, 1), (201, 0), (89, 1), (127, 4), (232, 6), (77, 2), (144, 3), (249, 9), (72, 7), (97, 9), (24, 8), (198, 0), (213, 3)]
131	1	1	4	15	[(122, 6), (78, 2), (192, 6), (75, 8), (229, 4), (187, 1), (124, 8), (1, 3), (72, 3), (161, 1), (215, 5), (121, 0), (123, 3), (237, 6), (108, 7)]
132	2	1	8	18	[(6, 3), (163, 9), (87, 6), (14, 8), (246, 4), (80, 6), (7, 9), (41, 0), (129, 6), (113, 4), (47, 9), (197, 1), (114, 4), (200, 1), (165, 6), (68, 6), (94, 6), (138, 6)]
133	2	6	1	14	[(204, 10), (223, 0), (198, 4), (56, 1), (75, 1), (197, 8), (235, 2), (60, 8), (208, 3), (85, 3), (213, 1), (61, 10), (119, 2), (187, 7)]
134	1	1	8	20	[(45, 6), (224, 5), (181, 3), (157, 6), (21, 10), (85, 0), (242, 2), (37, 10), (173, 8), (134, 3), (80, 7), (50, 6), (65, 8), (140, 1), (213, 6), (4, 3), (38, 4), (249, 4), (87, 6), (83, 9)]
135	1	1	8	14	[(8, 0), (239, 2), (95, 9), (85, 3), (120, 2), (17, 8), (73, 8), (63, 8), (243, 3), (250, 7), (198, 6), (31, 5), (15, 9), (210, 1)]
136	16	1	8	17	[(101, 6), (166, 0), (240, 5), (6, 7), (219, 1), (230, 7), (148, 0), (46, 3), (229, 5), (130, 6), (192, 4), (147, 5), (174, 3), (201, 7), (170, 4), (99, 8), (55, 7)]
137	49	1	8	13	[(206, 2), (246, 10), (45, 2), (165, 1), (84, 7), (148, 2), (69, 10), (235, 7), (232, 1), (101, 9), (188, 6), (167, 10), (9, 7)]
138	2	1	8	19	[(235, 0), (91, 9), (101, 3), (70, 7), (41, 5), (159, 2), (9, 1), (86, 10), (244, 5), (157, 4), (128, 7), (51, 9), (194, 3), (19, 7), (228, 5), (34, 4), (245, 4), (142, 0), (67, 5)]
139	1	1	8	12	[(64, 4), (147, 8), (229, 6), (183, 5), (84, 4), (53, 0), (22, 0), (46, 10), (12, 1), (133, 6), (211, 5), (63, 2)]
140	2	2	8	12	[(206, 4), (235, 4), (133, 0), (77, 7), (74, 2), (159, 4), (96, 6), (26, 4), (31, 8), (49, 7), (24, 10), (198, 3)]
141	1	1	1	14	[(59, 5), (142, 1), (109, 7), (144, 4), (100, 2), (110, 3), (203, 0), (134, 10), (158, 2), (113, 7), (91, 2), (238, 8), (54, 1), (186, 3)]
142	1	1	8	11	[(26, 3), (196, 4), (189, 7), (194, 8), (142, 7), (238, 8), (108, 8), (122, 10), (28, 3), (130, 4), (10, 8)]
143	4	1	8	15	[(36, 7), (2, 7), (87, 4), (138, 9), (141, 8), (100, 7), (71, 7), (20, 0), (95, 2), (55, 0), (104, 6), (204, 7), (199, 6), (234, 6), (192, 6)]
144	2	1	8	16	[(4, 2), (223, 8), (220, 1), (152, 10), (51, 7), (215, 9), (211, 9), (158, 6), (218, 4), (34, 4), (43, 9), (231, 9), (121, 1), (186, 10), (191, 6), (219, 4)]
145	3	2	5	11	[(190, 9), (114, 10), (206, 5), (83, 1), (1, 1), (3, 8), (127, 2), (107, 2), (196, 0), (225, 0), (169, 10)]
146	1	1	5	23	[(31, 8), (108, 4), (100, 1), (27, 8), (97, 9), (248, 9), (55, 7), (140, 9), (114, 3), (127, 7), (153, 8), (188, 1), (182, 0), (162, 10), (82, 6), (159, 4), (187, 0), (86, 3), (4, 9), (224, 4), (56, 4), (228, 0), (21, 3)]
147	2	1	1	13	[(189, 9), (49, 9), (25, 8), (22, 10), (30, 1), (63, 6), (160, 10), (248, 4), (223, 5), (62, 6), (209, 7), (107, 8), (85, 6)]
148	52	2	8	12	[(214, 2), (227, 9), (237, 6), (71, 7), (90, 9), (110, 6), (202, 1), (54, 7), (153, 0), (21, 5), (106, 5), (206, 7)]
149	1	1	4	14	[(229, 6), (53, 4), (189, 6), (185, 3), (51, 10), (240, 5), (204, 8), (8, 6), (98, 0), (155, 7), (222, 10), (198, 6), (209, 5), (12, 5)]
150	29	1	8	10	[(5, 2), (136, 0), (1, 0), (139, 8), (213, 6), (57, 1), (55, 8), (92, 2), (215, 2), (48, 8)]
151	2	4	8	13	[(21, 7), (60, 1), (217, 6), (178, 10), (36, 7), (247, 2), (216, 2), (250, 10), (231, 7), (58, 8), (104, 6), (249, 9), (9, 10)]
152	12	1	1	15	[(80, 1), (74, 2), (38, 0), (233, 2), (62, 4), (96, 7), (164, 0), (171, 1), (98, 6), (133, 7), (237, 1), (229, 10), (7, 3), (187, 1), (24, 10)]
153	14	1	8	18	[(113, 6), (84, 2), (69, 0), (175, 8), (105, 9), (232, 4), (70, 7), (62, 7), (101, 8), (158, 1), (47, 6), (141, 2), (235, 3), (74, 8), (65, 7), (139, 0), (172, 3), (200, 4)]
154	15	1	8	18	[(242, 10), (231, 5), (88, 7), (149, 2), (192, 8), (202, 6), (204, 6), (92, 1), (223, 8), (227, 4), (203, 4), (1, 2), (138, 4), (176, 5), (153, 9), (187, 0), (110, 7), (75, 2)]
155	18	1	8	10	[(183, 2), (5, 2), (182, 6), (142, 1), (149, 4), (137, 4), (139, 2), (73, 0), (198, 5), (227, 7)]
156	1	4	8	14	[(228, 1), (116, 5), (124, 4), (17, 5), (205, 5), (41, 1), (187, 2), (207, 9), (243, 8), (128, 2), (19, 6), (231, 5), (209, 10), (126, 3)]
157	1	1	2	12	[(74, 0), (216, 0), (85, 9), (89, 8), (88, 6), (28, 0), (71, 10), (180, 0), (167, 3), (156, 7), (144, 2), (54, 1)]
158	2	1	8	12	[(70, 9), (4, 6), (176, 8), (103, 9), (79, 5), (195, 4), (108, 4), (6, 10), (118, 4), (14, 1), (208, 2), (173, 2)]
159	2	1	8	16	[(87, 10), (218, 2), (61, 7), (239, 5), (22, 1), (219, 3), (246, 10), (129, 7), (102, 8), (159, 8), (119, 2), (170, 1), (79, 5), (117, 10), (193, 2), (18, 10)]
160	2	1	8	17	[(9, 5), (13, 6), (58, 3), (101, 4), (44, 5), (49, 7), (122, 9), (154, 2), (141, 7), (164, 1), (136, 10), (229, 2), (94, 1), (213, 8), (103, 1), (116, 10), (238, 1)]
161	7	1	8	21	[(39, 1), (127, 3), (231, 6), (82, 5), (66, 10), (230, 10), (53, 1), (205, 10), (63, 3), (134, 6), (149, 5), (177, 10), (195, 1), (168, 1), (89, 0), (164, 0), (28, 2), (142, 4), (17, 9), (18, 2), (87, 10)]
162	1	1	8	15	[(48, 3), (100, 5), (38, 7), (236, 10), (226, 8), (188, 4), (152, 10), (133, 3), (141, 3), (140, 9), (201, 3), (150, 6), (147, 0), (82, 7), (198, 7)]
163	2	1	8	15	[(170, 4), (178, 0), (247, 3), (93, 2), (180, 9), (183, 1), (107, 10), (3, 6), (39, 5), (249, 4), (15, 10), (89, 7), (67, 9), (181, 2), (14, 7)]
164	10	1	8	17	[(50, 0), (99, 4), (36, 8), (165, 3), (82, 2), (33, 4), (56, 2), (238, 7), (195, 8), (49, 6), (184, 5), (221, 5), (214, 0), (151, 1), (156, 4), (173, 10), (90, 7)]
165	1	2	8	14	[(5, 2), (107, 3), (3, 6), (68, 8), (242, 8), (225, 4), (164, 6), (245, 4), (182, 7), (36, 1), (166, 0), (147, 6), (93, 2), (187, 1)]
166	18	1	8	20	[(18, 8), (224, 5), (161, 0), (205, 9), (61, 2), (53, 0), (247, 9), (222, 6), (120, 6), (206, 0), (220, 8), (202, 6), (164, 2), (6, 7), (54, 0), (5, 6), (221, 8), (101, 0), (149, 5), (90, 0)]
167	1	1	8	14	[(167, 6), (224, 6), (64, 8), (166, 3), (131, 1), (231, 1), (172, 2), (218, 3), (22, 10), (238, 6), (232, 2), (47, 9), (163, 1), (49, 1)]
168	5	2	8	15	[(30, 7), (147, 3), (52, 10), (199, 2), (250, 8), (213, 2), (51, 9), (108, 0), (20, 1), (229, 10), (180, 6), (152, 10), (144, 10), (11, 3), (153, 3)]
169	3	1	8	15	[(84, 8), (118, 4), (203, 0), (60, 8), (166, 5), (100, 5), (74, 5), (159, 9), (190, 0), (226, 0), (191, 5), (3, 6), (220, 1), (205, 9), (163, 5)]
170	1	1	8	19	[(205, 6), (15, 7), (89, 2), (105, 9), (34, 2), (243, 1), (202, 5), (6, 10), (92, 6), (177, 7), (41, 4), (238, 10), (102, 10), (208, 1), (134, 1), (23, 0), (64, 3), (209, 10), (149, 6)]
171	4	3	8	11	[(9, 3), (187, 6), (199, 3), (104, 2), (103, 10), (120, 2), (95, 3), (128, 2), (226, 3), (241, 8), (81, 4)]
172	1	1	8	11	[(221, 5), (171, 0), (124, 1), (214, 8), (85, 5), (130, 8), (92, 4), (175, 5), (172, 9), (173, 5), (145, 1)]
173	1	1	36	15	[(202, 8), (89, 9), (220, 2), (208, 0), (50, 10), (104, 8), (130, 10), (163, 8), (122, 2), (216, 10), (219, 9), (154, 9), (24, 3), (117, 8), (9, 9)]
174	3	2	8	12	[(180, 1), (113, 4), (152, 5), (230, 3), (143, 4), (178, 4), (227, 5), (75, 7), (7, 3), (121, 7), (100, 8), (241, 9)]
175	1	1	8	10	[(150, 7), (143, 3), (182, 1), (217, 7), (66, 9), (189, 1), (173, 1), (117, 4), (40, 6), (114, 4)]
176	3	3	8	10	[(45, 0), (173, 5), (250, 1), (196, 7), (10, 1), (64, 7), (205, 7), (162, 10), (214, 5), (107, 8)]
177	6	4	8	12	[(64, 7), (148, 6), (129, 3), (158, 7), (24, 0), (120, 6), (93, 3), (246, 2), (136, 8), (105, 8), (124, 5), (249, 9)]
178	1	1	8	9	[(198, 8), (78, 7), (142, 3), (197, 8), (226, 7), (155, 8), (10, 6), (247, 6), (224, 7)]
179	3	3	8	11	[(25, 4), (112, 1), (55, 6), (8, 10), (210, 0), (166, 1), (37, 5), (36, 10), (237, 10), (242, 4), (27, 7)]
180	2	3	2	13	[(18, 4), (177, 10), (65, 6), (1, 0), (176, 4), (103, 9), (131, 7), (133, 4), (117, 10), (100, 10), (182, 4), (204, 0), (175, 6)]
181	10	2	8	18	[(100, 5), (207, 7), (224, 3), (164, 9), (213, 1), (208, 4), (216, 7), (240, 1), (147, 6), (154, 9), (197, 3), (204, 3), (64, 7), (239, 9), (27, 1), (115, 8), (169, 2), (176, 6)]
182	2	4	16	23	[(240, 7), (26, 1), (5, 4), (156, 6), (41, 5), (181, 1), (86, 10), (46, 9), (74, 10), (101, 0), (201, 9), (224, 8), (132, 9), (32, 0), (248, 1), (143, 7), (30, 6), (197, 2), (29, 3), (192, 5), (163, 0), (170, 8), (109, 0)]
183	19	1	8	15	[(116, 7), (236, 1), (7, 10), (165, 7), (211, 0), (181, 9), (244, 0), (13, 4), (234, 10), (125, 5), (118, 10), (218, 3), (61, 8), (210, 2), (21, 8)]
184	2	1	8	13	[(158, 6), (131, 7), (79, 5), (90, 3), (93, 1), (66, 8), (17, 0), (244, 9), (198, 7), (57, 9), (80, 6), (152, 5), (110, 10)]
185	13	2	8	17	[(102, 10), (84, 3), (75, 8), (68, 3), (212, 9), (27, 0), (237, 1), (181, 6), (21, 9), (32, 0), (234, 7), (10, 0), (51, 9), (55, 6), (72, 2), (111, 2), (43, 0)]
186	2	1	8	20	[(16, 3), (23, 0), (110, 10), (248, 0), (20, 1), (72, 8), (232, 8), (148, 6), (7, 9), (197, 9), (2, 10), (49, 4), (181, 4), (78, 9), (183, 1), (208, 10), (218, 10), (146, 8), (160, 9), (203, 10)]
187	2	1	8	13	[(228, 7), (39, 6), (65, 9), (47, 1), (72, 1), (9, 0), (184, 5), (159, 8), (19, 7), (156, 7), (5, 7), (26, 7), (63, 10)]
188	3	1	1	15	[(228, 10), (103, 8), (114, 2), (78, 0), (48, 3), (155, 10), (50, 5), (57, 8), (62, 8), (30, 10), (9, 0), (242, 8), (224, 9), (170, 8), (152, 4)]
189	4	1	8	12	[(53, 9), (34, 6), (246, 1), (69, 10), (189, 8), (3, 5), (213, 10), (84, 5), (1, 0), (143, 8), (193, 0), (237, 9)]
190	30	1	8	9	[(250, 4), (13, 10), (161, 3), (221, 4), (107, 4), (28, 1), (7, 8), (206, 10), (9, 5)]
191	2	2	8	10	[(40, 4), (198, 0), (73, 5), (37, 10), (248, 10), (14, 8), (21, 7), (71, 6), (56, 7), (13, 5)]
192	2	4	2	21	[(126, 7), (73, 3), (35, 4), (119, 7), (89, 2), (30, 5), (84, 2), (7, 6), (165, 3), (31, 0), (122, 9), (194, 9), (219, 5), (210, 9), (93, 7), (186, 8), (130, 3), (155, 0), (12, 7), (95, 5), (53, 10)]
193	1	1	8	18	[(95, 5), (23, 4), (228, 5), (26, 9), (133, 0), (31, 4), (88, 2), (118, 8), (206, 6), (121, 7), (151, 1), (163, 3), (61, 0), (24, 3), (203, 8), (79, 6), (17, 4), (189, 10)]
194	2	1	8	11	[(246, 6), (112, 9), (62, 4), (105, 8), (6, 8), (78, 8), (187, 9), (135, 4), (83, 5), (26, 2), (64, 8)]
195	13	1	2	15	[(218, 5), (34, 4), (207, 8), (158, 5), (232, 0), (143, 8), (8, 6), (235, 8), (38, 9), (157, 0), (81, 5), (31, 5), (91, 1), (22, 1), (40, 2)]
196	2	5	8	12	[(87, 5), (171, 0), (49, 3), (91, 2), (140, 6), (150, 2), (147, 10), (141, 2), (66, 3), (226, 1), (70, 1), (136, 8)]
197	3	1	8	17	[(137, 1), (204, 6), (115, 8), (107, 2), (5, 1), (7, 9), (113, 2), (187, 3), (239, 1), (248, 6), (46, 2), (209, 2), (69, 2), (234, 8), (55, 2), (38, 4), (106, 2)]
198	1	1	16	12	[(134, 9), (155, 1), (166, 1), (228, 0), (118, 10), (12, 10), (59, 10), (149, 5), (43, 9), (84, 7), (23, 1), (119, 1)]
199	2	2	8	15	[(172, 2), (81, 5), (63, 8), (58, 4), (125, 3), (215, 6), (226, 9), (99, 7), (114, 10), (149, 7), (4, 0), (89, 2), (197, 4), (54, 3), (220, 4)]
200	5	4	8	14	[(183, 6), (7, 5), (150, 6), (174, 7), (201, 8), (187, 6), (134, 0), (86, 10), (39, 0), (122, 4), (243, 1), (117, 2), (224, 4), (163, 4)]
201	1	3	8	18	[(120, 7), (231, 2), (198, 5), (208, 8), (218, 2), (3, 3), (192, 1), (235, 3), (86, 5), (4, 7), (146, 9), (62, 5), (119, 4), (240, 1), (153, 2), (90, 0), (118, 3), (124, 3)]
202	5	1	8	18	[(71, 10), (63, 10), (163, 3), (106, 5), (235, 4), (237, 8), (107, 8), (149, 7), (17, 4), (10, 2), (46, 9), (177, 2), (182, 9), (203, 0), (35, 9), (228, 2), (66, 2), (213, 3)]
203	11	1	8	14	[(216, 4), (171, 2), (112, 9), (103, 7), (76, 5), (84, 10), (185, 6), (190, 3), (165, 8), (94, 3), (75, 0), (212, 1), (90, 0), (173, 9)]
204	4	1	16	17	[(196, 6), (203, 3), (51, 2), (192, 8), (216, 10), (66, 9), (232, 10), (25, 5), (142, 7), (155, 6), (165, 2), (31, 10), (15, 5), (24, 2), (39, 7), (60, 3), (184, 4)]
205	2	1	8	14	[(85, 6), (127, 2), (248, 5), (226, 5), (209, 3), (145, 3), (142, 3), (102, 0), (231, 9), (239, 10), (7, 9), (49, 2), (165, 10), (224, 10)]
206	2	3	8	15	[(161, 6), (200, 9), (154, 7), (96, 2), (81, 5), (136, 5), (75, 6), (68, 3), (53, 3), (43, 3), (79, 8), (175, 5), (20, 7), (115, 9), (205, 3)]
207	1	1	8	15	[(188, 2), (153, 9), (162, 0), (37, 0), (53, 3), (178, 9), (20, 7), (15, 7), (23, 0), (201, 0), (137, 5), (136, 8), (232, 5), (144, 5), (69, 3)]
208	2	1	8	15	[(108, 2), (165, 9), (146, 6), (126, 3), (26, 6), (167, 0), (169, 2), (37, 9), (127, 10), (80, 7), (218, 5), (250, 0), (11, 3), (237, 7), (241, 5)]
209	174	1	8	15	[(52, 3), (89, 8), (50, 9), (59, 0), (248, 2), (12, 9), (65, 1), (194, 9), (81, 7), (200, 5), (211, 0), (177, 5), (187, 1), (147, 10), (51, 2)]
210	3	1	8	15	[(245, 4), (127, 1), (236, 1), (218, 2), (86, 6), (137, 1), (9, 8), (214, 5), (181, 7), (17, 2), (31, 8), (92, 6), (108, 7), (126, 5), (38, 5)]
211	2	2	8	16	[(121, 1), (164, 3), (185, 3), (208, 4), (25, 6), (250, 6), (17, 4), (152, 4), (103, 3), (193, 5), (73, 7), (237, 1), (204, 7), (201, 5), (35, 7), (90, 6)]
212	3	4	8	18	[(166, 3), (72, 3), (41, 10), (91, 2), (101, 1), (38, 0), (148, 8), (76, 5), (118, 10), (139, 10), (152, 4), (68, 0), (246, 2), (43, 0), (197, 2), (81, 5), (178, 1), (192, 4)]
213	10	5	8	18	[(225, 1), (31, 10), (219, 6), (238, 3), (123, 5), (216, 9), (186, 4), (178, 0), (135, 8), (40, 7), (9, 1), (44, 3), (93, 1), (82, 9), (168, 10), (89, 1), (139, 8), (133, 9)]
214	2	1	8	20	[(244, 2), (138, 6), (63, 3), (143, 3), (144, 8), (23, 8), (99, 4), (35, 7), (168, 6), (96, 8), (128, 9), (213, 6), (67, 8), (160, 1), (90, 9), (112, 7), (149, 1), (86, 1), (123, 4), (229, 3)]
215	3	6	8	11	[(75, 0), (52, 0), (169, 2), (129, 10), (218, 5), (208, 6), (178, 0), (175, 7), (102, 0), (80, 0), (53, 3)]
216	8	2	8	12	[(10, 4), (29, 7), (11, 3), (90, 3), (234, 6), (239, 5), (97, 6), (143, 0), (241, 10), (126, 2), (119, 5), (19, 3)]
217	3	1	8	18	[(161, 6), (99, 8), (110, 8), (164, 1), (143, 10), (40, 1), (12, 8), (43, 0), (72, 0), (131, 9), (101, 9), (105, 5), (2, 9), (24, 3), (67, 9), (26, 2), (144, 8), (159, 0)]
218	1	1	7	9	[(3, 2), (24, 3), (21, 10), (91, 8), (161, 10), (248, 6), (43, 8), (153, 10), (177, 5)]
219	6	1	2	13	[(117, 9), (166, 8), (4, 2), (150, 9), (178, 0), (31, 6), (205, 0), (64, 9), (140, 8), (45, 4), (57, 3), (3, 1), (175, 9)]
220	2	1	8	13	[(201, 1), (175, 4), (93, 5), (187, 3), (248, 10), (57, 3), (222, 9), (99, 4), (184, 1), (160, 0), (68, 0), (195, 9), (102, 7)]
221	1	1	8	15	[(63, 10), (212, 8), (202, 8), (139, 3), (171, 7), (28, 6), (199, 3), (126, 1), (110, 0), (66, 9), (42, 3), (29, 8), (62, 2), (246, 9), (152, 4)]
222	5	1	8	14	[(170, 0), (61, 10), (174, 9), (45, 4), (11, 9), (8, 6), (178, 8), (213, 9), (250, 2), (186, 6), (13, 10), (2, 6), (122, 6), (208, 3)]
223	1	1	8	17	[(56, 1), (19, 5), (62, 7), (227, 0), (142, 0), (99, 6), (182, 7), (115, 4), (239, 0), (82, 1), (168, 3), (220, 0), (96, 3), (88, 4), (162, 2), (219, 7), (143, 7)]
224	2	1	1	22	[(90, 1), (239, 4), (229, 8), (152, 7), (208, 4), (231, 1), (39, 8), (106, 1), (65, 5), (78, 10), (176, 2), (178, 9), (13, 9), (100, 10), (18, 3), (28, 8), (41, 8), (170, 3), (88, 2), (184, 10), (235, 4), (137, 4)]
225	2	1	8	12	[(220, 1), (97, 5), (71, 4), (146, 7), (17, 7), (230, 2), (49, 8), (88, 6), (39, 10), (135, 0), (98, 4), (163, 3)]
226	1	4	2	25	[(23, 2), (93, 9), (44, 2), (133, 4), (151, 8), (132, 3), (40, 8), (25, 5), (140, 5), (115, 2), (111, 1), (58, 1), (87, 1), (59, 4), (156, 8), (34, 8), (166, 9), (207, 4), (91, 2), (238, 7), (189, 4), (120, 0), (32, 3), (146, 7), (121, 8)]
227	5	1	8	12	[(52, 10), (30, 7), (196, 10), (217, 1), (5, 8), (143, 8), (178, 5), (38, 7), (124, 6), (131, 6), (180, 10), (142, 1)]
228	3	3	2	17	[(157, 8), (139, 10), (76, 3), (26, 6), (34, 8), (20, 3), (168, 1), (135, 7), (21, 9), (159, 3), (202, 3), (223, 1), (146, 2), (204, 9), (89, 4), (189, 1), (7, 3)]
229	3	3	8	15	[(176, 2), (59, 4), (239, 9), (217, 6), (47, 5), (5, 8), (243, 1), (109, 9), (135, 0), (32, 10), (118, 9), (46, 0), (132, 3), (248, 10), (201, 7)]
230	35	1	5	12	[(169, 9), (150, 5), (153, 1), (167, 9), (113, 5), (6, 10), (135, 7), (163, 0), (168, 5), (72, 10), (162, 7), (188, 10)]
231	1	1	8	11	[(42, 6), (121, 10), (46, 1), (97, 7), (151, 0), (31, 8), (109, 10), (147, 3), (132, 9), (113, 3), (245, 9)]
232	2	1	8	21	[(153, 5), (166, 1), (55, 10), (77, 0), (240, 3), (37, 5), (125, 4), (198, 4), (123, 7), (122, 5), (185, 4), (161, 3), (214, 10), (14, 2), (176, 4), (225, 4), (117, 3), (68, 1), (237, 7), (178, 1), (158, 4)]
233	19	1	8	16	[(53, 5), (48, 2), (221, 1), (238, 7), (66, 8), (245, 10), (176, 3), (25, 1), (27, 8), (169, 5), (40, 8), (154, 4), (14, 9), (107, 9), (92, 10), (117, 1)]
234	1	1	8	11	[(176, 0), (132, 9), (13, 2), (231, 8), (125, 3), (56, 6), (18, 4), (179, 5), (100, 10), (117, 2), (204, 7)]
235	4	1	8	15	[(112, 2), (211, 7), (37, 2), (31, 6), (221, 5), (151, 2), (214, 0), (44, 6), (24, 5), (103, 5), (228, 2), (185, 8), (238, 9), (145, 2), (173, 0)]
236	2	1	8	14	[(61, 6), (76, 7), (30, 8), (197, 10), (38, 8), (11, 10), (26, 8), (13, 5), (160, 4), (1, 2), (202, 0), (244, 4), (43, 3), (113, 9)]
237	2	1	8	13	[(69, 8), (120, 5), (94, 8), (173, 8), (45, 7), (158, 9), (240, 4), (179, 2), (54, 10), (55, 4), (190, 1), (113, 7), (207, 9)]
238	1	2	8	14	[(196, 3), (31, 0), (244, 8), (147, 7), (182, 10), (226, 1), (62, 5), (115, 9), (194, 9), (83, 10), (173, 5), (121, 8), (20, 10), (129, 0)]
239	2	4	8	16	[(144, 5), (111, 4), (242, 0), (87, 2), (100, 4), (183, 10), (142, 3), (88, 6), (13, 6), (108, 0), (29, 5), (107, 4), (222, 4), (194, 9), (44, 4), (223, 8)]
240	2	4	3	17	[(86, 0), (8, 7), (159, 4), (210, 2), (174, 6), (179, 10), (147, 5), (41, 9), (22, 5), (93, 1), (99, 1), (230, 1), (16, 1), (113, 5), (82, 3), (199, 6), (224, 0)]
241	2	1	8	12	[(186, 9), (131, 1), (222, 4), (41, 7), (201, 2), (141, 7), (240, 2), (118, 6), (157, 7), (235, 6), (75, 5), (223, 8)]
242	7	2	24	18	[(190, 7), (48, 9), (225, 3), (126, 3), (245, 1), (29, 8), (222, 9), (187, 10), (9, 4), (77, 6), (135, 2), (59, 1), (165, 6), (188, 8), (250, 8), (83, 5), (184, 1), (193, 9)]
243	1	1	8	18	[(106, 5), (122, 5), (171, 5), (130, 2), (228, 4), (121, 5), (127, 9), (214, 3), (116, 9), (76, 2), (9, 2), (18, 4), (224, 1), (29, 1), (174, 8), (19, 4), (213, 5), (147, 4)]
244	1	2	8	19	[(11, 2), (161, 6), (150, 5), (7, 8), (136, 3), (188, 6), (224, 1), (181, 0), (43, 9), (192, 8), (33, 4), (108, 5), (125, 5), (52, 7), (156, 3), (141, 7), (12, 10), (34, 0), (102, 6)]
245	2	1	8	11	[(164, 9), (13, 8), (74, 2), (35, 9), (216, 0), (158, 10), (105, 9), (245, 1), (173, 0), (19, 4), (126, 0)]
246	22	1	8	22	[(10, 4), (234, 10), (236, 2), (97, 9), (218, 6), (200, 6), (32, 10), (148, 4), (20, 0), (49, 8), (208, 7), (246, 1), (143, 8), (171, 7), (96, 2), (81, 6), (24, 0), (193, 9), (160, 0), (125, 3), (183, 7), (25, 4)]
247	19	1	8	17	[(97, 3), (181, 5), (206, 10), (46, 4), (231, 7), (173, 9), (12, 2), (66, 10), (70, 4), (122, 10), (15, 9), (182, 4), (245, 5), (214, 6), (192, 7), (123, 7), (208, 6)]
248	8	1	16	16	[(178, 6), (71, 2), (245, 8), (192, 0), (208, 10), (130, 10), (229, 9), (93, 5), (248, 7), (70, 10), (184, 1), (155, 9), (50, 2), (48, 7), (75, 10), (205, 9)]
249	2	4	8	20	[(8, 7), (135, 8), (37, 5), (172, 4), (112, 9), (58, 5), (218, 6), (86, 9), (54, 1), (150, 8), (57, 1), (207, 7), (171, 10), (62, 8), (203, 1), (2, 4), (3, 2), (24, 4), (114, 2), (94, 0)]
250	2	4	8	19	[(6, 5), (46, 2), (228, 2), (82, 1), (215, 5), (154, 6), (21, 10), (72, 6), (219, 2), (8, 2), (174, 8), (101, 9), (92, 1), (170, 7), (126, 2), (69, 2), (227, 5), (103, 0), (4, 0)]
