app_id	nb_instances	core	memory	inter_degree	inter_aff
1	1	1	8	21	[(163, 1), (83, 5), (153, 6), (110, 4), (142, 4), (65, 2), (194, 9), (232, 10), (181, 9), (203, 10), (68, 10), (76, 8), (18, 10), (25, 10), (1, 5), (81, 5), (133, 9), (124, 2), (184, 1), (206, 8), (104, 5)]
2	3	2	8	17	[(152, 3), (27, 4), (142, 5), (141, 5), (158, 5), (227, 5), (66, 6), (243, 1), (203, 7), (108, 6), (60, 2), (229, 6), (114, 4), (25, 4), (109, 6), (4, 8), (35, 8)]
3	1	1	8	19	[(212, 1), (2, 8), (147, 9), (92, 7), (175, 4), (195, 0), (131, 4), (242, 3), (168, 2), (248, 9), (96, 0), (81, 2), (198, 7), (125, 2), (224, 1), (159, 1), (193, 9), (218, 8), (106, 10)]
4	1	1	16	16	[(30, 6), (64, 0), (144, 1), (231, 2), (110, 5), (125, 5), (226, 10), (149, 6), (169, 9), (159, 1), (67, 10), (138, 3), (84, 0), (73, 0), (68, 6), (90, 5)]
5	2	1	8	26	[(130, 1), (6, 7), (226, 5), (32, 7), (52, 0), (223, 9), (43, 1), (28, 2), (221, 7), (18, 3), (205, 7), (135, 9), (4, 5), (14, 9), (220, 6), (197, 0), (239, 6), (115, 7), (23, 4), (65, 8), (96, 3), (152, 4), (129, 3), (198, 7), (101, 1), (137, 7)]
6	4	1	5	17	[(97, 2), (182, 6), (24, 8), (198, 4), (184, 10), (121, 10), (62, 6), (249, 8), (145, 3), (143, 6), (60, 8), (171, 2), (69, 9), (236, 6), (83, 4), (136, 4), (13, 1)]
7	2	1	8	13	[(55, 7), (224, 6), (44, 4), (192, 3), (6, 6), (62, 3), (32, 8), (216, 0), (74, 7), (155, 0), (161, 5), (198, 8), (125, 2)]
8	6	4	8	21	[(250, 2), (136, 6), (104, 6), (131, 9), (179, 4), (167, 0), (224, 7), (229, 5), (228, 0), (33, 8), (176, 7), (209, 6), (139, 4), (158, 4), (201, 4), (38, 7), (187, 10), (196, 7), (37, 10), (161, 0), (181, 5)]
9	1	1	6	25	[(162, 4), (81, 5), (141, 2), (184, 1), (142, 5), (229, 5), (90, 3), (127, 7), (131, 5), (215, 6), (226, 10), (235, 5), (206, 5), (39, 8), (10, 4), (42, 3), (66, 6), (204, 0), (31, 9), (177, 5), (47, 0), (18, 5), (116, 0), (222, 10), (88, 9)]
10	1	1	8	15	[(115, 7), (247, 2), (124, 0), (99, 4), (243, 8), (179, 7), (53, 8), (236, 0), (134, 4), (101, 4), (228, 2), (160, 7), (224, 9), (43, 0), (67, 2)]
11	1	1	2	19	[(171, 5), (84, 10), (90, 9), (172, 2), (149, 2), (57, 5), (123, 0), (227, 7), (188, 6), (85, 1), (98, 7), (153, 3), (25, 4), (21, 2), (42, 0), (45, 6), (41, 1), (205, 4), (183, 2)]
12	30	2	8	12	[(39, 8), (181, 7), (78, 2), (83, 4), (72, 6), (209, 1), (160, 10), (134, 3), (143, 3), (146, 9), (82, 6), (208, 3)]
13	1	2	16	11	[(42, 1), (116, 10), (38, 3), (184, 10), (206, 1), (65, 5), (242, 8), (92, 10), (245, 8), (29, 8), (102, 3)]
14	1	1	8	14	[(232, 9), (247, 3), (230, 9), (126, 7), (68, 7), (235, 2), (134, 8), (118, 2), (9, 0), (44, 2), (69, 9), (210, 1), (79, 0), (151, 0)]
15	8	2	8	18	[(142, 2), (31, 0), (128, 0), (22, 9), (207, 2), (88, 3), (133, 10), (147, 2), (208, 6), (84, 8), (130, 8), (49, 10), (75, 3), (235, 6), (239, 5), (237, 1), (105, 0), (123, 2)]
16	1	1	2	13	[(189, 2), (103, 1), (72, 7), (25, 1), (226, 6), (227, 6), (145, 10), (214, 6), (83, 1), (41, 8), (71, 7), (133, 8), (183, 9)]
17	1	1	8	21	[(140, 10), (152, 3), (214, 6), (154, 10), (205, 10), (191, 1), (220, 4), (79, 4), (91, 9), (8, 5), (31, 2), (215, 2), (85, 7), (106, 5), (104, 2), (179, 9), (239, 1), (7, 10), (231, 7), (181, 7), (71, 2)]
18	1	2	8	19	[(99, 1), (108, 1), (234, 2), (107, 7), (136, 8), (69, 6), (41, 9), (188, 3), (103, 2), (12, 5), (88, 8), (14, 2), (47, 9), (164, 3), (6, 7), (202, 7), (209, 8), (132, 5), (27, 1)]
19	1	1	8	24	[(223, 5), (188, 5), (133, 4), (212, 1), (90, 9), (65, 5), (74, 4), (211, 7), (172, 7), (33, 8), (4, 1), (152, 5), (111, 0), (79, 2), (192, 0), (154, 1), (12, 4), (62, 7), (141, 6), (94, 9), (40, 9), (155, 0), (198, 9), (51, 0)]
20	29	1	8	17	[(6, 9), (244, 3), (10, 9), (178, 4), (169, 7), (236, 4), (220, 6), (190, 7), (21, 7), (111, 2), (186, 10), (92, 9), (19, 4), (202, 3), (106, 7), (56, 9), (219, 7)]
21	2	4	8	21	[(114, 10), (216, 1), (27, 8), (173, 2), (15, 1), (219, 0), (187, 3), (147, 0), (239, 10), (17, 9), (123, 10), (55, 10), (25, 2), (40, 6), (191, 4), (58, 8), (184, 5), (190, 6), (153, 10), (52, 5), (4, 0)]
22	1	2	8	9	[(135, 3), (44, 5), (38, 7), (141, 1), (119, 3), (111, 5), (129, 7), (72, 8), (33, 0)]
23	2	1	8	12	[(48, 5), (118, 10), (206, 0), (139, 10), (237, 4), (62, 5), (53, 5), (151, 1), (116, 2), (230, 10), (183, 3), (104, 4)]
24	4	2	8	9	[(55, 10), (40, 1), (89, 1), (241, 8), (115, 5), (234, 4), (228, 6), (149, 8), (90, 9)]
25	2	1	8	19	[(125, 6), (191, 3), (93, 6), (218, 6), (235, 5), (233, 3), (49, 9), (120, 5), (237, 9), (8, 10), (39, 6), (6, 5), (43, 8), (4, 5), (26, 4), (139, 8), (56, 7), (239, 6), (211, 8)]
26	1	2	8	19	[(170, 10), (10, 9), (122, 7), (89, 8), (99, 1), (63, 2), (173, 10), (114, 4), (36, 4), (230, 0), (98, 7), (199, 10), (218, 2), (210, 6), (191, 8), (73, 4), (139, 4), (53, 5), (23, 1)]
27	1	2	8	15	[(103, 2), (61, 2), (101, 3), (220, 7), (122, 1), (221, 7), (226, 7), (77, 2), (160, 6), (150, 6), (102, 5), (219, 3), (96, 10), (3, 1), (195, 3)]
28	1	2	16	20	[(136, 0), (2, 10), (109, 0), (167, 5), (163, 0), (93, 5), (39, 5), (214, 3), (168, 4), (73, 10), (81, 4), (162, 10), (150, 5), (126, 8), (247, 1), (151, 3), (17, 9), (159, 3), (230, 4), (43, 9)]
29	1	1	8	16	[(244, 2), (167, 4), (204, 10), (30, 6), (103, 4), (1, 4), (139, 10), (54, 10), (197, 8), (140, 4), (4, 10), (123, 7), (19, 10), (102, 3), (238, 7), (59, 5)]
30	3	1	8	21	[(141, 10), (165, 6), (15, 8), (50, 9), (43, 5), (2, 4), (209, 8), (117, 10), (194, 2), (214, 10), (158, 10), (149, 0), (244, 3), (220, 2), (155, 2), (167, 7), (145, 0), (57, 5), (52, 10), (138, 5), (77, 8)]
31	2	6	8	16	[(170, 2), (217, 3), (16, 6), (212, 10), (44, 7), (12, 1), (175, 8), (129, 0), (29, 4), (191, 8), (184, 8), (157, 4), (4, 2), (135, 9), (204, 1), (159, 1)]
32	1	1	8	10	[(157, 2), (116, 1), (217, 3), (188, 7), (158, 8), (234, 5), (184, 1), (211, 0), (18, 5), (192, 0)]
33	2	1	8	22	[(71, 5), (211, 2), (151, 2), (87, 9), (154, 5), (111, 6), (175, 5), (177, 0), (235, 9), (174, 7), (52, 6), (171, 1), (220, 4), (185, 4), (129, 6), (161, 9), (169, 1), (244, 2), (160, 6), (149, 9), (153, 8), (215, 10)]
34	2	1	8	12	[(49, 10), (11, 10), (242, 9), (217, 0), (57, 6), (172, 6), (191, 6), (194, 9), (197, 10), (132, 0), (166, 7), (236, 1)]
35	4	3	8	18	[(24, 1), (68, 5), (118, 8), (150, 5), (6, 3), (188, 8), (112, 9), (50, 2), (144, 1), (47, 2), (93, 6), (80, 6), (79, 7), (178, 9), (216, 9), (194, 3), (123, 7), (90, 8)]
36	7	1	8	18	[(112, 3), (4, 4), (77, 4), (96, 0), (108, 4), (161, 1), (200, 9), (90, 7), (37, 7), (135, 6), (21, 8), (9, 1), (250, 10), (31, 3), (70, 2), (106, 1), (138, 2), (45, 9)]
37	1	1	8	26	[(249, 5), (142, 0), (21, 7), (121, 0), (208, 9), (61, 6), (68, 10), (205, 1), (127, 4), (161, 4), (216, 10), (153, 4), (152, 1), (32, 6), (201, 10), (96, 3), (158, 10), (102, 1), (157, 7), (236, 9), (175, 0), (211, 4), (45, 6), (226, 9), (125, 9), (184, 4)]
38	2	1	8	17	[(195, 8), (52, 5), (200, 1), (122, 6), (150, 3), (95, 3), (242, 10), (21, 7), (246, 6), (63, 2), (96, 10), (178, 3), (248, 4), (50, 2), (206, 6), (22, 0), (99, 10)]
39	1	1	8	27	[(130, 7), (221, 4), (42, 4), (190, 6), (215, 7), (107, 6), (150, 4), (236, 10), (105, 2), (250, 4), (160, 4), (11, 1), (75, 7), (147, 3), (94, 0), (85, 10), (136, 9), (53, 1), (18, 3), (217, 4), (7, 2), (189, 2), (249, 4), (223, 4), (102, 1), (19, 8), (80, 6)]
40	1	1	8	16	[(202, 2), (18, 3), (85, 6), (107, 4), (222, 4), (194, 9), (237, 7), (114, 3), (14, 8), (158, 3), (233, 1), (161, 8), (82, 3), (225, 0), (32, 10), (238, 8)]
41	3	1	8	20	[(18, 1), (81, 5), (133, 5), (181, 6), (93, 3), (107, 4), (104, 8), (51, 5), (15, 4), (42, 1), (225, 7), (182, 3), (207, 8), (124, 5), (235, 3), (77, 4), (203, 6), (43, 8), (50, 9), (148, 7)]
42	14	1	1	21	[(32, 6), (65, 2), (61, 2), (227, 3), (219, 10), (202, 9), (206, 3), (174, 0), (235, 9), (196, 4), (191, 9), (161, 1), (188, 4), (94, 4), (6, 0), (64, 7), (38, 3), (127, 5), (230, 8), (8, 8), (198, 5)]
43	2	1	8	10	[(22, 0), (21, 6), (135, 1), (108, 7), (227, 10), (79, 3), (166, 0), (11, 1), (141, 2), (13, 4)]
44	4	1	8	10	[(17, 6), (176, 4), (137, 0), (191, 2), (113, 10), (229, 4), (178, 2), (98, 10), (46, 7), (66, 2)]
45	9	1	2	14	[(68, 10), (54, 9), (26, 0), (221, 4), (115, 1), (250, 1), (70, 3), (154, 4), (112, 10), (208, 9), (67, 1), (51, 0), (205, 1), (128, 1)]
46	1	1	8	21	[(58, 8), (196, 2), (76, 1), (99, 3), (113, 4), (237, 9), (121, 6), (225, 9), (46, 10), (180, 0), (158, 3), (174, 7), (73, 6), (182, 8), (202, 7), (236, 1), (104, 0), (75, 6), (4, 0), (162, 10), (211, 4)]
47	1	1	8	21	[(60, 9), (230, 9), (159, 0), (102, 3), (97, 6), (160, 10), (162, 9), (44, 6), (196, 5), (76, 10), (143, 3), (8, 9), (86, 7), (157, 0), (48, 7), (25, 4), (75, 2), (58, 1), (166, 4), (27, 3), (188, 7)]
48	3	5	2	13	[(230, 1), (172, 1), (57, 6), (41, 10), (131, 1), (205, 1), (185, 4), (178, 10), (72, 8), (40, 5), (122, 5), (76, 10), (20, 1)]
49	2	1	8	20	[(156, 10), (151, 3), (176, 10), (24, 10), (26, 10), (232, 2), (226, 2), (122, 8), (238, 8), (249, 1), (137, 5), (240, 6), (100, 7), (15, 2), (11, 8), (166, 1), (230, 6), (117, 3), (211, 6), (44, 9)]
50	2	4	1	14	[(250, 8), (1, 3), (163, 7), (74, 2), (197, 7), (239, 9), (124, 7), (9, 7), (35, 2), (51, 0), (73, 4), (222, 2), (91, 0), (196, 3)]
51	2	1	6	19	[(183, 7), (42, 4), (196, 6), (151, 9), (248, 4), (224, 1), (7, 2), (56, 10), (206, 6), (166, 2), (106, 10), (155, 1), (32, 3), (121, 1), (229, 6), (125, 1), (171, 10), (76, 6), (138, 4)]
52	10	6	8	21	[(138, 4), (68, 6), (144, 5), (78, 7), (162, 8), (66, 7), (64, 5), (46, 2), (119, 0), (2, 4), (3, 1), (77, 6), (62, 9), (60, 10), (73, 3), (113, 0), (134, 4), (214, 2), (223, 1), (190, 9), (99, 4)]
53	4	1	8	11	[(186, 7), (6, 6), (49, 8), (12, 1), (202, 9), (135, 3), (77, 3), (34, 8), (21, 1), (42, 3), (111, 2)]
54	1	4	8	21	[(119, 8), (21, 8), (226, 0), (217, 4), (211, 6), (207, 2), (140, 8), (127, 3), (241, 1), (185, 3), (94, 4), (247, 8), (85, 10), (95, 4), (170, 10), (2, 2), (57, 6), (134, 9), (90, 1), (169, 0), (116, 4)]
55	43	1	9	27	[(177, 10), (194, 4), (28, 6), (22, 8), (51, 9), (226, 8), (151, 10), (116, 10), (50, 9), (54, 5), (148, 4), (123, 5), (189, 3), (179, 3), (109, 6), (190, 9), (250, 6), (234, 4), (139, 7), (83, 9), (101, 10), (97, 3), (161, 5), (25, 9), (90, 4), (21, 0), (63, 2)]
56	1	2	1	20	[(200, 5), (123, 3), (158, 10), (161, 0), (142, 8), (26, 2), (127, 8), (22, 7), (193, 7), (182, 7), (203, 7), (40, 6), (39, 3), (47, 2), (230, 6), (232, 2), (191, 1), (210, 8), (196, 9), (241, 6)]
57	3	1	8	16	[(23, 1), (213, 9), (223, 3), (46, 9), (206, 7), (84, 9), (241, 3), (80, 10), (1, 1), (197, 4), (78, 8), (186, 7), (19, 9), (123, 0), (77, 6), (85, 9)]
58	2	6	8	17	[(134, 5), (153, 3), (225, 10), (91, 4), (2, 6), (215, 9), (52, 1), (51, 1), (120, 5), (163, 7), (104, 1), (14, 1), (129, 9), (175, 2), (229, 5), (59, 5), (38, 7)]
59	2	1	8	20	[(151, 6), (123, 1), (138, 9), (173, 3), (38, 1), (204, 4), (28, 9), (29, 8), (65, 1), (210, 3), (165, 5), (157, 2), (213, 6), (7, 6), (117, 9), (152, 3), (95, 10), (238, 8), (73, 6), (6, 9)]
60	1	1	32	13	[(32, 9), (114, 5), (237, 8), (110, 1), (117, 7), (206, 4), (21, 3), (126, 6), (28, 6), (234, 2), (231, 10), (71, 4), (172, 2)]
61	1	2	8	20	[(116, 2), (12, 2), (224, 4), (11, 4), (220, 10), (171, 6), (147, 10), (182, 4), (201, 8), (156, 1), (74, 0), (100, 5), (144, 3), (48, 6), (240, 4), (198, 4), (16, 0), (41, 8), (6, 7), (45, 3)]
62	1	3	8	21	[(62, 6), (240, 10), (56, 5), (39, 6), (199, 5), (6, 0), (27, 3), (92, 0), (36, 4), (186, 4), (74, 3), (248, 8), (55, 3), (215, 5), (185, 3), (66, 6), (101, 10), (131, 9), (207, 1), (239, 9), (177, 8)]
63	2	6	7	14	[(119, 0), (79, 8), (56, 10), (3, 1), (60, 6), (27, 7), (151, 9), (242, 0), (152, 2), (123, 10), (31, 5), (204, 10), (83, 10), (102, 1)]
64	28	4	8	25	[(88, 0), (31, 1), (22, 5), (72, 9), (63, 2), (230, 8), (183, 6), (107, 4), (125, 0), (140, 6), (244, 8), (21, 3), (236, 3), (124, 4), (179, 2), (200, 5), (156, 4), (239, 7), (173, 0), (69, 7), (101, 5), (36, 9), (104, 8), (149, 5), (128, 0)]
65	2	1	8	17	[(226, 4), (79, 4), (77, 10), (21, 6), (154, 8), (215, 1), (170, 10), (150, 8), (5, 1), (152, 4), (20, 9), (134, 2), (68, 8), (132, 2), (95, 5), (16, 10), (64, 4)]
66	1	1	8	17	[(90, 1), (208, 9), (243, 2), (67, 8), (130, 2), (214, 6), (226, 7), (238, 10), (93, 5), (183, 8), (194, 2), (91, 5), (135, 7), (141, 3), (120, 4), (144, 7), (40, 9)]
67	17	1	8	16	[(205, 1), (65, 1), (29, 0), (236, 5), (42, 7), (68, 4), (59, 6), (20, 10), (173, 3), (190, 10), (143, 6), (156, 0), (78, 1), (86, 3), (2, 5), (170, 9)]
68	2	1	8	16	[(164, 9), (136, 4), (105, 3), (93, 6), (65, 4), (53, 3), (38, 4), (30, 3), (60, 8), (117, 0), (141, 7), (193, 2), (81, 7), (201, 8), (12, 8), (14, 0)]
69	2	2	8	21	[(81, 3), (218, 3), (49, 8), (222, 10), (137, 9), (97, 2), (121, 3), (33, 7), (241, 3), (229, 10), (91, 7), (83, 0), (114, 5), (220, 10), (147, 8), (235, 3), (3, 10), (72, 8), (59, 7), (192, 7), (243, 10)]
70	1	1	8	19	[(204, 0), (34, 1), (17, 2), (43, 0), (132, 6), (180, 4), (73, 0), (139, 4), (95, 2), (177, 1), (163, 5), (110, 3), (214, 1), (112, 3), (21, 9), (125, 3), (2, 2), (16, 0), (96, 5)]
71	1	1	16	16	[(72, 7), (177, 0), (32, 7), (103, 3), (95, 2), (23, 7), (200, 9), (5, 7), (175, 3), (150, 8), (147, 10), (21, 5), (174, 8), (18, 7), (9, 5), (20, 3)]
72	6	1	1	20	[(220, 8), (249, 6), (63, 4), (22, 10), (117, 6), (230, 4), (130, 9), (167, 0), (159, 9), (34, 9), (26, 1), (86, 2), (91, 4), (156, 4), (205, 6), (38, 3), (30, 4), (231, 10), (233, 9), (175, 2)]
73	4	1	8	15	[(55, 3), (47, 1), (189, 3), (230, 4), (89, 9), (8, 9), (97, 3), (123, 2), (66, 5), (69, 0), (10, 1), (103, 1), (14, 10), (242, 8), (231, 6)]
74	49	2	8	22	[(17, 3), (107, 6), (119, 2), (3, 10), (51, 2), (241, 10), (35, 10), (67, 10), (137, 3), (86, 10), (114, 0), (143, 0), (211, 6), (169, 10), (189, 8), (145, 7), (226, 2), (122, 3), (100, 10), (221, 4), (106, 6), (10, 10)]
75	3	6	8	14	[(120, 7), (240, 2), (211, 7), (124, 10), (237, 8), (118, 2), (162, 1), (213, 2), (163, 7), (232, 0), (38, 10), (95, 6), (112, 6), (62, 1)]
76	1	6	8	16	[(234, 2), (92, 5), (85, 7), (178, 5), (78, 2), (93, 6), (69, 2), (81, 4), (249, 0), (60, 0), (108, 8), (181, 10), (212, 1), (117, 5), (171, 8), (19, 0)]
77	3	6	8	22	[(184, 7), (158, 9), (63, 10), (200, 9), (189, 3), (243, 7), (24, 0), (54, 3), (30, 10), (77, 7), (202, 3), (185, 6), (34, 9), (130, 7), (227, 9), (157, 10), (87, 8), (174, 10), (94, 3), (193, 10), (210, 3), (221, 8)]
78	16	1	8	25	[(176, 8), (10, 9), (188, 4), (5, 9), (178, 4), (21, 8), (114, 10), (64, 9), (28, 0), (49, 2), (62, 10), (158, 5), (71, 1), (234, 5), (102, 2), (123, 4), (58, 0), (133, 10), (194, 0), (191, 1), (2, 3), (3, 9), (86, 9), (55, 3), (213, 2)]
79	2	6	2	21	[(199, 1), (11, 8), (69, 5), (209, 1), (65, 1), (128, 5), (101, 0), (197, 0), (9, 3), (198, 3), (106, 9), (32, 5), (72, 7), (34, 6), (175, 5), (132, 3), (24, 8), (119, 2), (87, 9), (150, 9), (25, 3)]
80	1	2	16	18	[(229, 8), (170, 3), (154, 7), (104, 8), (113, 1), (45, 8), (155, 10), (114, 6), (230, 2), (34, 4), (151, 7), (178, 9), (199, 10), (158, 7), (102, 5), (173, 9), (179, 9), (181, 3)]
81	11	2	75	17	[(65, 7), (232, 4), (7, 9), (48, 0), (197, 4), (186, 8), (164, 9), (225, 7), (244, 2), (223, 4), (73, 5), (18, 0), (87, 5), (189, 2), (231, 0), (46, 0), (40, 8)]
82	1	1	8	14	[(179, 4), (78, 2), (152, 10), (18, 10), (55, 2), (7, 2), (41, 6), (221, 3), (240, 1), (128, 8), (142, 7), (26, 7), (183, 2), (121, 5)]
83	1	2	8	20	[(33, 0), (21, 6), (233, 5), (81, 5), (245, 1), (91, 0), (191, 7), (26, 3), (17, 6), (183, 4), (195, 9), (182, 5), (128, 10), (243, 9), (35, 0), (149, 6), (112, 8), (15, 10), (70, 7), (166, 1)]
84	6	2	8	22	[(204, 6), (162, 8), (127, 0), (229, 10), (4, 10), (142, 5), (64, 2), (31, 6), (110, 5), (194, 5), (67, 8), (17, 8), (179, 5), (166, 10), (180, 9), (62, 6), (151, 1), (231, 5), (88, 10), (54, 0), (159, 3), (232, 7)]
85	1	1	8	14	[(162, 8), (210, 7), (136, 1), (102, 4), (149, 3), (238, 4), (234, 5), (117, 4), (90, 4), (101, 8), (147, 2), (60, 5), (123, 2), (110, 5)]
86	8	1	2	17	[(246, 6), (232, 7), (223, 7), (41, 1), (173, 8), (76, 9), (146, 9), (204, 10), (159, 5), (185, 1), (160, 8), (51, 9), (172, 8), (16, 10), (5, 1), (186, 1), (11, 9)]
87	10	1	7	18	[(114, 3), (209, 0), (168, 5), (9, 8), (89, 7), (42, 0), (8, 6), (26, 8), (59, 0), (117, 4), (230, 8), (102, 1), (30, 0), (134, 6), (132, 8), (137, 7), (130, 3), (175, 8)]
88	1	1	8	18	[(85, 3), (61, 7), (20, 1), (69, 9), (13, 5), (8, 6), (201, 6), (184, 9), (170, 3), (119, 8), (113, 5), (50, 10), (68, 9), (107, 6), (126, 7), (177, 0), (29, 4), (86, 3)]
89	3	1	8	16	[(167, 4), (37, 2), (33, 6), (179, 3), (97, 4), (134, 9), (162, 7), (41, 8), (17, 8), (67, 0), (228, 4), (160, 3), (15, 4), (248, 1), (159, 10), (6, 10)]
90	2	1	8	19	[(237, 5), (50, 4), (156, 1), (240, 10), (103, 4), (209, 8), (130, 10), (49, 10), (24, 8), (48, 5), (200, 8), (89, 0), (184, 1), (13, 4), (70, 7), (66, 9), (141, 4), (58, 1), (29, 3)]
91	7	1	8	17	[(234, 0), (86, 6), (186, 4), (90, 7), (156, 1), (12, 8), (223, 3), (5, 7), (151, 9), (6, 3), (146, 5), (33, 0), (57, 4), (184, 10), (42, 3), (227, 7), (64, 5)]
92	2	1	8	20	[(225, 2), (241, 9), (211, 8), (31, 8), (214, 2), (217, 9), (67, 0), (160, 4), (35, 3), (47, 3), (24, 7), (100, 5), (238, 0), (99, 5), (235, 9), (72, 1), (169, 2), (32, 4), (92, 10), (79, 10)]
93	2	4	8	21	[(40, 10), (211, 3), (81, 4), (159, 9), (10, 10), (162, 2), (221, 9), (212, 1), (98, 8), (33, 10), (77, 8), (124, 1), (199, 2), (129, 6), (154, 0), (61, 4), (183, 7), (226, 9), (88, 0), (97, 3), (197, 3)]
94	6	2	8	11	[(75, 0), (50, 9), (55, 4), (116, 9), (98, 4), (222, 7), (102, 5), (240, 10), (128, 4), (142, 0), (169, 10)]
95	2	1	8	13	[(53, 9), (66, 10), (103, 9), (236, 1), (44, 0), (227, 2), (50, 1), (220, 0), (238, 10), (36, 2), (205, 9), (82, 7), (129, 0)]
96	2	1	8	16	[(97, 3), (245, 8), (200, 2), (238, 7), (53, 9), (68, 6), (192, 6), (96, 8), (209, 3), (106, 7), (32, 9), (39, 0), (74, 8), (82, 5), (235, 2), (81, 3)]
97	2	2	8	14	[(79, 3), (242, 10), (247, 1), (199, 5), (234, 0), (185, 7), (22, 2), (229, 5), (201, 2), (2, 9), (98, 10), (237, 10), (41, 1), (75, 4)]
98	1	1	16	18	[(20, 6), (87, 0), (227, 3), (38, 6), (57, 0), (118, 6), (162, 10), (130, 0), (173, 9), (61, 2), (224, 0), (113, 3), (248, 0), (201, 5), (168, 7), (2, 2), (25, 4), (144, 7)]
99	1	16	8	16	[(97, 10), (231, 5), (154, 7), (44, 3), (49, 9), (101, 8), (45, 9), (110, 7), (142, 6), (92, 6), (217, 7), (67, 6), (249, 6), (143, 2), (84, 8), (20, 4)]
100	1	1	2	14	[(167, 6), (159, 4), (212, 8), (77, 8), (8, 2), (15, 3), (9, 4), (146, 3), (60, 0), (142, 10), (172, 3), (102, 0), (141, 0), (89, 10)]
101	4	1	8	19	[(98, 3), (81, 5), (122, 4), (47, 8), (119, 0), (143, 4), (76, 9), (136, 1), (117, 1), (75, 10), (191, 10), (128, 2), (141, 9), (249, 9), (16, 5), (89, 0), (28, 0), (133, 1), (217, 8)]
102	8	1	8	17	[(187, 0), (193, 7), (113, 10), (91, 5), (93, 9), (33, 5), (165, 10), (176, 2), (38, 2), (227, 3), (134, 6), (65, 5), (67, 0), (53, 3), (11, 5), (124, 4), (82, 0)]
103	1	2	8	21	[(114, 2), (211, 1), (4, 1), (190, 5), (55, 9), (146, 4), (74, 4), (42, 6), (73, 0), (100, 2), (59, 6), (151, 9), (9, 8), (21, 7), (82, 0), (85, 8), (8, 1), (61, 6), (84, 9), (121, 3), (132, 4)]
104	2	1	8	20	[(235, 2), (138, 5), (186, 9), (24, 8), (85, 7), (212, 10), (123, 1), (209, 4), (67, 10), (239, 0), (75, 6), (179, 4), (155, 9), (197, 10), (37, 1), (200, 9), (180, 3), (30, 2), (188, 4), (164, 0)]
105	2	1	8	15	[(181, 3), (157, 5), (50, 7), (136, 3), (57, 7), (202, 0), (43, 2), (169, 3), (73, 1), (213, 0), (97, 6), (223, 1), (109, 5), (62, 6), (92, 0)]
106	1	1	8	12	[(151, 4), (47, 0), (166, 4), (25, 4), (118, 0), (96, 6), (53, 6), (240, 0), (134, 2), (124, 0), (57, 5), (247, 1)]
107	1	1	8	15	[(204, 0), (2, 9), (62, 10), (196, 1), (187, 4), (61, 0), (209, 5), (38, 5), (107, 9), (64, 10), (73, 9), (13, 3), (53, 3), (104, 1), (108, 0)]
108	2	1	1	18	[(185, 10), (200, 6), (76, 0), (202, 5), (248, 0), (182, 10), (207, 0), (193, 2), (87, 1), (211, 2), (108, 4), (12, 8), (106, 3), (54, 8), (156, 3), (179, 4), (90, 1), (215, 10)]
109	2	1	8	17	[(24, 9), (237, 10), (171, 7), (71, 8), (227, 7), (189, 9), (190, 2), (165, 2), (228, 4), (247, 8), (74, 7), (10, 2), (230, 5), (75, 7), (142, 8), (215, 2), (90, 8)]
110	1	1	8	15	[(122, 3), (223, 5), (94, 4), (58, 3), (106, 1), (52, 4), (30, 5), (239, 4), (77, 6), (229, 2), (172, 9), (115, 1), (29, 7), (111, 6), (124, 5)]
111	5	4	8	14	[(146, 5), (21, 6), (172, 9), (206, 8), (190, 9), (81, 10), (250, 6), (145, 7), (51, 3), (204, 10), (19, 4), (68, 9), (4, 3), (243, 4)]
112	3	3	8	19	[(20, 5), (82, 5), (16, 1), (163, 1), (197, 4), (123, 4), (188, 5), (216, 2), (207, 5), (154, 0), (149, 4), (153, 10), (133, 9), (193, 6), (44, 1), (245, 9), (142, 7), (175, 1), (226, 9)]
113	50	4	2	21	[(208, 9), (167, 9), (29, 6), (89, 4), (106, 1), (28, 6), (162, 8), (19, 1), (175, 3), (103, 6), (154, 5), (6, 10), (217, 3), (230, 0), (67, 0), (166, 4), (13, 4), (231, 5), (242, 3), (94, 2), (10, 3)]
114	2	4	16	24	[(36, 9), (133, 0), (79, 3), (13, 6), (1, 8), (139, 1), (113, 7), (250, 1), (174, 5), (217, 6), (75, 0), (69, 7), (216, 6), (102, 10), (129, 6), (73, 2), (239, 1), (32, 1), (114, 3), (189, 9), (105, 1), (232, 6), (72, 4), (160, 4)]
115	8	1	8	12	[(82, 4), (231, 10), (59, 10), (27, 9), (151, 10), (212, 8), (51, 4), (165, 10), (225, 3), (101, 3), (62, 8), (48, 9)]
116	3	1	8	15	[(88, 2), (234, 3), (129, 4), (148, 9), (125, 4), (90, 3), (232, 3), (25, 9), (82, 10), (156, 8), (108, 6), (217, 9), (221, 8), (236, 0), (192, 8)]
117	5	4	8	11	[(109, 5), (114, 3), (49, 4), (32, 0), (110, 5), (59, 2), (136, 4), (89, 0), (166, 8), (227, 1), (22, 1)]
118	2	6	8	13	[(81, 7), (152, 2), (78, 6), (38, 4), (160, 0), (249, 10), (141, 3), (187, 4), (143, 5), (126, 6), (103, 9), (219, 0), (47, 6)]
119	2	1	6	23	[(234, 1), (205, 0), (221, 4), (124, 3), (104, 1), (63, 7), (97, 4), (88, 9), (245, 8), (47, 0), (203, 6), (18, 9), (8, 0), (135, 0), (31, 3), (76, 1), (93, 4), (123, 3), (235, 9), (185, 8), (1, 4), (17, 5), (236, 1)]
120	124	1	8	17	[(139, 5), (178, 8), (111, 0), (2, 10), (93, 5), (7, 1), (193, 4), (19, 4), (122, 0), (199, 8), (129, 3), (109, 0), (42, 1), (202, 10), (215, 10), (234, 9), (175, 10)]
121	1	2	1	15	[(23, 6), (107, 2), (79, 4), (242, 0), (222, 0), (56, 8), (4, 8), (142, 4), (51, 7), (225, 4), (168, 0), (59, 0), (42, 4), (108, 7), (246, 9)]
122	5	1	8	18	[(110, 5), (144, 6), (77, 2), (109, 6), (4, 5), (125, 10), (195, 5), (14, 6), (34, 0), (13, 6), (218, 9), (31, 2), (37, 3), (50, 1), (8, 8), (86, 8), (209, 1), (202, 6)]
123	1	1	8	14	[(108, 8), (24, 5), (128, 5), (38, 6), (133, 6), (191, 0), (208, 5), (152, 9), (192, 5), (40, 5), (196, 9), (170, 7), (21, 1), (226, 0)]
124	3	4	8	19	[(177, 9), (192, 7), (96, 6), (203, 10), (28, 9), (25, 5), (195, 10), (76, 4), (183, 1), (71, 10), (85, 5), (53, 9), (44, 7), (174, 5), (79, 4), (63, 7), (208, 8), (127, 6), (24, 7)]
125	10	1	8	18	[(240, 4), (161, 3), (164, 8), (189, 1), (144, 0), (36, 2), (45, 2), (80, 3), (25, 3), (110, 5), (68, 5), (60, 1), (191, 5), (65, 7), (21, 2), (38, 8), (125, 6), (119, 4)]
126	4	3	8	18	[(104, 4), (229, 7), (13, 3), (16, 3), (20, 10), (12, 7), (159, 3), (82, 2), (127, 7), (97, 8), (219, 8), (99, 5), (49, 6), (158, 6), (90, 7), (198, 0), (221, 0), (25, 8)]
127	4	6	8	20	[(217, 5), (131, 1), (114, 7), (50, 7), (86, 9), (81, 1), (105, 4), (54, 10), (222, 10), (138, 9), (193, 6), (31, 3), (6, 5), (129, 4), (118, 7), (94, 5), (132, 9), (191, 1), (230, 10), (174, 2)]
128	13	4	8	16	[(51, 7), (237, 2), (63, 5), (167, 1), (98, 10), (60, 4), (197, 1), (46, 8), (210, 4), (64, 9), (28, 5), (112, 2), (142, 6), (246, 10), (70, 2), (113, 10)]
129	2	1	2	22	[(48, 7), (69, 2), (75, 2), (98, 1), (140, 2), (97, 2), (232, 1), (82, 10), (58, 2), (120, 7), (4, 10), (122, 8), (161, 2), (113, 2), (138, 0), (246, 1), (182, 5), (166, 0), (89, 0), (160, 9), (21, 8), (26, 10)]
130	1	1	16	20	[(65, 6), (68, 2), (80, 2), (137, 8), (203, 9), (219, 5), (170, 3), (202, 1), (208, 5), (132, 5), (46, 2), (78, 4), (209, 5), (100, 6), (204, 10), (224, 0), (196, 8), (58, 0), (98, 1), (238, 9)]
131	1	1	8	15	[(60, 2), (53, 4), (176, 9), (46, 8), (207, 0), (36, 5), (221, 0), (76, 8), (24, 10), (178, 4), (223, 2), (114, 4), (184, 6), (61, 7), (197, 0)]
132	3	1	8	15	[(183, 6), (195, 10), (204, 7), (4, 2), (127, 6), (11, 2), (223, 7), (57, 3), (188, 2), (206, 6), (24, 6), (9, 10), (87, 5), (2, 4), (48, 10)]
133	1	3	8	22	[(133, 9), (243, 3), (27, 7), (182, 5), (214, 1), (198, 6), (225, 5), (228, 8), (199, 10), (44, 10), (136, 8), (192, 0), (134, 7), (213, 10), (204, 9), (24, 0), (244, 8), (81, 4), (229, 4), (140, 3), (156, 6), (219, 10)]
134	2	1	8	22	[(139, 2), (39, 6), (216, 4), (47, 10), (24, 1), (172, 6), (231, 2), (237, 2), (68, 8), (203, 4), (69, 7), (50, 4), (196, 2), (165, 7), (49, 10), (155, 0), (150, 2), (190, 9), (37, 7), (87, 9), (198, 9), (169, 6)]
135	2	1	2	17	[(6, 1), (45, 7), (135, 2), (26, 1), (117, 3), (97, 4), (225, 7), (152, 10), (36, 3), (29, 10), (125, 3), (72, 9), (85, 2), (249, 5), (234, 5), (244, 9), (245, 5)]
136	2	1	8	23	[(134, 4), (191, 5), (69, 8), (143, 3), (156, 2), (15, 0), (64, 7), (107, 9), (114, 7), (72, 5), (158, 4), (18, 2), (40, 1), (38, 10), (132, 8), (214, 1), (39, 3), (159, 10), (71, 6), (5, 2), (236, 3), (223, 7), (176, 0)]
137	4	1	8	15	[(85, 4), (247, 10), (64, 1), (98, 10), (138, 10), (125, 9), (94, 7), (171, 0), (137, 8), (164, 10), (153, 10), (188, 6), (87, 8), (185, 5), (225, 8)]
138	2	1	1	19	[(227, 9), (42, 4), (193, 7), (94, 6), (86, 4), (87, 0), (14, 0), (60, 2), (186, 9), (122, 0), (63, 2), (150, 2), (3, 0), (6, 2), (151, 3), (217, 10), (168, 5), (137, 9), (120, 4)]
139	4	1	8	18	[(157, 4), (192, 3), (44, 9), (142, 9), (150, 6), (125, 0), (64, 10), (175, 7), (54, 6), (18, 8), (172, 0), (190, 10), (107, 9), (33, 0), (104, 2), (39, 1), (30, 6), (6, 1)]
140	2	2	8	15	[(173, 8), (20, 9), (103, 2), (106, 4), (172, 5), (47, 0), (176, 3), (239, 5), (50, 3), (65, 4), (95, 7), (164, 8), (44, 4), (155, 7), (199, 1)]
141	3	1	8	27	[(106, 8), (119, 5), (211, 10), (8, 7), (41, 8), (159, 7), (207, 7), (146, 5), (11, 10), (125, 6), (44, 9), (206, 1), (221, 5), (210, 10), (205, 9), (231, 5), (124, 2), (46, 4), (74, 2), (152, 3), (236, 9), (171, 6), (34, 2), (219, 4), (240, 1), (70, 1), (189, 4)]
142	2	1	8	15	[(90, 3), (219, 2), (85, 0), (11, 4), (10, 3), (245, 7), (214, 1), (28, 5), (56, 8), (61, 3), (204, 7), (94, 9), (215, 8), (205, 2), (138, 5)]
143	1	1	8	17	[(139, 6), (109, 6), (84, 9), (168, 3), (45, 9), (153, 10), (196, 7), (186, 6), (43, 4), (59, 3), (227, 6), (250, 1), (11, 5), (152, 8), (21, 0), (70, 4), (124, 1)]
144	5	1	8	27	[(57, 6), (58, 4), (72, 7), (204, 4), (230, 9), (154, 6), (240, 2), (55, 1), (35, 8), (156, 3), (54, 0), (139, 0), (106, 7), (244, 2), (16, 10), (199, 2), (44, 1), (9, 7), (181, 8), (141, 7), (22, 0), (7, 5), (112, 0), (158, 8), (233, 4), (65, 8), (214, 9)]
145	39	1	8	8	[(83, 10), (143, 10), (64, 10), (59, 4), (174, 8), (206, 1), (142, 1), (13, 2)]
146	1	1	8	21	[(54, 0), (16, 10), (85, 9), (207, 2), (14, 4), (65, 3), (184, 8), (97, 2), (199, 6), (178, 5), (58, 9), (140, 3), (49, 9), (175, 3), (26, 6), (166, 6), (66, 4), (39, 7), (187, 2), (171, 0), (122, 10)]
147	2	1	8	15	[(117, 0), (227, 3), (210, 0), (181, 9), (19, 8), (48, 9), (139, 0), (31, 1), (2, 10), (10, 6), (224, 5), (114, 5), (187, 5), (6, 2), (160, 5)]
148	1	3	8	13	[(3, 0), (47, 1), (54, 0), (38, 6), (154, 2), (147, 8), (69, 7), (149, 1), (232, 3), (185, 8), (86, 5), (100, 2), (6, 8)]
149	1	1	8	21	[(227, 2), (203, 1), (175, 5), (1, 9), (38, 3), (96, 10), (218, 5), (149, 10), (45, 1), (182, 9), (91, 5), (92, 8), (143, 8), (204, 4), (24, 7), (105, 4), (211, 6), (89, 5), (93, 3), (162, 0), (213, 0)]
150	2	1	8	13	[(139, 10), (129, 7), (232, 0), (182, 0), (22, 10), (99, 2), (231, 9), (190, 2), (226, 8), (185, 8), (17, 5), (172, 9), (134, 9)]
151	2	1	1	15	[(68, 0), (167, 2), (29, 9), (3, 4), (217, 6), (187, 9), (90, 10), (206, 1), (100, 9), (20, 3), (64, 6), (42, 6), (186, 1), (164, 9), (44, 6)]
152	1	1	5	19	[(21, 0), (83, 7), (80, 7), (240, 5), (110, 9), (213, 8), (47, 10), (75, 4), (71, 2), (128, 1), (134, 10), (26, 6), (12, 9), (49, 10), (241, 2), (177, 2), (151, 6), (39, 2), (206, 10)]
153	3	2	3	25	[(34, 6), (231, 1), (77, 5), (134, 1), (18, 4), (243, 7), (51, 6), (59, 1), (199, 9), (160, 10), (60, 6), (26, 0), (196, 9), (3, 0), (128, 10), (153, 7), (234, 2), (163, 1), (42, 2), (95, 4), (168, 0), (189, 10), (150, 2), (175, 8), (188, 1)]
154	1	1	8	18	[(222, 6), (28, 9), (61, 4), (241, 4), (234, 7), (36, 2), (136, 8), (12, 10), (103, 2), (112, 7), (203, 2), (94, 2), (153, 8), (209, 9), (97, 4), (56, 4), (31, 4), (104, 0)]
155	6	1	8	19	[(114, 6), (130, 8), (120, 3), (74, 6), (172, 5), (111, 8), (17, 10), (49, 3), (87, 9), (29, 6), (72, 10), (24, 5), (132, 3), (173, 1), (169, 2), (70, 9), (208, 1), (86, 5), (222, 4)]
156	1	5	8	18	[(4, 1), (91, 0), (42, 0), (246, 2), (132, 9), (202, 1), (100, 4), (112, 4), (68, 0), (215, 6), (43, 3), (44, 2), (8, 2), (60, 6), (31, 4), (79, 6), (90, 7), (178, 10)]
157	1	1	8	23	[(240, 8), (174, 7), (54, 3), (60, 4), (29, 2), (212, 3), (200, 9), (114, 2), (215, 10), (219, 6), (10, 9), (140, 2), (218, 0), (125, 4), (85, 8), (119, 9), (233, 4), (145, 7), (225, 2), (91, 7), (155, 6), (122, 2), (99, 10)]
158	2	1	8	28	[(33, 8), (19, 2), (241, 3), (73, 7), (58, 5), (115, 0), (10, 0), (158, 2), (80, 3), (202, 4), (187, 1), (82, 2), (56, 9), (28, 2), (138, 3), (72, 7), (236, 4), (23, 8), (156, 2), (5, 10), (150, 2), (37, 3), (39, 2), (8, 7), (216, 2), (103, 4), (51, 6), (69, 7)]
159	1	1	16	14	[(191, 3), (166, 8), (184, 9), (57, 10), (65, 6), (17, 6), (18, 1), (48, 10), (168, 5), (186, 3), (249, 9), (105, 7), (20, 10), (160, 8)]
160	1	4	16	20	[(202, 2), (115, 2), (171, 4), (185, 9), (209, 10), (219, 7), (145, 7), (41, 3), (126, 5), (133, 9), (59, 0), (61, 3), (87, 9), (111, 10), (176, 9), (29, 10), (137, 0), (235, 7), (45, 9), (43, 7)]
161	1	1	8	18	[(140, 1), (147, 2), (151, 8), (219, 2), (181, 2), (176, 4), (148, 10), (85, 10), (74, 4), (54, 4), (248, 1), (107, 0), (160, 0), (108, 3), (195, 6), (196, 6), (250, 8), (118, 10)]
162	4	1	8	15	[(105, 9), (41, 3), (154, 5), (229, 3), (140, 6), (187, 3), (63, 7), (57, 2), (4, 8), (169, 1), (82, 5), (183, 4), (195, 5), (120, 10), (125, 2)]
163	2	6	32	15	[(108, 3), (243, 5), (105, 6), (202, 4), (49, 8), (176, 2), (225, 6), (177, 0), (196, 2), (139, 2), (174, 6), (212, 10), (241, 1), (148, 4), (74, 8)]
164	1	1	8	15	[(117, 9), (189, 5), (161, 10), (97, 8), (66, 8), (80, 2), (239, 4), (81, 7), (170, 10), (220, 1), (90, 0), (217, 2), (153, 0), (119, 1), (40, 0)]
165	2	1	8	15	[(138, 2), (240, 6), (238, 9), (122, 3), (97, 9), (223, 10), (244, 8), (17, 7), (231, 9), (51, 7), (170, 8), (179, 3), (99, 5), (130, 7), (212, 7)]
166	1	6	1	15	[(74, 8), (230, 4), (4, 6), (233, 6), (123, 1), (219, 6), (162, 7), (152, 3), (32, 10), (124, 3), (194, 10), (48, 1), (207, 1), (111, 0), (155, 3)]
167	2	2	2	17	[(246, 10), (42, 0), (115, 4), (57, 4), (58, 9), (122, 5), (89, 8), (164, 0), (126, 3), (189, 9), (178, 9), (191, 8), (9, 8), (111, 1), (232, 5), (67, 9), (15, 9)]
168	7	1	16	15	[(88, 7), (175, 0), (84, 8), (38, 7), (78, 7), (188, 7), (204, 10), (245, 1), (62, 1), (77, 10), (25, 7), (27, 10), (131, 10), (124, 0), (87, 2)]
169	4	4	3	16	[(235, 1), (220, 10), (192, 7), (182, 3), (136, 2), (181, 2), (78, 7), (197, 7), (48, 6), (99, 9), (66, 7), (132, 7), (234, 5), (143, 3), (121, 2), (106, 0)]
170	1	4	8	11	[(198, 4), (229, 0), (237, 5), (177, 6), (203, 4), (173, 9), (62, 8), (15, 3), (127, 8), (145, 9), (11, 3)]
171	2	4	8	11	[(40, 10), (243, 1), (135, 0), (73, 6), (41, 1), (87, 10), (99, 2), (50, 4), (104, 8), (231, 7), (8, 5)]
172	2	1	8	10	[(175, 3), (86, 7), (85, 1), (1, 3), (50, 8), (207, 7), (214, 9), (206, 4), (184, 6), (216, 6)]
173	2	3	8	14	[(79, 10), (23, 6), (246, 5), (198, 8), (83, 5), (20, 1), (7, 5), (26, 4), (12, 9), (150, 9), (66, 7), (205, 1), (178, 9), (144, 1)]
174	6	2	8	17	[(139, 1), (170, 7), (57, 0), (122, 10), (76, 10), (209, 1), (228, 3), (131, 8), (23, 8), (227, 0), (162, 9), (159, 5), (242, 1), (178, 8), (7, 6), (157, 4), (116, 5)]
175	2	5	8	22	[(174, 10), (216, 1), (79, 8), (225, 6), (249, 10), (150, 0), (155, 8), (221, 8), (193, 4), (80, 9), (187, 9), (229, 7), (185, 3), (59, 1), (228, 0), (3, 2), (47, 9), (159, 10), (205, 4), (98, 4), (211, 6), (204, 5)]
176	4	1	8	22	[(7, 8), (178, 8), (216, 9), (110, 9), (119, 6), (41, 10), (28, 1), (198, 9), (18, 4), (166, 4), (97, 8), (99, 5), (152, 8), (26, 10), (158, 2), (105, 2), (209, 10), (147, 3), (184, 3), (185, 8), (27, 1), (163, 4)]
177	2	1	8	22	[(131, 2), (188, 0), (45, 4), (247, 8), (22, 3), (75, 0), (238, 4), (87, 8), (97, 0), (99, 10), (24, 1), (42, 10), (36, 1), (39, 3), (105, 9), (92, 8), (174, 3), (11, 1), (190, 7), (243, 9), (154, 5), (27, 3)]
178	1	1	8	14	[(68, 8), (168, 8), (105, 0), (72, 9), (5, 5), (23, 8), (239, 4), (96, 2), (193, 3), (158, 2), (242, 9), (165, 9), (226, 4), (74, 1)]
179	5	4	8	18	[(134, 4), (146, 5), (197, 6), (236, 3), (108, 10), (218, 10), (50, 5), (195, 9), (8, 10), (127, 3), (177, 2), (27, 1), (242, 7), (14, 6), (43, 7), (250, 8), (220, 4), (20, 9)]
180	6	1	1	17	[(195, 8), (207, 9), (138, 3), (95, 3), (72, 5), (193, 9), (238, 3), (83, 1), (109, 10), (130, 8), (59, 3), (247, 7), (232, 2), (54, 4), (188, 10), (169, 8), (40, 8)]
181	5	1	8	8	[(175, 6), (210, 6), (147, 10), (158, 7), (193, 7), (243, 10), (20, 10), (184, 6)]
182	2	1	8	20	[(216, 4), (233, 10), (51, 2), (161, 8), (194, 2), (218, 0), (180, 4), (42, 0), (69, 2), (17, 4), (232, 7), (59, 8), (144, 2), (237, 8), (114, 0), (6, 4), (21, 0), (1, 7), (63, 2), (143, 2)]
183	2	1	8	21	[(4, 0), (166, 8), (109, 6), (12, 5), (57, 5), (72, 10), (55, 8), (244, 0), (104, 0), (31, 8), (8, 1), (43, 5), (192, 1), (77, 4), (34, 2), (96, 4), (218, 9), (208, 2), (132, 9), (80, 4), (234, 5)]
184	2	5	16	22	[(215, 4), (224, 3), (142, 2), (178, 9), (59, 2), (139, 5), (68, 5), (103, 4), (234, 5), (196, 3), (205, 4), (144, 3), (207, 5), (5, 5), (65, 4), (168, 7), (90, 9), (156, 8), (11, 8), (185, 0), (221, 1), (69, 10)]
185	11	1	8	18	[(74, 0), (56, 4), (97, 2), (210, 6), (110, 8), (204, 10), (54, 0), (161, 4), (88, 8), (92, 4), (240, 7), (89, 4), (215, 9), (83, 10), (249, 3), (236, 8), (190, 2), (5, 10)]
186	2	1	8	13	[(107, 0), (81, 9), (127, 10), (1, 2), (148, 4), (8, 1), (23, 8), (25, 10), (61, 5), (172, 3), (62, 5), (187, 0), (129, 1)]
187	1	6	8	18	[(188, 3), (113, 4), (162, 3), (223, 2), (201, 2), (86, 3), (122, 8), (173, 1), (31, 6), (227, 9), (170, 6), (147, 9), (46, 8), (38, 2), (76, 4), (92, 10), (44, 6), (140, 8)]
188	2	1	8	23	[(67, 0), (124, 6), (84, 2), (161, 8), (7, 2), (50, 8), (189, 4), (80, 0), (35, 7), (88, 10), (183, 9), (98, 8), (155, 0), (11, 6), (174, 9), (248, 5), (113, 10), (95, 3), (125, 5), (97, 1), (143, 4), (83, 7), (240, 0)]
189	2	1	8	22	[(229, 5), (15, 10), (166, 6), (78, 3), (220, 3), (74, 3), (71, 6), (213, 7), (60, 10), (151, 5), (84, 6), (11, 4), (125, 3), (240, 2), (144, 8), (81, 3), (104, 8), (115, 4), (227, 2), (243, 8), (164, 2), (94, 1)]
190	1	1	8	19	[(248, 8), (104, 9), (151, 5), (132, 0), (84, 6), (245, 4), (114, 1), (229, 3), (17, 4), (115, 9), (188, 10), (134, 2), (155, 8), (129, 6), (202, 8), (52, 2), (102, 8), (136, 3), (45, 2)]
191	25	1	8	16	[(233, 6), (167, 4), (8, 8), (71, 0), (149, 8), (34, 2), (72, 9), (96, 0), (109, 4), (41, 6), (218, 9), (92, 10), (180, 7), (155, 7), (140, 10), (173, 9)]
192	4	1	8	19	[(242, 0), (129, 0), (215, 4), (167, 9), (191, 0), (217, 4), (114, 1), (23, 0), (99, 3), (120, 9), (72, 0), (32, 3), (137, 4), (87, 7), (178, 4), (16, 8), (134, 6), (141, 2), (119, 6)]
193	3	1	5	19	[(107, 2), (99, 9), (227, 3), (165, 10), (76, 0), (136, 8), (100, 3), (38, 2), (250, 0), (199, 1), (8, 7), (51, 4), (130, 0), (143, 10), (37, 6), (158, 5), (101, 0), (159, 9), (246, 5)]
194	2	1	8	20	[(69, 9), (80, 6), (131, 6), (54, 4), (219, 8), (220, 2), (187, 5), (141, 7), (23, 9), (65, 5), (163, 0), (243, 6), (206, 6), (73, 2), (91, 8), (164, 5), (43, 4), (149, 7), (41, 2), (67, 1)]
195	2	1	8	16	[(59, 8), (135, 4), (95, 7), (111, 9), (94, 0), (209, 7), (122, 8), (96, 3), (142, 0), (215, 9), (28, 5), (182, 1), (46, 3), (75, 9), (86, 6), (14, 4)]
196	2	3	1	15	[(56, 1), (72, 9), (215, 7), (211, 2), (1, 8), (4, 3), (60, 2), (59, 10), (191, 7), (94, 10), (231, 8), (194, 10), (3, 10), (131, 1), (69, 7)]
197	6	2	8	21	[(77, 4), (111, 7), (90, 7), (144, 8), (212, 9), (239, 0), (134, 4), (1, 6), (186, 1), (174, 4), (106, 4), (178, 5), (86, 4), (102, 4), (12, 5), (215, 0), (187, 7), (153, 10), (147, 2), (75, 3), (62, 3)]
198	2	1	16	20	[(31, 4), (12, 6), (97, 5), (198, 3), (140, 5), (130, 9), (150, 4), (154, 0), (1, 2), (113, 8), (128, 9), (83, 2), (143, 0), (57, 1), (123, 8), (234, 3), (246, 6), (185, 2), (108, 5), (237, 2)]
199	2	1	8	19	[(139, 7), (54, 7), (20, 5), (213, 4), (178, 10), (56, 9), (153, 10), (154, 9), (227, 3), (140, 3), (188, 1), (225, 10), (102, 7), (84, 2), (14, 2), (164, 1), (141, 8), (184, 9), (219, 1)]
200	2	1	2	22	[(60, 3), (143, 10), (79, 6), (228, 3), (115, 9), (76, 5), (80, 2), (208, 7), (109, 8), (13, 1), (55, 0), (142, 9), (141, 8), (237, 2), (205, 1), (71, 9), (6, 3), (194, 5), (235, 1), (54, 7), (159, 2), (206, 2)]
201	2	6	8	16	[(239, 10), (180, 1), (166, 5), (144, 7), (48, 5), (83, 9), (60, 5), (74, 2), (175, 10), (40, 1), (77, 1), (151, 5), (114, 8), (115, 9), (38, 0), (155, 5)]
202	2	1	8	18	[(53, 2), (222, 5), (177, 5), (192, 8), (245, 7), (141, 10), (88, 10), (27, 8), (90, 4), (148, 3), (78, 6), (186, 4), (79, 9), (196, 5), (210, 5), (199, 3), (120, 3), (23, 2)]
203	1	3	8	13	[(95, 9), (81, 1), (36, 7), (93, 5), (6, 5), (11, 10), (185, 6), (62, 4), (238, 0), (42, 5), (246, 7), (189, 10), (230, 8)]
204	51	1	8	18	[(216, 3), (102, 1), (202, 1), (42, 6), (52, 5), (170, 4), (117, 10), (191, 6), (108, 1), (40, 6), (1, 2), (61, 5), (162, 0), (178, 6), (131, 10), (136, 10), (114, 0), (152, 6)]
205	3	4	32	16	[(135, 5), (14, 10), (211, 5), (72, 10), (201, 1), (26, 1), (10, 2), (249, 2), (16, 2), (185, 5), (75, 2), (55, 1), (11, 7), (52, 7), (151, 7), (212, 2)]
206	5	1	8	19	[(162, 7), (77, 7), (131, 4), (81, 4), (137, 6), (100, 10), (184, 8), (21, 9), (78, 0), (105, 0), (4, 3), (237, 3), (61, 0), (248, 8), (236, 8), (30, 0), (65, 7), (117, 10), (14, 4)]
207	4	1	8	16	[(3, 0), (209, 1), (154, 1), (196, 2), (62, 9), (246, 0), (244, 9), (100, 2), (211, 6), (136, 10), (21, 1), (185, 4), (32, 1), (76, 1), (172, 7), (212, 5)]
208	6	1	8	19	[(85, 4), (194, 10), (123, 2), (122, 10), (43, 3), (121, 5), (168, 10), (124, 4), (231, 10), (225, 6), (178, 7), (55, 1), (51, 1), (9, 2), (26, 0), (15, 1), (104, 3), (180, 0), (3, 0)]
209	2	2	2	17	[(29, 3), (194, 1), (41, 8), (56, 4), (9, 9), (166, 8), (171, 6), (14, 8), (74, 8), (54, 4), (164, 1), (101, 4), (60, 0), (27, 6), (79, 5), (65, 7), (30, 4)]
210	1	1	8	18	[(234, 7), (91, 0), (85, 3), (2, 8), (217, 5), (130, 2), (18, 2), (236, 3), (12, 5), (137, 2), (66, 9), (221, 5), (76, 1), (172, 0), (96, 9), (166, 5), (206, 8), (104, 7)]
211	2	1	16	9	[(204, 7), (161, 7), (62, 1), (187, 9), (2, 9), (163, 9), (75, 1), (202, 2), (10, 3)]
212	1	1	8	21	[(238, 5), (147, 4), (26, 0), (183, 1), (105, 10), (148, 1), (172, 9), (87, 2), (97, 1), (22, 3), (70, 9), (49, 1), (32, 3), (63, 0), (118, 2), (67, 1), (60, 5), (198, 3), (227, 10), (242, 7), (217, 5)]
213	1	2	8	17	[(236, 2), (17, 5), (62, 5), (178, 6), (39, 10), (201, 7), (58, 8), (23, 4), (118, 6), (108, 0), (73, 7), (5, 10), (71, 3), (67, 7), (131, 10), (103, 1), (10, 10)]
214	5	3	8	23	[(184, 7), (241, 10), (220, 5), (168, 3), (50, 10), (208, 10), (73, 8), (119, 5), (39, 0), (214, 9), (62, 1), (227, 6), (191, 1), (120, 2), (55, 3), (212, 4), (8, 2), (51, 9), (136, 0), (188, 0), (42, 6), (40, 1), (37, 7)]
215	1	1	8	10	[(154, 7), (217, 5), (87, 7), (43, 2), (109, 6), (78, 4), (137, 1), (127, 9), (42, 7), (202, 7)]
216	5	2	8	17	[(186, 6), (243, 1), (127, 9), (113, 1), (105, 3), (188, 10), (150, 2), (12, 9), (244, 1), (213, 8), (149, 9), (234, 5), (62, 2), (33, 2), (1, 9), (36, 2), (69, 1)]
217	2	1	8	24	[(91, 10), (250, 8), (56, 8), (181, 5), (176, 4), (213, 0), (76, 7), (193, 1), (61, 6), (97, 0), (139, 9), (130, 6), (118, 10), (239, 5), (237, 9), (243, 2), (32, 0), (185, 2), (16, 2), (17, 4), (208, 3), (52, 10), (204, 2), (166, 8)]
218	8	2	8	20	[(220, 10), (166, 5), (182, 10), (140, 5), (181, 2), (250, 8), (211, 5), (49, 3), (144, 1), (126, 1), (15, 2), (13, 5), (203, 5), (205, 6), (213, 6), (82, 6), (37, 9), (169, 2), (40, 10), (76, 4)]
219	1	2	8	13	[(127, 2), (123, 3), (27, 7), (236, 0), (81, 0), (149, 5), (17, 4), (140, 9), (154, 0), (156, 8), (210, 1), (166, 3), (203, 3)]
220	15	1	32	19	[(105, 3), (224, 5), (78, 4), (215, 9), (167, 4), (77, 8), (217, 9), (173, 1), (60, 6), (190, 7), (199, 6), (185, 3), (113, 8), (88, 3), (7, 3), (8, 5), (73, 5), (93, 7), (188, 8)]
221	1	1	8	11	[(222, 10), (215, 2), (211, 4), (189, 1), (188, 8), (100, 5), (69, 3), (101, 0), (49, 10), (6, 0), (203, 0)]
222	1	1	32	15	[(243, 9), (26, 10), (223, 0), (143, 7), (93, 9), (161, 8), (184, 9), (69, 1), (35, 6), (145, 2), (235, 3), (139, 6), (169, 3), (61, 2), (104, 2)]
223	2	1	2	18	[(99, 10), (191, 2), (177, 2), (113, 10), (129, 10), (241, 10), (208, 8), (227, 9), (202, 0), (186, 2), (28, 4), (187, 6), (213, 4), (55, 10), (36, 8), (233, 3), (34, 8), (175, 1)]
224	3	1	8	18	[(228, 5), (204, 9), (119, 5), (151, 0), (130, 9), (43, 6), (49, 2), (15, 4), (118, 9), (189, 2), (168, 1), (163, 4), (180, 9), (170, 10), (33, 1), (239, 6), (9, 6), (89, 10)]
225	3	5	8	20	[(29, 0), (178, 9), (67, 8), (208, 3), (146, 4), (90, 4), (21, 5), (224, 6), (72, 4), (82, 10), (28, 1), (244, 4), (49, 0), (60, 0), (44, 1), (73, 10), (36, 6), (180, 6), (109, 0), (231, 2)]
226	1	4	8	22	[(139, 5), (181, 5), (110, 0), (50, 8), (158, 9), (197, 8), (244, 4), (101, 8), (191, 0), (153, 9), (41, 10), (104, 3), (47, 10), (82, 9), (130, 5), (226, 7), (189, 1), (17, 4), (58, 2), (42, 0), (27, 8), (80, 9)]
227	2	1	2	11	[(237, 7), (208, 5), (218, 2), (100, 10), (58, 7), (83, 3), (49, 8), (140, 2), (133, 2), (206, 8), (171, 4)]
228	2	1	8	25	[(40, 0), (26, 2), (237, 3), (122, 8), (105, 10), (101, 2), (191, 6), (87, 0), (38, 1), (139, 3), (74, 5), (23, 9), (202, 2), (41, 8), (212, 9), (62, 0), (51, 3), (195, 9), (144, 1), (142, 9), (6, 1), (231, 6), (93, 4), (221, 3), (149, 1)]
229	1	4	8	15	[(151, 9), (40, 9), (228, 3), (114, 8), (247, 10), (127, 9), (139, 1), (138, 4), (214, 5), (220, 7), (157, 7), (44, 4), (79, 5), (227, 4), (184, 6)]
230	1	2	8	23	[(64, 6), (249, 7), (66, 2), (234, 6), (195, 8), (219, 1), (175, 9), (90, 6), (204, 3), (207, 10), (129, 5), (110, 6), (117, 3), (19, 6), (100, 6), (174, 10), (192, 1), (237, 5), (7, 0), (36, 5), (13, 10), (128, 5), (228, 9)]
231	2	1	8	9	[(147, 9), (87, 6), (222, 4), (42, 1), (146, 7), (113, 7), (195, 2), (199, 6), (160, 9)]
232	1	4	8	11	[(101, 0), (20, 10), (51, 2), (39, 5), (61, 7), (31, 3), (166, 5), (246, 5), (185, 9), (123, 0), (33, 5)]
233	4	4	8	17	[(13, 4), (231, 4), (234, 5), (6, 6), (102, 8), (198, 6), (67, 9), (100, 5), (26, 8), (152, 1), (223, 6), (43, 0), (146, 1), (192, 1), (238, 4), (99, 2), (57, 3)]
234	319	1	1	20	[(240, 8), (82, 3), (130, 2), (126, 3), (72, 10), (35, 0), (233, 6), (79, 10), (150, 2), (63, 5), (246, 1), (32, 1), (2, 4), (226, 9), (9, 2), (90, 4), (210, 0), (36, 1), (227, 4), (132, 3)]
235	4	1	8	22	[(108, 6), (42, 3), (65, 9), (149, 10), (121, 1), (225, 5), (202, 1), (238, 2), (134, 9), (247, 2), (200, 3), (131, 1), (217, 3), (39, 0), (188, 4), (186, 9), (88, 1), (143, 0), (199, 8), (67, 1), (129, 7), (34, 9)]
236	3	3	8	18	[(183, 1), (232, 1), (128, 1), (23, 1), (52, 10), (22, 2), (131, 5), (101, 0), (185, 9), (62, 10), (63, 0), (233, 10), (142, 7), (20, 5), (73, 3), (66, 3), (24, 3), (244, 5)]
237	4	1	8	16	[(172, 7), (132, 2), (90, 7), (212, 0), (208, 0), (223, 9), (65, 4), (185, 1), (162, 5), (191, 9), (170, 6), (111, 5), (71, 6), (64, 4), (184, 8), (221, 4)]
238	1	1	8	17	[(80, 0), (59, 0), (185, 6), (129, 1), (63, 1), (155, 0), (209, 7), (240, 0), (167, 9), (180, 10), (127, 8), (29, 6), (215, 7), (201, 10), (193, 7), (99, 1), (182, 0)]
239	4	1	6	14	[(31, 0), (128, 4), (139, 9), (157, 2), (182, 8), (107, 4), (191, 7), (120, 8), (145, 0), (61, 9), (159, 4), (215, 8), (79, 0), (106, 3)]
240	1	2	8	18	[(136, 5), (232, 9), (183, 8), (244, 0), (5, 10), (159, 4), (141, 8), (109, 2), (59, 8), (48, 6), (212, 5), (203, 6), (151, 10), (18, 3), (143, 5), (60, 8), (194, 2), (81, 0)]
241	4	1	16	14	[(186, 1), (8, 7), (247, 5), (14, 2), (9, 3), (55, 7), (91, 10), (141, 9), (145, 8), (198, 2), (39, 1), (179, 7), (184, 2), (240, 9)]
242	2	1	16	14	[(130, 8), (20, 5), (25, 10), (109, 1), (27, 8), (158, 6), (100, 7), (131, 0), (23, 3), (247, 8), (148, 5), (190, 4), (132, 8), (138, 0)]
243	1	1	8	22	[(196, 4), (81, 9), (104, 7), (148, 2), (35, 6), (27, 9), (1, 1), (142, 9), (54, 5), (199, 10), (31, 3), (30, 4), (137, 0), (58, 4), (96, 9), (242, 6), (238, 3), (25, 10), (164, 9), (198, 4), (219, 2), (236, 6)]
244	1	5	2	16	[(201, 10), (119, 4), (122, 6), (138, 0), (131, 2), (77, 0), (5, 1), (106, 4), (227, 2), (93, 8), (55, 5), (75, 8), (45, 10), (165, 0), (65, 1), (115, 1)]
245	1	2	8	18	[(185, 5), (212, 4), (188, 3), (200, 8), (174, 6), (86, 3), (176, 3), (3, 10), (107, 3), (226, 5), (45, 0), (166, 2), (219, 9), (165, 8), (214, 9), (173, 2), (84, 6), (95, 7)]
246	2	4	8	16	[(227, 6), (66, 8), (112, 3), (124, 10), (1, 5), (169, 3), (41, 9), (224, 4), (16, 2), (37, 4), (242, 8), (106, 9), (219, 8), (220, 5), (173, 3), (226, 5)]
247	1	1	8	8	[(78, 5), (64, 8), (187, 2), (114, 0), (204, 1), (231, 9), (15, 4), (152, 9)]
248	1	1	5	22	[(29, 8), (68, 6), (141, 8), (80, 3), (240, 7), (149, 1), (58, 8), (153, 5), (22, 1), (100, 1), (200, 6), (226, 9), (6, 7), (163, 8), (114, 2), (155, 3), (76, 0), (229, 1), (129, 4), (81, 6), (192, 8), (188, 9)]
249	3	2	8	19	[(14, 9), (28, 4), (83, 9), (68, 7), (151, 5), (8, 8), (130, 2), (164, 0), (246, 2), (81, 6), (212, 0), (87, 7), (110, 7), (243, 0), (36, 2), (86, 0), (100, 2), (153, 1), (155, 7)]
250	1	4	8	18	[(193, 10), (238, 10), (4, 4), (39, 5), (242, 4), (204, 6), (210, 2), (205, 9), (86, 8), (18, 9), (125, 2), (68, 8), (164, 0), (154, 0), (89, 2), (143, 9), (189, 0), (212, 5)]
