app_id	nb_instances	core	memory	inter_degree	inter_aff
1	1	1	8	3	[(29, 4), (4, 0), (240, 9)]
2	2	1	8	3	[(152, 7), (102, 4), (169, 1)]
3	25	1	8	3	[(197, 4), (8, 8), (66, 4)]
4	1	1	5	4	[(134, 5), (91, 4), (115, 1), (186, 0)]
5	19	6	2	1	[(162, 10)]
6	2	1	8	1	[(143, 10)]
7	2	11	8	1	[(150, 1)]
8	14	3	8	6	[(11, 4), (142, 3), (81, 6), (96, 10), (136, 4), (95, 4)]
9	1	1	16	2	[(226, 9), (227, 1)]
10	3	1	8	3	[(17, 10), (133, 8), (184, 2)]
11	18	1	8	5	[(121, 1), (211, 6), (160, 4), (77, 9), (93, 5)]
12	4	3	4	1	[(150, 6)]
13	5	1	8	0	[]
14	1	2	16	3	[(202, 3), (89, 5), (4, 9)]
15	1	1	8	3	[(176, 5), (95, 5), (192, 7)]
16	1	1	8	3	[(110, 6), (248, 5), (80, 9)]
17	4	6	2	3	[(133, 5), (137, 6), (22, 2)]
18	1	1	8	2	[(72, 0), (202, 1)]
19	2	1	2	1	[(168, 10)]
20	2	4	8	3	[(133, 0), (8, 4), (69, 10)]
21	2	2	16	2	[(158, 5), (150, 8)]
22	7	32	8	3	[(69, 8), (223, 5), (49, 0)]
23	2	4	8	2	[(104, 5), (61, 1)]
24	2	1	6	5	[(163, 9), (49, 0), (171, 1), (137, 9), (249, 2)]
25	1	1	8	2	[(89, 0), (200, 3)]
26	4	3	8	3	[(174, 3), (234, 5), (75, 0)]
27	3	3	1	2	[(176, 3), (35, 9)]
28	1	1	8	2	[(51, 8), (156, 9)]
29	7	4	8	2	[(47, 10), (188, 2)]
30	1	1	8	1	[(211, 8)]
31	1	1	8	0	[]
32	35	3	8	1	[(87, 8)]
33	1	6	8	1	[(143, 1)]
34	1	1	8	3	[(186, 0), (152, 4), (11, 2)]
35	7	1	8	3	[(51, 9), (4, 0), (176, 4)]
36	3	2	16	5	[(98, 4), (152, 9), (210, 7), (163, 3), (179, 6)]
37	1	6	8	2	[(64, 7), (196, 0)]
38	2	8	32	1	[(10, 10)]
39	2	12	8	2	[(197, 3), (122, 6)]
40	1	1	8	2	[(249, 5), (46, 6)]
41	8	12	8	3	[(113, 6), (64, 6), (165, 3)]
42	2	1	8	5	[(73, 6), (178, 0), (8, 3), (154, 8), (195, 5)]
43	1	3	8	3	[(225, 3), (148, 2), (245, 8)]
44	1	1	8	3	[(130, 6), (189, 9), (26, 5)]
45	2	1	8	0	[]
46	2	2	32	4	[(80, 4), (190, 0), (158, 0), (1, 4)]
47	5	3	8	4	[(33, 8), (61, 9), (17, 8), (117, 4)]
48	2	4	2	1	[(33, 3)]
49	3	1	16	5	[(170, 10), (181, 10), (20, 7), (119, 8), (83, 2)]
50	2	1	8	1	[(39, 10)]
51	2	1	8	1	[(15, 2)]
52	1	6	8	3	[(108, 0), (182, 2), (235, 5)]
53	2	1	8	2	[(22, 0), (158, 6)]
54	1	1	4	1	[(114, 10)]
55	16	1	16	1	[(174, 5)]
56	8	3	8	1	[(119, 4)]
57	4	1	8	1	[(199, 4)]
58	1	2	8	4	[(134, 2), (78, 2), (135, 4), (244, 9)]
59	28	6	8	5	[(72, 5), (146, 5), (34, 3), (66, 4), (129, 3)]
60	1	1	8	2	[(99, 7), (182, 10)]
61	2	1	1	5	[(116, 6), (230, 0), (239, 3), (225, 0), (56, 8)]
62	5	1	1	2	[(181, 3), (240, 6)]
63	4	1	8	5	[(61, 1), (234, 5), (102, 3), (17, 9), (222, 1)]
64	27	1	2	3	[(229, 3), (65, 6), (24, 6)]
65	18	1	7	2	[(43, 9), (105, 1)]
66	2	1	8	1	[(40, 9)]
67	1	1	8	1	[(184, 0)]
68	2	1	8	3	[(15, 2), (125, 3), (62, 10)]
69	1	1	7	3	[(213, 5), (40, 10), (150, 3)]
70	1	1	8	3	[(42, 10), (32, 3), (215, 8)]
71	13	5	2	3	[(74, 7), (55, 10), (9, 9)]
72	2	1	2	2	[(1, 2), (87, 5)]
73	2	3	8	4	[(87, 5), (195, 4), (177, 1), (134, 9)]
74	2	1	7	0	[]
75	2	1	16	2	[(202, 10), (107, 5)]
76	6	1	8	1	[(48, 2)]
77	1	2	8	4	[(105, 0), (88, 0), (84, 1), (56, 9)]
78	1	1	8	4	[(83, 4), (243, 4), (226, 1), (124, 9)]
79	1	1	8	3	[(15, 2), (126, 8), (132, 7)]
80	3	2	8	4	[(93, 9), (26, 1), (157, 0), (98, 3)]
81	1	1	8	1	[(194, 0)]
82	4	2	16	2	[(173, 2), (1, 2)]
83	2	4	8	3	[(127, 4), (99, 5), (140, 10)]
84	1	1	8	5	[(152, 4), (177, 10), (25, 0), (18, 8), (182, 8)]
85	2	1	8	5	[(167, 0), (101, 9), (178, 2), (226, 9), (217, 1)]
86	1	1	2	4	[(211, 8), (170, 5), (83, 8), (169, 9)]
87	1	5	8	5	[(99, 8), (76, 2), (177, 1), (5, 1), (226, 5)]
88	2	4	16	2	[(159, 3), (164, 6)]
89	1	8	8	4	[(52, 6), (165, 5), (203, 8), (66, 3)]
90	77	1	8	1	[(97, 1)]
91	2	1	8	2	[(222, 9), (215, 8)]
92	1	1	8	0	[]
93	2	1	8	3	[(135, 1), (93, 5), (16, 3)]
94	2	2	8	2	[(213, 4), (10, 2)]
95	5	1	8	2	[(126, 3), (192, 10)]
96	2	6	8	2	[(144, 7), (61, 0)]
97	7	2	8	3	[(216, 8), (119, 1), (13, 3)]
98	2	1	8	1	[(57, 4)]
99	5	1	16	1	[(171, 5)]
100	10	2	8	3	[(11, 6), (207, 0), (211, 8)]
101	5	2	8	1	[(147, 3)]
102	1	4	8	4	[(246, 7), (216, 8), (56, 4), (29, 3)]
103	2	1	4	3	[(88, 4), (14, 4), (241, 7)]
104	240	1	8	4	[(203, 10), (219, 4), (41, 3), (215, 10)]
105	1	12	8	2	[(82, 3), (149, 7)]
106	1	1	8	0	[]
107	3	11	8	5	[(78, 8), (146, 0), (102, 8), (88, 8), (177, 7)]
108	2	1	1	0	[]
109	2	1	8	4	[(70, 3), (161, 6), (143, 4), (116, 3)]
110	1	1	8	5	[(124, 6), (129, 7), (120, 0), (148, 3), (219, 8)]
111	23	1	8	0	[]
112	2	1	8	5	[(120, 5), (246, 4), (72, 0), (98, 0), (92, 5)]
113	2	1	32	0	[]
114	2	1	8	5	[(227, 8), (195, 9), (141, 5), (39, 6), (229, 6)]
115	1	4	8	3	[(206, 2), (207, 0), (98, 3)]
116	3	1	16	0	[]
117	2	1	8	1	[(128, 5)]
118	1	2	8	3	[(38, 3), (40, 9), (34, 4)]
119	174	1	8	1	[(3, 4)]
120	2	1	8	2	[(232, 2), (2, 9)]
121	1	1	8	1	[(241, 6)]
122	3	1	8	3	[(230, 4), (100, 1), (182, 2)]
123	2	1	8	3	[(194, 7), (183, 3), (196, 3)]
124	2	5	8	1	[(166, 0)]
125	14	3	8	1	[(58, 3)]
126	8	1	8	1	[(158, 10)]
127	1	1	8	1	[(29, 5)]
128	30	1	8	1	[(88, 4)]
129	3	4	8	4	[(37, 8), (20, 3), (154, 2), (250, 1)]
130	1	1	5	5	[(106, 6), (92, 6), (217, 4), (238, 8), (117, 9)]
131	1	1	16	5	[(123, 5), (122, 5), (53, 8), (112, 1), (114, 10)]
132	1	6	8	0	[]
133	2	1	2	5	[(180, 0), (95, 10), (205, 2), (111, 8), (99, 5)]
134	1	3	8	6	[(180, 8), (250, 9), (230, 4), (193, 9), (125, 4), (199, 4)]
135	2	4	8	4	[(202, 10), (81, 2), (88, 10), (135, 7)]
136	1	1	1	4	[(37, 4), (175, 6), (160, 1), (82, 1)]
137	2	1	8	3	[(175, 1), (9, 0), (249, 2)]
138	21	12	5	0	[]
139	4	1	8	3	[(5, 4), (87, 10), (82, 10)]
140	4	3	8	3	[(194, 3), (185, 10), (170, 3)]
141	5	1	8	1	[(198, 3)]
142	1	1	8	1	[(144, 1)]
143	4	2	8	8	[(173, 9), (21, 8), (150, 5), (152, 10), (185, 2), (174, 8), (35, 7), (225, 6)]
144	2	1	8	1	[(223, 5)]
145	1	3	1	3	[(115, 1), (208, 7), (181, 2)]
146	1	8	8	1	[(4, 7)]
147	1	1	8	1	[(127, 8)]
148	2	1	8	2	[(95, 1), (45, 7)]
149	7	1	8	1	[(225, 6)]
150	1	1	8	1	[(134, 6)]
151	4	1	8	5	[(238, 5), (161, 9), (63, 7), (83, 2), (88, 7)]
152	2	6	8	2	[(167, 7), (98, 0)]
153	2	2	8	2	[(169, 5), (250, 8)]
154	1	1	8	2	[(127, 4), (216, 8)]
155	2	1	8	3	[(53, 7), (28, 7), (35, 8)]
156	1	1	8	4	[(109, 1), (14, 6), (63, 5), (54, 8)]
157	4	1	8	2	[(205, 5), (6, 10)]
158	2	36	8	1	[(185, 4)]
159	2	2	8	0	[]
160	1	2	8	3	[(179, 2), (143, 2), (158, 10)]
161	2	6	8	2	[(43, 0), (87, 9)]
162	1	1	8	5	[(79, 10), (67, 10), (42, 4), (161, 7), (208, 9)]
163	3	2	8	1	[(83, 2)]
164	1	3	8	1	[(54, 4)]
165	1	1	8	1	[(57, 10)]
166	2	1	8	1	[(117, 2)]
167	1	2	16	1	[(103, 3)]
168	2	1	8	1	[(82, 0)]
169	1	1	8	2	[(90, 7), (184, 0)]
170	2	1	8	4	[(224, 8), (24, 8), (18, 1), (23, 5)]
171	3	1	8	1	[(130, 3)]
172	2	1	8	4	[(178, 7), (45, 3), (200, 3), (133, 6)]
173	103	2	8	1	[(25, 2)]
174	9	1	2	3	[(46, 10), (133, 3), (229, 8)]
175	1	6	8	0	[]
176	2	2	8	2	[(89, 10), (87, 4)]
177	6	1	8	3	[(27, 5), (95, 5), (219, 10)]
178	7	4	8	1	[(33, 1)]
179	2	1	8	2	[(116, 10), (156, 8)]
180	29	2	8	1	[(217, 3)]
181	2	1	1	5	[(156, 10), (136, 6), (64, 9), (182, 5), (165, 0)]
182	2	4	8	4	[(164, 0), (112, 7), (62, 6), (230, 0)]
183	2	1	8	1	[(170, 1)]
184	2	4	8	4	[(36, 6), (79, 1), (249, 3), (173, 9)]
185	3	2	8	5	[(99, 8), (213, 9), (202, 7), (35, 1), (125, 4)]
186	4	4	8	2	[(33, 7), (177, 8)]
187	4	2	16	4	[(135, 3), (230, 5), (60, 1), (13, 4)]
188	1	1	8	5	[(49, 7), (125, 1), (239, 2), (104, 6), (53, 1)]
189	1	1	8	5	[(116, 10), (141, 10), (34, 7), (19, 9), (109, 1)]
190	2	1	8	2	[(148, 10), (222, 3)]
191	3	1	8	3	[(169, 4), (249, 7), (86, 6)]
192	8	4	8	0	[]
193	1	4	48	1	[(97, 5)]
194	1	2	8	4	[(239, 6), (120, 9), (59, 2), (131, 6)]
195	1	1	8	2	[(135, 7), (46, 7)]
196	2	4	8	2	[(48, 2), (30, 9)]
197	3	4	8	4	[(55, 6), (196, 3), (163, 8), (9, 10)]
198	2	1	8	2	[(2, 8), (206, 7)]
199	1	8	8	2	[(19, 0), (48, 6)]
200	1	2	8	3	[(17, 2), (116, 4), (4, 3)]
201	1	4	8	2	[(155, 5), (126, 2)]
202	1	1	8	4	[(34, 5), (20, 3), (227, 2), (41, 10)]
203	1	2	8	3	[(94, 9), (247, 5), (228, 6)]
204	3	1	1	3	[(171, 10), (54, 4), (50, 0)]
205	2	1	8	3	[(68, 2), (110, 1), (48, 10)]
206	1	1	8	2	[(194, 9), (213, 9)]
207	1	5	8	5	[(187, 8), (41, 2), (30, 5), (103, 7), (100, 9)]
208	17	1	1	4	[(142, 2), (238, 9), (166, 9), (79, 4)]
209	1	1	8	1	[(55, 4)]
210	2	8	16	3	[(34, 0), (210, 2), (79, 9)]
211	1	1	5	3	[(207, 2), (212, 7), (30, 10)]
212	2	4	1	2	[(1, 2), (58, 5)]
213	2	1	8	3	[(35, 5), (1, 0), (230, 8)]
214	2	1	8	4	[(39, 2), (228, 3), (5, 8), (102, 8)]
215	3	1	1	0	[]
216	2	1	8	4	[(45, 7), (89, 0), (84, 10), (201, 4)]
217	1	5	8	2	[(36, 5), (115, 0)]
218	1	1	8	3	[(204, 6), (70, 4), (152, 1)]
219	2	1	8	3	[(104, 6), (247, 0), (126, 9)]
220	2	1	8	3	[(117, 2), (191, 9), (108, 2)]
221	2	1	8	1	[(199, 10)]
222	28	1	8	1	[(144, 7)]
223	2	1	8	0	[]
224	1	1	8	2	[(116, 3), (130, 0)]
225	3	1	8	4	[(2, 0), (134, 0), (133, 2), (139, 0)]
226	1	1	8	1	[(153, 8)]
227	12	2	4	2	[(196, 1), (120, 2)]
228	1	1	8	3	[(170, 6), (223, 2), (209, 5)]
229	180	4	8	2	[(192, 10), (24, 3)]
230	9	6	8	2	[(141, 7), (161, 6)]
231	3	3	8	4	[(13, 2), (48, 2), (157, 7), (25, 10)]
232	1	12	1	3	[(64, 8), (222, 8), (49, 8)]
233	7	1	8	5	[(190, 8), (60, 2), (245, 3), (119, 3), (15, 0)]
234	20	1	8	0	[]
235	2	1	8	3	[(173, 4), (141, 9), (1, 2)]
236	1	1	8	1	[(200, 8)]
237	2	1	16	1	[(66, 5)]
238	2	1	8	3	[(231, 2), (47, 3), (225, 2)]
239	4	2	1	6	[(52, 2), (237, 10), (104, 10), (99, 10), (210, 3), (214, 5)]
240	24	1	8	1	[(69, 0)]
241	4	6	8	3	[(144, 8), (22, 0), (131, 3)]
242	1	1	1	0	[]
243	2	2	3	4	[(151, 0), (218, 4), (219, 4), (163, 0)]
244	2	1	8	4	[(133, 10), (229, 9), (66, 9), (185, 1)]
245	2	2	8	3	[(1, 2), (125, 9), (113, 7)]
246	1	1	8	4	[(53, 9), (6, 6), (227, 1), (23, 3)]
247	1	6	8	0	[]
248	2	8	8	4	[(243, 4), (238, 7), (113, 1), (187, 3)]
249	2	1	8	1	[(69, 5)]
250	2	1	8	6	[(240, 2), (128, 3), (209, 1), (175, 6), (242, 3), (216, 8)]
