app_id	nb_instances	core	memory	inter_degree	inter_aff
1	5	1	8	11	[(15, 5), (10, 2), (233, 4), (120, 4), (14, 7), (203, 0), (50, 1), (27, 4), (98, 6), (218, 7), (232, 6)]
2	6	1	8	16	[(68, 8), (142, 8), (231, 8), (1, 6), (128, 9), (4, 4), (14, 2), (219, 2), (201, 0), (28, 10), (44, 0), (114, 10), (127, 10), (151, 8), (121, 6), (152, 5)]
3	1	6	8	9	[(177, 1), (81, 6), (201, 9), (157, 10), (86, 7), (91, 6), (225, 3), (237, 4), (212, 6)]
4	2	1	8	11	[(121, 1), (137, 0), (224, 4), (49, 7), (201, 3), (24, 7), (213, 3), (172, 0), (132, 2), (115, 10), (113, 10)]
5	1	4	8	9	[(162, 8), (143, 10), (35, 4), (90, 2), (105, 10), (242, 4), (98, 0), (92, 8), (47, 5)]
6	8	4	8	18	[(39, 7), (207, 7), (22, 3), (34, 7), (131, 6), (124, 7), (179, 4), (197, 6), (112, 9), (170, 0), (62, 5), (134, 1), (167, 9), (244, 3), (14, 2), (191, 8), (226, 7), (16, 1)]
7	11	1	4	11	[(195, 0), (205, 8), (158, 6), (136, 9), (124, 8), (244, 4), (227, 3), (236, 6), (20, 4), (231, 0), (135, 1)]
8	2	1	8	10	[(140, 7), (170, 5), (19, 9), (221, 4), (114, 9), (26, 6), (187, 1), (40, 5), (62, 7), (81, 6)]
9	1	5	8	10	[(200, 3), (88, 10), (116, 4), (190, 10), (93, 6), (247, 6), (240, 10), (77, 2), (49, 7), (109, 7)]
10	2	1	8	9	[(18, 3), (233, 5), (93, 10), (136, 1), (72, 3), (239, 7), (51, 3), (74, 5), (62, 5)]
11	2	2	8	8	[(166, 6), (198, 2), (64, 5), (103, 6), (212, 2), (27, 6), (150, 8), (128, 7)]
12	2	3	8	10	[(69, 1), (22, 9), (84, 3), (170, 7), (142, 5), (201, 6), (72, 0), (235, 7), (242, 0), (153, 6)]
13	5	1	8	16	[(94, 1), (125, 7), (115, 6), (187, 10), (17, 2), (249, 0), (197, 1), (180, 6), (13, 8), (242, 2), (69, 6), (165, 1), (162, 10), (137, 3), (48, 5), (88, 8)]
14	2	4	8	12	[(205, 7), (169, 5), (204, 8), (54, 3), (127, 2), (65, 6), (91, 10), (116, 1), (18, 2), (160, 10), (244, 10), (62, 6)]
15	2	2	8	17	[(166, 1), (178, 10), (176, 4), (248, 6), (198, 0), (186, 6), (76, 3), (104, 3), (27, 5), (133, 8), (154, 4), (226, 9), (228, 0), (38, 9), (77, 8), (15, 2), (203, 3)]
16	1	2	8	6	[(17, 9), (61, 2), (180, 4), (194, 2), (185, 7), (124, 4)]
17	2	1	8	13	[(118, 9), (216, 8), (233, 3), (93, 1), (134, 4), (70, 3), (152, 2), (171, 10), (214, 1), (146, 0), (137, 8), (117, 9), (73, 1)]
18	1	1	8	11	[(118, 0), (46, 6), (7, 2), (21, 5), (250, 8), (19, 7), (210, 6), (70, 5), (5, 1), (130, 7), (192, 1)]
19	2	12	8	12	[(195, 2), (85, 0), (31, 1), (138, 4), (145, 1), (64, 0), (76, 7), (158, 10), (140, 1), (100, 4), (69, 7), (91, 10)]
20	2	1	1	13	[(167, 10), (138, 2), (123, 4), (94, 8), (199, 1), (136, 1), (243, 7), (160, 10), (166, 5), (46, 5), (17, 4), (150, 10), (223, 4)]
21	64	1	8	8	[(157, 8), (6, 6), (129, 9), (214, 4), (50, 5), (53, 6), (87, 2), (242, 10)]
22	2	2	8	15	[(67, 2), (137, 10), (112, 4), (205, 3), (127, 0), (198, 1), (145, 5), (147, 5), (118, 0), (104, 0), (12, 5), (40, 7), (180, 6), (140, 10), (66, 2)]
23	1	1	1	19	[(205, 10), (101, 4), (152, 8), (24, 7), (34, 2), (174, 4), (84, 9), (158, 8), (45, 4), (202, 6), (61, 9), (51, 5), (127, 0), (203, 9), (219, 7), (136, 8), (9, 0), (189, 0), (180, 9)]
24	2	1	8	10	[(18, 2), (32, 6), (233, 2), (64, 6), (81, 0), (61, 6), (188, 10), (223, 6), (216, 8), (108, 5)]
25	1	1	8	14	[(188, 7), (108, 4), (234, 0), (248, 9), (81, 5), (169, 2), (102, 0), (72, 5), (170, 8), (210, 2), (51, 0), (197, 0), (181, 8), (222, 5)]
26	2	2	8	13	[(56, 0), (71, 7), (18, 8), (103, 4), (15, 5), (156, 10), (85, 8), (17, 5), (201, 1), (39, 4), (222, 2), (77, 6), (247, 5)]
27	1	4	8	12	[(155, 5), (112, 10), (51, 10), (213, 10), (84, 0), (65, 3), (79, 2), (242, 1), (116, 6), (105, 4), (121, 6), (28, 5)]
28	2	1	8	10	[(236, 7), (182, 10), (177, 4), (66, 9), (168, 9), (152, 4), (31, 3), (249, 7), (51, 10), (23, 8)]
29	1	1	8	14	[(170, 0), (239, 7), (149, 5), (214, 7), (61, 6), (169, 7), (22, 6), (66, 3), (192, 7), (124, 4), (147, 7), (196, 6), (10, 9), (119, 9)]
30	28	2	16	12	[(178, 5), (94, 1), (35, 0), (99, 2), (36, 1), (39, 7), (42, 8), (56, 2), (37, 0), (112, 4), (134, 10), (95, 5)]
31	19	1	3	15	[(194, 7), (123, 7), (16, 3), (183, 4), (211, 7), (237, 5), (19, 7), (214, 9), (15, 2), (28, 3), (171, 0), (240, 7), (230, 3), (221, 2), (109, 3)]
32	2	1	8	12	[(145, 6), (43, 9), (4, 7), (128, 0), (107, 3), (205, 8), (191, 3), (92, 2), (130, 4), (101, 7), (179, 3), (17, 0)]
33	1	1	3	20	[(60, 0), (206, 5), (134, 3), (131, 5), (20, 3), (66, 3), (213, 7), (173, 5), (13, 5), (84, 10), (203, 5), (214, 7), (158, 3), (194, 1), (41, 8), (120, 3), (129, 5), (44, 3), (32, 4), (130, 1)]
34	2	1	8	10	[(17, 1), (123, 2), (26, 1), (188, 8), (43, 4), (220, 0), (27, 6), (49, 7), (6, 0), (246, 5)]
35	2	1	8	15	[(7, 3), (242, 9), (127, 0), (72, 8), (156, 3), (103, 8), (198, 10), (130, 7), (66, 2), (129, 6), (221, 4), (151, 1), (244, 5), (64, 3), (100, 10)]
36	16	4	2	9	[(169, 5), (149, 10), (214, 10), (7, 10), (64, 7), (80, 6), (165, 2), (45, 4), (229, 4)]
37	1	24	7	10	[(171, 2), (213, 7), (174, 6), (154, 8), (9, 0), (21, 10), (37, 3), (138, 7), (236, 7), (15, 5)]
38	1	2	8	12	[(173, 4), (20, 10), (169, 9), (135, 7), (60, 8), (8, 2), (56, 1), (54, 5), (85, 1), (89, 3), (7, 1), (57, 5)]
39	1	1	8	12	[(229, 0), (85, 1), (77, 8), (177, 1), (17, 5), (223, 9), (180, 7), (172, 1), (81, 7), (44, 7), (201, 10), (86, 3)]
40	10	5	8	7	[(233, 3), (88, 1), (82, 6), (68, 0), (90, 7), (178, 10), (81, 0)]
41	2	1	16	6	[(98, 0), (208, 4), (132, 10), (94, 3), (45, 9), (71, 10)]
42	1	4	8	13	[(158, 1), (120, 8), (81, 0), (47, 0), (111, 5), (217, 7), (48, 6), (134, 0), (33, 1), (11, 7), (99, 9), (94, 8), (167, 6)]
43	1	1	21	11	[(169, 1), (109, 3), (63, 0), (234, 7), (127, 2), (98, 7), (209, 10), (172, 10), (130, 6), (179, 3), (59, 4)]
44	1	1	8	9	[(241, 8), (117, 3), (52, 8), (67, 10), (19, 1), (73, 4), (180, 5), (167, 8), (94, 10)]
45	1	2	8	12	[(123, 4), (161, 7), (53, 5), (55, 7), (179, 8), (88, 1), (127, 10), (109, 5), (183, 10), (115, 5), (208, 1), (46, 5)]
46	2	6	8	8	[(69, 7), (108, 5), (179, 5), (40, 2), (180, 2), (23, 9), (212, 8), (174, 5)]
47	6	2	8	14	[(109, 5), (88, 5), (101, 7), (140, 0), (20, 7), (215, 1), (96, 1), (90, 2), (13, 5), (137, 5), (110, 0), (21, 5), (1, 7), (69, 8)]
48	1	1	8	12	[(146, 8), (56, 4), (61, 6), (151, 10), (67, 1), (233, 8), (164, 4), (119, 4), (21, 1), (9, 6), (140, 3), (87, 7)]
49	3	1	8	14	[(89, 5), (43, 6), (181, 4), (187, 10), (211, 4), (207, 6), (159, 6), (186, 5), (215, 3), (230, 10), (198, 7), (218, 4), (238, 8), (77, 1)]
50	7	1	8	10	[(154, 1), (6, 3), (66, 0), (39, 5), (119, 5), (83, 2), (90, 5), (242, 6), (50, 6), (216, 9)]
51	15	12	8	21	[(64, 5), (155, 10), (59, 0), (194, 10), (117, 7), (63, 0), (240, 7), (22, 1), (7, 10), (35, 7), (70, 7), (115, 4), (219, 10), (41, 7), (133, 3), (1, 5), (160, 0), (167, 2), (61, 2), (238, 5), (29, 0)]
52	67	1	8	14	[(53, 2), (132, 9), (82, 10), (128, 10), (212, 2), (30, 7), (52, 6), (85, 7), (123, 3), (36, 7), (194, 3), (179, 5), (77, 2), (201, 2)]
53	4	1	8	16	[(128, 5), (201, 6), (140, 4), (20, 4), (186, 3), (160, 1), (81, 3), (36, 4), (87, 10), (28, 2), (147, 0), (59, 8), (105, 5), (218, 6), (135, 8), (202, 5)]
54	1	1	48	14	[(37, 5), (220, 8), (82, 7), (187, 3), (190, 7), (128, 4), (191, 1), (27, 0), (123, 9), (40, 10), (143, 1), (34, 4), (225, 0), (210, 7)]
55	5	1	8	15	[(173, 8), (129, 2), (195, 10), (184, 4), (135, 4), (218, 2), (109, 6), (43, 4), (132, 5), (220, 7), (133, 10), (163, 10), (169, 3), (165, 6), (176, 9)]
56	2	8	8	17	[(41, 1), (64, 10), (173, 0), (108, 5), (63, 1), (82, 5), (238, 5), (188, 4), (134, 4), (67, 5), (88, 7), (236, 9), (147, 3), (59, 1), (130, 6), (230, 6), (50, 5)]
57	16	1	8	7	[(72, 7), (202, 4), (173, 5), (46, 4), (16, 5), (26, 3), (102, 5)]
58	12	3	1	15	[(250, 3), (176, 8), (241, 1), (17, 9), (109, 6), (244, 2), (186, 0), (158, 10), (230, 0), (202, 10), (151, 9), (220, 9), (212, 0), (21, 5), (234, 10)]
59	5	1	8	12	[(212, 6), (144, 2), (103, 7), (201, 7), (111, 1), (168, 2), (134, 10), (225, 5), (110, 7), (246, 4), (181, 5), (78, 6)]
60	1	8	8	8	[(192, 1), (100, 1), (53, 0), (239, 5), (114, 6), (177, 3), (101, 8), (135, 4)]
61	1	8	3	13	[(104, 0), (149, 2), (201, 2), (102, 6), (224, 3), (126, 3), (106, 8), (64, 3), (157, 8), (83, 4), (69, 6), (86, 2), (14, 1)]
62	2	1	8	10	[(44, 6), (178, 8), (95, 4), (11, 3), (231, 9), (127, 2), (47, 0), (151, 6), (169, 2), (190, 5)]
63	4	1	8	6	[(113, 3), (124, 1), (99, 0), (230, 8), (135, 6), (137, 8)]
64	16	1	8	10	[(68, 0), (231, 2), (246, 1), (205, 0), (167, 1), (17, 8), (26, 4), (104, 10), (181, 5), (44, 9)]
65	1	2	8	16	[(180, 4), (6, 0), (203, 1), (133, 1), (185, 1), (187, 1), (205, 2), (50, 8), (214, 8), (179, 10), (140, 1), (32, 0), (23, 7), (35, 0), (108, 10), (216, 7)]
66	1	1	16	10	[(221, 5), (80, 7), (140, 7), (75, 1), (174, 3), (161, 6), (3, 6), (246, 9), (249, 1), (235, 3)]
67	4	1	8	9	[(4, 2), (113, 4), (148, 4), (71, 7), (6, 0), (152, 7), (42, 10), (243, 9), (114, 2)]
68	1	2	8	15	[(24, 3), (115, 0), (118, 9), (11, 10), (181, 10), (201, 6), (45, 8), (232, 5), (92, 0), (76, 2), (166, 6), (93, 1), (127, 6), (51, 10), (123, 0)]
69	1	1	4	6	[(21, 4), (206, 0), (188, 3), (231, 6), (113, 8), (32, 8)]
70	3	1	8	8	[(213, 1), (107, 10), (116, 3), (40, 5), (204, 1), (92, 5), (155, 9), (151, 5)]
71	2	4	8	14	[(237, 4), (165, 1), (65, 10), (59, 7), (219, 9), (90, 5), (21, 0), (145, 8), (11, 6), (3, 7), (116, 3), (130, 2), (22, 10), (150, 1)]
72	1	4	1	11	[(49, 4), (26, 10), (61, 10), (48, 5), (127, 10), (14, 1), (135, 1), (106, 7), (70, 2), (154, 8), (214, 3)]
73	1	4	2	16	[(212, 4), (233, 1), (70, 9), (213, 2), (86, 4), (107, 3), (122, 8), (142, 5), (241, 7), (155, 7), (188, 5), (39, 8), (158, 8), (144, 2), (239, 5), (194, 4)]
74	5	1	8	11	[(211, 3), (99, 6), (51, 4), (118, 9), (250, 0), (140, 3), (208, 3), (97, 5), (158, 8), (172, 4), (134, 9)]
75	9	1	8	10	[(119, 10), (127, 6), (25, 5), (204, 2), (50, 2), (193, 9), (191, 2), (59, 9), (133, 7), (33, 10)]
76	13	1	8	12	[(163, 1), (41, 0), (24, 6), (141, 7), (36, 6), (243, 0), (209, 3), (77, 3), (201, 7), (173, 10), (223, 8), (18, 4)]
77	2	1	8	16	[(93, 1), (138, 9), (245, 2), (47, 5), (247, 7), (177, 8), (80, 1), (96, 8), (246, 3), (110, 0), (8, 0), (48, 6), (107, 10), (113, 6), (137, 7), (59, 3)]
78	1	1	8	9	[(211, 5), (67, 3), (4, 5), (183, 3), (22, 0), (47, 6), (150, 2), (189, 2), (34, 2)]
79	4	2	16	13	[(169, 2), (193, 8), (126, 0), (221, 9), (15, 0), (77, 6), (88, 4), (97, 10), (131, 2), (170, 2), (118, 5), (106, 10), (32, 10)]
80	1	1	8	17	[(234, 7), (20, 5), (110, 6), (114, 4), (187, 9), (63, 7), (30, 10), (67, 9), (146, 7), (118, 8), (214, 10), (121, 2), (169, 4), (220, 10), (239, 8), (140, 6), (105, 5)]
81	1	1	8	14	[(78, 10), (96, 9), (101, 7), (175, 6), (199, 3), (125, 8), (1, 9), (112, 7), (58, 2), (120, 9), (142, 6), (224, 9), (146, 6), (238, 2)]
82	2	2	8	12	[(192, 6), (147, 5), (119, 7), (243, 3), (111, 2), (143, 10), (229, 7), (215, 2), (173, 9), (203, 10), (241, 10), (105, 4)]
83	1	1	8	10	[(79, 3), (153, 0), (209, 2), (156, 0), (10, 7), (189, 3), (198, 0), (28, 9), (208, 6), (140, 0)]
84	1	1	8	11	[(201, 10), (196, 6), (124, 8), (191, 7), (87, 8), (72, 10), (228, 8), (207, 0), (83, 7), (123, 1), (99, 6)]
85	4	1	8	8	[(206, 4), (181, 9), (183, 3), (56, 0), (149, 1), (44, 8), (26, 5), (125, 10)]
86	1	1	8	10	[(86, 4), (26, 2), (207, 0), (116, 0), (242, 6), (161, 1), (7, 1), (196, 0), (244, 5), (84, 5)]
87	2	1	8	5	[(143, 2), (29, 9), (201, 0), (78, 7), (219, 5)]
88	20	4	1	16	[(137, 0), (64, 7), (23, 5), (217, 7), (128, 8), (33, 8), (163, 7), (225, 2), (199, 4), (202, 7), (43, 3), (182, 10), (63, 6), (233, 6), (109, 9), (191, 9)]
89	1	1	16	19	[(48, 3), (123, 1), (98, 2), (191, 3), (156, 1), (205, 2), (47, 5), (116, 6), (133, 8), (153, 10), (187, 9), (221, 0), (2, 6), (23, 0), (82, 5), (76, 2), (53, 8), (174, 4), (240, 0)]
90	1	1	8	18	[(163, 2), (145, 0), (205, 9), (143, 6), (30, 0), (239, 4), (87, 0), (16, 2), (102, 10), (24, 4), (85, 10), (104, 0), (216, 2), (196, 0), (202, 1), (231, 2), (167, 5), (200, 3)]
91	1	7	8	8	[(181, 0), (37, 4), (205, 4), (144, 8), (204, 2), (130, 0), (26, 3), (4, 3)]
92	1	1	8	12	[(171, 1), (82, 3), (148, 2), (64, 5), (242, 7), (249, 2), (32, 2), (29, 2), (210, 0), (147, 4), (30, 2), (211, 7)]
93	1	1	8	10	[(198, 9), (33, 9), (223, 1), (89, 4), (53, 3), (44, 9), (221, 3), (148, 2), (234, 6), (193, 7)]
94	3	3	6	7	[(48, 1), (239, 5), (234, 6), (114, 2), (249, 1), (216, 4), (72, 7)]
95	2	1	8	10	[(204, 5), (106, 4), (33, 5), (42, 3), (167, 1), (7, 10), (79, 9), (13, 3), (243, 8), (144, 2)]
96	10	1	8	8	[(213, 3), (109, 1), (14, 5), (44, 0), (185, 6), (195, 5), (158, 9), (91, 0)]
97	2	6	8	19	[(102, 7), (75, 3), (22, 0), (182, 8), (82, 2), (6, 10), (42, 9), (128, 2), (24, 9), (23, 9), (58, 0), (29, 5), (94, 7), (103, 7), (61, 9), (147, 1), (54, 7), (27, 1), (207, 4)]
98	5	1	8	16	[(105, 9), (75, 2), (4, 1), (18, 3), (73, 6), (142, 2), (113, 8), (22, 6), (224, 8), (80, 5), (112, 10), (25, 2), (161, 5), (210, 2), (172, 7), (5, 8)]
99	2	1	8	11	[(153, 7), (30, 5), (171, 5), (94, 8), (29, 8), (186, 8), (178, 0), (55, 0), (56, 0), (187, 1), (76, 3)]
100	2	4	16	18	[(29, 9), (62, 3), (10, 3), (32, 10), (194, 0), (112, 9), (34, 10), (246, 7), (68, 7), (69, 4), (137, 10), (175, 8), (141, 4), (57, 4), (154, 10), (88, 4), (66, 1), (185, 8)]
101	1	1	8	11	[(116, 0), (131, 3), (2, 6), (72, 0), (157, 3), (139, 0), (234, 7), (88, 5), (49, 9), (93, 6), (81, 8)]
102	1	1	8	16	[(195, 2), (56, 8), (105, 6), (115, 3), (243, 4), (173, 6), (22, 0), (123, 0), (155, 9), (174, 2), (24, 1), (41, 3), (23, 5), (70, 3), (113, 1), (233, 8)]
103	1	1	8	13	[(48, 10), (114, 8), (21, 3), (245, 8), (92, 7), (96, 8), (177, 6), (170, 6), (84, 6), (169, 3), (140, 8), (29, 4), (120, 10)]
104	2	1	8	10	[(37, 2), (39, 8), (161, 3), (50, 4), (231, 8), (120, 7), (201, 0), (96, 7), (137, 0), (145, 9)]
105	2	1	8	11	[(141, 9), (54, 4), (148, 5), (239, 9), (167, 0), (89, 10), (206, 7), (203, 9), (19, 8), (186, 6), (114, 2)]
106	3	5	4	12	[(190, 5), (186, 3), (152, 8), (172, 5), (204, 3), (72, 4), (62, 0), (193, 5), (201, 8), (51, 4), (100, 1), (89, 2)]
107	1	1	1	14	[(229, 8), (208, 9), (125, 8), (205, 8), (76, 8), (209, 4), (192, 1), (75, 3), (223, 8), (141, 10), (81, 3), (132, 3), (217, 3), (177, 1)]
108	1	6	32	13	[(116, 7), (62, 4), (135, 3), (89, 3), (202, 4), (106, 5), (104, 6), (248, 2), (100, 7), (74, 0), (172, 4), (98, 8), (77, 5)]
109	22	1	8	9	[(221, 7), (196, 7), (179, 6), (228, 1), (237, 10), (45, 2), (29, 7), (65, 6), (192, 8)]
110	7	1	8	12	[(61, 10), (33, 6), (196, 8), (47, 5), (142, 9), (76, 9), (89, 3), (119, 0), (227, 2), (91, 10), (124, 5), (53, 5)]
111	4	1	8	15	[(222, 2), (16, 2), (34, 4), (22, 7), (174, 0), (159, 6), (119, 9), (44, 0), (227, 2), (201, 7), (122, 10), (237, 0), (241, 9), (23, 8), (9, 8)]
112	1	5	8	13	[(97, 5), (165, 2), (15, 3), (210, 10), (141, 5), (187, 8), (244, 2), (206, 7), (167, 4), (169, 6), (12, 9), (25, 6), (20, 3)]
113	1	4	8	10	[(243, 9), (194, 7), (96, 7), (82, 3), (174, 1), (232, 7), (95, 6), (39, 4), (2, 2), (168, 1)]
114	2	3	16	9	[(23, 6), (130, 3), (29, 3), (63, 9), (100, 4), (16, 0), (241, 0), (192, 5), (61, 10)]
115	2	2	8	11	[(44, 2), (189, 7), (115, 6), (121, 5), (230, 10), (18, 0), (146, 9), (142, 2), (30, 3), (199, 0), (112, 5)]
116	1	1	2	15	[(180, 9), (71, 8), (155, 8), (51, 0), (220, 8), (33, 7), (140, 7), (182, 2), (17, 2), (216, 0), (205, 7), (240, 9), (93, 8), (3, 9), (225, 1)]
117	2	5	16	10	[(47, 10), (56, 4), (151, 4), (20, 8), (160, 6), (216, 10), (201, 5), (239, 5), (161, 1), (202, 9)]
118	3	1	3	14	[(159, 4), (128, 8), (238, 7), (198, 6), (246, 4), (183, 8), (117, 0), (211, 7), (144, 8), (92, 0), (22, 9), (130, 3), (50, 6), (99, 9)]
119	2	1	3	15	[(55, 9), (92, 7), (201, 6), (84, 2), (76, 10), (21, 7), (46, 2), (23, 4), (125, 4), (42, 2), (171, 9), (189, 10), (211, 7), (137, 7), (164, 1)]
120	3	4	2	17	[(234, 8), (10, 5), (13, 4), (142, 0), (203, 5), (75, 3), (167, 0), (190, 1), (70, 9), (180, 0), (12, 2), (41, 6), (127, 0), (174, 8), (209, 6), (92, 10), (19, 10)]
121	2	1	16	21	[(96, 8), (38, 7), (124, 2), (192, 5), (155, 10), (215, 5), (53, 4), (91, 3), (152, 2), (120, 6), (237, 7), (68, 9), (148, 6), (195, 2), (17, 5), (244, 8), (193, 6), (177, 10), (225, 0), (196, 0), (250, 4)]
122	8	1	8	14	[(156, 7), (245, 7), (232, 5), (25, 7), (157, 3), (211, 1), (63, 3), (129, 2), (15, 3), (24, 2), (76, 5), (5, 9), (64, 10), (59, 3)]
123	3	1	8	8	[(21, 2), (160, 5), (54, 4), (97, 4), (182, 0), (66, 7), (205, 9), (7, 2)]
124	2	1	8	16	[(197, 3), (139, 8), (229, 4), (151, 1), (55, 4), (21, 10), (73, 4), (66, 0), (89, 9), (199, 2), (23, 1), (6, 3), (122, 9), (80, 7), (13, 4), (147, 2)]
125	1	4	16	10	[(178, 5), (90, 10), (36, 0), (239, 8), (143, 10), (223, 9), (148, 3), (14, 10), (48, 2), (195, 5)]
126	1	1	32	8	[(148, 10), (184, 5), (182, 2), (50, 5), (239, 0), (183, 9), (175, 0), (168, 3)]
127	1	4	16	14	[(105, 5), (194, 4), (48, 10), (138, 6), (189, 8), (214, 10), (104, 9), (33, 3), (246, 6), (249, 6), (108, 2), (179, 1), (99, 7), (150, 5)]
128	31	1	8	9	[(19, 6), (13, 6), (10, 1), (58, 10), (204, 7), (7, 5), (120, 9), (240, 4), (193, 6)]
129	1	1	8	13	[(203, 4), (21, 3), (162, 5), (195, 2), (72, 0), (1, 1), (177, 5), (7, 10), (116, 5), (106, 10), (232, 9), (181, 4), (213, 2)]
130	2	2	8	11	[(28, 2), (231, 2), (243, 9), (202, 7), (114, 3), (153, 8), (52, 7), (117, 0), (110, 5), (242, 6), (218, 7)]
131	3	3	8	11	[(77, 3), (117, 1), (116, 7), (88, 1), (239, 7), (155, 0), (87, 0), (37, 8), (172, 9), (63, 6), (39, 3)]
132	49	1	8	15	[(244, 1), (2, 3), (246, 2), (9, 3), (192, 9), (103, 9), (219, 5), (217, 2), (114, 1), (22, 4), (187, 9), (183, 4), (84, 5), (163, 9), (107, 0)]
133	73	1	8	10	[(243, 4), (123, 2), (219, 2), (68, 8), (232, 5), (101, 10), (28, 10), (131, 8), (92, 4), (167, 6)]
134	2	4	8	10	[(26, 2), (41, 2), (103, 9), (124, 9), (22, 6), (239, 2), (104, 6), (33, 3), (192, 3), (142, 8)]
135	1	1	5	11	[(154, 0), (120, 1), (77, 8), (75, 4), (15, 1), (237, 3), (222, 8), (216, 0), (82, 6), (76, 7), (227, 7)]
136	2	2	8	16	[(33, 6), (249, 1), (199, 5), (87, 7), (220, 3), (242, 2), (47, 0), (233, 0), (170, 0), (38, 3), (98, 2), (139, 4), (174, 10), (192, 9), (63, 8), (97, 5)]
137	2	1	2	17	[(223, 9), (54, 0), (116, 10), (111, 3), (62, 9), (27, 7), (97, 9), (155, 2), (69, 0), (119, 1), (124, 1), (113, 10), (49, 2), (76, 8), (199, 5), (211, 3), (224, 6)]
138	2	1	8	7	[(239, 9), (51, 7), (54, 0), (82, 8), (180, 1), (176, 4), (122, 7)]
139	12	2	8	8	[(81, 8), (167, 4), (242, 2), (134, 0), (140, 3), (78, 2), (50, 6), (205, 7)]
140	3	1	8	7	[(243, 6), (133, 0), (107, 4), (222, 10), (136, 4), (235, 4), (137, 8)]
141	1	1	8	11	[(246, 4), (48, 7), (207, 9), (85, 3), (13, 10), (76, 6), (60, 8), (40, 8), (227, 10), (77, 10), (221, 10)]
142	5	1	8	7	[(216, 5), (244, 7), (112, 8), (70, 10), (188, 6), (198, 6), (174, 7)]
143	1	1	16	14	[(196, 4), (175, 0), (113, 4), (2, 1), (220, 7), (161, 10), (223, 1), (242, 2), (230, 7), (23, 6), (55, 3), (155, 7), (42, 8), (153, 4)]
144	7	1	1	14	[(183, 2), (92, 3), (244, 4), (28, 2), (181, 1), (230, 7), (74, 10), (30, 4), (19, 0), (78, 4), (219, 4), (165, 10), (6, 6), (85, 10)]
145	2	6	8	12	[(193, 8), (179, 6), (48, 2), (221, 4), (108, 0), (72, 4), (168, 0), (143, 7), (150, 10), (62, 4), (163, 3), (242, 7)]
146	1	1	8	8	[(101, 0), (40, 2), (138, 9), (176, 4), (246, 7), (79, 10), (241, 3), (108, 1)]
147	63	1	8	12	[(152, 10), (140, 4), (139, 1), (217, 9), (83, 0), (102, 10), (219, 6), (146, 2), (220, 2), (73, 9), (62, 8), (214, 2)]
148	9	4	8	13	[(97, 8), (30, 10), (231, 5), (185, 5), (195, 8), (162, 5), (174, 4), (225, 9), (182, 0), (72, 9), (99, 0), (169, 1), (58, 4)]
149	21	2	8	17	[(52, 1), (179, 8), (109, 5), (103, 5), (61, 6), (19, 5), (225, 8), (43, 1), (208, 6), (123, 2), (137, 9), (238, 1), (152, 6), (127, 3), (176, 4), (215, 2), (248, 6)]
150	26	1	8	8	[(137, 3), (94, 2), (166, 8), (226, 10), (30, 2), (40, 6), (146, 8), (220, 9)]
151	2	1	8	15	[(199, 6), (244, 10), (3, 2), (80, 6), (49, 10), (94, 8), (229, 7), (106, 5), (98, 9), (26, 3), (155, 1), (137, 2), (225, 4), (149, 0), (58, 9)]
152	1	2	8	12	[(206, 8), (5, 6), (46, 3), (15, 7), (170, 8), (239, 4), (176, 10), (107, 7), (17, 9), (199, 10), (51, 1), (77, 8)]
153	66	2	8	11	[(73, 8), (170, 4), (124, 5), (6, 3), (24, 5), (65, 8), (59, 8), (42, 0), (66, 3), (131, 2), (113, 4)]
154	3	1	8	11	[(159, 3), (171, 7), (45, 4), (193, 6), (110, 4), (75, 5), (183, 1), (205, 6), (49, 10), (177, 10), (29, 0)]
155	8	3	8	14	[(95, 9), (57, 1), (169, 10), (185, 5), (44, 2), (49, 10), (63, 9), (202, 2), (214, 0), (183, 5), (149, 9), (216, 6), (122, 0), (151, 3)]
156	2	1	2	10	[(66, 8), (211, 5), (137, 6), (105, 10), (70, 6), (187, 4), (15, 9), (139, 3), (67, 10), (213, 8)]
157	1	1	6	15	[(14, 2), (62, 2), (20, 8), (59, 8), (46, 3), (174, 1), (219, 3), (152, 5), (53, 8), (19, 7), (60, 6), (233, 2), (248, 5), (187, 10), (30, 3)]
158	2	2	8	14	[(17, 2), (145, 0), (101, 10), (152, 3), (51, 9), (232, 4), (190, 3), (94, 5), (223, 1), (137, 10), (123, 7), (173, 5), (136, 5), (246, 10)]
159	1	1	8	15	[(236, 4), (232, 9), (158, 1), (198, 0), (40, 1), (210, 3), (223, 7), (235, 10), (97, 10), (14, 5), (228, 2), (201, 9), (59, 6), (119, 4), (19, 3)]
160	1	4	2	8	[(231, 1), (142, 5), (153, 0), (173, 4), (69, 0), (98, 0), (66, 5), (159, 1)]
161	19	1	8	8	[(90, 4), (125, 6), (232, 7), (32, 0), (108, 6), (111, 9), (176, 8), (114, 1)]
162	2	1	8	20	[(66, 6), (201, 5), (128, 8), (151, 2), (124, 6), (51, 6), (144, 1), (5, 5), (221, 8), (198, 8), (113, 6), (118, 4), (208, 6), (226, 4), (150, 4), (30, 9), (241, 5), (80, 8), (62, 4), (205, 3)]
163	1	2	8	15	[(63, 0), (2, 6), (61, 8), (74, 5), (239, 10), (205, 5), (133, 6), (53, 9), (224, 0), (26, 10), (220, 0), (216, 0), (121, 9), (66, 0), (181, 4)]
164	34	1	8	9	[(231, 10), (67, 2), (158, 8), (61, 7), (110, 10), (152, 5), (104, 4), (247, 10), (234, 4)]
165	3	5	8	13	[(77, 3), (161, 2), (221, 6), (123, 10), (47, 1), (2, 10), (140, 5), (249, 5), (52, 0), (8, 2), (196, 6), (30, 3), (122, 0)]
166	2	1	8	15	[(147, 10), (133, 1), (202, 3), (165, 8), (5, 2), (193, 4), (246, 9), (148, 0), (51, 7), (36, 6), (179, 6), (243, 7), (242, 4), (74, 8), (44, 0)]
167	11	1	16	14	[(237, 4), (80, 10), (233, 7), (191, 0), (234, 4), (162, 9), (65, 1), (217, 8), (134, 0), (7, 8), (171, 6), (248, 7), (129, 4), (25, 3)]
168	18	1	8	16	[(169, 7), (112, 0), (237, 0), (107, 1), (154, 2), (248, 9), (60, 3), (9, 3), (118, 8), (7, 5), (233, 3), (131, 8), (74, 5), (86, 10), (87, 7), (148, 3)]
169	2	2	8	21	[(217, 3), (144, 9), (20, 2), (204, 10), (181, 5), (226, 9), (61, 4), (19, 10), (233, 10), (183, 9), (142, 8), (246, 8), (60, 6), (218, 10), (45, 3), (84, 0), (123, 8), (154, 7), (157, 7), (110, 6), (162, 2)]
170	1	1	8	21	[(153, 2), (244, 1), (7, 6), (57, 3), (136, 0), (221, 1), (115, 3), (201, 6), (158, 9), (246, 8), (209, 2), (196, 7), (17, 10), (123, 7), (80, 10), (225, 7), (178, 0), (132, 2), (214, 5), (101, 5), (76, 5)]
171	4	1	2	11	[(167, 2), (33, 9), (112, 7), (59, 9), (94, 10), (6, 10), (2, 2), (35, 7), (130, 0), (189, 1), (110, 8)]
172	1	2	8	17	[(96, 3), (39, 4), (157, 6), (16, 0), (241, 5), (231, 10), (19, 8), (47, 2), (117, 5), (67, 3), (83, 6), (42, 4), (58, 2), (158, 2), (30, 3), (36, 3), (56, 6)]
173	2	1	10	11	[(120, 2), (44, 0), (203, 2), (16, 9), (219, 7), (20, 5), (238, 10), (214, 4), (1, 1), (176, 1), (160, 10)]
174	2	1	8	14	[(201, 0), (193, 10), (55, 2), (249, 4), (93, 2), (183, 9), (233, 8), (38, 6), (115, 10), (134, 6), (76, 1), (163, 4), (155, 5), (39, 4)]
175	1	1	1	10	[(54, 3), (52, 8), (45, 0), (169, 6), (93, 7), (53, 5), (58, 8), (164, 8), (188, 10), (119, 4)]
176	1	1	8	9	[(26, 8), (62, 8), (127, 9), (76, 7), (220, 2), (84, 8), (188, 0), (133, 3), (134, 1)]
177	2	1	3	7	[(98, 7), (209, 6), (182, 10), (76, 7), (208, 5), (202, 1), (140, 7)]
178	16	1	8	18	[(211, 3), (235, 6), (226, 0), (118, 1), (38, 6), (55, 0), (245, 1), (127, 2), (51, 5), (224, 4), (107, 1), (170, 6), (155, 0), (234, 5), (106, 8), (233, 10), (91, 6), (45, 1)]
179	4	1	8	8	[(186, 6), (32, 7), (114, 5), (35, 10), (113, 9), (135, 10), (129, 6), (179, 6)]
180	17	6	8	15	[(58, 10), (39, 10), (219, 0), (148, 5), (127, 10), (72, 2), (227, 10), (243, 4), (126, 2), (92, 2), (145, 7), (244, 4), (194, 7), (170, 0), (115, 2)]
181	3	36	8	11	[(134, 6), (220, 2), (45, 9), (23, 8), (44, 6), (211, 9), (232, 7), (55, 8), (71, 2), (216, 4), (78, 1)]
182	4	1	16	17	[(35, 2), (66, 5), (69, 4), (201, 8), (179, 4), (165, 9), (189, 1), (100, 9), (55, 10), (108, 2), (95, 6), (124, 9), (183, 7), (14, 10), (239, 10), (248, 4), (97, 6)]
183	2	1	8	11	[(199, 4), (7, 4), (32, 4), (197, 6), (107, 0), (121, 8), (101, 8), (167, 0), (143, 6), (55, 3), (52, 8)]
184	4	1	8	13	[(196, 0), (229, 4), (190, 8), (18, 8), (215, 6), (219, 7), (6, 5), (131, 6), (22, 8), (200, 8), (237, 2), (7, 7), (156, 9)]
185	3	1	2	13	[(118, 0), (11, 6), (33, 5), (119, 10), (108, 5), (239, 5), (249, 7), (234, 4), (98, 5), (246, 9), (227, 10), (153, 8), (183, 6)]
186	14	1	8	7	[(232, 6), (169, 1), (249, 0), (147, 10), (11, 8), (89, 7), (168, 7)]
187	1	1	4	14	[(149, 6), (236, 10), (48, 8), (143, 2), (240, 5), (150, 4), (125, 2), (238, 5), (76, 0), (110, 4), (115, 10), (201, 2), (217, 7), (42, 2)]
188	2	4	8	18	[(205, 1), (59, 2), (203, 6), (197, 4), (15, 3), (132, 4), (238, 0), (27, 5), (214, 6), (93, 10), (171, 0), (246, 7), (111, 5), (22, 5), (160, 1), (29, 10), (244, 1), (239, 4)]
189	3	6	8	23	[(234, 6), (152, 9), (122, 0), (163, 7), (10, 5), (217, 4), (239, 6), (128, 3), (75, 7), (247, 4), (3, 4), (225, 4), (215, 9), (28, 5), (161, 3), (9, 5), (7, 7), (143, 3), (31, 7), (212, 1), (43, 1), (71, 0), (145, 8)]
190	2	4	8	13	[(88, 8), (77, 1), (158, 9), (167, 5), (63, 5), (188, 6), (106, 0), (45, 9), (93, 2), (228, 10), (170, 3), (146, 2), (142, 10)]
191	2	2	8	14	[(81, 4), (53, 10), (153, 5), (85, 0), (20, 2), (139, 0), (160, 5), (109, 4), (229, 10), (71, 7), (201, 10), (184, 6), (205, 3), (148, 1)]
192	2	1	8	15	[(57, 2), (249, 0), (197, 8), (44, 10), (135, 4), (128, 6), (171, 3), (175, 7), (56, 0), (190, 8), (195, 1), (63, 7), (180, 8), (155, 5), (1, 7)]
193	1	6	8	14	[(186, 6), (26, 4), (149, 9), (226, 2), (213, 5), (216, 0), (188, 4), (210, 8), (206, 6), (57, 6), (110, 8), (160, 2), (39, 6), (164, 3)]
194	1	4	8	13	[(194, 4), (220, 0), (48, 7), (223, 9), (175, 10), (21, 10), (66, 6), (56, 5), (154, 3), (23, 10), (110, 10), (31, 2), (151, 5)]
195	1	1	8	12	[(9, 0), (72, 8), (131, 2), (62, 3), (7, 9), (218, 6), (51, 0), (138, 2), (159, 1), (224, 3), (98, 9), (27, 2)]
196	1	1	8	12	[(233, 6), (118, 5), (186, 0), (172, 8), (200, 4), (166, 6), (30, 9), (17, 3), (16, 5), (204, 7), (83, 8), (153, 0)]
197	1	1	8	8	[(109, 2), (173, 1), (166, 1), (204, 8), (24, 4), (140, 6), (100, 0), (111, 2)]
198	1	1	8	10	[(135, 5), (206, 9), (128, 10), (33, 3), (49, 1), (157, 5), (218, 8), (226, 1), (182, 1), (242, 8)]
199	3	4	8	16	[(72, 0), (94, 4), (7, 3), (212, 9), (138, 3), (159, 7), (56, 8), (192, 10), (198, 10), (131, 1), (197, 3), (244, 0), (229, 2), (176, 2), (74, 4), (149, 1)]
200	2	2	8	16	[(171, 1), (100, 0), (216, 8), (11, 2), (189, 1), (239, 0), (81, 9), (43, 6), (16, 7), (46, 10), (17, 3), (66, 4), (41, 1), (150, 4), (235, 10), (129, 8)]
201	2	6	8	13	[(85, 1), (166, 0), (28, 3), (57, 10), (86, 3), (132, 3), (209, 0), (110, 6), (205, 7), (186, 9), (179, 0), (178, 9), (88, 5)]
202	1	3	8	17	[(39, 3), (88, 10), (177, 4), (67, 1), (185, 5), (92, 0), (189, 9), (238, 1), (38, 9), (68, 9), (114, 3), (27, 8), (193, 0), (235, 0), (37, 8), (17, 4), (226, 3)]
203	8	6	8	10	[(179, 3), (135, 7), (100, 0), (175, 0), (19, 9), (127, 5), (157, 9), (54, 6), (187, 8), (201, 9)]
204	2	2	8	17	[(116, 9), (180, 4), (247, 7), (175, 4), (120, 3), (10, 8), (192, 3), (178, 3), (7, 7), (194, 0), (43, 9), (218, 9), (135, 6), (82, 10), (108, 7), (176, 2), (28, 0)]
205	1	4	8	17	[(186, 6), (100, 5), (178, 3), (39, 5), (195, 6), (187, 1), (228, 0), (132, 7), (247, 6), (127, 8), (109, 0), (206, 9), (242, 5), (168, 2), (54, 10), (105, 2), (3, 10)]
206	1	4	8	19	[(43, 4), (134, 6), (213, 9), (50, 6), (26, 2), (51, 9), (8, 9), (80, 5), (46, 7), (86, 8), (94, 1), (161, 7), (117, 4), (170, 2), (104, 4), (200, 5), (127, 3), (41, 8), (15, 6)]
207	1	2	2	10	[(10, 8), (77, 1), (122, 9), (247, 8), (56, 7), (121, 0), (32, 10), (55, 4), (185, 3), (222, 9)]
208	1	3	1	19	[(44, 8), (156, 8), (54, 3), (210, 0), (244, 7), (26, 3), (120, 1), (225, 1), (122, 6), (73, 7), (114, 9), (90, 9), (178, 4), (115, 5), (50, 6), (2, 10), (124, 8), (203, 6), (116, 0)]
209	2	1	8	14	[(60, 7), (62, 0), (240, 2), (239, 7), (54, 7), (161, 5), (109, 6), (241, 0), (51, 10), (44, 1), (79, 0), (177, 1), (9, 1), (227, 0)]
210	2	1	8	17	[(246, 6), (175, 8), (231, 6), (127, 7), (128, 8), (25, 4), (187, 0), (70, 1), (205, 10), (245, 10), (145, 2), (93, 1), (65, 8), (200, 7), (5, 0), (52, 4), (120, 7)]
211	5	1	48	11	[(78, 9), (224, 5), (58, 9), (246, 6), (112, 8), (56, 1), (12, 6), (191, 6), (9, 0), (159, 2), (180, 1)]
212	1	4	16	9	[(63, 10), (179, 4), (109, 2), (47, 5), (44, 10), (53, 8), (157, 1), (197, 0), (155, 0)]
213	2	1	8	8	[(229, 1), (140, 9), (233, 7), (192, 3), (127, 0), (69, 10), (150, 8), (219, 7)]
214	1	1	16	10	[(68, 3), (222, 6), (198, 5), (85, 2), (10, 1), (36, 8), (32, 9), (155, 4), (72, 3), (93, 3)]
215	2	1	8	15	[(162, 10), (246, 7), (35, 9), (65, 8), (148, 0), (215, 6), (150, 9), (245, 8), (19, 1), (181, 5), (92, 0), (1, 1), (113, 10), (128, 10), (118, 5)]
216	4	2	8	11	[(131, 4), (118, 0), (193, 5), (10, 1), (196, 7), (127, 2), (117, 7), (135, 9), (189, 8), (232, 3), (23, 2)]
217	1	1	1	12	[(214, 0), (120, 10), (151, 10), (67, 8), (81, 4), (207, 1), (183, 7), (178, 8), (203, 6), (177, 5), (236, 2), (239, 5)]
218	105	5	8	13	[(10, 4), (134, 6), (239, 3), (146, 7), (240, 10), (26, 8), (36, 10), (211, 10), (175, 1), (246, 4), (43, 7), (29, 5), (4, 4)]
219	1	2	7	14	[(250, 0), (233, 1), (55, 6), (87, 9), (66, 4), (218, 5), (142, 4), (104, 10), (143, 7), (111, 0), (62, 6), (181, 3), (122, 0), (212, 9)]
220	18	2	8	13	[(43, 6), (79, 1), (124, 2), (15, 7), (171, 4), (172, 5), (133, 1), (2, 0), (224, 1), (121, 1), (70, 8), (188, 4), (107, 7)]
221	224	6	8	9	[(156, 6), (84, 7), (4, 1), (103, 4), (93, 6), (60, 6), (65, 1), (239, 4), (170, 1)]
222	6	6	8	10	[(209, 2), (97, 0), (234, 0), (221, 3), (44, 9), (37, 1), (3, 0), (18, 4), (248, 4), (65, 6)]
223	1	1	1	12	[(11, 2), (122, 0), (78, 1), (159, 2), (169, 1), (242, 0), (80, 8), (39, 0), (114, 0), (84, 7), (132, 4), (176, 9)]
224	2	1	8	14	[(44, 5), (146, 8), (180, 4), (68, 8), (250, 2), (194, 5), (175, 9), (235, 7), (97, 2), (220, 8), (216, 0), (73, 10), (197, 3), (88, 6)]
225	1	1	2	15	[(105, 5), (188, 8), (33, 6), (22, 7), (32, 10), (61, 2), (96, 9), (238, 0), (227, 8), (194, 2), (89, 4), (211, 3), (146, 7), (219, 10), (117, 4)]
226	1	1	8	9	[(233, 0), (240, 10), (87, 6), (34, 9), (69, 2), (169, 4), (119, 3), (110, 9), (202, 10)]
227	1	1	8	17	[(43, 0), (234, 2), (119, 5), (180, 5), (170, 0), (127, 5), (74, 5), (137, 6), (12, 9), (5, 7), (249, 10), (194, 3), (10, 3), (8, 5), (30, 7), (212, 2), (61, 7)]
228	3	1	8	17	[(175, 5), (156, 2), (234, 10), (215, 10), (127, 1), (26, 1), (178, 10), (125, 2), (105, 2), (28, 5), (106, 5), (151, 3), (63, 0), (99, 10), (195, 5), (206, 9), (17, 8)]
229	5	1	8	8	[(194, 6), (1, 2), (181, 10), (182, 10), (187, 4), (138, 3), (145, 8), (128, 6)]
230	2	1	8	9	[(104, 1), (75, 8), (16, 5), (198, 10), (185, 5), (221, 0), (173, 2), (34, 4), (90, 8)]
231	3	1	8	13	[(136, 2), (219, 3), (100, 0), (32, 3), (245, 8), (68, 2), (114, 4), (118, 9), (228, 9), (209, 9), (147, 8), (96, 9), (57, 9)]
232	2	1	16	15	[(167, 2), (201, 8), (42, 8), (162, 4), (32, 9), (195, 10), (211, 3), (217, 3), (22, 10), (81, 10), (226, 10), (173, 10), (166, 1), (172, 2), (214, 6)]
233	5	4	4	15	[(51, 6), (196, 2), (58, 1), (227, 1), (160, 8), (89, 0), (222, 8), (27, 2), (156, 8), (28, 10), (45, 3), (219, 5), (33, 8), (21, 2), (226, 7)]
234	3	1	8	9	[(239, 4), (145, 5), (181, 2), (169, 3), (38, 6), (90, 3), (74, 1), (28, 8), (130, 4)]
235	1	1	3	17	[(100, 7), (140, 0), (18, 2), (204, 0), (69, 3), (37, 1), (40, 3), (168, 0), (139, 7), (91, 1), (157, 10), (190, 10), (38, 5), (194, 3), (42, 6), (97, 10), (223, 3)]
236	3	1	7	12	[(220, 6), (209, 0), (93, 0), (101, 4), (210, 8), (192, 4), (105, 10), (208, 6), (159, 4), (153, 6), (149, 8), (190, 7)]
237	3	5	3	14	[(88, 2), (4, 2), (14, 5), (62, 10), (188, 9), (206, 3), (2, 6), (59, 4), (205, 5), (158, 8), (221, 0), (178, 1), (100, 4), (144, 1)]
238	51	4	8	13	[(213, 1), (101, 9), (200, 1), (32, 6), (98, 0), (197, 4), (246, 1), (234, 2), (146, 1), (122, 1), (148, 4), (209, 4), (44, 10)]
239	1	1	8	13	[(64, 2), (49, 7), (158, 4), (36, 5), (218, 1), (239, 3), (139, 9), (235, 3), (25, 2), (11, 4), (185, 8), (63, 1), (178, 4)]
240	1	4	1	15	[(29, 5), (240, 6), (82, 4), (41, 9), (162, 0), (151, 9), (73, 3), (177, 5), (229, 10), (217, 0), (147, 10), (236, 9), (86, 2), (31, 7), (249, 1)]
241	4	1	8	10	[(114, 8), (173, 8), (181, 3), (151, 3), (18, 4), (91, 8), (30, 9), (179, 8), (144, 2), (36, 1)]
242	2	6	8	9	[(33, 4), (76, 3), (205, 9), (138, 5), (194, 8), (163, 7), (90, 0), (214, 2), (213, 2)]
243	1	6	8	16	[(158, 1), (105, 5), (125, 4), (186, 6), (246, 1), (38, 0), (150, 1), (233, 2), (54, 10), (148, 1), (131, 7), (4, 1), (51, 7), (155, 7), (123, 0), (80, 10)]
244	6	1	8	14	[(229, 8), (93, 10), (208, 5), (100, 6), (52, 8), (132, 4), (211, 7), (249, 4), (127, 10), (245, 3), (88, 9), (61, 7), (213, 6), (117, 6)]
245	2	4	7	20	[(77, 4), (223, 7), (198, 10), (7, 4), (92, 0), (121, 6), (81, 4), (158, 4), (194, 1), (131, 3), (138, 4), (45, 6), (246, 10), (215, 10), (91, 8), (104, 5), (228, 2), (39, 3), (216, 0), (88, 5)]
246	1	2	8	13	[(192, 9), (101, 7), (2, 2), (140, 0), (164, 9), (110, 8), (135, 1), (137, 2), (155, 5), (209, 7), (152, 2), (244, 2), (249, 4)]
247	3	1	8	8	[(198, 9), (8, 5), (47, 6), (20, 8), (86, 8), (13, 8), (207, 3), (6, 3)]
248	2	1	2	15	[(99, 9), (72, 10), (42, 3), (30, 7), (190, 3), (124, 9), (170, 0), (18, 5), (201, 5), (90, 3), (250, 8), (145, 10), (65, 1), (7, 6), (84, 10)]
249	2	1	8	8	[(196, 2), (187, 0), (51, 7), (249, 5), (27, 1), (64, 6), (150, 2), (79, 9)]
250	4	2	8	15	[(81, 1), (151, 10), (4, 10), (219, 4), (227, 4), (116, 5), (29, 0), (55, 5), (179, 9), (186, 4), (36, 1), (78, 7), (87, 4), (233, 5), (210, 10)]
