app_id	nb_instances	core	memory	inter_degree	inter_aff
1	1	2	32	5	[(88, 4), (246, 4), (37, 4), (17, 10), (178, 0)]
2	12	2	8	6	[(178, 9), (217, 8), (202, 7), (104, 3), (195, 5), (24, 9)]
3	3	1	8	6	[(190, 0), (217, 6), (129, 2), (99, 8), (188, 2), (22, 9)]
4	2	1	8	11	[(20, 4), (182, 3), (187, 0), (48, 8), (82, 10), (214, 9), (31, 5), (166, 1), (61, 6), (50, 2), (237, 4)]
5	18	1	8	7	[(61, 3), (109, 0), (145, 7), (166, 10), (143, 6), (101, 3), (213, 9)]
6	1	1	8	9	[(60, 6), (80, 0), (199, 5), (91, 3), (98, 7), (142, 1), (94, 0), (32, 3), (237, 4)]
7	2	1	2	6	[(35, 10), (202, 2), (15, 10), (99, 10), (193, 8), (48, 2)]
8	2	3	8	8	[(138, 0), (229, 7), (243, 9), (199, 4), (115, 9), (207, 7), (74, 4), (1, 5)]
9	3	2	8	6	[(142, 4), (102, 1), (27, 3), (63, 0), (34, 8), (66, 5)]
10	3	1	8	5	[(177, 3), (236, 3), (125, 0), (82, 5), (203, 7)]
11	2	1	8	5	[(189, 8), (241, 2), (36, 8), (176, 3), (182, 1)]
12	30	1	8	12	[(152, 8), (71, 8), (88, 3), (55, 6), (77, 4), (144, 2), (50, 8), (216, 1), (221, 4), (121, 2), (44, 0), (161, 2)]
13	1	1	16	5	[(222, 9), (228, 6), (106, 6), (28, 8), (55, 7)]
14	2	2	8	21	[(231, 10), (22, 8), (189, 4), (85, 9), (35, 6), (229, 9), (117, 3), (75, 3), (143, 6), (47, 8), (33, 9), (8, 2), (2, 2), (16, 9), (220, 3), (199, 3), (131, 3), (105, 9), (84, 2), (123, 2), (178, 9)]
15	5	1	16	7	[(85, 6), (181, 5), (100, 9), (144, 0), (91, 0), (52, 6), (137, 2)]
16	2	4	8	8	[(189, 7), (98, 4), (234, 1), (58, 4), (142, 0), (220, 9), (39, 3), (45, 10)]
17	29	1	2	7	[(188, 10), (153, 7), (111, 8), (140, 3), (75, 1), (163, 1), (43, 4)]
18	1	6	8	10	[(211, 4), (139, 4), (181, 2), (110, 3), (189, 9), (60, 8), (168, 5), (246, 6), (213, 5), (94, 9)]
19	1	1	8	10	[(53, 7), (209, 6), (32, 0), (122, 9), (177, 2), (9, 3), (73, 3), (18, 1), (186, 1), (103, 5)]
20	1	1	8	7	[(60, 3), (164, 10), (85, 1), (150, 4), (250, 9), (4, 8), (76, 1)]
21	5	2	8	6	[(47, 7), (145, 8), (53, 4), (160, 2), (186, 0), (36, 9)]
22	6	4	3	8	[(121, 4), (213, 5), (118, 5), (90, 1), (18, 8), (74, 1), (156, 10), (127, 6)]
23	1	2	8	7	[(90, 2), (37, 3), (19, 7), (178, 5), (94, 2), (144, 10), (165, 7)]
24	2	1	8	3	[(215, 3), (191, 8), (237, 8)]
25	1	1	9	11	[(96, 9), (83, 5), (237, 8), (191, 7), (169, 10), (100, 6), (3, 0), (48, 2), (124, 2), (112, 5), (102, 6)]
26	2	1	8	6	[(183, 7), (29, 10), (32, 3), (52, 2), (36, 10), (35, 2)]
27	2	1	8	6	[(168, 3), (161, 2), (4, 2), (82, 6), (49, 9), (33, 10)]
28	16	1	8	4	[(14, 5), (42, 6), (55, 5), (176, 3)]
29	2	1	8	3	[(128, 3), (192, 4), (14, 6)]
30	1	2	8	9	[(74, 0), (88, 9), (117, 5), (159, 3), (125, 7), (79, 0), (113, 5), (100, 3), (107, 9)]
31	3	1	8	4	[(207, 4), (140, 5), (181, 9), (37, 5)]
32	1	2	1	7	[(15, 10), (174, 5), (229, 6), (116, 0), (120, 4), (86, 8), (94, 4)]
33	5	1	48	10	[(206, 4), (174, 7), (68, 0), (22, 8), (59, 4), (197, 3), (158, 8), (212, 2), (153, 5), (134, 9)]
34	2	1	8	5	[(64, 3), (24, 9), (78, 3), (5, 4), (12, 10)]
35	1	1	7	10	[(164, 10), (58, 5), (52, 2), (90, 5), (87, 10), (132, 7), (88, 1), (103, 7), (109, 7), (207, 4)]
36	2	2	8	5	[(202, 3), (3, 8), (15, 0), (155, 8), (160, 9)]
37	1	1	8	12	[(159, 6), (125, 7), (38, 5), (182, 7), (43, 1), (76, 0), (149, 6), (69, 0), (10, 8), (143, 5), (14, 10), (146, 10)]
38	5	1	8	9	[(104, 7), (191, 1), (114, 3), (140, 8), (83, 9), (62, 6), (117, 3), (205, 5), (22, 8)]
39	6	1	8	3	[(13, 1), (107, 4), (168, 3)]
40	2	1	8	9	[(233, 1), (68, 3), (193, 2), (51, 5), (36, 1), (60, 6), (238, 6), (54, 6), (89, 4)]
41	3	1	8	6	[(11, 8), (159, 2), (39, 8), (118, 0), (48, 10), (160, 0)]
42	10	1	8	5	[(180, 2), (201, 3), (206, 1), (30, 9), (229, 0)]
43	1	1	3	8	[(174, 4), (232, 7), (157, 9), (46, 5), (107, 1), (142, 6), (230, 1), (2, 10)]
44	7	1	8	5	[(248, 9), (75, 8), (244, 4), (64, 4), (122, 2)]
45	2	1	8	7	[(100, 7), (206, 4), (87, 1), (44, 1), (193, 8), (94, 8), (216, 4)]
46	2	2	16	7	[(107, 4), (103, 8), (77, 6), (88, 0), (181, 4), (97, 1), (151, 0)]
47	2	3	8	11	[(10, 5), (125, 6), (248, 1), (116, 2), (29, 3), (235, 1), (214, 5), (191, 1), (120, 4), (182, 1), (206, 9)]
48	18	1	8	8	[(107, 5), (163, 5), (51, 7), (50, 6), (90, 7), (80, 10), (15, 8), (137, 10)]
49	2	6	8	8	[(124, 10), (134, 9), (171, 4), (222, 5), (148, 7), (165, 0), (155, 3), (62, 2)]
50	1	1	2	4	[(102, 2), (222, 5), (139, 3), (218, 4)]
51	5	1	8	4	[(17, 5), (171, 2), (4, 1), (227, 4)]
52	1	2	8	6	[(73, 5), (28, 3), (165, 9), (154, 0), (126, 1), (21, 5)]
53	2	2	2	5	[(126, 6), (176, 6), (30, 8), (146, 4), (147, 6)]
54	1	1	8	12	[(124, 9), (224, 4), (86, 1), (233, 1), (134, 6), (228, 1), (212, 5), (151, 6), (87, 9), (206, 10), (187, 5), (198, 5)]
55	1	1	16	4	[(175, 2), (203, 1), (74, 4), (113, 1)]
56	4	1	8	8	[(246, 2), (128, 10), (79, 6), (174, 10), (188, 9), (58, 7), (71, 9), (106, 8)]
57	2	1	8	4	[(103, 5), (68, 6), (194, 3), (137, 8)]
58	2	2	8	5	[(137, 1), (134, 3), (95, 3), (55, 10), (181, 0)]
59	1	1	8	4	[(88, 9), (34, 10), (72, 2), (17, 6)]
60	2	2	8	12	[(23, 1), (14, 7), (79, 2), (178, 4), (103, 0), (147, 9), (207, 0), (138, 10), (218, 10), (247, 10), (212, 4), (208, 10)]
61	1	3	8	8	[(81, 10), (6, 3), (177, 5), (14, 10), (169, 7), (195, 3), (112, 10), (146, 4)]
62	11	1	1	11	[(27, 2), (19, 3), (53, 3), (148, 9), (11, 3), (74, 7), (230, 0), (154, 4), (46, 4), (42, 0), (60, 10)]
63	2	6	8	16	[(116, 7), (135, 10), (190, 2), (132, 4), (158, 4), (226, 6), (85, 1), (142, 1), (106, 0), (37, 8), (221, 5), (9, 1), (113, 3), (36, 6), (153, 5), (47, 8)]
64	1	1	8	7	[(43, 2), (206, 1), (63, 3), (184, 6), (34, 5), (12, 4), (222, 4)]
65	3	1	16	7	[(74, 9), (3, 6), (82, 8), (4, 6), (113, 5), (16, 7), (142, 0)]
66	2	2	2	5	[(67, 7), (103, 9), (232, 10), (207, 0), (230, 6)]
67	2	3	8	9	[(95, 1), (150, 10), (89, 8), (19, 6), (15, 6), (160, 8), (151, 8), (223, 1), (116, 6)]
68	1	1	2	6	[(94, 9), (215, 3), (67, 3), (198, 6), (114, 4), (144, 6)]
69	1	1	8	18	[(116, 3), (193, 8), (210, 4), (86, 0), (220, 9), (67, 5), (121, 9), (194, 0), (3, 8), (228, 0), (176, 7), (43, 9), (97, 3), (89, 0), (246, 8), (171, 10), (42, 6), (72, 10)]
70	5	2	2	8	[(241, 5), (211, 6), (197, 8), (134, 6), (154, 5), (71, 0), (240, 2), (109, 8)]
71	2	1	2	5	[(35, 2), (3, 0), (29, 1), (217, 5), (188, 1)]
72	1	1	8	10	[(217, 1), (43, 7), (127, 10), (140, 9), (195, 1), (119, 0), (97, 8), (139, 5), (239, 0), (50, 8)]
73	2	1	8	7	[(40, 9), (5, 9), (173, 4), (232, 0), (62, 9), (175, 10), (174, 0)]
74	1	1	8	7	[(85, 5), (86, 6), (152, 6), (109, 8), (231, 10), (46, 2), (48, 6)]
75	2	1	8	10	[(234, 3), (94, 5), (118, 7), (27, 2), (32, 10), (84, 5), (3, 4), (140, 3), (77, 2), (109, 8)]
76	5	1	16	10	[(123, 6), (164, 1), (133, 3), (128, 7), (81, 7), (170, 1), (101, 7), (114, 3), (212, 3), (37, 10)]
77	3	11	4	3	[(113, 2), (156, 8), (161, 10)]
78	2	1	8	11	[(228, 9), (148, 10), (32, 9), (24, 7), (153, 1), (23, 3), (85, 4), (28, 4), (167, 5), (3, 4), (202, 0)]
79	1	1	8	9	[(132, 3), (235, 6), (12, 10), (227, 9), (193, 2), (48, 0), (192, 3), (121, 4), (152, 2)]
80	2	1	8	7	[(180, 4), (49, 0), (230, 3), (118, 6), (102, 7), (205, 1), (210, 5)]
81	2	1	8	8	[(64, 2), (69, 2), (7, 7), (5, 8), (173, 9), (39, 7), (59, 0), (124, 6)]
82	2	6	8	11	[(201, 9), (87, 4), (50, 8), (3, 4), (223, 7), (193, 2), (128, 10), (88, 9), (242, 10), (181, 6), (142, 7)]
83	3	4	8	6	[(72, 4), (27, 9), (237, 10), (245, 7), (115, 5), (114, 4)]
84	2	1	8	10	[(163, 5), (175, 7), (47, 8), (102, 3), (17, 5), (54, 10), (34, 8), (42, 3), (6, 3), (203, 8)]
85	2	8	2	13	[(92, 8), (194, 0), (172, 1), (15, 2), (119, 9), (55, 10), (26, 7), (140, 10), (206, 8), (245, 1), (168, 3), (93, 4), (53, 7)]
86	35	7	4	10	[(187, 9), (29, 4), (122, 1), (107, 4), (228, 9), (57, 4), (79, 2), (62, 0), (24, 8), (65, 5)]
87	1	2	8	5	[(136, 2), (122, 2), (54, 5), (131, 7), (2, 3)]
88	1	4	1	9	[(99, 9), (154, 1), (31, 1), (216, 1), (9, 3), (56, 4), (79, 5), (241, 9), (186, 3)]
89	18	1	2	12	[(12, 4), (29, 1), (21, 9), (242, 9), (223, 10), (215, 4), (156, 1), (53, 6), (82, 9), (96, 5), (206, 7), (6, 7)]
90	6	1	4	6	[(189, 9), (156, 8), (82, 3), (105, 2), (237, 9), (208, 0)]
91	2	1	8	6	[(29, 1), (2, 7), (85, 3), (42, 3), (195, 9), (221, 9)]
92	18	1	8	8	[(44, 2), (57, 6), (215, 9), (159, 5), (216, 2), (224, 3), (95, 5), (33, 2)]
93	2	1	16	3	[(119, 6), (172, 8), (11, 7)]
94	4	2	8	5	[(132, 9), (216, 5), (221, 2), (27, 7), (78, 9)]
95	36	1	16	8	[(25, 5), (56, 3), (20, 2), (42, 3), (46, 8), (91, 9), (222, 2), (64, 10)]
96	3	1	8	6	[(116, 7), (157, 9), (17, 4), (221, 10), (196, 9), (111, 0)]
97	1	2	8	5	[(70, 4), (97, 1), (53, 5), (246, 1), (3, 0)]
98	2	4	8	3	[(3, 1), (108, 5), (4, 3)]
99	1	1	8	4	[(157, 10), (113, 1), (102, 8), (140, 3)]
100	1	4	8	10	[(203, 7), (236, 6), (82, 4), (120, 8), (36, 2), (248, 8), (208, 7), (159, 7), (107, 5), (35, 0)]
101	42	1	8	8	[(47, 1), (62, 1), (131, 0), (162, 2), (179, 1), (163, 2), (205, 7), (35, 7)]
102	2	4	8	5	[(46, 4), (234, 3), (227, 1), (131, 7), (10, 7)]
103	2	1	8	11	[(245, 5), (186, 6), (86, 10), (176, 9), (173, 0), (216, 0), (185, 4), (104, 7), (4, 7), (241, 1), (198, 2)]
104	1	1	2	6	[(114, 4), (67, 8), (182, 8), (191, 0), (54, 7), (188, 7)]
105	2	4	8	5	[(157, 5), (146, 8), (128, 0), (204, 2), (22, 3)]
106	3	12	8	12	[(243, 5), (10, 2), (38, 2), (174, 8), (121, 4), (22, 1), (108, 9), (31, 7), (202, 7), (183, 4), (212, 6), (37, 3)]
107	15	1	8	2	[(194, 9), (70, 0)]
108	2	1	8	11	[(244, 5), (71, 3), (179, 8), (21, 10), (114, 9), (75, 1), (189, 10), (39, 4), (234, 0), (113, 8), (195, 6)]
109	20	2	8	6	[(165, 3), (235, 1), (208, 2), (63, 2), (26, 5), (72, 2)]
110	3	1	8	7	[(146, 4), (176, 2), (8, 5), (160, 7), (111, 8), (90, 4), (194, 6)]
111	1	4	8	9	[(203, 4), (241, 3), (15, 1), (72, 1), (240, 6), (92, 8), (101, 1), (151, 5), (211, 1)]
112	2	6	2	6	[(121, 7), (34, 1), (168, 3), (228, 6), (5, 6), (95, 8)]
113	22	4	8	10	[(176, 2), (207, 5), (56, 8), (73, 10), (10, 8), (110, 5), (233, 7), (4, 1), (93, 10), (60, 9)]
114	5	1	8	12	[(192, 10), (135, 8), (6, 0), (95, 0), (89, 8), (199, 1), (177, 2), (62, 10), (80, 7), (190, 1), (144, 5), (72, 5)]
115	1	1	8	9	[(104, 1), (78, 6), (238, 9), (147, 10), (111, 5), (149, 0), (86, 5), (229, 9), (48, 1)]
116	3	1	8	7	[(182, 6), (179, 6), (16, 10), (79, 2), (54, 10), (90, 10), (215, 1)]
117	4	1	2	10	[(31, 9), (214, 9), (98, 5), (131, 9), (50, 0), (144, 9), (250, 5), (234, 1), (77, 3), (247, 4)]
118	2	16	8	8	[(192, 4), (167, 8), (213, 1), (204, 6), (196, 5), (135, 0), (63, 6), (139, 3)]
119	1	1	8	4	[(154, 1), (119, 10), (233, 4), (216, 2)]
120	7	2	2	9	[(54, 3), (243, 10), (194, 6), (210, 4), (163, 5), (24, 9), (4, 2), (7, 8), (42, 3)]
121	2	1	8	5	[(186, 7), (170, 6), (75, 5), (211, 9), (234, 7)]
122	2	4	8	8	[(80, 9), (151, 1), (231, 6), (95, 5), (57, 8), (145, 1), (166, 5), (68, 10)]
123	1	1	8	6	[(73, 3), (242, 10), (166, 6), (12, 8), (162, 2), (201, 8)]
124	2	1	16	8	[(93, 1), (179, 7), (54, 4), (191, 3), (230, 4), (111, 2), (181, 1), (118, 1)]
125	10	2	2	7	[(165, 1), (154, 1), (92, 0), (179, 5), (197, 6), (244, 6), (237, 8)]
126	2	1	8	7	[(118, 1), (6, 10), (82, 10), (39, 9), (202, 10), (220, 0), (27, 0)]
127	2	1	2	7	[(172, 3), (77, 4), (134, 6), (129, 1), (136, 4), (30, 4), (28, 5)]
128	2	1	1	7	[(228, 10), (237, 0), (154, 1), (32, 1), (223, 4), (137, 1), (72, 2)]
129	4	5	2	3	[(14, 6), (95, 1), (234, 8)]
130	2	1	8	8	[(111, 2), (26, 8), (12, 10), (119, 9), (162, 4), (56, 8), (112, 4), (75, 5)]
131	1	1	8	10	[(175, 0), (198, 10), (176, 1), (113, 10), (104, 6), (141, 6), (133, 2), (215, 9), (236, 3), (213, 6)]
132	3	3	4	8	[(89, 6), (221, 4), (190, 10), (185, 8), (51, 9), (141, 2), (201, 0), (119, 7)]
133	2	1	8	11	[(6, 9), (159, 0), (50, 2), (154, 6), (103, 9), (74, 8), (144, 8), (48, 1), (35, 10), (233, 1), (77, 9)]
134	4	2	8	5	[(156, 6), (53, 2), (217, 5), (88, 0), (93, 10)]
135	2	1	8	9	[(116, 10), (179, 1), (164, 9), (199, 1), (87, 3), (215, 0), (143, 6), (120, 6), (208, 4)]
136	4	3	8	4	[(231, 4), (217, 6), (41, 9), (65, 2)]
137	2	1	8	9	[(183, 8), (188, 8), (100, 2), (52, 10), (97, 4), (208, 5), (186, 0), (45, 2), (10, 2)]
138	27	6	8	5	[(72, 4), (64, 7), (229, 10), (182, 5), (35, 4)]
139	8	2	8	6	[(155, 3), (65, 8), (143, 7), (19, 6), (130, 3), (171, 8)]
140	7	1	7	7	[(69, 8), (54, 7), (158, 10), (176, 4), (15, 5), (33, 8), (40, 6)]
141	7	1	8	6	[(146, 4), (11, 8), (107, 0), (47, 10), (223, 2), (242, 3)]
142	2	4	8	9	[(150, 3), (83, 6), (231, 10), (99, 8), (25, 7), (52, 1), (19, 2), (45, 10), (215, 8)]
143	138	1	8	10	[(182, 5), (223, 9), (90, 2), (206, 2), (150, 0), (156, 0), (226, 5), (217, 4), (205, 4), (189, 9)]
144	1	1	1	11	[(197, 0), (57, 3), (150, 6), (132, 9), (224, 10), (62, 10), (67, 9), (192, 10), (236, 8), (216, 9), (122, 8)]
145	4	5	8	7	[(228, 4), (204, 5), (81, 10), (213, 9), (161, 2), (38, 0), (215, 4)]
146	2	2	8	7	[(212, 10), (239, 3), (12, 9), (100, 7), (158, 3), (189, 7), (13, 1)]
147	4	4	8	6	[(166, 8), (19, 4), (20, 9), (177, 4), (144, 3), (55, 4)]
148	16	4	8	4	[(106, 4), (150, 6), (86, 9), (51, 7)]
149	1	1	7	9	[(233, 0), (121, 5), (223, 9), (111, 5), (98, 9), (234, 9), (86, 8), (91, 3), (169, 2)]
150	1	1	16	11	[(75, 9), (160, 1), (12, 5), (132, 7), (47, 9), (104, 5), (18, 4), (151, 8), (80, 5), (89, 8), (171, 10)]
151	1	1	8	4	[(111, 9), (13, 3), (30, 9), (64, 3)]
152	4	4	8	9	[(134, 0), (152, 6), (6, 9), (240, 0), (83, 5), (220, 5), (196, 6), (123, 2), (166, 2)]
153	7	1	2	11	[(95, 0), (179, 6), (194, 4), (55, 10), (111, 9), (4, 2), (149, 6), (163, 3), (114, 0), (133, 0), (159, 7)]
154	2	3	8	7	[(7, 5), (13, 5), (209, 9), (189, 7), (16, 10), (160, 3), (219, 1)]
155	6	1	32	6	[(240, 4), (55, 4), (41, 9), (216, 6), (204, 5), (33, 9)]
156	3	5	8	7	[(134, 8), (108, 6), (229, 2), (238, 5), (179, 3), (20, 4), (242, 7)]
157	1	1	8	4	[(21, 2), (124, 8), (135, 9), (217, 3)]
158	9	4	8	8	[(13, 6), (245, 8), (78, 7), (231, 5), (105, 9), (195, 9), (184, 4), (12, 0)]
159	1	2	48	1	[(147, 9)]
160	1	1	8	9	[(15, 10), (185, 9), (216, 4), (44, 0), (172, 3), (168, 6), (176, 7), (131, 8), (22, 6)]
161	200	1	2	8	[(84, 0), (12, 9), (135, 8), (167, 10), (7, 8), (94, 3), (150, 6), (27, 0)]
162	50	2	8	5	[(137, 5), (248, 4), (185, 1), (226, 9), (229, 9)]
163	21	1	8	8	[(186, 7), (42, 2), (145, 6), (190, 10), (234, 7), (248, 8), (161, 7), (104, 7)]
164	3	1	16	8	[(36, 0), (124, 10), (205, 5), (92, 10), (169, 7), (127, 9), (60, 7), (122, 2)]
165	1	1	8	10	[(97, 1), (219, 5), (17, 2), (203, 7), (221, 1), (146, 3), (82, 9), (242, 8), (124, 4), (156, 1)]
166	3	3	2	11	[(197, 6), (163, 6), (46, 1), (243, 6), (66, 1), (84, 6), (139, 8), (49, 6), (208, 9), (134, 2), (187, 9)]
167	1	1	8	7	[(24, 1), (191, 0), (149, 1), (209, 10), (237, 6), (164, 3), (169, 7)]
168	4	1	8	13	[(19, 5), (249, 4), (71, 9), (173, 6), (115, 8), (207, 3), (250, 3), (17, 7), (227, 7), (164, 4), (1, 5), (181, 8), (206, 9)]
169	1	2	8	9	[(58, 1), (173, 4), (18, 5), (63, 6), (70, 9), (55, 0), (134, 9), (227, 3), (148, 9)]
170	40	1	8	7	[(87, 4), (21, 5), (140, 9), (127, 10), (137, 2), (64, 0), (17, 10)]
171	3	3	3	8	[(237, 5), (35, 1), (148, 5), (97, 0), (113, 4), (234, 5), (139, 8), (155, 2)]
172	1	1	8	6	[(138, 9), (154, 10), (125, 7), (147, 5), (116, 3), (170, 4)]
173	4	2	8	5	[(200, 10), (163, 10), (85, 3), (150, 3), (199, 7)]
174	1	1	8	6	[(121, 5), (109, 10), (217, 3), (92, 2), (250, 4), (153, 2)]
175	7	3	8	5	[(147, 10), (208, 2), (32, 9), (174, 3), (234, 2)]
176	2	3	8	4	[(239, 4), (52, 9), (103, 2), (62, 8)]
177	1	1	16	4	[(245, 2), (27, 0), (61, 8), (154, 4)]
178	1	1	8	10	[(92, 9), (41, 5), (112, 4), (242, 7), (202, 7), (177, 8), (247, 0), (131, 10), (219, 8), (200, 5)]
179	2	1	8	3	[(247, 1), (110, 2), (8, 0)]
180	1	1	8	8	[(120, 7), (221, 2), (151, 8), (144, 7), (55, 8), (23, 0), (228, 8), (45, 5)]
181	2	1	8	6	[(236, 2), (234, 3), (36, 1), (61, 2), (28, 2), (246, 7)]
182	1	1	2	9	[(231, 4), (249, 4), (173, 5), (30, 2), (115, 10), (233, 9), (91, 4), (187, 8), (80, 6)]
183	4	1	8	6	[(183, 10), (219, 7), (118, 8), (116, 0), (73, 3), (148, 8)]
184	2	1	8	7	[(87, 6), (114, 8), (29, 10), (107, 4), (79, 3), (47, 9), (88, 8)]
185	1	1	1	8	[(196, 0), (192, 9), (47, 4), (239, 5), (208, 7), (191, 10), (46, 9), (72, 10)]
186	1	1	8	2	[(77, 6), (16, 8)]
187	1	12	8	11	[(219, 9), (168, 8), (175, 1), (102, 9), (236, 9), (193, 6), (60, 9), (65, 0), (241, 4), (20, 6), (103, 3)]
188	2	1	8	7	[(100, 2), (17, 8), (229, 2), (158, 0), (107, 8), (83, 3), (127, 0)]
189	1	1	8	7	[(123, 6), (170, 4), (235, 6), (182, 5), (34, 0), (148, 0), (200, 5)]
190	2	1	8	9	[(93, 1), (21, 3), (72, 1), (36, 8), (175, 7), (116, 9), (118, 4), (198, 9), (80, 7)]
191	1	1	1	5	[(40, 6), (212, 0), (110, 4), (47, 2), (202, 1)]
192	1	2	8	2	[(236, 2), (124, 3)]
193	2	2	8	7	[(66, 5), (238, 8), (13, 4), (112, 1), (3, 10), (113, 10), (210, 4)]
194	7	1	8	7	[(100, 8), (241, 10), (91, 10), (57, 8), (98, 6), (59, 3), (191, 0)]
195	1	2	2	12	[(78, 6), (73, 9), (20, 10), (146, 8), (145, 4), (32, 0), (154, 3), (95, 9), (181, 3), (186, 4), (226, 8), (204, 9)]
196	2	1	8	12	[(75, 9), (165, 6), (239, 4), (78, 2), (238, 7), (84, 4), (46, 2), (24, 0), (214, 5), (241, 10), (42, 2), (25, 1)]
197	2	1	3	7	[(170, 6), (194, 10), (230, 8), (238, 6), (133, 9), (219, 10), (129, 3)]
198	1	1	8	8	[(169, 10), (124, 9), (24, 6), (237, 3), (92, 6), (101, 0), (160, 6), (228, 3)]
199	1	1	8	7	[(158, 5), (42, 1), (227, 3), (124, 10), (17, 6), (169, 9), (206, 4)]
200	2	1	8	4	[(237, 8), (4, 10), (27, 9), (240, 2)]
201	5	1	8	4	[(212, 5), (141, 7), (17, 2), (164, 4)]
202	6	2	8	9	[(244, 7), (126, 6), (93, 4), (236, 6), (17, 2), (208, 5), (150, 10), (2, 1), (58, 3)]
203	2	2	8	10	[(152, 5), (195, 1), (32, 2), (67, 2), (166, 10), (203, 2), (165, 6), (30, 9), (106, 10), (47, 8)]
204	3	1	8	5	[(69, 3), (198, 3), (246, 5), (191, 2), (199, 3)]
205	6	1	2	7	[(140, 8), (86, 5), (61, 4), (67, 10), (228, 7), (39, 2), (82, 1)]
206	7	1	6	4	[(115, 9), (128, 9), (87, 10), (78, 6)]
207	2	1	8	1	[(185, 8)]
208	7	1	8	7	[(154, 8), (70, 2), (157, 8), (21, 0), (227, 0), (110, 4), (100, 6)]
209	1	1	8	9	[(147, 2), (242, 10), (37, 1), (138, 4), (119, 4), (134, 4), (219, 1), (140, 4), (30, 9)]
210	1	1	8	10	[(181, 0), (28, 10), (111, 4), (143, 2), (230, 6), (190, 4), (81, 1), (112, 3), (114, 8), (159, 7)]
211	9	1	8	6	[(185, 6), (3, 2), (18, 4), (118, 0), (167, 2), (105, 4)]
212	1	3	8	9	[(241, 10), (110, 0), (72, 0), (183, 7), (22, 7), (24, 10), (207, 0), (177, 8), (201, 5)]
213	2	1	8	12	[(95, 6), (44, 0), (3, 1), (231, 10), (76, 5), (29, 7), (8, 5), (169, 0), (177, 5), (83, 2), (158, 4), (153, 5)]
214	1	1	128	8	[(66, 4), (4, 5), (113, 7), (218, 8), (188, 2), (211, 1), (73, 9), (49, 0)]
215	1	4	8	6	[(11, 3), (196, 3), (126, 7), (36, 5), (57, 10), (176, 0)]
216	5	1	2	13	[(229, 0), (42, 8), (153, 10), (69, 2), (15, 0), (54, 5), (21, 10), (136, 5), (232, 7), (172, 3), (45, 7), (203, 6), (155, 9)]
217	3	2	1	4	[(29, 10), (243, 5), (36, 5), (185, 3)]
218	3	1	8	6	[(206, 9), (44, 5), (223, 6), (31, 1), (140, 3), (101, 0)]
219	84	1	8	5	[(148, 8), (47, 7), (31, 0), (121, 8), (28, 5)]
220	2	1	8	8	[(59, 3), (214, 10), (94, 0), (219, 7), (23, 9), (150, 5), (40, 2), (162, 6)]
221	2	1	8	9	[(145, 2), (19, 3), (95, 6), (149, 5), (53, 9), (48, 6), (188, 6), (58, 1), (152, 10)]
222	5	2	8	9	[(132, 8), (114, 6), (73, 6), (242, 5), (86, 4), (29, 5), (128, 8), (2, 5), (4, 7)]
223	2	4	8	5	[(9, 7), (143, 0), (215, 9), (112, 4), (41, 0)]
224	1	4	7	6	[(153, 7), (215, 5), (109, 5), (24, 2), (68, 9), (175, 7)]
225	14	1	8	9	[(123, 10), (248, 5), (185, 7), (169, 0), (72, 5), (19, 8), (188, 7), (161, 6), (178, 4)]
226	4	12	8	9	[(172, 7), (174, 10), (177, 6), (111, 5), (156, 3), (47, 5), (67, 2), (65, 9), (162, 1)]
227	44	1	8	5	[(38, 2), (53, 2), (60, 10), (192, 3), (165, 3)]
228	5	1	8	11	[(215, 10), (98, 8), (61, 7), (209, 9), (159, 0), (22, 0), (59, 1), (74, 2), (52, 3), (131, 6), (43, 3)]
229	3	1	8	9	[(199, 1), (106, 10), (197, 0), (224, 3), (210, 7), (142, 0), (171, 4), (111, 5), (162, 9)]
230	2	1	8	4	[(142, 10), (96, 3), (43, 3), (129, 0)]
231	1	1	8	11	[(202, 3), (39, 10), (37, 0), (47, 3), (136, 2), (16, 10), (112, 8), (197, 2), (231, 7), (69, 0), (88, 2)]
232	2	2	8	3	[(180, 4), (33, 10), (9, 6)]
233	1	4	8	8	[(166, 1), (142, 10), (150, 4), (68, 10), (125, 0), (232, 4), (33, 6), (63, 2)]
234	4	1	8	18	[(232, 10), (222, 8), (69, 1), (14, 7), (53, 1), (68, 9), (188, 7), (210, 8), (74, 8), (239, 5), (138, 5), (17, 7), (67, 5), (163, 9), (192, 9), (216, 5), (29, 8), (208, 10)]
235	5	1	8	9	[(63, 0), (235, 2), (148, 3), (140, 8), (76, 9), (151, 2), (109, 3), (162, 8), (7, 6)]
236	2	1	2	14	[(122, 9), (10, 1), (93, 7), (232, 2), (50, 5), (155, 8), (225, 2), (126, 1), (63, 8), (113, 10), (194, 8), (42, 2), (60, 10), (228, 1)]
237	6	1	2	8	[(162, 8), (80, 1), (151, 2), (93, 1), (214, 3), (68, 9), (83, 0), (170, 3)]
238	2	1	16	6	[(230, 9), (80, 5), (158, 7), (67, 2), (216, 0), (164, 3)]
239	16	1	16	11	[(122, 5), (80, 8), (187, 3), (240, 7), (124, 6), (97, 10), (37, 7), (166, 4), (176, 8), (218, 1), (246, 9)]
240	1	2	8	13	[(169, 2), (54, 0), (4, 10), (235, 5), (141, 2), (148, 8), (87, 4), (201, 7), (101, 1), (81, 5), (120, 7), (218, 5), (41, 6)]
241	6	3	8	3	[(140, 1), (29, 5), (89, 7)]
242	9	2	8	10	[(14, 0), (241, 6), (237, 5), (38, 1), (243, 1), (87, 7), (11, 8), (18, 0), (193, 2), (21, 9)]
243	5	10	8	6	[(228, 0), (250, 8), (170, 0), (137, 2), (125, 7), (39, 1)]
244	2	3	8	6	[(166, 10), (183, 7), (187, 6), (76, 7), (247, 4), (97, 2)]
245	5	1	8	9	[(93, 9), (140, 6), (57, 8), (205, 6), (166, 2), (177, 8), (250, 9), (123, 3), (18, 10)]
246	1	1	8	4	[(118, 7), (79, 6), (55, 1), (239, 10)]
247	2	1	8	5	[(138, 2), (48, 9), (162, 9), (137, 3), (56, 8)]
248	2	1	8	12	[(70, 2), (12, 7), (138, 10), (149, 9), (123, 3), (102, 8), (134, 10), (158, 3), (234, 2), (19, 2), (122, 7), (45, 8)]
249	3	1	8	12	[(54, 0), (176, 0), (49, 0), (212, 2), (98, 0), (191, 7), (127, 3), (41, 5), (101, 2), (117, 3), (83, 8), (60, 10)]
250	1	1	2	4	[(13, 6), (48, 1), (43, 1), (248, 5)]
