app_id	nb_instances	core	memory	inter_degree	inter_aff
1	2	1	8	26	[(248, 5), (192, 3), (142, 3), (171, 4), (240, 7), (109, 1), (3, 6), (59, 2), (239, 7), (17, 9), (129, 7), (45, 0), (133, 0), (82, 1), (37, 3), (100, 7), (136, 8), (113, 8), (4, 4), (121, 10), (112, 8), (79, 8), (230, 9), (92, 8), (126, 3), (117, 3)]
2	2	1	6	22	[(23, 9), (49, 1), (92, 0), (12, 4), (100, 4), (105, 10), (245, 8), (106, 3), (222, 5), (115, 7), (111, 4), (108, 3), (196, 5), (152, 7), (57, 6), (101, 7), (161, 9), (109, 0), (9, 7), (231, 9), (131, 10), (54, 10)]
3	2	1	8	35	[(236, 0), (81, 3), (224, 4), (74, 4), (86, 0), (147, 0), (48, 7), (108, 4), (245, 2), (73, 1), (7, 2), (76, 3), (166, 9), (180, 4), (241, 5), (56, 2), (216, 2), (177, 3), (240, 10), (195, 9), (161, 2), (4, 2), (113, 3), (17, 2), (225, 8), (220, 9), (54, 8), (129, 5), (230, 5), (143, 6), (218, 2), (242, 1), (8, 10), (188, 8), (20, 7)]
4	3	1	2	28	[(181, 5), (169, 10), (180, 9), (210, 3), (117, 9), (208, 5), (188, 7), (88, 0), (244, 9), (113, 8), (144, 2), (173, 0), (125, 0), (107, 4), (114, 3), (211, 5), (213, 8), (47, 2), (104, 5), (77, 6), (151, 10), (11, 2), (70, 7), (18, 10), (131, 3), (97, 4), (57, 1), (55, 3)]
5	8	1	8	32	[(69, 4), (230, 7), (29, 2), (6, 0), (17, 8), (166, 5), (216, 8), (180, 6), (245, 1), (67, 8), (35, 1), (74, 5), (247, 8), (39, 9), (209, 5), (221, 2), (124, 5), (5, 8), (102, 7), (199, 4), (132, 0), (203, 0), (133, 10), (101, 8), (163, 0), (4, 1), (173, 6), (236, 5), (76, 10), (183, 9), (46, 1), (177, 0)]
6	4	1	8	44	[(36, 0), (204, 7), (165, 7), (237, 4), (108, 10), (123, 5), (104, 1), (242, 10), (83, 3), (49, 10), (8, 10), (155, 4), (147, 7), (215, 7), (135, 9), (118, 9), (77, 0), (33, 4), (225, 10), (89, 4), (96, 3), (220, 1), (153, 1), (57, 6), (7, 2), (75, 5), (134, 7), (11, 3), (117, 9), (1, 0), (92, 4), (93, 5), (56, 1), (233, 10), (65, 2), (164, 10), (196, 5), (232, 10), (124, 8), (219, 9), (131, 7), (116, 0), (229, 5), (240, 6)]
7	1	6	16	34	[(63, 0), (155, 5), (130, 8), (108, 5), (194, 0), (52, 6), (61, 2), (241, 4), (128, 6), (8, 4), (92, 9), (167, 6), (189, 0), (175, 3), (114, 9), (171, 2), (197, 9), (210, 7), (122, 5), (78, 7), (172, 10), (25, 6), (53, 10), (106, 4), (217, 10), (140, 5), (2, 7), (13, 10), (22, 1), (185, 0), (188, 3), (66, 2), (42, 7), (104, 4)]
8	2	12	8	35	[(220, 9), (121, 4), (151, 9), (177, 4), (46, 9), (242, 3), (219, 7), (174, 9), (34, 1), (73, 10), (9, 0), (185, 7), (15, 1), (4, 9), (211, 2), (24, 10), (126, 0), (217, 0), (95, 10), (120, 10), (102, 8), (16, 4), (184, 2), (65, 9), (35, 8), (162, 3), (38, 3), (191, 2), (64, 7), (137, 7), (215, 4), (248, 2), (225, 6), (189, 7), (134, 10)]
9	2	1	8	24	[(147, 6), (135, 10), (192, 8), (118, 9), (83, 6), (200, 1), (180, 7), (66, 6), (185, 9), (207, 9), (184, 9), (53, 5), (20, 8), (48, 1), (204, 0), (103, 3), (124, 9), (223, 2), (216, 8), (110, 7), (234, 9), (23, 1), (80, 8), (16, 3)]
10	1	2	8	42	[(205, 0), (49, 5), (85, 0), (72, 4), (233, 9), (19, 4), (164, 4), (123, 9), (45, 8), (60, 2), (189, 9), (226, 10), (224, 7), (163, 5), (230, 9), (86, 4), (59, 9), (51, 9), (155, 2), (197, 6), (179, 1), (204, 4), (108, 4), (69, 9), (31, 10), (1, 7), (114, 8), (165, 4), (104, 8), (168, 0), (139, 4), (177, 2), (218, 1), (200, 0), (106, 0), (48, 10), (156, 2), (170, 1), (158, 1), (110, 9), (171, 5), (81, 9)]
11	2	4	8	34	[(138, 0), (249, 5), (219, 4), (53, 8), (36, 9), (52, 2), (125, 0), (67, 5), (146, 3), (123, 0), (190, 0), (224, 0), (141, 0), (222, 5), (212, 4), (152, 10), (188, 2), (131, 6), (231, 2), (233, 4), (135, 2), (187, 5), (110, 3), (234, 10), (70, 3), (175, 9), (195, 7), (167, 2), (228, 2), (142, 5), (202, 6), (218, 9), (48, 2), (29, 0)]
12	1	5	8	45	[(103, 9), (21, 4), (245, 3), (239, 0), (97, 5), (128, 3), (49, 7), (189, 5), (36, 1), (68, 8), (192, 1), (143, 3), (217, 3), (123, 10), (56, 4), (67, 5), (12, 10), (79, 0), (10, 2), (11, 3), (18, 8), (86, 10), (63, 3), (95, 1), (173, 10), (148, 4), (160, 2), (155, 3), (135, 0), (139, 0), (4, 8), (119, 1), (35, 5), (222, 0), (215, 4), (243, 1), (144, 8), (156, 4), (198, 0), (146, 9), (166, 9), (137, 10), (178, 6), (58, 2), (225, 3)]
13	2	6	8	34	[(66, 2), (11, 1), (9, 10), (247, 3), (120, 5), (132, 6), (74, 7), (167, 7), (76, 6), (37, 4), (127, 2), (216, 5), (160, 7), (217, 10), (201, 10), (116, 7), (139, 2), (193, 5), (119, 9), (171, 2), (240, 8), (84, 4), (103, 0), (176, 10), (250, 1), (162, 7), (102, 3), (105, 5), (45, 8), (125, 9), (156, 0), (113, 2), (110, 7), (180, 3)]
14	7	3	8	37	[(244, 6), (226, 8), (76, 1), (220, 1), (115, 3), (227, 4), (13, 5), (73, 5), (40, 4), (235, 6), (149, 8), (214, 10), (27, 7), (113, 4), (154, 8), (84, 7), (118, 0), (193, 3), (172, 5), (32, 5), (8, 8), (146, 8), (232, 8), (177, 4), (52, 9), (144, 2), (202, 2), (74, 7), (47, 5), (169, 9), (213, 0), (130, 6), (126, 10), (68, 4), (83, 7), (224, 4), (107, 1)]
15	3	5	8	25	[(144, 6), (177, 6), (219, 1), (123, 8), (103, 10), (73, 4), (35, 0), (167, 5), (34, 10), (48, 9), (91, 2), (19, 10), (5, 10), (191, 3), (14, 3), (118, 10), (231, 2), (94, 3), (61, 5), (113, 9), (195, 4), (145, 4), (75, 1), (100, 5), (72, 6)]
16	3	1	8	34	[(221, 0), (167, 8), (156, 9), (247, 7), (159, 5), (226, 4), (131, 0), (234, 4), (76, 5), (111, 0), (15, 10), (39, 9), (13, 3), (91, 2), (57, 2), (75, 7), (205, 0), (237, 1), (61, 5), (157, 3), (152, 8), (201, 7), (250, 9), (1, 8), (238, 3), (193, 8), (14, 7), (153, 0), (99, 6), (246, 5), (107, 3), (191, 7), (22, 2), (198, 0)]
17	2	1	8	32	[(146, 7), (208, 1), (106, 9), (43, 10), (204, 3), (170, 3), (53, 7), (45, 9), (111, 2), (141, 7), (81, 0), (212, 3), (14, 10), (66, 6), (161, 6), (107, 1), (139, 4), (182, 6), (15, 3), (199, 8), (85, 9), (235, 9), (142, 3), (207, 1), (219, 2), (72, 4), (93, 6), (144, 3), (220, 7), (33, 8), (246, 9), (184, 10)]
18	6	3	8	35	[(109, 6), (61, 5), (240, 9), (60, 7), (28, 2), (57, 6), (117, 2), (128, 6), (218, 7), (5, 6), (76, 9), (42, 1), (223, 4), (137, 9), (214, 0), (38, 0), (18, 8), (49, 7), (237, 0), (163, 8), (106, 0), (142, 10), (118, 8), (48, 4), (32, 4), (97, 7), (184, 10), (150, 0), (165, 10), (227, 6), (94, 9), (213, 6), (41, 10), (127, 7), (9, 9)]
19	1	2	8	31	[(182, 9), (91, 4), (58, 6), (65, 9), (80, 0), (137, 0), (60, 9), (162, 3), (104, 6), (187, 3), (158, 6), (44, 2), (41, 5), (109, 3), (2, 0), (30, 0), (20, 8), (53, 2), (245, 6), (36, 7), (89, 10), (13, 9), (226, 8), (31, 3), (116, 2), (72, 4), (237, 5), (175, 9), (157, 3), (127, 10), (153, 3)]
20	8	1	8	40	[(6, 7), (183, 5), (41, 5), (98, 6), (184, 9), (159, 10), (93, 0), (13, 5), (54, 8), (182, 2), (150, 8), (37, 4), (191, 10), (32, 2), (250, 5), (88, 6), (5, 4), (242, 0), (158, 3), (167, 9), (29, 5), (61, 6), (217, 4), (120, 1), (97, 0), (193, 6), (51, 0), (71, 6), (112, 0), (207, 9), (76, 10), (34, 7), (107, 6), (55, 1), (10, 6), (202, 8), (153, 5), (123, 10), (238, 9), (201, 9)]
21	2	2	8	37	[(70, 9), (159, 1), (82, 0), (53, 2), (8, 8), (62, 5), (200, 8), (223, 3), (31, 2), (184, 1), (157, 6), (231, 8), (9, 5), (222, 1), (98, 10), (43, 10), (236, 5), (228, 5), (168, 7), (23, 9), (127, 2), (92, 8), (67, 3), (154, 0), (94, 7), (164, 3), (225, 1), (37, 8), (11, 3), (227, 10), (206, 3), (109, 3), (119, 10), (156, 5), (95, 0), (197, 8), (87, 4)]
22	1	1	8	31	[(64, 10), (63, 7), (244, 5), (33, 8), (240, 6), (84, 0), (126, 7), (112, 6), (235, 4), (213, 5), (191, 0), (152, 1), (69, 5), (101, 0), (76, 6), (212, 8), (70, 8), (167, 2), (68, 3), (27, 9), (203, 10), (124, 2), (4, 10), (46, 8), (238, 6), (129, 7), (233, 1), (8, 10), (67, 7), (208, 5), (236, 4)]
23	6	6	16	40	[(144, 10), (221, 4), (101, 9), (25, 4), (173, 5), (178, 8), (63, 6), (215, 4), (125, 6), (172, 3), (12, 2), (150, 0), (175, 6), (28, 0), (129, 0), (81, 8), (26, 10), (243, 3), (1, 9), (235, 8), (122, 7), (192, 7), (120, 1), (83, 5), (73, 1), (220, 2), (213, 7), (11, 3), (103, 6), (196, 1), (82, 8), (74, 6), (174, 1), (154, 4), (194, 8), (7, 6), (112, 6), (184, 9), (4, 10), (86, 0)]
24	2	1	8	32	[(152, 10), (242, 8), (8, 8), (96, 0), (58, 8), (102, 0), (207, 2), (238, 3), (44, 0), (81, 9), (24, 9), (146, 10), (15, 4), (4, 3), (55, 7), (137, 9), (206, 9), (155, 7), (13, 10), (29, 4), (132, 5), (50, 4), (30, 6), (14, 0), (65, 10), (5, 5), (153, 4), (2, 0), (161, 5), (87, 1), (211, 7), (239, 7)]
25	2	1	8	33	[(204, 7), (196, 0), (12, 0), (237, 2), (142, 5), (139, 10), (193, 2), (202, 0), (225, 5), (192, 4), (87, 1), (194, 0), (183, 7), (13, 8), (154, 1), (135, 8), (168, 3), (36, 9), (218, 4), (223, 2), (100, 2), (153, 8), (200, 0), (32, 4), (21, 0), (212, 0), (18, 1), (151, 10), (158, 1), (65, 9), (42, 9), (71, 6), (121, 2)]
26	22	1	8	32	[(192, 2), (154, 5), (108, 10), (47, 4), (53, 3), (54, 2), (149, 3), (52, 4), (27, 10), (222, 4), (156, 3), (67, 7), (170, 5), (76, 9), (36, 1), (98, 3), (28, 9), (80, 0), (40, 7), (173, 5), (219, 9), (135, 8), (224, 0), (58, 10), (168, 2), (23, 2), (206, 8), (124, 6), (235, 8), (232, 5), (231, 5), (230, 9)]
27	1	1	7	34	[(63, 5), (245, 10), (62, 2), (27, 10), (242, 5), (5, 7), (37, 8), (48, 6), (53, 1), (110, 3), (136, 8), (141, 3), (186, 9), (172, 6), (166, 3), (217, 9), (222, 8), (221, 5), (191, 6), (83, 5), (142, 10), (115, 1), (180, 8), (176, 4), (42, 0), (104, 7), (233, 0), (9, 1), (50, 5), (111, 8), (149, 3), (189, 7), (153, 9), (76, 10)]
28	1	1	8	21	[(11, 9), (84, 5), (85, 2), (75, 2), (17, 6), (120, 5), (212, 3), (242, 8), (94, 6), (1, 5), (144, 10), (224, 5), (117, 2), (177, 4), (101, 7), (232, 0), (88, 2), (189, 0), (190, 3), (25, 8), (24, 6)]
29	1	1	8	26	[(247, 7), (206, 6), (174, 2), (12, 3), (64, 7), (86, 1), (82, 5), (21, 8), (17, 6), (134, 4), (1, 4), (115, 3), (130, 2), (188, 2), (244, 6), (69, 4), (199, 2), (47, 2), (51, 1), (54, 5), (189, 1), (24, 9), (177, 9), (3, 9), (33, 1), (118, 3)]
30	2	1	8	33	[(3, 9), (171, 10), (229, 9), (61, 8), (241, 2), (2, 3), (96, 9), (188, 3), (214, 8), (153, 6), (230, 4), (15, 3), (220, 7), (150, 2), (16, 4), (176, 1), (126, 2), (32, 7), (63, 4), (79, 1), (194, 1), (130, 0), (233, 9), (47, 7), (122, 6), (115, 5), (85, 9), (149, 2), (197, 2), (208, 4), (141, 5), (136, 1), (107, 0)]
31	2	1	8	38	[(145, 5), (39, 1), (65, 3), (170, 2), (169, 9), (7, 2), (31, 10), (78, 7), (26, 8), (68, 2), (24, 1), (71, 6), (118, 6), (48, 2), (192, 8), (243, 0), (44, 1), (13, 3), (30, 2), (88, 1), (165, 1), (237, 9), (148, 5), (2, 10), (67, 10), (66, 4), (93, 9), (140, 3), (101, 5), (72, 1), (220, 4), (6, 9), (34, 2), (173, 4), (241, 4), (174, 7), (188, 4), (201, 7)]
32	2	1	16	33	[(94, 2), (133, 2), (189, 9), (64, 7), (100, 0), (46, 0), (121, 1), (137, 2), (142, 0), (173, 8), (177, 3), (213, 9), (136, 6), (194, 9), (114, 1), (216, 2), (174, 9), (50, 0), (171, 8), (244, 6), (163, 4), (211, 5), (14, 7), (60, 9), (37, 9), (32, 4), (228, 3), (52, 6), (151, 10), (191, 9), (22, 9), (20, 5), (15, 5)]
33	4	1	16	43	[(238, 5), (86, 1), (39, 7), (27, 2), (54, 9), (194, 2), (48, 3), (59, 0), (53, 0), (88, 10), (109, 2), (148, 7), (205, 10), (198, 10), (240, 4), (138, 7), (140, 10), (215, 9), (13, 6), (67, 7), (220, 10), (170, 0), (139, 8), (40, 1), (241, 3), (248, 8), (224, 10), (234, 6), (119, 3), (167, 0), (190, 9), (189, 6), (52, 2), (141, 9), (117, 6), (171, 6), (155, 9), (20, 9), (50, 3), (85, 3), (61, 7), (41, 8), (89, 5)]
34	2	1	8	35	[(177, 9), (35, 0), (245, 0), (87, 5), (165, 5), (79, 6), (154, 2), (12, 10), (18, 7), (220, 10), (113, 2), (41, 2), (158, 0), (59, 7), (238, 0), (227, 3), (20, 7), (234, 5), (61, 9), (21, 7), (133, 3), (28, 7), (65, 4), (206, 0), (129, 9), (92, 9), (126, 0), (90, 0), (10, 2), (88, 1), (173, 7), (80, 2), (98, 2), (148, 3), (19, 2)]
35	12	6	32	27	[(102, 0), (3, 5), (243, 4), (47, 5), (52, 7), (14, 8), (19, 4), (177, 10), (219, 3), (247, 4), (144, 10), (88, 2), (172, 6), (136, 2), (204, 3), (97, 9), (194, 4), (145, 0), (12, 0), (24, 3), (95, 6), (141, 7), (123, 2), (32, 10), (167, 8), (67, 4), (18, 8)]
36	2	6	8	28	[(130, 5), (66, 4), (148, 9), (7, 9), (176, 2), (189, 10), (166, 10), (194, 7), (142, 8), (228, 1), (137, 7), (55, 5), (68, 4), (113, 10), (104, 3), (89, 2), (81, 6), (224, 8), (91, 10), (124, 3), (235, 9), (207, 2), (201, 10), (120, 5), (108, 9), (234, 5), (165, 5), (158, 7)]
37	2	1	8	37	[(169, 2), (60, 7), (20, 6), (118, 3), (1, 0), (45, 1), (122, 0), (65, 4), (144, 0), (50, 1), (164, 1), (138, 8), (48, 5), (159, 6), (135, 6), (13, 7), (55, 2), (6, 0), (39, 3), (123, 4), (57, 1), (126, 10), (175, 2), (113, 2), (150, 3), (137, 9), (100, 10), (29, 1), (19, 8), (58, 4), (213, 0), (237, 4), (36, 10), (197, 5), (41, 5), (107, 0), (209, 2)]
38	1	1	8	26	[(70, 8), (176, 1), (65, 7), (171, 10), (189, 10), (181, 8), (160, 0), (31, 2), (87, 9), (232, 10), (246, 8), (219, 0), (200, 8), (152, 10), (168, 8), (51, 7), (124, 8), (92, 3), (244, 8), (108, 4), (212, 1), (109, 1), (55, 9), (104, 3), (205, 0), (129, 10)]
39	3	1	2	35	[(88, 9), (60, 8), (62, 1), (188, 7), (149, 3), (211, 4), (145, 5), (91, 6), (148, 0), (146, 9), (121, 2), (134, 10), (182, 10), (131, 1), (190, 2), (197, 0), (98, 5), (191, 6), (36, 2), (171, 3), (132, 4), (35, 5), (1, 10), (236, 9), (235, 1), (195, 5), (174, 6), (239, 8), (208, 0), (89, 1), (119, 9), (142, 7), (225, 10), (101, 6), (113, 5)]
40	54	1	8	33	[(154, 3), (71, 8), (233, 6), (119, 1), (19, 2), (192, 10), (152, 3), (133, 7), (22, 3), (117, 5), (44, 10), (46, 10), (184, 5), (142, 2), (125, 2), (158, 1), (210, 9), (222, 1), (132, 6), (181, 7), (225, 1), (120, 4), (186, 9), (47, 0), (84, 4), (53, 1), (33, 0), (113, 8), (60, 5), (118, 6), (27, 2), (103, 2), (80, 1)]
41	2	1	16	30	[(3, 2), (138, 0), (222, 7), (71, 8), (246, 0), (220, 4), (219, 1), (218, 7), (55, 4), (56, 6), (148, 3), (28, 3), (207, 3), (230, 2), (245, 5), (150, 8), (106, 3), (65, 2), (212, 3), (63, 4), (202, 0), (73, 10), (53, 10), (75, 6), (211, 2), (78, 0), (125, 5), (24, 3), (152, 5), (12, 8)]
42	7	3	8	36	[(95, 0), (102, 7), (162, 8), (80, 6), (56, 8), (131, 9), (58, 0), (156, 10), (23, 6), (98, 2), (138, 8), (215, 10), (5, 3), (65, 6), (181, 5), (70, 7), (213, 9), (86, 6), (165, 2), (31, 8), (230, 0), (18, 7), (199, 3), (196, 9), (124, 7), (240, 5), (198, 3), (194, 4), (118, 6), (42, 6), (242, 1), (107, 4), (193, 4), (113, 2), (166, 8), (97, 6)]
43	1	1	1	31	[(225, 1), (31, 1), (43, 8), (243, 7), (22, 3), (39, 10), (188, 7), (148, 4), (133, 7), (168, 10), (244, 9), (205, 9), (139, 2), (63, 3), (146, 7), (36, 3), (143, 8), (187, 8), (223, 4), (71, 9), (20, 1), (113, 4), (107, 2), (202, 4), (230, 0), (170, 0), (77, 0), (54, 7), (129, 3), (227, 10), (142, 8)]
44	5	1	8	28	[(147, 8), (79, 9), (224, 10), (195, 4), (83, 5), (4, 10), (70, 1), (105, 0), (82, 10), (87, 6), (232, 5), (23, 9), (17, 5), (176, 4), (190, 7), (76, 7), (129, 8), (49, 9), (36, 10), (203, 5), (246, 8), (84, 4), (163, 5), (12, 9), (148, 10), (28, 9), (93, 9), (109, 1)]
45	2	3	8	36	[(219, 2), (73, 9), (89, 6), (111, 7), (128, 3), (231, 1), (58, 9), (133, 8), (190, 4), (211, 5), (9, 3), (115, 9), (236, 8), (110, 0), (26, 4), (105, 3), (120, 9), (21, 0), (196, 9), (31, 10), (215, 4), (52, 5), (250, 5), (247, 7), (40, 5), (13, 5), (95, 7), (188, 10), (54, 8), (124, 8), (137, 6), (159, 9), (183, 5), (186, 1), (230, 1), (221, 9)]
46	2	12	8	47	[(157, 1), (79, 1), (107, 5), (169, 8), (221, 10), (228, 10), (198, 7), (121, 7), (191, 3), (89, 3), (197, 2), (46, 1), (81, 3), (194, 7), (61, 1), (30, 0), (36, 9), (44, 10), (77, 0), (215, 6), (179, 2), (130, 4), (132, 2), (210, 6), (40, 3), (71, 7), (33, 3), (52, 8), (213, 6), (131, 6), (185, 4), (28, 7), (145, 0), (14, 5), (15, 8), (165, 3), (232, 10), (18, 6), (148, 1), (72, 3), (39, 10), (110, 8), (7, 6), (201, 1), (32, 6), (136, 7), (205, 1)]
47	3	1	5	44	[(173, 3), (77, 0), (14, 7), (172, 9), (65, 8), (219, 0), (118, 2), (32, 10), (92, 2), (138, 2), (230, 10), (244, 0), (1, 5), (186, 7), (16, 6), (59, 3), (7, 4), (88, 9), (17, 9), (84, 4), (163, 0), (155, 9), (198, 7), (202, 7), (207, 9), (108, 4), (109, 10), (20, 1), (171, 7), (165, 1), (79, 8), (81, 2), (208, 2), (86, 3), (39, 10), (176, 1), (146, 2), (96, 5), (226, 0), (93, 4), (76, 3), (222, 4), (152, 1), (31, 1)]
48	1	1	3	38	[(156, 1), (223, 10), (5, 10), (8, 5), (74, 6), (138, 10), (92, 10), (48, 9), (23, 10), (200, 6), (173, 4), (152, 5), (144, 9), (170, 7), (207, 6), (246, 7), (40, 6), (100, 3), (91, 6), (128, 3), (201, 9), (7, 1), (214, 1), (69, 1), (134, 2), (79, 7), (77, 0), (229, 8), (49, 5), (213, 8), (35, 6), (105, 8), (22, 8), (143, 2), (85, 7), (56, 6), (81, 7), (219, 0)]
49	6	1	8	30	[(186, 10), (87, 10), (142, 9), (177, 3), (75, 10), (38, 9), (93, 3), (193, 4), (55, 3), (248, 4), (39, 10), (162, 1), (180, 5), (189, 9), (84, 0), (230, 10), (227, 2), (22, 7), (31, 10), (2, 0), (116, 8), (190, 10), (223, 0), (245, 7), (32, 3), (66, 8), (11, 4), (65, 0), (148, 5), (124, 9)]
50	1	3	16	34	[(143, 0), (10, 10), (14, 7), (239, 7), (163, 1), (153, 4), (55, 0), (24, 6), (149, 6), (234, 7), (210, 8), (41, 4), (177, 3), (191, 4), (134, 4), (96, 9), (82, 2), (206, 1), (250, 7), (188, 0), (112, 6), (209, 1), (1, 4), (215, 4), (9, 3), (62, 5), (176, 7), (40, 2), (34, 2), (125, 7), (65, 10), (216, 9), (172, 4), (183, 5)]
51	9	1	8	28	[(190, 1), (38, 7), (136, 10), (3, 5), (169, 3), (154, 10), (115, 8), (73, 5), (112, 5), (206, 9), (198, 5), (33, 4), (230, 5), (44, 10), (91, 8), (88, 6), (145, 10), (46, 10), (209, 8), (196, 2), (103, 4), (74, 10), (54, 10), (81, 9), (99, 3), (61, 1), (106, 10), (167, 0)]
52	4	1	8	33	[(89, 5), (44, 9), (123, 6), (221, 6), (176, 5), (219, 1), (148, 2), (16, 7), (71, 2), (55, 7), (63, 5), (23, 2), (76, 1), (131, 7), (242, 6), (227, 0), (18, 2), (101, 8), (173, 0), (164, 0), (110, 1), (39, 4), (178, 4), (5, 4), (211, 6), (183, 5), (225, 5), (125, 0), (200, 0), (190, 1), (118, 5), (120, 1), (250, 6)]
53	1	3	8	32	[(145, 4), (76, 9), (111, 1), (73, 7), (102, 1), (161, 8), (93, 8), (108, 5), (176, 7), (135, 10), (209, 2), (250, 3), (196, 9), (206, 7), (181, 2), (240, 2), (187, 2), (32, 4), (30, 1), (122, 10), (210, 6), (147, 3), (112, 5), (245, 6), (246, 3), (214, 3), (57, 10), (162, 1), (25, 6), (29, 3), (24, 8), (105, 6)]
54	2	1	8	28	[(3, 6), (32, 0), (163, 6), (77, 3), (69, 5), (145, 8), (33, 5), (113, 6), (85, 0), (189, 4), (49, 6), (67, 0), (220, 6), (225, 8), (73, 3), (224, 0), (108, 8), (160, 2), (138, 2), (173, 2), (231, 1), (11, 3), (235, 0), (144, 7), (79, 7), (171, 0), (121, 10), (89, 6)]
55	3	3	16	32	[(80, 6), (186, 1), (34, 6), (4, 5), (29, 4), (147, 9), (105, 1), (24, 5), (195, 2), (9, 1), (165, 8), (127, 1), (6, 7), (115, 1), (128, 7), (217, 10), (245, 2), (119, 10), (23, 3), (212, 10), (56, 10), (151, 2), (35, 4), (96, 3), (42, 10), (93, 9), (14, 4), (156, 7), (246, 6), (140, 8), (203, 3), (134, 9)]
56	1	1	8	25	[(176, 9), (221, 8), (115, 10), (226, 4), (4, 9), (63, 5), (73, 9), (75, 0), (157, 4), (149, 2), (84, 2), (148, 3), (233, 4), (202, 6), (243, 7), (10, 8), (240, 5), (110, 9), (35, 2), (53, 3), (41, 9), (185, 6), (159, 7), (190, 4), (54, 5)]
57	5	1	8	20	[(197, 10), (17, 6), (159, 10), (164, 2), (12, 5), (105, 6), (95, 0), (49, 7), (7, 5), (160, 6), (10, 0), (50, 0), (111, 4), (87, 3), (172, 4), (138, 4), (60, 3), (190, 1), (4, 2), (3, 2)]
58	2	1	8	33	[(239, 1), (32, 2), (148, 7), (224, 1), (23, 8), (34, 3), (19, 0), (169, 1), (219, 3), (101, 2), (87, 7), (85, 0), (167, 4), (193, 1), (73, 5), (133, 5), (76, 1), (182, 0), (221, 1), (168, 8), (2, 0), (207, 7), (123, 8), (114, 4), (41, 1), (146, 8), (9, 8), (144, 2), (186, 3), (56, 5), (71, 7), (134, 4), (116, 6)]
59	1	1	16	33	[(97, 8), (43, 3), (187, 9), (156, 1), (126, 9), (56, 9), (234, 7), (198, 9), (227, 5), (29, 1), (142, 4), (46, 3), (147, 6), (190, 7), (240, 8), (22, 2), (230, 5), (42, 7), (235, 10), (181, 6), (27, 3), (219, 7), (249, 7), (78, 5), (245, 7), (192, 4), (169, 9), (44, 2), (237, 8), (121, 10), (54, 8), (11, 6), (225, 9)]
60	24	10	8	31	[(247, 4), (84, 3), (124, 3), (79, 4), (103, 10), (210, 4), (93, 7), (157, 0), (235, 4), (130, 0), (243, 8), (64, 9), (35, 10), (227, 1), (104, 1), (73, 2), (182, 9), (145, 10), (229, 3), (164, 8), (110, 2), (74, 4), (109, 2), (140, 0), (90, 5), (120, 6), (18, 8), (126, 7), (102, 7), (55, 6), (6, 2)]
61	31	6	8	42	[(140, 2), (221, 3), (243, 1), (21, 5), (104, 0), (247, 5), (47, 9), (92, 8), (52, 0), (24, 9), (46, 6), (200, 9), (32, 0), (12, 9), (215, 8), (184, 5), (66, 6), (186, 7), (70, 5), (87, 10), (134, 8), (148, 4), (83, 8), (22, 1), (146, 1), (67, 7), (170, 1), (90, 10), (237, 1), (3, 4), (61, 6), (35, 3), (50, 8), (64, 8), (100, 0), (53, 1), (34, 5), (94, 0), (203, 3), (195, 5), (57, 9), (26, 6)]
62	2	3	8	21	[(21, 4), (32, 6), (156, 2), (168, 6), (27, 0), (196, 1), (62, 3), (159, 8), (173, 6), (215, 8), (70, 3), (233, 0), (155, 7), (89, 0), (162, 1), (29, 7), (180, 4), (105, 0), (92, 8), (53, 7), (151, 9)]
63	10	2	8	35	[(10, 4), (138, 10), (238, 4), (183, 2), (134, 9), (249, 4), (58, 3), (72, 8), (2, 2), (184, 5), (65, 0), (179, 0), (222, 6), (87, 5), (47, 4), (34, 8), (102, 9), (44, 3), (12, 4), (220, 10), (124, 10), (32, 3), (73, 2), (172, 0), (122, 7), (113, 2), (194, 6), (143, 7), (109, 10), (7, 0), (68, 10), (38, 1), (232, 2), (180, 7), (101, 2)]
64	2	1	8	39	[(39, 2), (207, 8), (206, 4), (101, 3), (5, 10), (50, 2), (230, 2), (241, 3), (171, 5), (134, 4), (213, 0), (105, 3), (128, 7), (52, 5), (80, 8), (42, 3), (246, 4), (74, 2), (204, 9), (139, 0), (194, 9), (47, 2), (239, 8), (54, 4), (100, 2), (195, 7), (99, 10), (132, 10), (97, 2), (182, 7), (118, 0), (107, 5), (106, 6), (229, 3), (196, 4), (200, 7), (221, 7), (193, 10), (19, 9)]
65	1	2	8	31	[(144, 6), (149, 1), (236, 10), (66, 7), (107, 5), (124, 7), (131, 1), (52, 5), (57, 1), (32, 10), (241, 1), (205, 1), (230, 3), (173, 6), (143, 1), (212, 3), (159, 2), (16, 1), (155, 8), (4, 7), (74, 8), (140, 6), (106, 7), (91, 8), (62, 9), (97, 1), (94, 7), (43, 5), (206, 3), (245, 2), (153, 0)]
66	1	1	8	37	[(209, 4), (174, 4), (115, 2), (25, 6), (21, 8), (220, 3), (38, 6), (192, 5), (55, 9), (35, 4), (97, 3), (118, 1), (19, 1), (102, 6), (127, 0), (64, 6), (11, 2), (141, 4), (109, 9), (229, 10), (29, 1), (222, 6), (205, 7), (144, 9), (51, 4), (225, 7), (153, 5), (89, 4), (7, 10), (87, 0), (81, 7), (100, 10), (101, 1), (162, 2), (92, 3), (247, 9), (9, 2)]
67	1	6	8	30	[(198, 0), (128, 1), (204, 4), (192, 9), (211, 0), (167, 1), (186, 8), (118, 3), (178, 10), (149, 3), (117, 5), (135, 7), (73, 8), (98, 10), (33, 4), (131, 0), (188, 3), (120, 10), (38, 4), (4, 6), (32, 2), (169, 6), (141, 4), (17, 2), (147, 3), (119, 0), (201, 10), (111, 6), (144, 9), (31, 8)]
68	39	4	8	41	[(163, 2), (81, 9), (239, 10), (129, 4), (110, 4), (245, 4), (211, 5), (71, 2), (35, 1), (140, 0), (172, 10), (25, 3), (220, 2), (4, 2), (29, 10), (64, 5), (231, 5), (219, 1), (209, 7), (171, 8), (232, 4), (100, 8), (133, 3), (234, 0), (228, 2), (237, 8), (20, 4), (222, 6), (16, 9), (131, 3), (12, 8), (206, 8), (150, 6), (207, 4), (205, 6), (242, 0), (216, 6), (52, 0), (9, 5), (179, 9), (83, 9)]
69	1	10	8	27	[(57, 2), (165, 0), (182, 0), (86, 10), (53, 8), (3, 7), (249, 2), (92, 4), (68, 0), (38, 7), (239, 9), (140, 10), (210, 2), (197, 0), (120, 8), (105, 9), (71, 0), (87, 6), (69, 3), (9, 6), (148, 8), (146, 7), (79, 1), (207, 0), (18, 1), (56, 10), (141, 7)]
70	2	4	8	44	[(74, 7), (184, 10), (122, 5), (219, 3), (99, 6), (124, 10), (6, 6), (27, 7), (249, 3), (9, 10), (126, 10), (62, 3), (228, 6), (44, 9), (148, 8), (189, 9), (234, 9), (60, 5), (79, 7), (250, 3), (83, 5), (36, 0), (233, 8), (209, 7), (125, 0), (23, 5), (111, 6), (156, 0), (104, 9), (167, 7), (92, 6), (143, 2), (30, 9), (200, 9), (81, 6), (212, 1), (19, 0), (196, 1), (221, 2), (130, 2), (85, 6), (115, 9), (109, 1), (129, 6)]
71	1	1	1	41	[(165, 10), (41, 10), (160, 9), (43, 10), (187, 6), (94, 3), (102, 6), (229, 5), (123, 0), (83, 8), (114, 1), (6, 4), (122, 4), (217, 3), (139, 0), (84, 9), (184, 0), (117, 2), (111, 2), (30, 1), (131, 6), (171, 1), (208, 4), (81, 5), (34, 1), (154, 3), (228, 10), (75, 10), (250, 0), (168, 7), (215, 0), (134, 8), (54, 10), (166, 3), (57, 7), (73, 5), (138, 9), (65, 3), (235, 1), (27, 9), (192, 6)]
72	2	1	8	31	[(76, 8), (238, 4), (124, 3), (195, 0), (240, 8), (50, 10), (246, 1), (194, 5), (181, 2), (250, 5), (212, 2), (211, 1), (191, 0), (135, 10), (107, 8), (249, 6), (25, 9), (227, 1), (13, 8), (116, 9), (136, 10), (156, 2), (63, 10), (109, 7), (158, 1), (231, 0), (10, 6), (105, 2), (48, 10), (80, 7), (43, 5)]
73	2	1	2	28	[(4, 3), (239, 4), (105, 8), (222, 5), (167, 10), (90, 2), (245, 9), (241, 2), (176, 10), (118, 1), (95, 0), (207, 5), (148, 1), (161, 10), (124, 8), (189, 7), (15, 9), (198, 6), (202, 5), (64, 0), (115, 6), (125, 1), (92, 1), (134, 2), (40, 7), (49, 4), (122, 8), (74, 6)]
74	11	1	16	27	[(17, 5), (139, 9), (105, 2), (153, 10), (138, 4), (45, 10), (13, 4), (31, 3), (48, 5), (80, 3), (97, 4), (247, 9), (91, 8), (175, 8), (167, 10), (116, 6), (112, 4), (98, 10), (88, 4), (177, 9), (4, 2), (168, 3), (111, 2), (5, 10), (64, 9), (233, 9), (215, 9)]
75	21	1	8	44	[(187, 5), (53, 8), (32, 8), (124, 1), (85, 9), (27, 10), (123, 9), (170, 4), (68, 5), (222, 6), (97, 9), (215, 5), (226, 2), (101, 9), (129, 1), (217, 4), (230, 2), (19, 7), (37, 4), (9, 6), (10, 10), (22, 1), (229, 2), (130, 4), (209, 9), (225, 3), (57, 2), (58, 1), (25, 5), (156, 10), (202, 9), (231, 9), (52, 10), (110, 5), (50, 3), (106, 1), (35, 8), (192, 4), (247, 10), (164, 1), (6, 8), (100, 2), (171, 7), (104, 9)]
76	1	1	8	37	[(152, 9), (116, 6), (90, 6), (249, 2), (151, 8), (80, 6), (216, 1), (202, 6), (100, 9), (228, 0), (23, 9), (47, 9), (131, 8), (209, 9), (170, 8), (139, 3), (68, 9), (145, 6), (190, 4), (200, 8), (22, 1), (3, 7), (35, 7), (154, 0), (107, 7), (222, 8), (84, 0), (225, 5), (198, 8), (101, 0), (235, 6), (50, 6), (155, 4), (58, 4), (102, 10), (67, 1), (245, 10)]
77	3	2	8	23	[(99, 2), (92, 8), (190, 10), (178, 3), (37, 2), (182, 3), (119, 10), (244, 9), (43, 8), (24, 9), (212, 0), (246, 7), (36, 4), (41, 10), (13, 7), (250, 8), (160, 8), (81, 6), (175, 1), (158, 5), (100, 3), (189, 6), (230, 3)]
78	2	1	8	35	[(222, 6), (149, 9), (248, 7), (19, 10), (190, 0), (67, 3), (32, 5), (154, 6), (34, 8), (134, 0), (130, 4), (185, 3), (193, 4), (137, 0), (79, 8), (80, 1), (227, 6), (108, 2), (158, 7), (167, 7), (214, 5), (16, 8), (150, 9), (138, 5), (27, 1), (166, 1), (243, 0), (135, 10), (232, 10), (81, 7), (228, 2), (175, 4), (33, 2), (83, 0), (74, 2)]
79	4	1	16	27	[(113, 6), (9, 10), (89, 0), (158, 2), (167, 6), (146, 0), (132, 0), (78, 10), (209, 8), (202, 1), (224, 5), (194, 2), (148, 4), (87, 5), (97, 0), (71, 9), (181, 5), (5, 10), (135, 2), (121, 0), (217, 0), (27, 4), (129, 8), (227, 8), (140, 4), (186, 3), (111, 10)]
80	10	4	8	27	[(212, 2), (29, 3), (10, 7), (78, 9), (147, 4), (86, 5), (195, 9), (39, 5), (178, 9), (206, 4), (5, 7), (68, 3), (138, 4), (148, 0), (143, 5), (50, 0), (62, 10), (210, 8), (109, 6), (230, 9), (130, 9), (34, 1), (201, 5), (93, 8), (189, 8), (161, 9), (208, 10)]
81	1	3	8	32	[(155, 0), (97, 2), (207, 3), (83, 0), (70, 1), (90, 8), (54, 6), (7, 5), (93, 2), (206, 7), (159, 7), (27, 6), (143, 2), (32, 3), (58, 10), (176, 1), (129, 0), (103, 4), (248, 0), (112, 7), (36, 9), (104, 4), (57, 6), (124, 1), (31, 1), (166, 10), (63, 6), (130, 2), (180, 9), (225, 9), (137, 10), (242, 3)]
82	1	1	8	30	[(97, 0), (89, 2), (21, 2), (186, 2), (35, 5), (246, 6), (165, 1), (245, 3), (132, 8), (135, 9), (140, 5), (139, 8), (51, 6), (45, 3), (58, 10), (116, 9), (29, 4), (130, 6), (91, 4), (2, 8), (239, 1), (126, 8), (203, 3), (190, 9), (202, 1), (30, 2), (113, 5), (183, 3), (131, 2), (61, 9)]
83	1	2	1	26	[(7, 1), (110, 8), (95, 4), (172, 6), (204, 9), (217, 8), (82, 2), (102, 10), (230, 8), (84, 9), (218, 3), (47, 8), (176, 10), (51, 3), (31, 8), (101, 0), (240, 3), (12, 6), (235, 9), (233, 7), (17, 5), (104, 6), (131, 1), (67, 6), (231, 7), (222, 5)]
84	2	1	8	37	[(58, 10), (97, 6), (72, 6), (137, 10), (206, 7), (118, 0), (77, 7), (240, 9), (153, 9), (170, 0), (93, 8), (159, 1), (31, 1), (17, 4), (119, 1), (37, 4), (4, 10), (45, 6), (211, 9), (241, 1), (75, 1), (151, 6), (92, 9), (114, 7), (44, 0), (132, 5), (247, 6), (143, 10), (173, 1), (195, 0), (225, 9), (217, 7), (193, 0), (5, 8), (177, 5), (103, 6), (82, 7)]
85	2	1	8	25	[(120, 1), (91, 8), (232, 10), (80, 7), (181, 8), (55, 9), (179, 10), (1, 5), (249, 9), (166, 6), (8, 10), (84, 6), (204, 2), (192, 1), (128, 2), (50, 2), (22, 1), (156, 0), (97, 5), (63, 0), (220, 5), (102, 6), (114, 6), (250, 5), (27, 9)]
86	9	1	2	38	[(114, 8), (51, 6), (139, 2), (224, 5), (70, 6), (117, 1), (120, 8), (23, 3), (200, 7), (12, 8), (215, 4), (218, 3), (246, 5), (116, 8), (21, 3), (1, 2), (169, 7), (205, 0), (162, 7), (92, 5), (83, 0), (194, 4), (245, 0), (75, 0), (186, 4), (89, 1), (207, 3), (93, 6), (81, 9), (248, 2), (229, 4), (42, 2), (65, 2), (173, 6), (244, 1), (60, 5), (80, 10), (69, 2)]
87	3	1	2	36	[(248, 10), (1, 1), (109, 10), (36, 1), (218, 9), (93, 5), (164, 7), (10, 10), (206, 4), (59, 1), (95, 7), (184, 3), (116, 0), (64, 7), (238, 1), (180, 8), (28, 0), (42, 8), (226, 3), (174, 7), (183, 5), (87, 8), (213, 0), (179, 4), (40, 1), (178, 9), (217, 8), (231, 6), (227, 5), (33, 1), (193, 8), (125, 7), (83, 10), (205, 1), (181, 10), (99, 6)]
88	10	2	2	20	[(125, 4), (76, 0), (168, 7), (104, 0), (139, 8), (239, 5), (127, 2), (122, 6), (79, 1), (228, 6), (177, 2), (151, 9), (207, 6), (7, 6), (2, 1), (155, 6), (8, 3), (203, 9), (134, 8), (5, 4)]
89	2	1	16	26	[(96, 4), (250, 5), (4, 7), (214, 10), (108, 4), (90, 10), (249, 10), (221, 1), (32, 9), (160, 9), (152, 4), (135, 4), (139, 6), (239, 2), (246, 9), (134, 6), (232, 3), (83, 2), (138, 3), (22, 1), (81, 6), (208, 2), (10, 0), (73, 3), (198, 6), (104, 2)]
90	62	4	8	31	[(123, 9), (54, 4), (130, 0), (185, 0), (139, 0), (141, 5), (4, 0), (215, 10), (12, 10), (168, 1), (204, 10), (161, 8), (250, 9), (61, 3), (94, 8), (66, 7), (220, 2), (100, 8), (140, 7), (190, 3), (196, 10), (9, 4), (93, 2), (67, 1), (110, 1), (194, 7), (169, 7), (247, 8), (82, 6), (155, 9), (36, 10)]
91	1	4	48	37	[(86, 7), (115, 0), (159, 3), (79, 5), (81, 10), (154, 8), (229, 9), (181, 1), (76, 4), (25, 4), (66, 1), (167, 8), (205, 9), (40, 10), (143, 9), (73, 3), (242, 5), (142, 2), (127, 6), (6, 7), (7, 3), (107, 10), (199, 4), (118, 0), (106, 3), (123, 9), (87, 6), (4, 0), (237, 0), (68, 4), (15, 2), (49, 10), (177, 8), (54, 10), (116, 10), (178, 10), (70, 5)]
92	7	6	3	28	[(223, 1), (68, 5), (63, 1), (97, 6), (60, 6), (100, 10), (178, 8), (3, 0), (86, 7), (57, 4), (154, 7), (135, 6), (206, 1), (92, 10), (107, 2), (165, 4), (150, 6), (205, 7), (25, 5), (209, 0), (9, 2), (152, 1), (134, 1), (185, 9), (193, 6), (20, 6), (93, 5), (237, 2)]
93	1	1	8	35	[(172, 1), (167, 6), (217, 5), (227, 2), (54, 9), (6, 0), (243, 3), (26, 5), (176, 1), (27, 7), (156, 9), (137, 10), (93, 5), (44, 10), (247, 9), (23, 1), (81, 8), (131, 4), (118, 8), (70, 1), (10, 5), (216, 0), (85, 7), (208, 4), (103, 7), (213, 8), (128, 3), (196, 4), (39, 4), (142, 9), (47, 9), (86, 6), (1, 10), (207, 10), (22, 4)]
94	1	1	2	27	[(62, 7), (247, 10), (159, 7), (67, 6), (109, 6), (230, 2), (8, 7), (22, 3), (11, 7), (234, 7), (105, 8), (106, 3), (82, 9), (137, 7), (45, 5), (49, 5), (30, 5), (104, 8), (46, 1), (48, 6), (66, 5), (210, 9), (98, 1), (194, 4), (146, 6), (180, 9), (172, 5)]
95	3	1	8	35	[(137, 2), (195, 7), (22, 8), (64, 8), (30, 0), (82, 4), (1, 2), (13, 5), (209, 10), (29, 2), (220, 4), (230, 6), (237, 3), (71, 7), (42, 1), (68, 9), (250, 6), (100, 3), (223, 9), (211, 7), (168, 10), (243, 3), (200, 0), (65, 5), (130, 8), (227, 4), (175, 6), (46, 7), (6, 10), (77, 1), (74, 1), (48, 5), (61, 9), (88, 5), (224, 4)]
96	2	1	8	34	[(59, 9), (167, 5), (97, 3), (46, 7), (36, 10), (115, 8), (249, 6), (182, 0), (243, 4), (6, 10), (99, 1), (27, 8), (250, 10), (35, 1), (166, 7), (13, 1), (139, 3), (111, 5), (229, 6), (209, 6), (201, 5), (91, 1), (89, 3), (230, 5), (110, 9), (151, 5), (148, 4), (198, 5), (80, 8), (64, 1), (175, 5), (109, 2), (130, 6), (163, 9)]
97	1	2	8	36	[(184, 8), (206, 3), (250, 3), (159, 8), (214, 9), (14, 0), (178, 0), (124, 2), (70, 7), (5, 5), (158, 4), (240, 0), (186, 5), (125, 4), (192, 5), (13, 10), (1, 10), (78, 4), (113, 2), (185, 8), (77, 5), (41, 5), (179, 10), (233, 5), (93, 8), (221, 1), (67, 3), (30, 3), (132, 0), (45, 8), (208, 10), (219, 3), (103, 0), (237, 1), (122, 2), (9, 9)]
98	10	1	8	30	[(171, 5), (167, 2), (181, 8), (28, 8), (174, 7), (162, 3), (115, 3), (146, 9), (143, 6), (164, 6), (175, 1), (133, 8), (173, 3), (89, 8), (192, 9), (247, 6), (137, 1), (76, 7), (213, 0), (187, 2), (103, 9), (80, 8), (226, 8), (218, 10), (6, 6), (57, 5), (224, 7), (205, 9), (5, 0), (11, 6)]
99	1	1	8	26	[(231, 10), (43, 7), (198, 4), (137, 9), (91, 1), (123, 10), (9, 4), (196, 6), (7, 10), (174, 8), (88, 2), (181, 3), (109, 3), (94, 6), (116, 8), (122, 5), (53, 10), (36, 9), (18, 6), (229, 0), (69, 3), (111, 1), (214, 7), (184, 5), (171, 1), (162, 9)]
100	10	1	8	28	[(94, 1), (120, 5), (172, 6), (174, 10), (214, 3), (5, 3), (118, 4), (42, 8), (134, 10), (41, 0), (77, 4), (3, 3), (103, 8), (199, 10), (210, 4), (87, 4), (122, 1), (165, 6), (60, 3), (170, 6), (243, 5), (220, 2), (234, 9), (128, 9), (248, 7), (226, 3), (232, 8), (17, 1)]
101	3	1	8	45	[(71, 1), (202, 8), (92, 9), (54, 5), (194, 5), (95, 7), (212, 7), (47, 9), (181, 9), (241, 7), (81, 8), (240, 2), (34, 7), (170, 8), (113, 9), (22, 0), (147, 8), (153, 10), (206, 1), (78, 10), (166, 5), (129, 9), (103, 7), (224, 1), (130, 6), (64, 7), (62, 6), (44, 0), (186, 9), (137, 5), (12, 5), (79, 9), (15, 9), (124, 8), (32, 1), (215, 7), (245, 8), (98, 9), (211, 4), (141, 10), (188, 3), (158, 2), (25, 0), (77, 6), (117, 3)]
102	1	1	8	38	[(195, 4), (208, 8), (230, 8), (132, 1), (169, 9), (127, 1), (20, 5), (220, 6), (159, 6), (94, 0), (89, 8), (182, 5), (110, 5), (176, 2), (11, 2), (203, 0), (130, 6), (8, 5), (45, 8), (202, 1), (5, 8), (173, 7), (160, 1), (114, 4), (106, 6), (7, 7), (158, 9), (73, 3), (115, 0), (181, 4), (120, 4), (222, 3), (250, 5), (30, 6), (83, 3), (107, 0), (12, 2), (112, 5)]
103	1	1	8	30	[(30, 5), (70, 7), (142, 1), (158, 5), (134, 10), (92, 4), (26, 8), (186, 8), (128, 4), (196, 5), (172, 6), (130, 2), (114, 6), (11, 3), (178, 2), (222, 9), (35, 1), (16, 2), (159, 5), (137, 8), (8, 1), (236, 5), (228, 2), (238, 6), (167, 7), (147, 7), (211, 1), (247, 7), (187, 9), (55, 10)]
104	14	1	8	42	[(107, 9), (213, 9), (59, 4), (38, 1), (99, 2), (85, 9), (70, 7), (142, 1), (76, 2), (88, 2), (178, 6), (10, 7), (171, 7), (183, 2), (243, 5), (95, 0), (189, 0), (3, 8), (212, 9), (220, 8), (56, 10), (249, 0), (205, 1), (104, 3), (240, 3), (64, 4), (119, 7), (234, 3), (211, 9), (146, 1), (136, 2), (33, 6), (66, 1), (65, 3), (122, 9), (23, 5), (125, 7), (129, 10), (149, 4), (72, 4), (245, 2), (241, 6)]
105	2	1	8	32	[(72, 7), (202, 8), (27, 7), (67, 4), (59, 8), (165, 0), (16, 2), (76, 0), (192, 10), (117, 1), (248, 8), (60, 10), (224, 7), (41, 1), (89, 3), (71, 3), (35, 0), (190, 7), (78, 1), (63, 2), (104, 5), (158, 1), (56, 9), (137, 5), (106, 2), (147, 2), (95, 6), (98, 2), (175, 2), (83, 7), (17, 9), (42, 7)]
106	10	1	16	29	[(5, 8), (206, 1), (187, 9), (148, 5), (41, 6), (209, 10), (220, 7), (108, 5), (180, 7), (233, 0), (100, 2), (199, 5), (26, 7), (132, 10), (190, 10), (178, 0), (173, 7), (15, 8), (36, 2), (43, 8), (168, 5), (11, 2), (48, 9), (202, 6), (144, 8), (33, 10), (2, 1), (151, 9), (32, 8)]
107	2	1	8	40	[(13, 7), (167, 3), (164, 5), (211, 7), (133, 3), (96, 10), (60, 6), (69, 5), (54, 1), (248, 2), (109, 6), (118, 7), (134, 5), (87, 4), (178, 5), (199, 0), (233, 10), (176, 3), (147, 7), (66, 0), (10, 10), (129, 5), (246, 4), (149, 7), (192, 6), (232, 8), (55, 3), (247, 9), (39, 5), (36, 5), (22, 4), (124, 2), (119, 10), (238, 7), (234, 7), (244, 6), (230, 3), (204, 3), (140, 6), (86, 6)]
108	2	1	8	27	[(129, 10), (221, 1), (230, 2), (126, 7), (156, 4), (136, 9), (36, 1), (82, 9), (30, 8), (235, 0), (181, 3), (228, 5), (227, 10), (144, 4), (131, 8), (177, 7), (205, 6), (20, 0), (198, 5), (62, 10), (5, 0), (104, 3), (133, 10), (83, 5), (137, 2), (161, 7), (125, 8)]
109	12	1	32	26	[(85, 3), (122, 2), (43, 5), (52, 7), (30, 5), (209, 10), (177, 6), (82, 9), (24, 9), (47, 1), (243, 10), (190, 2), (7, 7), (216, 1), (23, 5), (250, 4), (237, 9), (176, 3), (25, 1), (120, 2), (70, 9), (206, 4), (37, 2), (222, 4), (203, 7), (195, 10)]
110	1	4	8	32	[(211, 5), (186, 7), (235, 0), (151, 4), (205, 9), (49, 4), (46, 7), (109, 4), (207, 5), (83, 1), (110, 10), (13, 9), (177, 9), (104, 5), (116, 9), (164, 8), (4, 1), (106, 2), (224, 4), (74, 4), (103, 1), (180, 2), (126, 6), (196, 6), (236, 4), (14, 1), (243, 2), (16, 6), (64, 5), (81, 10), (131, 10), (220, 6)]
111	15	2	2	42	[(180, 1), (32, 1), (192, 4), (116, 10), (39, 2), (173, 4), (77, 7), (142, 10), (162, 7), (194, 5), (3, 5), (4, 5), (203, 0), (236, 8), (170, 6), (154, 7), (33, 4), (218, 10), (78, 9), (69, 7), (187, 10), (199, 2), (71, 9), (220, 7), (149, 5), (11, 9), (16, 8), (19, 8), (183, 8), (135, 10), (86, 7), (198, 5), (238, 6), (60, 8), (201, 2), (115, 9), (167, 7), (107, 2), (84, 1), (127, 6), (65, 2), (13, 7)]
112	1	2	6	34	[(15, 9), (223, 5), (214, 0), (192, 4), (186, 9), (5, 3), (31, 7), (245, 4), (51, 0), (46, 8), (43, 9), (33, 8), (108, 3), (81, 9), (153, 8), (64, 3), (16, 1), (18, 8), (157, 2), (103, 10), (127, 1), (82, 4), (124, 3), (123, 6), (137, 9), (183, 9), (162, 10), (181, 2), (113, 2), (200, 6), (83, 3), (155, 4), (1, 1), (71, 7)]
113	2	1	8	40	[(222, 10), (50, 5), (66, 7), (20, 2), (65, 1), (178, 8), (223, 6), (213, 7), (48, 2), (215, 2), (90, 2), (139, 7), (63, 5), (102, 6), (12, 7), (175, 3), (157, 0), (60, 10), (75, 4), (240, 2), (77, 2), (152, 0), (107, 2), (237, 6), (113, 3), (41, 4), (233, 0), (192, 7), (241, 1), (244, 0), (179, 10), (32, 7), (190, 10), (18, 8), (140, 10), (199, 5), (229, 2), (170, 6), (156, 1), (19, 7)]
114	47	6	8	26	[(194, 9), (230, 6), (22, 7), (29, 9), (118, 6), (209, 1), (233, 6), (18, 1), (126, 6), (35, 9), (240, 3), (70, 2), (100, 0), (67, 6), (248, 5), (158, 10), (249, 8), (174, 8), (130, 6), (54, 10), (123, 1), (15, 9), (171, 8), (151, 6), (37, 1), (246, 1)]
115	2	4	8	26	[(46, 0), (55, 3), (183, 4), (38, 1), (176, 2), (99, 10), (87, 10), (216, 2), (124, 1), (97, 5), (42, 6), (114, 9), (231, 6), (103, 3), (190, 7), (107, 0), (167, 3), (143, 6), (89, 6), (153, 10), (9, 2), (145, 4), (136, 9), (6, 1), (222, 9), (224, 10)]
116	2	1	8	33	[(63, 0), (65, 0), (171, 9), (10, 6), (101, 2), (61, 5), (201, 9), (40, 9), (38, 3), (205, 2), (22, 3), (230, 1), (222, 0), (239, 0), (96, 5), (87, 5), (112, 3), (114, 6), (32, 0), (141, 10), (160, 8), (64, 8), (125, 9), (190, 5), (94, 1), (68, 5), (237, 0), (151, 10), (182, 2), (224, 1), (3, 5), (194, 0), (76, 7)]
117	1	2	8	26	[(11, 10), (114, 8), (228, 6), (56, 1), (238, 9), (94, 1), (19, 8), (35, 9), (32, 9), (247, 0), (24, 2), (159, 5), (14, 8), (89, 0), (67, 5), (119, 2), (7, 8), (30, 1), (191, 8), (1, 3), (221, 10), (170, 6), (38, 4), (115, 6), (128, 7), (83, 5)]
118	2	2	8	38	[(47, 9), (132, 4), (238, 6), (227, 3), (181, 3), (249, 9), (131, 1), (115, 9), (125, 9), (135, 1), (168, 6), (58, 1), (39, 5), (6, 6), (202, 9), (90, 2), (201, 1), (109, 2), (233, 1), (110, 1), (38, 5), (9, 10), (174, 1), (200, 6), (155, 10), (62, 6), (194, 1), (162, 7), (113, 7), (32, 0), (108, 6), (244, 2), (188, 3), (236, 10), (198, 10), (129, 5), (224, 8), (120, 10)]
119	1	1	8	38	[(85, 2), (52, 9), (183, 0), (243, 6), (95, 0), (246, 9), (128, 4), (107, 5), (227, 6), (45, 0), (68, 2), (150, 4), (81, 4), (192, 0), (220, 7), (142, 1), (140, 8), (148, 4), (116, 10), (115, 7), (40, 7), (5, 3), (153, 5), (190, 6), (202, 10), (9, 4), (75, 0), (123, 2), (16, 2), (4, 6), (88, 5), (46, 7), (130, 2), (76, 6), (74, 9), (147, 1), (225, 7), (171, 8)]
120	4	1	8	30	[(119, 5), (84, 0), (153, 7), (109, 6), (168, 6), (82, 1), (98, 4), (130, 4), (81, 0), (193, 3), (32, 3), (114, 5), (235, 6), (205, 8), (118, 7), (14, 3), (178, 0), (50, 0), (194, 2), (201, 8), (51, 10), (16, 10), (139, 7), (230, 0), (83, 5), (123, 4), (18, 2), (65, 5), (102, 7), (143, 9)]
121	275	3	8	30	[(102, 4), (104, 6), (108, 2), (192, 8), (9, 8), (86, 0), (139, 2), (67, 0), (21, 9), (63, 4), (152, 6), (84, 8), (183, 1), (117, 5), (128, 8), (244, 7), (143, 10), (246, 3), (110, 2), (75, 5), (95, 9), (205, 4), (127, 2), (225, 5), (155, 2), (129, 5), (29, 4), (195, 1), (201, 0), (138, 1)]
122	2	1	8	26	[(228, 5), (109, 6), (77, 3), (1, 7), (149, 2), (165, 4), (42, 2), (3, 6), (170, 7), (14, 10), (143, 7), (198, 7), (5, 10), (242, 10), (204, 8), (126, 4), (6, 6), (218, 5), (249, 8), (177, 1), (197, 6), (23, 4), (190, 10), (199, 8), (131, 0), (147, 1)]
123	1	2	2	35	[(98, 0), (96, 2), (114, 0), (78, 6), (86, 2), (122, 3), (178, 4), (246, 2), (90, 10), (154, 4), (14, 4), (218, 4), (9, 1), (11, 8), (214, 8), (134, 1), (130, 4), (175, 3), (31, 5), (53, 2), (109, 5), (43, 0), (18, 7), (152, 10), (64, 4), (139, 10), (245, 4), (13, 8), (183, 3), (138, 7), (100, 5), (112, 8), (141, 10), (62, 3), (250, 7)]
124	5	1	8	28	[(216, 1), (106, 8), (218, 8), (14, 4), (198, 2), (230, 9), (126, 4), (107, 7), (167, 10), (116, 4), (179, 1), (118, 8), (169, 4), (183, 1), (174, 6), (186, 7), (18, 7), (140, 9), (247, 7), (79, 8), (54, 0), (25, 6), (205, 8), (80, 0), (129, 3), (57, 7), (38, 4), (74, 5)]
125	37	1	8	29	[(59, 10), (215, 5), (181, 10), (84, 10), (161, 3), (163, 10), (191, 5), (220, 3), (153, 4), (72, 2), (216, 3), (102, 9), (247, 7), (8, 9), (243, 5), (162, 7), (194, 5), (92, 10), (231, 6), (150, 0), (97, 10), (189, 6), (168, 4), (195, 8), (47, 10), (129, 2), (104, 3), (155, 1), (29, 9)]
126	2	4	8	45	[(167, 5), (53, 6), (249, 10), (86, 5), (107, 1), (11, 0), (116, 0), (159, 7), (179, 0), (120, 6), (30, 0), (2, 8), (137, 7), (78, 8), (147, 2), (18, 8), (174, 9), (60, 8), (199, 10), (98, 1), (180, 2), (17, 6), (58, 7), (223, 1), (135, 7), (35, 3), (85, 4), (45, 2), (101, 8), (175, 1), (219, 10), (117, 3), (241, 5), (59, 7), (10, 8), (127, 0), (220, 9), (43, 0), (34, 10), (224, 0), (170, 5), (40, 6), (247, 0), (201, 7), (80, 6)]
127	2	3	8	41	[(102, 1), (228, 2), (183, 3), (147, 3), (138, 1), (137, 5), (59, 7), (74, 2), (231, 8), (92, 0), (245, 4), (49, 5), (13, 1), (249, 10), (239, 7), (11, 9), (223, 6), (104, 9), (211, 7), (190, 3), (238, 6), (248, 10), (160, 7), (149, 9), (174, 6), (124, 0), (70, 4), (20, 3), (76, 8), (139, 9), (81, 0), (45, 0), (9, 9), (116, 1), (173, 4), (56, 5), (77, 4), (201, 10), (204, 5), (133, 0), (178, 0)]
128	1	1	8	25	[(21, 10), (185, 4), (8, 7), (124, 1), (33, 3), (134, 5), (29, 10), (171, 5), (36, 1), (244, 1), (197, 2), (53, 6), (221, 8), (13, 1), (18, 2), (204, 6), (55, 10), (69, 4), (89, 4), (65, 10), (73, 7), (123, 3), (2, 1), (10, 1), (189, 10)]
129	2	1	8	30	[(176, 0), (98, 9), (65, 9), (113, 5), (32, 3), (237, 4), (92, 5), (13, 0), (66, 10), (144, 1), (78, 7), (183, 3), (120, 3), (202, 8), (6, 4), (27, 7), (69, 6), (179, 7), (42, 3), (195, 6), (93, 6), (101, 10), (86, 2), (165, 1), (20, 4), (64, 10), (85, 0), (50, 0), (185, 3), (63, 8)]
130	1	1	8	31	[(77, 8), (100, 7), (220, 6), (123, 10), (198, 2), (185, 8), (30, 10), (157, 9), (138, 9), (196, 4), (174, 2), (190, 6), (32, 0), (170, 5), (208, 7), (249, 7), (204, 7), (87, 4), (85, 0), (8, 1), (172, 4), (117, 1), (60, 3), (22, 7), (218, 7), (99, 1), (146, 10), (171, 0), (105, 5), (23, 6), (187, 5)]
131	1	1	16	32	[(113, 5), (21, 7), (151, 6), (196, 3), (237, 1), (203, 3), (72, 8), (123, 0), (52, 1), (224, 1), (227, 3), (247, 4), (144, 8), (184, 8), (182, 6), (121, 7), (24, 1), (162, 4), (240, 1), (33, 10), (149, 5), (168, 8), (244, 0), (221, 3), (180, 5), (229, 9), (37, 0), (36, 5), (16, 0), (101, 0), (42, 2), (198, 2)]
132	2	1	8	31	[(194, 6), (246, 0), (249, 1), (2, 7), (190, 7), (8, 7), (203, 1), (98, 9), (5, 0), (42, 0), (200, 5), (72, 5), (176, 5), (87, 4), (93, 2), (127, 5), (210, 7), (83, 8), (241, 9), (94, 5), (111, 9), (244, 2), (50, 6), (39, 0), (115, 5), (130, 3), (76, 7), (247, 4), (11, 2), (45, 0), (146, 0)]
133	1	1	8	27	[(170, 9), (245, 9), (100, 6), (141, 3), (1, 10), (168, 3), (10, 9), (218, 2), (189, 2), (79, 7), (13, 4), (89, 1), (235, 6), (56, 1), (101, 10), (184, 1), (70, 2), (102, 7), (205, 5), (30, 9), (237, 5), (216, 10), (178, 4), (162, 5), (45, 0), (54, 2), (199, 4)]
134	6	1	8	33	[(26, 6), (1, 7), (130, 3), (58, 7), (97, 7), (238, 1), (234, 9), (209, 8), (148, 4), (214, 4), (147, 7), (139, 6), (78, 3), (124, 9), (9, 5), (137, 4), (15, 1), (106, 2), (217, 10), (188, 2), (177, 3), (120, 6), (31, 10), (126, 7), (88, 10), (45, 4), (52, 0), (36, 4), (16, 5), (235, 3), (185, 3), (176, 9), (154, 5)]
135	5	1	8	43	[(159, 8), (141, 0), (150, 0), (156, 6), (59, 3), (120, 0), (32, 6), (101, 6), (138, 9), (66, 2), (84, 0), (193, 1), (13, 7), (112, 10), (98, 3), (213, 8), (85, 0), (188, 10), (229, 1), (135, 10), (209, 3), (125, 9), (230, 10), (118, 3), (96, 7), (218, 3), (191, 3), (146, 6), (62, 9), (34, 4), (216, 5), (173, 2), (117, 3), (42, 2), (69, 0), (126, 0), (205, 2), (227, 9), (119, 8), (176, 9), (88, 7), (162, 7), (201, 6)]
136	2	2	8	31	[(240, 7), (56, 0), (245, 8), (89, 10), (98, 8), (175, 9), (34, 6), (2, 4), (5, 0), (134, 8), (244, 10), (147, 8), (206, 0), (224, 10), (165, 2), (186, 1), (35, 4), (230, 10), (239, 9), (194, 5), (182, 6), (151, 9), (109, 2), (193, 4), (153, 7), (38, 5), (231, 7), (12, 10), (167, 10), (129, 10), (135, 8)]
137	2	1	8	30	[(82, 6), (23, 4), (171, 1), (14, 8), (123, 0), (61, 9), (10, 7), (198, 3), (9, 7), (232, 10), (22, 4), (116, 4), (142, 1), (26, 7), (65, 5), (185, 2), (127, 6), (181, 5), (161, 2), (187, 3), (6, 1), (165, 7), (226, 6), (99, 0), (81, 10), (228, 4), (27, 3), (197, 4), (130, 7), (83, 2)]
138	2	4	8	26	[(125, 3), (157, 9), (227, 9), (19, 5), (230, 5), (57, 1), (108, 7), (130, 1), (102, 0), (101, 0), (245, 10), (226, 10), (176, 4), (228, 8), (29, 7), (94, 2), (202, 9), (85, 7), (248, 8), (146, 4), (170, 7), (82, 2), (105, 4), (186, 4), (148, 2), (217, 7)]
139	2	2	1	35	[(59, 10), (115, 3), (125, 10), (41, 9), (233, 3), (218, 7), (85, 0), (76, 10), (141, 1), (225, 9), (234, 6), (136, 4), (135, 9), (230, 10), (196, 10), (170, 5), (244, 9), (66, 2), (49, 9), (57, 4), (151, 5), (20, 0), (129, 10), (110, 10), (117, 5), (86, 9), (238, 6), (7, 10), (236, 8), (159, 4), (102, 6), (147, 8), (51, 10), (160, 4), (250, 9)]
140	5	1	8	32	[(54, 0), (233, 8), (76, 8), (161, 8), (119, 7), (86, 9), (190, 10), (168, 1), (188, 1), (204, 9), (66, 1), (115, 8), (237, 0), (244, 6), (222, 5), (223, 7), (100, 2), (89, 10), (27, 2), (73, 2), (102, 9), (6, 5), (117, 5), (1, 4), (216, 7), (181, 7), (130, 2), (68, 10), (30, 2), (173, 7), (176, 8), (180, 10)]
141	1	1	8	31	[(11, 1), (105, 5), (155, 9), (52, 5), (23, 1), (241, 2), (161, 2), (121, 3), (40, 5), (219, 9), (131, 10), (34, 9), (127, 9), (166, 3), (123, 1), (83, 10), (208, 2), (206, 5), (92, 3), (63, 0), (87, 6), (29, 5), (213, 1), (68, 7), (95, 0), (74, 2), (16, 1), (65, 9), (122, 6), (168, 3), (217, 9)]
142	4	1	8	39	[(122, 6), (30, 1), (186, 2), (208, 5), (85, 5), (178, 9), (97, 6), (107, 6), (225, 10), (18, 1), (103, 7), (242, 2), (201, 5), (137, 3), (228, 6), (245, 8), (222, 8), (148, 9), (119, 1), (139, 4), (80, 7), (43, 4), (11, 1), (154, 3), (38, 5), (44, 4), (86, 9), (191, 1), (87, 0), (49, 1), (20, 5), (34, 7), (46, 10), (109, 10), (102, 4), (237, 3), (172, 3), (13, 5), (181, 6)]
143	9	1	8	34	[(154, 10), (165, 1), (116, 5), (110, 6), (212, 9), (57, 9), (16, 1), (67, 10), (43, 3), (144, 3), (51, 2), (54, 3), (117, 6), (10, 0), (175, 5), (15, 6), (56, 4), (183, 1), (171, 1), (170, 5), (103, 3), (23, 8), (48, 1), (38, 5), (14, 6), (64, 6), (228, 2), (119, 8), (24, 9), (72, 7), (136, 1), (137, 10), (219, 6), (240, 5)]
144	1	12	16	38	[(199, 10), (83, 10), (31, 6), (71, 6), (213, 5), (137, 0), (151, 3), (202, 1), (79, 4), (113, 8), (100, 4), (89, 6), (8, 8), (14, 5), (57, 2), (216, 9), (25, 0), (106, 1), (139, 0), (234, 8), (233, 7), (160, 6), (161, 5), (121, 3), (208, 0), (146, 7), (11, 9), (239, 7), (63, 5), (7, 3), (92, 8), (65, 8), (242, 9), (81, 0), (215, 10), (195, 0), (158, 2), (223, 9)]
145	1	1	8	30	[(95, 1), (92, 6), (123, 10), (204, 5), (6, 8), (199, 6), (37, 7), (226, 6), (184, 6), (9, 9), (43, 10), (153, 9), (29, 0), (227, 4), (167, 1), (147, 3), (98, 1), (3, 4), (157, 6), (174, 3), (2, 6), (68, 2), (230, 6), (208, 3), (55, 3), (19, 7), (134, 3), (33, 7), (21, 7), (27, 9)]
146	2	1	16	33	[(245, 2), (120, 4), (82, 7), (47, 9), (60, 8), (179, 7), (172, 8), (87, 6), (59, 5), (17, 3), (104, 9), (75, 2), (2, 1), (9, 1), (125, 0), (68, 0), (3, 7), (18, 2), (93, 9), (137, 0), (205, 4), (39, 3), (166, 9), (109, 6), (218, 9), (174, 0), (196, 7), (38, 7), (250, 1), (233, 7), (154, 7), (215, 2), (146, 6)]
147	1	1	2	30	[(96, 2), (79, 7), (127, 1), (153, 6), (246, 7), (207, 6), (184, 1), (27, 2), (61, 7), (164, 9), (226, 1), (243, 6), (159, 7), (68, 2), (185, 9), (206, 2), (229, 1), (175, 6), (124, 5), (67, 6), (178, 4), (221, 0), (222, 4), (152, 10), (198, 0), (190, 7), (49, 4), (73, 5), (138, 4), (248, 0)]
148	1	4	8	30	[(15, 9), (151, 2), (132, 7), (159, 5), (64, 7), (230, 1), (47, 4), (213, 6), (143, 2), (11, 1), (192, 4), (193, 3), (87, 8), (247, 4), (114, 8), (222, 1), (212, 5), (198, 10), (112, 10), (161, 2), (227, 7), (206, 5), (221, 2), (110, 6), (244, 0), (246, 3), (218, 1), (238, 1), (107, 7), (162, 9)]
149	2	3	8	37	[(161, 5), (114, 5), (216, 4), (175, 5), (231, 9), (17, 0), (221, 5), (112, 5), (47, 1), (235, 10), (157, 3), (81, 0), (20, 6), (158, 4), (208, 9), (45, 7), (40, 5), (233, 1), (117, 0), (102, 2), (180, 3), (171, 7), (249, 5), (72, 1), (141, 8), (134, 5), (37, 0), (115, 7), (209, 9), (228, 9), (92, 8), (46, 2), (247, 10), (223, 3), (210, 5), (77, 8), (65, 5)]
150	4	1	8	29	[(172, 5), (200, 0), (53, 7), (145, 1), (97, 6), (226, 6), (165, 9), (94, 1), (91, 2), (181, 0), (180, 0), (49, 7), (193, 7), (25, 3), (108, 1), (69, 8), (4, 1), (24, 5), (60, 8), (246, 1), (149, 9), (32, 2), (127, 4), (110, 9), (136, 5), (103, 1), (1, 5), (227, 10), (134, 10)]
151	50	1	8	29	[(147, 8), (28, 10), (42, 2), (206, 0), (10, 6), (245, 0), (109, 9), (123, 0), (184, 4), (135, 6), (57, 5), (208, 10), (4, 4), (138, 4), (116, 10), (146, 5), (69, 8), (92, 0), (22, 1), (6, 7), (223, 4), (166, 6), (106, 0), (119, 6), (190, 7), (165, 0), (217, 10), (212, 7), (26, 1)]
152	1	1	8	30	[(47, 4), (173, 9), (76, 10), (189, 7), (92, 9), (111, 2), (64, 8), (34, 4), (116, 10), (226, 6), (10, 4), (21, 2), (208, 0), (200, 8), (104, 1), (62, 10), (207, 7), (27, 1), (72, 5), (98, 8), (85, 10), (70, 5), (103, 5), (169, 6), (177, 6), (23, 2), (29, 8), (63, 1), (36, 3), (162, 10)]
153	8	6	8	35	[(242, 3), (29, 5), (172, 5), (123, 3), (234, 8), (74, 9), (247, 7), (100, 7), (134, 5), (206, 6), (96, 8), (17, 8), (57, 4), (192, 6), (175, 8), (21, 9), (164, 1), (222, 6), (118, 7), (197, 2), (235, 8), (180, 10), (245, 3), (145, 8), (84, 8), (119, 5), (103, 7), (18, 0), (168, 10), (59, 3), (32, 9), (94, 9), (165, 9), (171, 4), (198, 6)]
154	4	1	8	25	[(139, 0), (96, 2), (28, 4), (160, 4), (43, 3), (224, 2), (211, 5), (182, 3), (168, 10), (183, 6), (187, 3), (3, 6), (215, 3), (128, 4), (231, 4), (95, 0), (77, 7), (71, 9), (230, 6), (148, 6), (123, 0), (41, 1), (194, 0), (226, 9), (66, 10)]
155	1	1	8	33	[(101, 8), (64, 8), (108, 9), (95, 6), (107, 10), (84, 0), (234, 1), (114, 7), (28, 1), (61, 6), (17, 4), (194, 9), (40, 0), (118, 0), (215, 2), (216, 7), (106, 7), (94, 6), (235, 9), (124, 1), (4, 0), (149, 7), (218, 4), (195, 3), (140, 6), (138, 6), (30, 4), (208, 6), (121, 3), (197, 0), (79, 4), (183, 10), (212, 3)]
156	7	6	8	27	[(241, 8), (161, 1), (136, 6), (165, 10), (96, 9), (44, 5), (104, 8), (125, 8), (155, 6), (186, 10), (133, 3), (217, 5), (184, 3), (209, 10), (6, 7), (236, 9), (245, 10), (87, 2), (31, 10), (111, 4), (203, 4), (21, 9), (137, 8), (51, 6), (18, 9), (176, 9), (107, 2)]
157	1	3	8	34	[(179, 2), (62, 3), (51, 9), (141, 4), (230, 0), (48, 1), (181, 3), (214, 1), (174, 1), (87, 0), (119, 9), (60, 0), (222, 5), (150, 9), (116, 6), (79, 6), (238, 8), (199, 10), (216, 1), (111, 5), (217, 1), (247, 10), (219, 0), (203, 0), (201, 4), (143, 7), (105, 6), (225, 0), (29, 1), (239, 7), (210, 5), (156, 3), (120, 4), (167, 10)]
158	1	5	8	28	[(62, 8), (160, 9), (30, 10), (229, 10), (248, 3), (212, 7), (27, 9), (191, 6), (164, 10), (148, 0), (157, 0), (71, 3), (171, 7), (80, 8), (36, 9), (158, 1), (206, 1), (225, 3), (115, 8), (64, 7), (13, 1), (205, 2), (42, 6), (112, 2), (49, 7), (241, 7), (70, 2), (235, 0)]
159	1	1	8	41	[(68, 0), (59, 4), (16, 9), (55, 6), (140, 8), (182, 0), (210, 1), (230, 8), (110, 8), (160, 1), (111, 1), (249, 10), (117, 6), (35, 5), (163, 10), (213, 2), (69, 6), (20, 5), (86, 5), (48, 2), (101, 2), (217, 7), (60, 2), (206, 8), (157, 10), (58, 10), (40, 2), (4, 6), (145, 1), (153, 5), (100, 10), (229, 9), (231, 7), (177, 5), (7, 8), (6, 8), (104, 6), (135, 2), (57, 3), (174, 1), (195, 9)]
160	3	4	8	32	[(142, 9), (128, 5), (25, 0), (201, 10), (69, 6), (60, 10), (32, 0), (67, 0), (243, 3), (240, 4), (66, 8), (62, 2), (109, 6), (16, 5), (219, 10), (235, 0), (195, 9), (178, 5), (92, 6), (153, 9), (200, 8), (78, 7), (111, 2), (26, 0), (86, 1), (5, 10), (79, 10), (155, 5), (224, 2), (165, 4), (213, 3), (143, 6)]
161	3	1	8	41	[(131, 0), (34, 9), (79, 4), (162, 1), (235, 10), (127, 2), (221, 5), (110, 1), (163, 2), (185, 8), (208, 2), (154, 0), (55, 9), (129, 0), (78, 1), (249, 2), (5, 6), (243, 10), (130, 0), (65, 9), (183, 3), (13, 6), (148, 8), (140, 6), (86, 10), (100, 5), (189, 4), (227, 3), (43, 7), (66, 3), (11, 2), (47, 10), (213, 8), (156, 8), (21, 3), (194, 10), (76, 7), (38, 10), (53, 0), (211, 9), (115, 10)]
162	1	4	8	33	[(219, 1), (40, 4), (151, 7), (112, 5), (183, 4), (244, 2), (136, 6), (49, 1), (61, 7), (57, 5), (117, 4), (225, 4), (120, 2), (138, 10), (203, 6), (132, 2), (103, 5), (161, 8), (14, 7), (238, 2), (243, 2), (4, 5), (105, 9), (113, 1), (35, 4), (86, 10), (116, 5), (162, 3), (69, 7), (187, 3), (58, 8), (99, 6), (173, 0)]
163	23	1	8	32	[(5, 5), (116, 1), (29, 1), (215, 1), (113, 1), (238, 9), (160, 1), (99, 1), (140, 9), (172, 0), (231, 8), (129, 3), (74, 4), (110, 8), (11, 4), (240, 1), (34, 4), (170, 6), (163, 2), (210, 2), (76, 10), (63, 3), (81, 5), (145, 4), (103, 5), (36, 8), (179, 10), (249, 10), (151, 4), (27, 9), (152, 1), (131, 2)]
164	5	1	8	35	[(195, 10), (139, 2), (68, 7), (119, 1), (169, 3), (105, 8), (22, 4), (100, 4), (146, 6), (210, 7), (149, 7), (7, 9), (15, 10), (174, 1), (178, 6), (35, 8), (135, 0), (69, 9), (136, 10), (138, 7), (110, 5), (30, 6), (212, 6), (86, 8), (227, 8), (97, 7), (238, 2), (197, 8), (229, 0), (81, 1), (211, 9), (216, 8), (181, 1), (207, 6), (191, 10)]
165	2	1	8	29	[(75, 8), (223, 7), (211, 4), (112, 5), (199, 8), (84, 6), (188, 2), (11, 2), (83, 3), (195, 8), (184, 4), (34, 1), (150, 10), (89, 4), (63, 4), (6, 9), (103, 7), (170, 3), (51, 3), (156, 8), (247, 10), (230, 2), (201, 1), (67, 8), (204, 10), (69, 3), (133, 1), (41, 7), (148, 8)]
166	2	1	8	33	[(169, 4), (30, 10), (138, 2), (68, 3), (162, 6), (21, 10), (235, 5), (95, 6), (33, 7), (53, 10), (190, 8), (66, 5), (199, 0), (150, 8), (35, 0), (149, 9), (174, 3), (245, 4), (28, 3), (74, 5), (45, 9), (83, 10), (221, 5), (139, 2), (52, 3), (207, 10), (31, 8), (81, 2), (182, 10), (216, 8), (29, 10), (140, 2), (173, 0)]
167	1	2	16	30	[(89, 0), (117, 9), (62, 7), (3, 8), (120, 8), (242, 1), (234, 0), (135, 8), (110, 8), (99, 5), (163, 5), (119, 0), (195, 0), (151, 9), (228, 9), (215, 6), (185, 4), (16, 3), (41, 3), (183, 5), (95, 9), (76, 1), (162, 7), (29, 8), (7, 3), (165, 8), (78, 2), (190, 4), (12, 1), (100, 1)]
168	2	1	8	37	[(13, 1), (172, 0), (248, 10), (71, 10), (232, 6), (177, 0), (140, 10), (86, 3), (88, 6), (127, 0), (158, 10), (2, 2), (70, 0), (12, 4), (110, 4), (243, 10), (159, 0), (182, 9), (204, 4), (241, 5), (32, 6), (227, 0), (120, 2), (219, 2), (42, 4), (39, 10), (121, 10), (3, 8), (53, 9), (156, 1), (149, 8), (48, 4), (15, 8), (181, 9), (95, 8), (79, 5), (122, 6)]
169	61	1	8	30	[(22, 4), (90, 7), (211, 0), (28, 7), (76, 2), (8, 5), (223, 0), (79, 1), (66, 3), (196, 5), (115, 9), (38, 9), (205, 0), (190, 10), (27, 9), (206, 7), (155, 7), (18, 0), (125, 4), (111, 0), (47, 6), (229, 9), (142, 5), (86, 1), (127, 9), (173, 4), (57, 8), (141, 5), (37, 10), (16, 1)]
170	1	2	8	30	[(61, 3), (198, 10), (41, 1), (232, 4), (248, 8), (196, 4), (18, 5), (31, 8), (246, 6), (152, 3), (207, 1), (24, 2), (56, 10), (145, 0), (181, 9), (178, 0), (102, 9), (95, 3), (228, 8), (242, 3), (87, 5), (194, 6), (210, 0), (76, 4), (47, 4), (241, 4), (139, 5), (119, 1), (68, 2), (35, 9)]
171	1	1	8	35	[(237, 8), (164, 10), (14, 9), (161, 3), (250, 9), (48, 2), (144, 3), (85, 9), (131, 5), (72, 0), (227, 1), (126, 10), (12, 6), (240, 5), (112, 5), (75, 0), (65, 10), (215, 7), (192, 7), (111, 1), (116, 10), (47, 2), (93, 4), (121, 5), (205, 2), (50, 4), (79, 8), (210, 6), (166, 10), (169, 0), (45, 0), (165, 2), (219, 1), (83, 8), (73, 7)]
172	6	1	8	36	[(103, 10), (42, 1), (22, 4), (83, 5), (241, 7), (239, 4), (203, 2), (211, 10), (58, 6), (177, 8), (99, 10), (232, 9), (56, 2), (198, 6), (205, 8), (92, 6), (117, 10), (45, 3), (69, 2), (59, 5), (4, 8), (243, 6), (106, 8), (9, 5), (167, 1), (139, 6), (62, 3), (157, 0), (118, 8), (61, 3), (197, 1), (244, 4), (47, 6), (223, 4), (57, 9), (174, 3)]
173	1	2	8	37	[(19, 0), (249, 6), (189, 4), (240, 2), (238, 1), (95, 5), (216, 4), (141, 7), (176, 0), (63, 8), (6, 7), (150, 0), (22, 0), (48, 6), (32, 10), (178, 1), (25, 5), (20, 9), (146, 8), (105, 0), (98, 9), (40, 1), (72, 8), (190, 2), (37, 2), (154, 7), (94, 0), (18, 3), (52, 3), (164, 10), (227, 7), (24, 8), (159, 1), (133, 9), (148, 6), (135, 1), (237, 7)]
174	3	3	8	23	[(173, 9), (60, 4), (117, 1), (49, 1), (67, 10), (137, 10), (29, 4), (246, 5), (244, 9), (223, 5), (8, 10), (238, 4), (163, 2), (221, 2), (191, 4), (95, 3), (70, 3), (162, 3), (86, 9), (134, 1), (59, 10), (3, 10), (101, 8)]
175	3	1	8	32	[(109, 9), (154, 9), (110, 6), (207, 5), (174, 4), (131, 6), (223, 2), (159, 8), (98, 6), (74, 9), (217, 10), (78, 4), (161, 5), (35, 5), (189, 2), (45, 7), (113, 0), (152, 4), (139, 9), (184, 7), (122, 1), (193, 3), (101, 5), (241, 4), (26, 4), (39, 7), (97, 4), (65, 9), (11, 3), (94, 8), (84, 5), (29, 10)]
176	2	1	1	28	[(58, 9), (15, 4), (94, 9), (99, 7), (113, 4), (3, 1), (242, 9), (50, 6), (241, 1), (8, 6), (148, 8), (203, 10), (29, 6), (144, 0), (225, 4), (66, 0), (186, 10), (159, 10), (19, 8), (91, 1), (193, 3), (138, 4), (151, 9), (11, 9), (229, 4), (155, 7), (103, 2), (140, 2)]
177	3	4	8	26	[(30, 4), (212, 8), (110, 4), (147, 10), (159, 6), (218, 2), (144, 4), (39, 10), (24, 0), (86, 10), (96, 3), (169, 1), (80, 8), (58, 6), (132, 1), (207, 8), (141, 2), (175, 1), (135, 10), (3, 6), (33, 0), (181, 9), (242, 9), (126, 1), (167, 6), (229, 10)]
178	39	2	8	33	[(36, 8), (119, 5), (206, 0), (170, 4), (225, 6), (86, 5), (89, 5), (164, 3), (236, 2), (14, 2), (203, 9), (18, 8), (221, 8), (124, 4), (2, 10), (241, 7), (107, 5), (77, 10), (103, 8), (149, 10), (50, 3), (132, 7), (247, 10), (159, 9), (105, 7), (233, 1), (218, 5), (189, 0), (38, 10), (186, 6), (169, 6), (237, 0), (242, 1)]
179	1	1	2	33	[(170, 1), (153, 10), (126, 7), (65, 10), (64, 3), (84, 2), (1, 5), (57, 6), (76, 5), (15, 8), (204, 5), (203, 7), (208, 2), (33, 3), (206, 1), (151, 0), (201, 6), (30, 9), (245, 9), (155, 3), (123, 3), (230, 8), (56, 5), (79, 10), (130, 3), (216, 1), (134, 6), (247, 7), (120, 7), (115, 8), (49, 9), (47, 0), (131, 5)]
180	2	6	8	32	[(174, 3), (196, 2), (56, 4), (50, 6), (14, 8), (236, 0), (195, 8), (32, 8), (244, 1), (162, 10), (183, 5), (134, 0), (82, 0), (180, 8), (186, 2), (42, 6), (157, 1), (48, 5), (231, 4), (83, 8), (116, 0), (89, 2), (233, 3), (223, 1), (197, 8), (249, 2), (188, 6), (93, 2), (106, 3), (189, 7), (52, 10), (63, 5)]
181	12	1	8	42	[(153, 0), (132, 3), (29, 7), (3, 6), (137, 2), (201, 9), (86, 5), (208, 1), (111, 5), (84, 3), (212, 9), (134, 4), (97, 9), (152, 3), (126, 7), (146, 7), (118, 4), (1, 0), (192, 6), (70, 3), (207, 4), (138, 8), (181, 5), (172, 10), (147, 5), (121, 8), (209, 10), (43, 3), (238, 6), (136, 0), (224, 3), (203, 3), (187, 6), (24, 6), (73, 9), (117, 10), (116, 8), (28, 3), (88, 9), (79, 6), (27, 9), (185, 8)]
182	2	1	8	26	[(250, 8), (63, 7), (52, 5), (128, 10), (119, 10), (93, 0), (2, 10), (161, 8), (45, 4), (155, 0), (110, 2), (21, 6), (138, 3), (51, 8), (30, 4), (58, 7), (196, 10), (249, 4), (130, 1), (72, 8), (123, 0), (77, 2), (31, 8), (222, 9), (43, 2), (49, 1)]
183	2	1	8	30	[(126, 10), (154, 4), (190, 0), (169, 9), (193, 3), (7, 10), (101, 10), (247, 1), (27, 4), (178, 0), (55, 1), (189, 0), (148, 6), (233, 1), (234, 2), (14, 9), (31, 5), (182, 8), (187, 7), (116, 9), (120, 1), (238, 9), (245, 8), (218, 10), (80, 4), (152, 2), (113, 0), (239, 2), (183, 4), (220, 0)]
184	151	1	8	30	[(7, 9), (97, 1), (204, 3), (200, 4), (102, 6), (84, 10), (54, 5), (161, 9), (187, 10), (195, 2), (50, 1), (237, 5), (24, 10), (162, 5), (207, 10), (40, 7), (12, 0), (172, 7), (59, 1), (94, 1), (1, 8), (82, 4), (153, 9), (196, 10), (43, 0), (240, 1), (15, 9), (52, 5), (81, 3), (45, 6)]
185	21	3	8	36	[(161, 8), (112, 8), (79, 4), (2, 10), (72, 1), (217, 9), (94, 9), (141, 8), (174, 8), (228, 6), (224, 5), (190, 2), (102, 4), (208, 2), (19, 2), (199, 5), (60, 10), (100, 0), (17, 0), (221, 10), (53, 3), (37, 4), (207, 10), (43, 9), (170, 10), (160, 5), (4, 8), (189, 8), (8, 10), (191, 4), (108, 8), (175, 2), (186, 6), (158, 6), (236, 0), (152, 9)]
186	4	1	8	30	[(244, 9), (243, 8), (55, 10), (75, 9), (159, 4), (226, 6), (174, 0), (13, 3), (221, 4), (176, 1), (58, 4), (19, 10), (222, 3), (83, 0), (2, 6), (12, 2), (192, 0), (52, 5), (49, 3), (6, 10), (28, 1), (121, 9), (63, 5), (50, 9), (3, 0), (94, 5), (11, 9), (66, 1), (1, 6), (39, 3)]
187	1	8	8	29	[(82, 1), (141, 9), (214, 9), (135, 1), (173, 1), (249, 6), (76, 0), (97, 0), (87, 1), (180, 9), (139, 3), (43, 6), (241, 6), (78, 5), (62, 0), (48, 0), (96, 7), (45, 6), (99, 7), (84, 0), (208, 0), (30, 0), (33, 2), (243, 9), (42, 4), (172, 2), (71, 7), (117, 9), (185, 8)]
188	77	2	8	27	[(31, 1), (138, 9), (24, 2), (111, 3), (88, 5), (45, 4), (154, 9), (177, 6), (4, 3), (131, 4), (227, 7), (140, 0), (149, 6), (11, 4), (40, 0), (187, 0), (136, 3), (64, 4), (78, 2), (148, 0), (137, 2), (83, 0), (167, 7), (114, 6), (130, 1), (170, 8), (28, 8)]
189	1	1	16	24	[(168, 5), (129, 5), (35, 3), (134, 7), (45, 10), (191, 4), (211, 7), (169, 5), (66, 10), (41, 3), (197, 10), (57, 0), (208, 9), (13, 6), (156, 6), (240, 7), (248, 6), (224, 5), (177, 5), (181, 4), (78, 8), (163, 10), (222, 3), (28, 7)]
190	1	1	8	29	[(193, 8), (91, 6), (240, 6), (178, 2), (174, 2), (218, 5), (9, 6), (111, 7), (225, 8), (124, 1), (56, 3), (113, 3), (185, 4), (72, 8), (8, 6), (123, 9), (115, 5), (171, 2), (234, 2), (25, 6), (93, 10), (202, 0), (154, 8), (60, 5), (90, 4), (142, 2), (50, 8), (158, 3), (216, 9)]
191	1	6	1	31	[(205, 1), (62, 10), (144, 2), (171, 4), (38, 6), (135, 5), (5, 3), (148, 7), (6, 0), (239, 8), (17, 9), (41, 8), (29, 6), (179, 6), (210, 1), (67, 6), (81, 1), (138, 2), (152, 7), (215, 3), (208, 3), (221, 0), (184, 2), (85, 0), (177, 6), (131, 10), (139, 7), (189, 0), (147, 4), (240, 3), (166, 7)]
192	2	1	8	34	[(25, 8), (36, 8), (163, 6), (229, 3), (73, 9), (86, 5), (4, 6), (100, 7), (142, 8), (218, 10), (114, 3), (176, 3), (121, 2), (211, 7), (231, 6), (8, 5), (170, 7), (158, 7), (228, 0), (194, 2), (38, 7), (24, 8), (6, 7), (67, 8), (162, 4), (197, 1), (85, 5), (5, 0), (88, 2), (119, 3), (66, 2), (133, 0), (51, 4), (147, 3)]
193	9	4	8	40	[(88, 5), (102, 10), (211, 9), (177, 1), (38, 10), (54, 0), (137, 4), (51, 3), (40, 10), (93, 9), (112, 4), (83, 10), (206, 3), (116, 10), (37, 9), (224, 2), (193, 1), (58, 0), (111, 7), (191, 6), (218, 3), (140, 2), (149, 10), (165, 7), (55, 2), (100, 2), (213, 7), (89, 8), (94, 6), (77, 5), (34, 8), (42, 4), (113, 8), (243, 2), (115, 10), (103, 4), (156, 6), (187, 3), (241, 4), (69, 7)]
194	7	6	8	40	[(148, 10), (57, 2), (191, 2), (3, 0), (178, 4), (198, 9), (24, 1), (80, 3), (51, 4), (106, 7), (160, 2), (230, 8), (214, 3), (44, 9), (137, 7), (129, 9), (86, 9), (94, 10), (4, 2), (218, 7), (146, 1), (201, 6), (248, 6), (10, 2), (124, 9), (122, 3), (75, 8), (83, 7), (163, 9), (176, 5), (127, 1), (145, 4), (200, 8), (164, 1), (60, 8), (7, 9), (152, 7), (237, 5), (173, 9), (212, 0)]
195	1	6	8	26	[(180, 4), (245, 9), (23, 3), (85, 6), (73, 8), (44, 0), (100, 3), (185, 0), (62, 7), (190, 5), (140, 0), (90, 1), (249, 8), (241, 4), (58, 9), (182, 10), (104, 7), (105, 4), (197, 4), (4, 7), (246, 0), (131, 10), (143, 7), (221, 10), (247, 0), (87, 3)]
196	2	2	1	27	[(67, 5), (218, 3), (5, 0), (77, 5), (173, 1), (160, 8), (224, 4), (228, 2), (188, 6), (143, 1), (2, 10), (238, 3), (130, 8), (98, 1), (162, 5), (211, 1), (177, 5), (134, 5), (84, 8), (221, 8), (88, 7), (208, 4), (33, 9), (19, 6), (199, 1), (219, 8), (36, 9)]
197	2	2	8	41	[(167, 4), (222, 1), (171, 8), (244, 9), (45, 2), (11, 10), (26, 2), (99, 10), (179, 0), (77, 1), (144, 10), (121, 5), (176, 0), (149, 0), (196, 5), (188, 0), (5, 1), (155, 6), (239, 10), (2, 8), (156, 4), (119, 9), (175, 5), (21, 10), (123, 4), (143, 7), (53, 1), (13, 0), (52, 4), (100, 4), (48, 3), (74, 4), (135, 10), (163, 10), (158, 1), (105, 0), (51, 2), (202, 10), (49, 7), (132, 10), (227, 3)]
198	1	1	16	28	[(21, 8), (4, 8), (113, 10), (58, 0), (55, 0), (6, 8), (84, 1), (110, 9), (172, 10), (175, 0), (56, 8), (181, 2), (114, 3), (111, 1), (14, 4), (79, 4), (29, 7), (3, 0), (118, 5), (82, 1), (49, 2), (85, 8), (245, 0), (197, 2), (138, 8), (5, 7), (127, 10), (9, 8)]
199	3	1	8	29	[(14, 7), (77, 0), (29, 7), (133, 4), (27, 2), (144, 4), (116, 0), (69, 1), (240, 4), (211, 5), (220, 6), (176, 1), (67, 4), (18, 5), (118, 5), (97, 0), (210, 8), (62, 3), (187, 3), (199, 10), (32, 5), (73, 2), (59, 0), (1, 8), (9, 5), (142, 3), (52, 1), (154, 3), (216, 9)]
200	1	1	16	31	[(140, 3), (127, 7), (114, 7), (120, 3), (229, 0), (73, 0), (212, 1), (103, 2), (223, 1), (211, 3), (185, 1), (237, 7), (207, 6), (162, 5), (175, 9), (123, 9), (158, 0), (121, 5), (106, 7), (168, 4), (89, 10), (217, 1), (191, 3), (183, 6), (67, 9), (142, 3), (21, 0), (119, 5), (204, 0), (190, 7), (170, 7)]
201	15	1	16	34	[(218, 4), (70, 0), (64, 8), (144, 7), (238, 1), (210, 7), (135, 5), (243, 0), (100, 6), (78, 5), (6, 9), (194, 3), (189, 6), (174, 5), (50, 10), (113, 0), (185, 3), (124, 7), (166, 3), (33, 6), (88, 5), (213, 1), (216, 8), (75, 0), (126, 4), (102, 4), (12, 4), (209, 9), (57, 6), (187, 3), (137, 2), (157, 5), (244, 9), (36, 2)]
202	2	1	6	33	[(156, 4), (162, 10), (78, 8), (61, 6), (112, 2), (57, 3), (196, 7), (190, 10), (228, 0), (213, 3), (59, 6), (29, 1), (16, 1), (131, 1), (158, 4), (206, 9), (109, 4), (60, 3), (38, 10), (223, 3), (22, 8), (122, 9), (179, 10), (2, 0), (215, 8), (233, 4), (53, 8), (139, 8), (170, 0), (211, 2), (13, 5), (103, 6), (68, 10)]
203	1	6	8	36	[(141, 4), (106, 4), (248, 9), (168, 1), (207, 5), (186, 1), (189, 7), (81, 5), (220, 9), (205, 9), (230, 7), (226, 5), (97, 8), (74, 2), (78, 7), (111, 5), (43, 5), (71, 3), (59, 4), (164, 9), (40, 2), (155, 4), (227, 0), (132, 3), (128, 6), (96, 1), (197, 10), (127, 9), (92, 9), (199, 6), (193, 10), (237, 6), (158, 6), (27, 6), (190, 6), (161, 10)]
204	2	1	8	27	[(206, 9), (137, 8), (208, 8), (57, 6), (167, 10), (63, 10), (20, 6), (36, 9), (70, 8), (42, 6), (145, 10), (105, 4), (192, 0), (87, 7), (59, 7), (69, 1), (89, 5), (219, 9), (96, 7), (56, 1), (19, 3), (43, 5), (199, 9), (140, 7), (226, 8), (9, 4), (67, 1)]
205	4	1	8	38	[(203, 7), (111, 7), (43, 6), (154, 1), (131, 4), (153, 8), (16, 9), (140, 3), (17, 10), (179, 9), (4, 8), (149, 0), (34, 5), (12, 2), (152, 3), (138, 5), (198, 7), (209, 5), (14, 4), (180, 7), (221, 0), (217, 4), (197, 9), (170, 2), (67, 2), (164, 4), (86, 1), (82, 10), (119, 3), (222, 10), (187, 5), (113, 7), (218, 7), (84, 1), (172, 8), (15, 8), (20, 0), (32, 7)]
206	3	5	8	40	[(150, 4), (137, 1), (68, 0), (122, 3), (176, 3), (169, 7), (17, 3), (101, 7), (228, 2), (25, 8), (134, 5), (95, 0), (69, 4), (249, 3), (146, 0), (48, 0), (235, 4), (99, 10), (113, 7), (219, 10), (227, 3), (60, 3), (59, 7), (20, 6), (179, 1), (217, 8), (115, 1), (51, 3), (114, 1), (35, 5), (73, 9), (130, 10), (81, 3), (205, 9), (123, 5), (144, 3), (214, 1), (196, 0), (38, 2), (110, 0)]
207	3	1	8	33	[(131, 2), (188, 10), (108, 1), (7, 4), (71, 8), (32, 7), (228, 0), (177, 9), (24, 2), (148, 9), (105, 9), (16, 5), (232, 5), (74, 10), (246, 4), (13, 6), (174, 8), (25, 9), (65, 1), (56, 0), (21, 9), (212, 0), (135, 7), (239, 5), (217, 8), (128, 6), (20, 5), (201, 5), (143, 5), (140, 9), (159, 3), (12, 2), (34, 4)]
208	6	1	2	32	[(236, 0), (147, 4), (167, 10), (193, 4), (25, 8), (194, 10), (55, 9), (48, 7), (116, 3), (187, 6), (86, 3), (172, 10), (94, 4), (186, 4), (197, 3), (74, 3), (235, 1), (92, 2), (219, 2), (10, 5), (231, 8), (244, 4), (246, 9), (154, 3), (217, 0), (205, 0), (122, 6), (211, 4), (165, 9), (16, 9), (202, 9), (216, 6)]
209	19	1	8	40	[(48, 5), (228, 2), (126, 7), (32, 8), (18, 6), (170, 1), (16, 3), (162, 10), (192, 2), (93, 6), (208, 10), (146, 10), (8, 6), (250, 4), (20, 7), (22, 7), (144, 2), (179, 4), (21, 8), (28, 7), (83, 4), (121, 9), (4, 0), (206, 4), (74, 5), (110, 1), (238, 10), (182, 2), (73, 2), (88, 8), (27, 9), (233, 0), (76, 4), (196, 3), (232, 9), (138, 5), (136, 0), (26, 8), (154, 7), (55, 1)]
210	5	6	8	29	[(29, 0), (206, 6), (36, 2), (35, 4), (136, 6), (189, 5), (19, 1), (24, 9), (216, 3), (222, 3), (65, 10), (249, 5), (235, 9), (103, 4), (69, 10), (98, 6), (125, 10), (97, 0), (169, 3), (12, 0), (163, 6), (202, 3), (192, 8), (151, 5), (159, 10), (185, 6), (83, 0), (99, 9), (158, 2)]
211	3	1	5	28	[(90, 8), (105, 9), (58, 6), (79, 4), (194, 9), (68, 6), (145, 7), (150, 5), (149, 2), (208, 4), (89, 0), (245, 4), (221, 3), (85, 10), (55, 3), (99, 7), (36, 0), (5, 2), (95, 8), (158, 7), (122, 4), (81, 7), (153, 0), (48, 7), (120, 7), (73, 7), (242, 10), (142, 2)]
212	1	1	8	34	[(75, 9), (206, 9), (4, 3), (103, 10), (153, 10), (78, 1), (157, 4), (225, 9), (117, 0), (171, 0), (141, 7), (32, 1), (60, 9), (188, 4), (46, 2), (77, 9), (55, 5), (90, 8), (197, 9), (43, 4), (172, 4), (149, 5), (203, 2), (235, 6), (112, 5), (241, 3), (10, 2), (146, 4), (143, 8), (182, 5), (62, 6), (187, 0), (80, 9), (86, 5)]
213	2	1	8	37	[(3, 3), (190, 4), (114, 4), (147, 7), (226, 10), (202, 2), (2, 6), (40, 6), (98, 2), (203, 5), (133, 10), (134, 3), (75, 10), (115, 10), (164, 6), (139, 4), (162, 2), (9, 6), (169, 10), (136, 8), (30, 4), (85, 1), (193, 0), (83, 3), (194, 10), (237, 9), (14, 0), (188, 2), (61, 2), (173, 3), (58, 3), (153, 10), (250, 1), (70, 0), (125, 5), (12, 1), (19, 5)]
214	36	8	8	40	[(210, 4), (216, 1), (78, 9), (231, 7), (207, 2), (63, 1), (93, 7), (155, 3), (83, 2), (178, 5), (9, 10), (140, 0), (196, 8), (230, 8), (98, 1), (37, 3), (87, 6), (135, 0), (194, 6), (57, 0), (133, 6), (163, 10), (81, 8), (109, 2), (59, 10), (49, 1), (151, 6), (76, 5), (192, 2), (45, 2), (28, 2), (120, 0), (94, 8), (203, 6), (96, 8), (54, 3), (168, 5), (113, 7), (139, 2), (224, 7)]
215	2	1	8	29	[(172, 9), (37, 10), (186, 3), (221, 1), (49, 7), (25, 2), (202, 2), (110, 4), (66, 5), (91, 10), (97, 10), (14, 9), (190, 10), (158, 5), (54, 9), (151, 6), (69, 6), (120, 1), (161, 0), (106, 0), (159, 5), (124, 6), (38, 6), (62, 3), (6, 5), (109, 7), (1, 0), (249, 2), (234, 1)]
216	7	4	8	33	[(185, 10), (35, 5), (82, 4), (218, 5), (107, 1), (96, 8), (117, 8), (124, 10), (248, 2), (18, 4), (204, 7), (68, 4), (24, 8), (162, 9), (34, 5), (66, 9), (105, 7), (229, 2), (150, 5), (235, 2), (108, 8), (33, 2), (209, 0), (59, 1), (217, 7), (112, 6), (232, 9), (151, 2), (62, 3), (19, 9), (98, 4), (227, 10), (43, 4)]
217	1	2	8	23	[(238, 6), (206, 6), (134, 7), (248, 6), (33, 10), (152, 0), (110, 3), (187, 6), (233, 1), (32, 8), (109, 1), (3, 8), (198, 3), (97, 8), (149, 9), (168, 10), (81, 5), (159, 7), (19, 4), (147, 6), (178, 0), (131, 0), (234, 3)]
218	1	2	4	30	[(228, 0), (149, 7), (65, 7), (100, 3), (48, 5), (98, 0), (99, 1), (39, 7), (239, 6), (212, 10), (20, 4), (187, 6), (42, 5), (200, 9), (123, 7), (227, 0), (122, 10), (13, 5), (69, 4), (235, 4), (35, 3), (124, 1), (231, 2), (92, 0), (114, 6), (247, 4), (33, 6), (115, 7), (2, 1), (79, 0)]
219	8	4	8	27	[(208, 8), (224, 6), (104, 3), (114, 7), (93, 4), (24, 10), (133, 1), (52, 2), (147, 3), (205, 5), (143, 9), (234, 5), (228, 8), (215, 0), (173, 2), (78, 8), (193, 10), (61, 8), (98, 9), (74, 4), (91, 4), (238, 4), (29, 5), (167, 9), (43, 8), (4, 9), (231, 6)]
220	1	2	6	33	[(219, 2), (176, 8), (239, 9), (76, 3), (5, 4), (124, 9), (64, 7), (215, 9), (45, 0), (26, 1), (212, 7), (4, 2), (127, 2), (178, 9), (12, 8), (83, 10), (29, 7), (201, 1), (147, 0), (170, 4), (135, 0), (241, 5), (162, 2), (250, 7), (53, 1), (85, 3), (103, 1), (204, 6), (234, 5), (25, 2), (244, 3), (20, 8), (209, 7)]
221	3	2	8	29	[(29, 1), (11, 1), (86, 5), (183, 2), (192, 9), (173, 7), (137, 0), (248, 0), (125, 3), (64, 7), (247, 10), (170, 6), (210, 2), (220, 10), (32, 10), (116, 1), (17, 7), (185, 0), (71, 3), (140, 3), (197, 6), (204, 8), (105, 5), (95, 1), (25, 9), (131, 3), (13, 9), (62, 1), (5, 9)]
222	1	1	8	26	[(181, 8), (27, 2), (152, 5), (26, 4), (12, 8), (136, 4), (233, 9), (230, 8), (250, 3), (111, 0), (4, 2), (90, 5), (182, 8), (232, 0), (155, 1), (88, 8), (212, 2), (249, 10), (107, 8), (97, 3), (29, 6), (33, 9), (56, 0), (22, 5), (229, 4), (222, 1)]
223	3	1	8	27	[(157, 6), (239, 8), (73, 3), (44, 7), (191, 2), (90, 8), (177, 1), (76, 9), (136, 0), (168, 8), (130, 6), (108, 5), (116, 1), (230, 5), (119, 7), (19, 8), (86, 2), (194, 9), (53, 3), (11, 7), (158, 8), (225, 7), (178, 6), (113, 1), (201, 5), (47, 2), (97, 10)]
224	2	3	8	28	[(168, 3), (136, 4), (116, 10), (224, 7), (117, 0), (32, 10), (26, 0), (48, 7), (102, 7), (228, 9), (198, 1), (36, 0), (85, 2), (240, 1), (12, 10), (202, 1), (237, 7), (53, 1), (55, 7), (21, 0), (79, 5), (145, 2), (7, 4), (147, 9), (182, 2), (41, 4), (200, 4), (24, 0)]
225	5	1	2	31	[(184, 9), (175, 8), (166, 10), (233, 4), (198, 2), (63, 1), (91, 3), (75, 0), (18, 9), (193, 7), (112, 4), (172, 4), (203, 10), (148, 9), (232, 4), (110, 10), (56, 6), (222, 7), (94, 7), (104, 1), (41, 3), (139, 10), (164, 9), (89, 1), (125, 3), (88, 6), (83, 6), (47, 3), (90, 5), (5, 1), (199, 2)]
226	57	1	8	38	[(244, 6), (5, 9), (221, 10), (7, 8), (53, 4), (25, 9), (105, 1), (30, 6), (82, 0), (19, 1), (114, 0), (230, 0), (60, 10), (107, 2), (174, 4), (97, 1), (222, 10), (238, 2), (237, 8), (212, 6), (144, 8), (28, 1), (93, 10), (86, 0), (178, 9), (216, 3), (219, 6), (36, 6), (59, 2), (173, 8), (83, 1), (131, 1), (90, 5), (195, 3), (141, 10), (95, 2), (10, 3), (183, 7)]
227	1	1	8	38	[(119, 2), (70, 10), (135, 9), (214, 6), (46, 3), (36, 5), (175, 2), (57, 6), (152, 2), (239, 10), (132, 1), (154, 6), (80, 2), (155, 2), (48, 6), (240, 7), (44, 6), (159, 4), (149, 4), (2, 7), (147, 1), (35, 1), (201, 0), (10, 6), (8, 0), (198, 5), (22, 2), (1, 1), (172, 7), (7, 3), (24, 3), (15, 9), (31, 4), (213, 0), (56, 2), (97, 3), (67, 5), (223, 5)]
228	1	1	8	36	[(142, 1), (51, 10), (204, 10), (176, 9), (185, 5), (181, 2), (154, 8), (101, 2), (156, 3), (170, 1), (203, 9), (221, 2), (76, 6), (222, 1), (150, 5), (164, 8), (211, 6), (75, 4), (134, 3), (33, 8), (16, 8), (100, 9), (209, 9), (229, 9), (11, 0), (199, 10), (237, 4), (187, 9), (20, 4), (125, 0), (247, 2), (54, 10), (110, 2), (96, 2), (43, 10), (47, 1)]
229	1	1	8	34	[(187, 7), (130, 0), (168, 0), (195, 0), (202, 8), (225, 2), (94, 9), (197, 8), (200, 5), (93, 3), (142, 4), (48, 8), (52, 4), (53, 3), (106, 10), (3, 7), (223, 3), (121, 0), (163, 0), (11, 7), (167, 5), (136, 3), (199, 10), (13, 8), (139, 2), (161, 0), (236, 8), (131, 7), (238, 4), (82, 4), (204, 9), (156, 7), (205, 9), (235, 1)]
230	3	1	2	29	[(108, 5), (114, 1), (26, 3), (177, 3), (119, 2), (224, 9), (202, 10), (250, 7), (87, 5), (68, 9), (171, 6), (17, 7), (53, 1), (220, 7), (226, 1), (111, 8), (21, 2), (243, 4), (152, 2), (32, 5), (207, 1), (134, 6), (106, 4), (236, 2), (99, 3), (191, 8), (90, 3), (132, 5), (237, 1)]
231	2	1	8	31	[(129, 0), (173, 1), (222, 6), (109, 7), (99, 5), (192, 6), (139, 7), (177, 8), (186, 3), (128, 4), (156, 8), (171, 1), (86, 1), (18, 3), (126, 5), (144, 3), (193, 9), (234, 0), (32, 6), (136, 8), (113, 7), (149, 7), (218, 8), (185, 4), (232, 0), (26, 5), (155, 10), (79, 3), (98, 4), (134, 5), (33, 6)]
232	1	1	2	32	[(27, 3), (99, 10), (193, 1), (56, 5), (155, 4), (142, 10), (169, 9), (97, 7), (17, 3), (53, 8), (172, 9), (91, 8), (216, 3), (204, 5), (54, 9), (167, 1), (239, 7), (190, 0), (21, 3), (10, 2), (198, 6), (138, 6), (229, 7), (102, 5), (177, 4), (101, 1), (205, 7), (98, 0), (95, 9), (62, 0), (88, 0), (181, 6)]
233	2	10	8	26	[(125, 10), (209, 0), (49, 9), (44, 4), (146, 9), (221, 10), (178, 6), (42, 0), (104, 0), (69, 0), (74, 2), (216, 4), (126, 2), (83, 3), (168, 4), (179, 5), (21, 5), (131, 9), (136, 10), (188, 8), (31, 9), (61, 5), (113, 3), (150, 2), (243, 8), (140, 6)]
234	1	1	28	41	[(118, 8), (78, 9), (97, 1), (41, 5), (165, 8), (79, 3), (74, 1), (176, 4), (228, 3), (232, 9), (180, 9), (30, 4), (233, 8), (136, 8), (224, 5), (128, 1), (44, 8), (249, 5), (10, 0), (200, 8), (147, 0), (70, 2), (196, 8), (238, 3), (199, 2), (20, 3), (40, 3), (213, 6), (63, 8), (202, 10), (237, 10), (212, 8), (3, 7), (109, 3), (31, 8), (171, 2), (42, 6), (71, 8), (152, 0), (17, 4), (26, 1)]
235	1	1	8	29	[(55, 10), (250, 7), (113, 8), (114, 6), (220, 9), (33, 5), (140, 5), (159, 9), (30, 1), (239, 7), (26, 0), (166, 5), (161, 1), (227, 4), (230, 7), (65, 5), (193, 9), (110, 4), (151, 5), (49, 3), (186, 7), (22, 7), (81, 2), (70, 6), (183, 4), (83, 2), (95, 5), (12, 1), (234, 5)]
236	6	12	8	40	[(87, 2), (94, 7), (201, 0), (208, 0), (224, 0), (149, 3), (223, 0), (56, 8), (193, 10), (140, 9), (52, 5), (113, 8), (74, 1), (88, 2), (117, 10), (37, 3), (107, 9), (249, 5), (155, 0), (70, 2), (84, 8), (191, 2), (110, 3), (23, 4), (163, 7), (162, 9), (26, 3), (126, 6), (93, 8), (6, 4), (33, 10), (166, 10), (119, 6), (15, 9), (78, 4), (216, 2), (156, 4), (192, 2), (157, 4), (246, 5)]
237	2	1	8	34	[(155, 5), (102, 5), (28, 10), (191, 8), (147, 0), (111, 2), (232, 6), (45, 4), (2, 9), (132, 2), (81, 3), (237, 8), (41, 7), (31, 2), (119, 8), (68, 8), (36, 10), (55, 1), (161, 2), (226, 9), (53, 0), (79, 7), (47, 1), (77, 7), (202, 2), (236, 7), (71, 7), (189, 9), (218, 4), (40, 0), (56, 3), (108, 8), (99, 1), (94, 0)]
238	1	2	8	35	[(54, 0), (144, 5), (192, 2), (121, 1), (190, 0), (136, 0), (111, 10), (180, 7), (223, 10), (219, 6), (91, 2), (105, 1), (42, 9), (24, 3), (32, 9), (225, 10), (150, 5), (29, 3), (208, 6), (38, 8), (118, 1), (60, 1), (48, 8), (52, 7), (140, 1), (14, 5), (34, 3), (122, 8), (163, 5), (55, 2), (207, 3), (212, 7), (68, 5), (201, 1), (79, 5)]
239	2	6	8	27	[(25, 10), (81, 2), (34, 2), (144, 10), (207, 5), (142, 7), (236, 3), (218, 9), (117, 9), (62, 3), (134, 3), (174, 1), (38, 6), (66, 4), (170, 6), (131, 5), (230, 2), (23, 6), (40, 2), (234, 3), (11, 7), (186, 6), (71, 1), (101, 2), (219, 4), (157, 3), (222, 8)]
240	1	3	8	34	[(95, 4), (179, 3), (20, 1), (70, 1), (134, 6), (88, 9), (125, 10), (190, 7), (175, 8), (22, 3), (183, 3), (201, 8), (73, 9), (164, 7), (155, 1), (114, 5), (48, 5), (91, 3), (68, 7), (196, 5), (67, 0), (40, 9), (52, 10), (233, 8), (90, 8), (117, 8), (98, 6), (2, 3), (75, 10), (19, 8), (161, 5), (57, 5), (217, 10), (197, 0)]
241	1	2	8	33	[(155, 2), (148, 6), (150, 5), (94, 4), (39, 8), (76, 7), (93, 6), (1, 2), (147, 0), (45, 7), (100, 0), (60, 1), (231, 3), (101, 6), (88, 6), (236, 10), (221, 6), (179, 5), (27, 10), (245, 10), (198, 3), (74, 7), (17, 7), (53, 9), (64, 10), (35, 10), (41, 5), (200, 0), (196, 6), (110, 3), (247, 8), (44, 1), (241, 9)]
242	1	1	8	37	[(193, 8), (67, 8), (141, 9), (144, 5), (167, 7), (194, 1), (248, 10), (25, 8), (118, 2), (214, 0), (8, 5), (169, 4), (62, 3), (198, 7), (86, 2), (80, 9), (246, 1), (205, 5), (165, 9), (228, 4), (232, 5), (185, 3), (91, 5), (70, 3), (179, 2), (15, 1), (170, 7), (210, 8), (191, 10), (217, 5), (239, 7), (1, 5), (174, 2), (131, 0), (153, 2), (221, 2), (245, 1)]
243	2	1	8	36	[(75, 7), (47, 5), (118, 6), (231, 3), (214, 2), (243, 2), (33, 4), (39, 3), (82, 4), (171, 6), (239, 1), (201, 10), (146, 5), (11, 2), (164, 0), (51, 5), (186, 2), (207, 0), (217, 8), (230, 3), (90, 9), (54, 3), (57, 5), (157, 10), (74, 9), (32, 3), (235, 9), (167, 2), (128, 6), (81, 3), (143, 0), (140, 10), (116, 2), (124, 7), (107, 3), (247, 0)]
244	1	1	8	39	[(156, 1), (204, 3), (205, 10), (166, 8), (76, 8), (186, 8), (182, 1), (6, 8), (214, 9), (231, 4), (133, 8), (19, 1), (213, 9), (162, 2), (122, 10), (138, 6), (46, 8), (203, 1), (152, 6), (75, 6), (106, 1), (73, 8), (13, 0), (246, 8), (195, 2), (151, 6), (125, 10), (56, 4), (244, 9), (116, 4), (131, 5), (248, 8), (229, 9), (210, 8), (170, 2), (164, 7), (49, 10), (183, 5), (121, 6)]
245	2	2	8	34	[(162, 8), (94, 2), (143, 5), (129, 4), (59, 5), (28, 10), (81, 5), (9, 9), (223, 8), (231, 8), (243, 5), (216, 7), (148, 8), (119, 3), (90, 9), (7, 2), (78, 1), (250, 10), (144, 1), (96, 7), (58, 9), (212, 4), (179, 2), (13, 3), (47, 4), (17, 3), (109, 0), (36, 3), (170, 6), (234, 0), (155, 0), (190, 0), (118, 8), (175, 6)]
246	27	1	8	30	[(192, 1), (119, 1), (89, 7), (226, 1), (191, 0), (49, 3), (93, 3), (202, 7), (15, 1), (18, 8), (88, 4), (3, 7), (37, 10), (112, 4), (140, 2), (109, 8), (86, 7), (2, 6), (159, 2), (103, 9), (14, 6), (205, 5), (193, 3), (39, 5), (241, 4), (38, 5), (185, 9), (250, 6), (127, 5), (195, 1)]
247	7	5	8	24	[(224, 3), (232, 1), (95, 7), (109, 8), (15, 6), (148, 6), (162, 9), (204, 5), (182, 0), (9, 10), (35, 8), (45, 0), (183, 6), (234, 9), (185, 2), (5, 7), (155, 10), (134, 1), (2, 2), (127, 3), (187, 9), (236, 0), (128, 3), (145, 4)]
248	2	1	8	31	[(39, 7), (241, 8), (143, 6), (159, 0), (98, 8), (209, 0), (129, 4), (109, 8), (62, 0), (106, 3), (179, 10), (157, 0), (231, 10), (122, 5), (141, 4), (144, 8), (55, 9), (176, 8), (95, 7), (79, 0), (174, 9), (25, 6), (113, 3), (225, 1), (135, 9), (76, 6), (221, 7), (104, 5), (114, 8), (78, 3), (86, 7)]
249	2	1	8	38	[(165, 0), (190, 7), (5, 10), (87, 10), (92, 7), (38, 4), (250, 6), (53, 2), (146, 8), (52, 6), (152, 9), (189, 5), (217, 3), (90, 5), (85, 6), (102, 4), (80, 1), (248, 5), (172, 3), (133, 6), (142, 5), (66, 10), (143, 9), (228, 8), (210, 10), (103, 4), (158, 2), (105, 1), (236, 9), (229, 6), (128, 9), (41, 1), (10, 4), (221, 3), (7, 8), (93, 5), (171, 0), (139, 7)]
250	2	1	1	32	[(149, 8), (89, 9), (52, 0), (148, 10), (108, 9), (58, 8), (92, 1), (65, 10), (117, 3), (167, 10), (202, 10), (123, 9), (144, 2), (84, 8), (227, 9), (106, 1), (18, 9), (32, 8), (113, 3), (222, 8), (51, 6), (20, 9), (100, 5), (133, 2), (119, 6), (1, 6), (242, 0), (68, 1), (60, 3), (25, 10), (107, 6), (185, 3)]
