app_id	nb_instances	core	memory	inter_degree	inter_aff
1	3	4	8	30	[(192, 9), (168, 3), (199, 5), (93, 5), (136, 6), (46, 8), (187, 7), (204, 5), (246, 0), (107, 4), (193, 8), (40, 9), (103, 4), (112, 10), (178, 1), (118, 7), (39, 2), (110, 5), (129, 5), (52, 8), (235, 8), (191, 5), (200, 10), (185, 4), (186, 1), (109, 4), (60, 7), (171, 4), (51, 7), (160, 0)]
2	4	2	8	37	[(240, 2), (34, 5), (214, 1), (158, 2), (64, 3), (109, 10), (176, 6), (207, 10), (132, 9), (129, 3), (187, 9), (122, 1), (5, 7), (39, 8), (197, 6), (182, 2), (89, 10), (58, 10), (77, 5), (174, 4), (227, 4), (209, 5), (17, 7), (212, 8), (149, 3), (24, 2), (85, 0), (193, 9), (167, 5), (75, 3), (81, 10), (10, 4), (59, 6), (115, 7), (237, 7), (19, 0), (195, 2)]
3	2	6	8	30	[(143, 0), (160, 8), (192, 4), (53, 5), (201, 5), (183, 2), (180, 9), (115, 3), (191, 5), (172, 9), (39, 4), (146, 1), (34, 7), (98, 8), (190, 8), (57, 4), (218, 0), (245, 3), (237, 1), (92, 4), (12, 0), (97, 5), (175, 8), (60, 1), (28, 3), (104, 5), (7, 10), (234, 6), (33, 9), (113, 6)]
4	11	1	8	36	[(243, 0), (51, 9), (92, 5), (93, 6), (41, 4), (247, 1), (36, 4), (62, 3), (21, 6), (183, 7), (24, 3), (231, 7), (40, 8), (145, 3), (98, 2), (12, 10), (119, 8), (207, 10), (42, 4), (86, 2), (179, 2), (173, 9), (215, 5), (79, 3), (108, 6), (67, 3), (162, 5), (198, 5), (126, 10), (123, 10), (196, 0), (8, 9), (118, 2), (48, 4), (175, 9), (139, 9)]
5	1	1	8	36	[(244, 0), (113, 8), (9, 10), (191, 2), (219, 8), (41, 3), (76, 3), (101, 7), (222, 10), (19, 3), (145, 0), (185, 5), (120, 0), (159, 0), (226, 8), (5, 7), (172, 8), (70, 2), (146, 3), (58, 10), (186, 3), (62, 10), (16, 5), (100, 8), (46, 2), (174, 0), (231, 9), (14, 10), (51, 9), (235, 9), (171, 2), (77, 8), (240, 0), (22, 7), (27, 4), (250, 4)]
6	1	4	16	29	[(53, 3), (62, 3), (246, 6), (100, 6), (214, 9), (170, 4), (185, 4), (29, 4), (31, 4), (195, 3), (230, 5), (87, 8), (42, 4), (22, 2), (136, 1), (125, 4), (18, 9), (57, 3), (88, 0), (174, 4), (236, 7), (154, 7), (122, 10), (94, 5), (72, 8), (84, 6), (233, 0), (51, 9), (70, 5)]
7	2	4	8	32	[(244, 10), (195, 9), (138, 5), (201, 10), (184, 10), (168, 7), (249, 8), (229, 2), (190, 8), (151, 8), (144, 1), (177, 1), (72, 1), (114, 6), (68, 9), (148, 0), (200, 5), (36, 0), (131, 4), (49, 9), (64, 4), (146, 4), (121, 9), (104, 1), (22, 5), (172, 1), (181, 8), (198, 10), (222, 3), (116, 6), (234, 10), (133, 5)]
8	2	1	8	33	[(14, 1), (75, 3), (132, 9), (6, 5), (95, 10), (160, 0), (112, 8), (227, 0), (113, 3), (244, 4), (87, 6), (189, 6), (142, 1), (151, 0), (55, 6), (19, 6), (37, 9), (2, 1), (130, 2), (203, 2), (208, 9), (134, 9), (122, 7), (10, 6), (64, 0), (202, 6), (8, 7), (212, 5), (99, 0), (100, 10), (29, 4), (157, 3), (98, 4)]
9	4	4	8	31	[(32, 1), (81, 9), (235, 0), (7, 2), (102, 1), (177, 9), (244, 7), (31, 3), (209, 7), (33, 2), (217, 8), (133, 5), (36, 6), (91, 6), (37, 1), (149, 3), (166, 9), (42, 0), (131, 6), (45, 10), (123, 2), (10, 5), (230, 3), (221, 9), (223, 10), (60, 1), (229, 5), (240, 6), (120, 4), (111, 5), (208, 3)]
10	3	1	8	40	[(115, 7), (230, 2), (218, 1), (168, 9), (149, 8), (241, 9), (46, 8), (215, 7), (84, 5), (126, 9), (245, 7), (35, 4), (82, 0), (193, 4), (121, 1), (136, 1), (145, 2), (117, 4), (225, 3), (178, 10), (68, 1), (182, 10), (242, 0), (3, 1), (75, 4), (216, 0), (249, 2), (12, 8), (181, 9), (211, 2), (79, 2), (217, 10), (6, 4), (55, 5), (246, 10), (210, 10), (206, 10), (138, 10), (146, 1), (199, 9)]
11	1	1	8	34	[(181, 0), (224, 8), (75, 3), (106, 10), (35, 0), (52, 0), (112, 0), (207, 6), (226, 7), (84, 7), (141, 4), (102, 9), (230, 2), (95, 8), (10, 1), (20, 7), (220, 9), (209, 5), (203, 6), (81, 3), (175, 1), (239, 2), (186, 6), (247, 9), (34, 5), (78, 6), (172, 7), (215, 7), (123, 10), (64, 5), (93, 8), (118, 0), (79, 3), (206, 6)]
12	3	2	8	28	[(17, 7), (148, 4), (104, 4), (124, 6), (160, 7), (8, 1), (84, 0), (139, 6), (41, 9), (3, 0), (214, 4), (164, 6), (2, 4), (97, 7), (130, 10), (239, 5), (118, 6), (173, 7), (196, 2), (174, 4), (117, 10), (195, 2), (14, 2), (40, 7), (172, 0), (98, 7), (175, 0), (12, 3)]
13	11	1	8	35	[(95, 9), (187, 8), (18, 6), (124, 6), (200, 9), (79, 5), (56, 1), (7, 3), (40, 6), (153, 9), (166, 9), (195, 0), (192, 6), (71, 9), (50, 7), (210, 2), (44, 10), (96, 1), (216, 1), (107, 4), (212, 1), (14, 3), (128, 2), (113, 0), (177, 3), (80, 3), (90, 7), (38, 8), (64, 0), (236, 4), (17, 6), (159, 3), (238, 4), (174, 4), (136, 0)]
14	1	1	8	32	[(113, 5), (35, 4), (173, 1), (68, 1), (121, 0), (235, 8), (15, 7), (153, 1), (43, 1), (41, 7), (11, 8), (146, 7), (25, 6), (179, 6), (222, 2), (181, 8), (184, 0), (161, 7), (217, 9), (155, 8), (141, 6), (195, 2), (240, 9), (213, 10), (246, 2), (104, 3), (193, 3), (44, 8), (233, 6), (228, 2), (112, 6), (49, 8)]
15	2	1	8	27	[(120, 4), (239, 2), (127, 3), (219, 7), (217, 8), (61, 10), (28, 7), (123, 4), (232, 5), (121, 5), (152, 7), (153, 2), (21, 8), (205, 2), (38, 2), (224, 0), (183, 7), (48, 8), (229, 0), (179, 0), (66, 7), (90, 6), (97, 2), (138, 1), (114, 6), (122, 8), (161, 7)]
16	3	7	8	36	[(95, 6), (197, 0), (210, 1), (219, 1), (97, 5), (143, 8), (124, 5), (196, 5), (237, 10), (7, 4), (53, 7), (214, 6), (228, 8), (247, 10), (22, 1), (27, 1), (133, 1), (32, 0), (139, 1), (116, 2), (41, 3), (96, 7), (72, 5), (229, 6), (206, 2), (65, 1), (74, 0), (128, 10), (245, 5), (112, 8), (15, 8), (211, 8), (249, 2), (200, 8), (225, 10), (126, 5)]
17	2	1	8	33	[(237, 10), (31, 7), (121, 4), (190, 0), (128, 8), (86, 5), (246, 0), (93, 0), (41, 8), (137, 0), (204, 10), (192, 0), (148, 10), (37, 4), (57, 1), (187, 1), (172, 10), (105, 10), (70, 9), (68, 9), (195, 9), (202, 1), (100, 3), (36, 2), (221, 0), (244, 8), (104, 6), (59, 7), (147, 1), (97, 0), (185, 4), (208, 8), (111, 3)]
18	8	2	8	35	[(210, 1), (177, 0), (166, 8), (229, 5), (123, 8), (216, 10), (14, 1), (192, 2), (102, 4), (141, 10), (4, 3), (170, 1), (204, 3), (57, 3), (150, 3), (114, 9), (115, 8), (140, 5), (78, 0), (51, 9), (82, 4), (33, 1), (87, 8), (17, 8), (244, 4), (144, 8), (112, 7), (25, 7), (34, 5), (205, 4), (21, 1), (202, 3), (97, 10), (22, 9), (247, 6)]
19	7	1	8	32	[(95, 6), (191, 2), (49, 6), (113, 7), (170, 10), (91, 3), (237, 0), (3, 5), (33, 10), (30, 1), (21, 0), (197, 0), (76, 1), (61, 6), (231, 3), (239, 10), (105, 5), (166, 10), (190, 0), (139, 2), (216, 5), (89, 10), (202, 7), (161, 7), (200, 4), (18, 2), (225, 8), (131, 10), (212, 5), (145, 8), (41, 0), (146, 6)]
20	5	3	2	38	[(213, 4), (225, 4), (205, 0), (234, 7), (93, 2), (116, 2), (74, 1), (180, 9), (106, 4), (22, 8), (219, 3), (162, 9), (194, 2), (181, 0), (221, 8), (48, 6), (100, 9), (218, 0), (96, 1), (196, 0), (208, 8), (105, 10), (23, 1), (212, 10), (236, 3), (143, 7), (134, 9), (62, 5), (211, 5), (79, 7), (132, 1), (98, 6), (140, 10), (30, 3), (233, 6), (185, 4), (69, 7), (18, 6)]
21	46	2	8	40	[(248, 4), (201, 6), (97, 9), (184, 7), (5, 1), (139, 1), (40, 4), (128, 9), (28, 9), (88, 6), (74, 6), (14, 1), (49, 1), (18, 6), (240, 10), (250, 4), (176, 9), (148, 1), (190, 2), (72, 7), (182, 8), (6, 9), (150, 2), (125, 4), (100, 4), (122, 10), (73, 1), (9, 3), (86, 10), (185, 3), (52, 10), (152, 0), (213, 2), (38, 3), (216, 6), (200, 6), (11, 9), (25, 5), (231, 1), (31, 0)]
22	1	6	16	34	[(63, 1), (184, 3), (144, 9), (6, 3), (44, 2), (142, 6), (182, 4), (164, 0), (54, 3), (204, 3), (147, 3), (193, 6), (192, 5), (215, 6), (245, 10), (162, 1), (7, 2), (118, 3), (71, 10), (187, 2), (95, 1), (101, 2), (20, 7), (163, 8), (229, 9), (244, 0), (238, 0), (33, 6), (173, 8), (121, 8), (224, 5), (212, 10), (106, 6), (115, 10)]
23	1	3	2	27	[(40, 0), (49, 9), (155, 0), (196, 10), (16, 3), (85, 3), (118, 8), (62, 4), (52, 4), (30, 1), (108, 6), (41, 10), (188, 6), (98, 3), (21, 5), (47, 4), (70, 7), (113, 3), (10, 4), (15, 2), (158, 9), (239, 1), (145, 10), (103, 8), (244, 8), (133, 4), (140, 10)]
24	3	1	8	34	[(124, 5), (81, 7), (168, 5), (55, 5), (203, 3), (225, 0), (40, 1), (230, 1), (56, 10), (16, 1), (138, 6), (241, 6), (141, 7), (135, 10), (70, 7), (191, 7), (188, 0), (71, 6), (204, 2), (164, 9), (33, 4), (158, 4), (247, 7), (84, 10), (224, 1), (146, 2), (190, 10), (234, 8), (46, 10), (59, 8), (189, 10), (240, 6), (238, 6), (11, 7)]
25	4	1	8	36	[(211, 9), (54, 7), (179, 0), (202, 6), (208, 7), (40, 6), (114, 10), (50, 7), (124, 10), (111, 4), (235, 9), (17, 5), (170, 5), (122, 10), (34, 0), (245, 1), (198, 2), (165, 8), (73, 9), (60, 10), (44, 10), (162, 7), (212, 9), (241, 10), (108, 10), (174, 9), (37, 10), (78, 8), (72, 7), (183, 1), (41, 9), (234, 7), (227, 3), (98, 5), (147, 8), (3, 5)]
26	2	1	8	33	[(29, 0), (113, 10), (212, 2), (217, 10), (85, 6), (84, 2), (184, 3), (158, 4), (18, 7), (161, 5), (172, 6), (205, 7), (239, 8), (20, 10), (135, 1), (132, 5), (190, 0), (130, 0), (4, 2), (191, 9), (64, 3), (246, 3), (106, 7), (68, 1), (174, 3), (92, 7), (37, 9), (134, 1), (167, 8), (34, 3), (225, 9), (157, 3), (153, 2)]
27	2	2	8	36	[(235, 1), (152, 6), (103, 1), (53, 10), (107, 10), (189, 2), (176, 8), (60, 5), (6, 1), (15, 3), (204, 0), (42, 1), (165, 8), (232, 6), (140, 0), (169, 10), (130, 3), (153, 1), (91, 5), (75, 10), (1, 8), (86, 3), (100, 9), (78, 8), (51, 5), (192, 7), (76, 6), (184, 4), (141, 5), (84, 5), (245, 5), (34, 1), (234, 7), (64, 1), (247, 9), (56, 1)]
28	2	1	8	32	[(210, 1), (125, 1), (48, 3), (11, 0), (86, 1), (46, 2), (166, 1), (129, 5), (77, 5), (45, 1), (41, 1), (94, 0), (225, 5), (144, 1), (26, 5), (31, 0), (226, 1), (204, 8), (25, 10), (6, 9), (182, 10), (214, 7), (171, 7), (20, 1), (131, 5), (33, 6), (109, 7), (145, 9), (163, 9), (181, 7), (110, 7), (167, 10)]
29	2	2	1	23	[(183, 9), (19, 10), (141, 2), (177, 7), (40, 1), (233, 10), (78, 9), (32, 5), (227, 9), (189, 1), (242, 2), (47, 10), (150, 3), (108, 8), (12, 10), (5, 6), (235, 9), (45, 10), (246, 5), (56, 7), (195, 0), (106, 3), (204, 7)]
30	1	4	8	35	[(55, 1), (30, 1), (44, 3), (31, 0), (169, 3), (125, 9), (61, 6), (123, 10), (75, 5), (249, 8), (33, 10), (84, 10), (54, 9), (88, 7), (161, 2), (208, 6), (215, 3), (116, 9), (213, 10), (58, 4), (222, 2), (174, 10), (243, 8), (184, 3), (132, 7), (177, 8), (53, 8), (216, 6), (186, 10), (244, 4), (240, 2), (117, 0), (27, 5), (137, 7), (231, 3)]
31	100	2	8	30	[(234, 9), (11, 5), (24, 10), (132, 4), (96, 1), (202, 4), (239, 4), (248, 2), (56, 9), (34, 7), (126, 6), (108, 3), (81, 9), (44, 4), (176, 0), (250, 8), (117, 10), (27, 7), (204, 1), (128, 3), (198, 8), (95, 7), (2, 2), (109, 0), (57, 0), (194, 3), (78, 6), (84, 9), (121, 7), (241, 3)]
32	4	1	8	36	[(153, 3), (95, 8), (246, 3), (218, 3), (47, 4), (26, 4), (16, 5), (124, 7), (213, 5), (77, 10), (147, 3), (94, 4), (24, 1), (123, 3), (235, 4), (111, 0), (2, 1), (199, 2), (146, 5), (89, 10), (36, 5), (100, 8), (53, 4), (141, 2), (78, 8), (17, 1), (19, 6), (180, 5), (166, 5), (1, 4), (135, 4), (61, 0), (63, 4), (18, 9), (172, 8), (207, 7)]
33	18	1	1	43	[(56, 4), (241, 3), (47, 3), (29, 8), (140, 4), (183, 4), (181, 2), (229, 10), (222, 10), (190, 4), (130, 7), (235, 2), (186, 5), (44, 1), (39, 9), (75, 1), (189, 5), (149, 6), (90, 1), (22, 0), (195, 2), (120, 4), (122, 6), (216, 0), (205, 3), (227, 2), (236, 0), (54, 4), (173, 7), (128, 9), (172, 5), (133, 6), (50, 4), (93, 9), (115, 7), (230, 10), (1, 7), (150, 3), (105, 4), (108, 10), (114, 8), (137, 5), (77, 2)]
34	1	2	8	38	[(186, 0), (195, 9), (182, 1), (171, 9), (100, 5), (18, 9), (160, 7), (92, 8), (194, 5), (112, 2), (68, 8), (162, 9), (24, 1), (203, 6), (236, 10), (191, 4), (96, 0), (205, 2), (32, 4), (78, 8), (30, 1), (50, 3), (147, 1), (59, 1), (97, 9), (107, 7), (137, 3), (85, 4), (87, 8), (192, 2), (127, 6), (103, 10), (201, 6), (6, 9), (26, 7), (52, 2), (222, 7), (245, 8)]
35	42	4	8	28	[(79, 5), (125, 4), (175, 10), (183, 3), (149, 6), (140, 1), (58, 8), (76, 9), (171, 2), (54, 9), (16, 9), (47, 1), (108, 3), (45, 10), (6, 2), (136, 5), (160, 4), (134, 10), (162, 1), (238, 6), (26, 10), (228, 7), (174, 5), (22, 0), (119, 9), (243, 10), (184, 0), (144, 9)]
36	2	1	8	37	[(225, 7), (175, 8), (61, 4), (217, 9), (126, 3), (39, 5), (156, 4), (205, 9), (99, 4), (240, 4), (17, 1), (194, 9), (53, 3), (124, 4), (243, 1), (117, 2), (113, 5), (54, 3), (95, 10), (58, 2), (187, 1), (178, 1), (44, 8), (57, 5), (216, 6), (189, 3), (18, 0), (11, 7), (40, 6), (77, 2), (110, 9), (100, 6), (48, 4), (19, 6), (149, 2), (75, 8), (229, 5)]
37	1	1	8	31	[(203, 0), (194, 0), (139, 3), (227, 10), (31, 10), (42, 5), (65, 3), (59, 2), (131, 2), (41, 8), (20, 8), (118, 4), (107, 10), (120, 8), (82, 5), (103, 1), (16, 7), (182, 3), (92, 4), (1, 0), (11, 8), (248, 1), (62, 4), (111, 9), (250, 7), (143, 1), (106, 8), (155, 3), (187, 5), (114, 4), (171, 9)]
38	2	1	16	33	[(23, 8), (142, 7), (161, 1), (137, 0), (60, 10), (84, 6), (133, 2), (35, 0), (139, 4), (72, 2), (111, 0), (103, 3), (233, 1), (180, 10), (159, 7), (85, 1), (147, 6), (36, 7), (196, 10), (80, 8), (162, 8), (79, 10), (219, 6), (126, 0), (57, 5), (212, 7), (3, 3), (48, 2), (115, 5), (218, 1), (221, 1), (62, 3), (167, 4)]
39	2	6	8	31	[(240, 3), (163, 5), (112, 9), (169, 0), (141, 8), (118, 7), (127, 9), (131, 7), (159, 0), (60, 9), (27, 4), (212, 1), (11, 1), (176, 7), (82, 4), (101, 1), (15, 6), (21, 0), (81, 10), (115, 0), (196, 1), (42, 3), (238, 5), (231, 2), (45, 8), (214, 9), (8, 2), (94, 1), (6, 7), (122, 1), (14, 0)]
40	1	1	8	34	[(37, 8), (122, 1), (21, 7), (192, 8), (16, 0), (86, 1), (63, 7), (107, 8), (64, 4), (43, 3), (230, 4), (100, 4), (138, 0), (149, 9), (14, 1), (130, 6), (42, 4), (227, 7), (241, 7), (237, 5), (50, 8), (161, 6), (135, 9), (1, 8), (75, 1), (54, 3), (250, 9), (116, 7), (208, 2), (46, 8), (233, 3), (179, 5), (20, 6), (103, 10)]
41	2	1	8	27	[(160, 4), (88, 9), (90, 9), (64, 5), (139, 2), (59, 8), (204, 4), (83, 4), (140, 0), (12, 8), (34, 0), (183, 5), (127, 4), (190, 0), (20, 7), (177, 0), (72, 1), (174, 3), (97, 2), (53, 10), (165, 9), (61, 5), (79, 6), (147, 2), (85, 9), (237, 2), (47, 9)]
42	1	1	8	27	[(232, 0), (139, 0), (105, 10), (35, 6), (118, 6), (36, 10), (24, 7), (95, 8), (158, 10), (14, 2), (11, 4), (63, 10), (89, 6), (74, 2), (144, 5), (133, 1), (178, 8), (112, 9), (6, 9), (179, 3), (235, 9), (136, 0), (202, 8), (77, 7), (102, 2), (243, 6), (189, 8)]
43	3	1	8	31	[(98, 0), (129, 6), (87, 1), (176, 1), (88, 7), (164, 10), (213, 8), (148, 1), (155, 3), (141, 4), (74, 4), (116, 3), (196, 9), (51, 6), (231, 4), (139, 7), (189, 6), (79, 0), (83, 3), (103, 1), (108, 3), (185, 4), (245, 4), (58, 0), (194, 9), (38, 9), (237, 8), (60, 1), (100, 0), (86, 4), (68, 9)]
44	3	1	8	40	[(224, 6), (94, 4), (68, 5), (208, 2), (24, 1), (219, 0), (171, 6), (61, 1), (107, 3), (48, 2), (35, 3), (103, 5), (15, 8), (138, 0), (125, 0), (95, 7), (165, 6), (127, 2), (118, 4), (113, 6), (210, 3), (80, 6), (70, 1), (109, 10), (32, 1), (129, 5), (18, 9), (182, 9), (31, 2), (240, 6), (220, 3), (110, 4), (160, 10), (238, 7), (45, 7), (237, 5), (100, 10), (173, 1), (104, 9), (106, 0)]
45	1	1	8	32	[(87, 6), (37, 4), (129, 3), (32, 7), (216, 10), (242, 6), (65, 0), (209, 10), (9, 2), (155, 6), (211, 6), (109, 5), (59, 8), (94, 8), (248, 10), (79, 6), (101, 5), (156, 5), (228, 6), (153, 7), (131, 5), (57, 4), (33, 7), (236, 6), (29, 2), (107, 5), (144, 8), (206, 7), (150, 2), (70, 3), (134, 0), (147, 2)]
46	2	1	3	34	[(49, 2), (9, 8), (126, 6), (61, 9), (29, 10), (32, 9), (139, 5), (24, 7), (41, 8), (247, 9), (200, 4), (249, 10), (203, 8), (82, 9), (172, 9), (140, 0), (47, 3), (146, 2), (78, 4), (74, 3), (56, 5), (230, 8), (233, 8), (189, 2), (239, 6), (30, 3), (23, 6), (240, 3), (127, 8), (114, 9), (236, 5), (46, 9), (250, 8), (71, 3)]
47	1	1	8	29	[(162, 10), (140, 9), (12, 0), (92, 0), (211, 2), (168, 4), (121, 5), (219, 1), (137, 7), (139, 4), (126, 5), (212, 0), (161, 5), (143, 0), (68, 6), (147, 1), (241, 4), (235, 0), (169, 2), (150, 0), (85, 5), (35, 2), (77, 6), (27, 9), (46, 6), (166, 3), (174, 10), (23, 1), (239, 2)]
48	35	1	8	34	[(120, 1), (63, 7), (230, 2), (209, 7), (80, 7), (169, 1), (78, 6), (201, 6), (172, 4), (249, 8), (197, 3), (48, 5), (37, 5), (141, 2), (64, 0), (33, 2), (143, 2), (223, 4), (76, 7), (179, 4), (34, 2), (228, 6), (244, 3), (238, 1), (153, 8), (220, 1), (200, 3), (233, 7), (168, 9), (152, 1), (61, 2), (3, 6), (18, 5), (62, 6)]
49	1	1	8	25	[(235, 8), (225, 7), (151, 7), (49, 6), (173, 1), (129, 8), (204, 3), (245, 6), (153, 9), (1, 0), (148, 2), (205, 5), (194, 3), (119, 7), (229, 7), (177, 3), (184, 3), (247, 8), (166, 1), (220, 8), (124, 4), (40, 4), (36, 5), (156, 4), (182, 2)]
50	1	1	8	28	[(38, 1), (194, 8), (242, 0), (54, 4), (105, 5), (16, 10), (229, 6), (223, 3), (208, 9), (222, 8), (102, 7), (159, 5), (109, 7), (5, 10), (104, 3), (160, 7), (125, 6), (22, 5), (8, 9), (107, 0), (141, 0), (198, 7), (100, 7), (23, 10), (40, 9), (170, 8), (103, 6), (140, 6)]
51	12	1	8	28	[(17, 0), (143, 1), (192, 4), (130, 0), (26, 0), (38, 10), (132, 9), (102, 6), (89, 7), (126, 6), (180, 5), (114, 6), (105, 6), (90, 9), (112, 0), (18, 8), (66, 1), (167, 9), (237, 5), (124, 6), (21, 5), (27, 5), (202, 10), (99, 8), (45, 5), (94, 7), (139, 2), (164, 0)]
52	4	1	7	21	[(47, 5), (193, 10), (137, 10), (167, 9), (242, 0), (36, 5), (250, 2), (61, 10), (176, 0), (128, 2), (118, 4), (86, 1), (140, 6), (66, 5), (84, 8), (110, 8), (216, 1), (227, 5), (232, 1), (230, 5), (3, 1)]
53	4	1	8	44	[(76, 8), (64, 4), (245, 4), (176, 3), (246, 0), (10, 8), (75, 3), (191, 0), (39, 7), (2, 2), (107, 7), (65, 2), (82, 3), (99, 8), (114, 10), (152, 7), (101, 7), (78, 1), (139, 9), (66, 2), (227, 6), (51, 8), (52, 2), (220, 0), (244, 7), (32, 1), (109, 10), (195, 9), (102, 4), (192, 5), (48, 10), (216, 6), (74, 3), (169, 5), (151, 4), (149, 7), (186, 7), (180, 7), (141, 8), (11, 4), (243, 3), (98, 8), (30, 0), (19, 0)]
54	1	1	8	26	[(8, 2), (105, 2), (208, 6), (145, 5), (152, 1), (36, 9), (179, 5), (90, 10), (24, 0), (27, 5), (146, 9), (198, 1), (232, 4), (68, 6), (121, 2), (59, 10), (98, 7), (64, 3), (216, 9), (189, 5), (12, 1), (62, 5), (18, 10), (37, 2), (81, 9), (174, 0)]
55	2	1	8	27	[(136, 5), (215, 4), (222, 10), (149, 5), (168, 4), (77, 10), (223, 10), (45, 7), (3, 7), (161, 0), (140, 10), (230, 10), (117, 5), (72, 0), (46, 6), (184, 9), (126, 4), (62, 4), (176, 7), (182, 10), (132, 2), (141, 9), (81, 1), (155, 3), (120, 7), (209, 7), (167, 5)]
56	2	1	8	44	[(165, 0), (197, 1), (57, 10), (199, 1), (224, 5), (200, 2), (69, 6), (81, 2), (177, 10), (103, 2), (41, 1), (172, 7), (188, 10), (109, 1), (55, 0), (249, 4), (122, 0), (232, 4), (108, 10), (190, 0), (35, 0), (107, 6), (83, 7), (115, 8), (129, 0), (79, 0), (132, 4), (223, 9), (44, 6), (202, 7), (136, 5), (228, 4), (19, 6), (146, 7), (167, 2), (62, 9), (149, 8), (123, 4), (153, 3), (126, 4), (46, 3), (100, 7), (160, 1), (37, 5)]
57	1	2	8	24	[(127, 2), (128, 8), (249, 8), (90, 8), (18, 2), (205, 3), (248, 3), (215, 2), (13, 4), (37, 9), (1, 10), (139, 9), (74, 8), (121, 10), (207, 8), (63, 6), (102, 9), (185, 4), (132, 8), (172, 9), (126, 0), (189, 7), (159, 1), (196, 5)]
58	1	1	8	29	[(43, 5), (32, 4), (150, 7), (13, 7), (122, 5), (225, 1), (231, 2), (243, 2), (111, 6), (99, 2), (155, 10), (212, 8), (205, 9), (233, 0), (5, 7), (224, 5), (215, 0), (209, 3), (46, 2), (60, 8), (149, 5), (9, 0), (116, 6), (68, 10), (90, 3), (27, 7), (222, 6), (175, 3), (138, 1)]
59	1	1	8	42	[(90, 7), (195, 1), (246, 4), (159, 5), (141, 0), (38, 1), (101, 9), (130, 6), (131, 3), (97, 0), (77, 5), (162, 4), (86, 0), (94, 4), (140, 7), (49, 1), (221, 8), (158, 2), (150, 7), (11, 0), (111, 8), (20, 4), (241, 4), (62, 10), (163, 1), (148, 2), (102, 10), (99, 2), (1, 7), (199, 5), (25, 8), (65, 1), (63, 5), (233, 8), (112, 6), (10, 7), (192, 1), (244, 5), (247, 10), (45, 3), (135, 4), (152, 4)]
60	20	1	8	32	[(139, 2), (40, 1), (130, 9), (201, 10), (105, 3), (76, 6), (231, 9), (4, 6), (44, 3), (235, 10), (155, 7), (211, 1), (133, 8), (209, 4), (113, 5), (78, 7), (217, 1), (108, 6), (159, 8), (1, 7), (206, 9), (34, 0), (242, 9), (148, 7), (80, 4), (169, 8), (12, 5), (232, 9), (83, 7), (215, 10), (26, 2), (167, 0)]
61	6	4	8	38	[(94, 10), (91, 0), (73, 9), (137, 10), (216, 6), (21, 0), (220, 7), (113, 3), (182, 0), (41, 4), (101, 7), (6, 9), (163, 1), (178, 9), (234, 10), (34, 10), (133, 2), (126, 1), (43, 10), (211, 10), (116, 4), (144, 2), (191, 4), (152, 5), (39, 3), (130, 5), (64, 1), (242, 5), (18, 9), (72, 0), (14, 2), (232, 0), (44, 4), (27, 2), (165, 7), (51, 4), (226, 10), (110, 7)]
62	2	1	8	36	[(159, 9), (195, 6), (54, 9), (168, 4), (53, 10), (52, 8), (134, 3), (116, 9), (51, 0), (100, 4), (18, 3), (210, 8), (227, 1), (186, 3), (216, 8), (9, 0), (13, 6), (154, 10), (212, 3), (47, 5), (229, 0), (164, 0), (121, 8), (24, 6), (29, 9), (119, 1), (15, 4), (5, 0), (89, 0), (209, 3), (75, 10), (147, 4), (98, 1), (157, 6), (225, 8), (4, 6)]
63	2	3	3	36	[(111, 5), (209, 4), (34, 9), (114, 2), (159, 4), (10, 8), (146, 2), (84, 2), (31, 0), (106, 9), (245, 5), (239, 5), (206, 10), (232, 8), (52, 4), (54, 1), (238, 2), (71, 10), (116, 7), (217, 10), (108, 6), (9, 4), (187, 0), (83, 1), (162, 2), (33, 7), (42, 0), (192, 7), (218, 3), (92, 1), (29, 7), (200, 0), (76, 1), (62, 2), (46, 4), (77, 4)]
64	2	1	8	42	[(3, 1), (200, 1), (184, 9), (196, 5), (229, 7), (40, 6), (22, 5), (235, 7), (50, 10), (250, 5), (110, 0), (70, 7), (214, 8), (245, 2), (14, 4), (89, 10), (65, 2), (126, 0), (96, 1), (103, 0), (109, 6), (242, 5), (125, 1), (241, 1), (244, 10), (91, 6), (204, 10), (133, 8), (99, 3), (33, 8), (15, 4), (20, 5), (213, 10), (63, 3), (151, 4), (201, 10), (137, 8), (112, 0), (155, 4), (217, 8), (139, 1), (135, 4)]
65	1	1	8	38	[(147, 10), (138, 3), (65, 7), (201, 10), (125, 10), (16, 4), (61, 8), (202, 1), (100, 6), (131, 7), (150, 2), (170, 1), (246, 0), (183, 10), (82, 10), (236, 7), (137, 8), (143, 5), (13, 5), (155, 5), (71, 4), (105, 6), (182, 1), (80, 2), (15, 8), (169, 3), (87, 8), (225, 5), (205, 6), (63, 8), (224, 6), (126, 5), (211, 8), (93, 6), (144, 0), (18, 9), (115, 4), (53, 3)]
66	2	2	16	26	[(98, 0), (121, 7), (129, 0), (28, 7), (181, 10), (155, 4), (222, 4), (57, 0), (131, 10), (91, 3), (139, 0), (37, 10), (206, 9), (137, 4), (182, 5), (19, 3), (228, 9), (43, 0), (7, 10), (60, 3), (244, 10), (9, 1), (85, 3), (17, 4), (125, 1), (192, 5)]
67	2	3	8	29	[(247, 8), (135, 10), (139, 3), (144, 6), (55, 2), (44, 3), (67, 8), (138, 9), (84, 0), (80, 5), (137, 3), (3, 4), (11, 3), (250, 5), (206, 1), (162, 10), (165, 3), (170, 2), (69, 4), (233, 5), (94, 5), (59, 4), (89, 9), (23, 1), (167, 2), (78, 5), (151, 8), (210, 3), (20, 1)]
68	6	1	1	23	[(183, 1), (237, 4), (49, 5), (176, 2), (177, 7), (129, 6), (45, 4), (92, 5), (46, 10), (71, 3), (17, 8), (56, 4), (117, 10), (145, 0), (40, 0), (100, 5), (55, 5), (68, 9), (112, 9), (42, 10), (200, 5), (73, 7), (1, 2)]
69	2	6	2	39	[(47, 7), (97, 2), (6, 1), (2, 1), (121, 4), (204, 0), (231, 8), (67, 9), (30, 10), (83, 7), (95, 7), (194, 7), (216, 5), (186, 6), (176, 8), (116, 1), (41, 1), (21, 2), (39, 2), (9, 3), (243, 9), (126, 4), (3, 9), (124, 5), (129, 9), (70, 7), (123, 5), (201, 0), (232, 0), (27, 1), (161, 10), (228, 7), (199, 3), (147, 3), (56, 2), (82, 0), (244, 0), (106, 0), (227, 1)]
70	3	1	8	37	[(223, 8), (247, 9), (181, 10), (219, 3), (113, 2), (162, 9), (185, 10), (230, 10), (170, 7), (46, 8), (8, 0), (204, 0), (145, 6), (243, 3), (138, 0), (155, 7), (83, 9), (99, 7), (51, 3), (62, 7), (239, 5), (64, 10), (17, 4), (167, 3), (21, 0), (235, 5), (39, 9), (24, 3), (30, 10), (80, 6), (161, 9), (94, 8), (141, 0), (126, 6), (31, 6), (102, 0), (172, 10)]
71	17	1	8	32	[(175, 8), (165, 6), (82, 9), (158, 10), (78, 2), (99, 9), (18, 1), (103, 2), (193, 5), (125, 0), (107, 0), (233, 7), (71, 5), (215, 0), (189, 2), (15, 10), (49, 9), (203, 8), (180, 0), (37, 9), (117, 9), (102, 4), (105, 10), (50, 1), (68, 0), (159, 10), (27, 6), (174, 6), (170, 4), (61, 0), (136, 2), (46, 10)]
72	2	1	2	38	[(234, 1), (230, 7), (101, 5), (80, 7), (73, 1), (29, 3), (188, 2), (50, 10), (211, 7), (130, 4), (237, 2), (25, 6), (6, 4), (177, 10), (84, 9), (61, 10), (153, 1), (169, 9), (221, 0), (74, 1), (149, 5), (89, 10), (175, 6), (90, 2), (105, 0), (81, 4), (235, 3), (127, 1), (12, 2), (200, 2), (43, 8), (168, 8), (123, 6), (63, 6), (223, 4), (180, 0), (110, 7), (121, 2)]
73	4	1	1	34	[(25, 1), (8, 10), (164, 2), (95, 2), (12, 2), (248, 9), (146, 0), (250, 4), (186, 0), (48, 5), (86, 3), (245, 3), (80, 4), (100, 5), (28, 4), (182, 9), (201, 9), (218, 3), (89, 2), (212, 2), (162, 7), (9, 3), (127, 9), (242, 9), (36, 10), (2, 0), (44, 3), (147, 4), (154, 7), (195, 1), (83, 0), (15, 10), (237, 5), (93, 7)]
74	1	1	8	34	[(130, 7), (224, 8), (86, 6), (244, 8), (111, 8), (97, 4), (223, 8), (228, 9), (222, 9), (18, 10), (236, 8), (109, 2), (232, 6), (79, 10), (172, 3), (217, 0), (243, 10), (209, 9), (84, 3), (115, 4), (74, 8), (126, 5), (175, 2), (30, 0), (81, 8), (124, 3), (245, 6), (7, 0), (173, 2), (215, 10), (136, 5), (241, 6), (85, 1), (65, 6)]
75	1	10	8	28	[(22, 1), (195, 1), (135, 4), (223, 0), (19, 2), (23, 5), (7, 3), (124, 10), (26, 0), (190, 4), (226, 6), (219, 5), (177, 10), (64, 7), (125, 6), (236, 5), (109, 9), (155, 1), (92, 1), (234, 8), (37, 1), (84, 4), (151, 1), (165, 1), (199, 0), (30, 2), (203, 1), (168, 4)]
76	2	1	3	35	[(91, 10), (191, 8), (206, 8), (32, 1), (8, 0), (111, 10), (248, 3), (87, 9), (40, 1), (66, 2), (21, 6), (145, 6), (101, 0), (117, 1), (135, 3), (220, 1), (161, 0), (169, 1), (48, 6), (62, 6), (182, 1), (13, 9), (119, 1), (85, 5), (114, 0), (188, 1), (172, 1), (134, 8), (155, 5), (151, 6), (221, 4), (46, 7), (176, 2), (225, 2), (156, 8)]
77	2	1	10	23	[(196, 3), (209, 7), (118, 5), (246, 2), (75, 7), (198, 5), (66, 1), (127, 10), (24, 0), (240, 7), (179, 10), (78, 6), (43, 9), (86, 10), (232, 5), (103, 3), (187, 10), (95, 7), (172, 7), (63, 8), (180, 7), (194, 9), (109, 8)]
78	6	2	8	39	[(154, 1), (6, 7), (11, 5), (104, 8), (130, 6), (60, 10), (62, 1), (77, 7), (4, 10), (207, 3), (59, 5), (45, 1), (2, 2), (175, 9), (145, 2), (124, 2), (116, 10), (238, 0), (67, 2), (133, 9), (188, 10), (205, 2), (21, 4), (96, 3), (144, 0), (5, 2), (118, 3), (35, 5), (166, 10), (28, 10), (57, 10), (63, 9), (237, 10), (66, 2), (218, 6), (115, 8), (220, 2), (84, 6), (232, 10)]
79	1	1	8	41	[(194, 6), (173, 5), (98, 6), (25, 5), (237, 5), (170, 4), (24, 2), (6, 0), (97, 6), (102, 6), (22, 3), (9, 0), (177, 4), (79, 8), (23, 2), (139, 1), (160, 4), (240, 9), (219, 10), (158, 9), (146, 5), (184, 7), (175, 9), (198, 7), (55, 6), (89, 3), (63, 4), (132, 7), (105, 1), (54, 10), (167, 9), (142, 1), (210, 7), (47, 6), (73, 9), (126, 4), (141, 0), (145, 0), (217, 0), (77, 2), (11, 10)]
80	85	2	8	23	[(40, 2), (59, 5), (160, 6), (121, 2), (56, 0), (26, 5), (98, 9), (156, 10), (69, 4), (170, 4), (227, 4), (84, 4), (182, 3), (18, 1), (6, 3), (134, 0), (232, 6), (114, 4), (234, 6), (132, 4), (149, 4), (8, 6), (129, 0)]
81	2	1	8	30	[(64, 4), (165, 6), (151, 9), (232, 4), (149, 6), (76, 10), (132, 9), (250, 7), (32, 10), (226, 9), (36, 9), (99, 3), (65, 3), (174, 3), (139, 9), (26, 7), (97, 9), (217, 2), (94, 0), (7, 7), (108, 8), (17, 4), (214, 10), (43, 6), (74, 4), (13, 1), (248, 4), (81, 4), (222, 5), (79, 9)]
82	1	1	8	32	[(79, 10), (13, 2), (85, 9), (241, 7), (207, 4), (132, 6), (217, 1), (189, 4), (28, 10), (17, 0), (94, 6), (38, 2), (27, 9), (47, 9), (229, 0), (89, 1), (69, 4), (227, 8), (35, 8), (160, 10), (218, 9), (183, 2), (144, 0), (29, 5), (141, 6), (12, 4), (236, 7), (178, 9), (81, 4), (223, 10), (233, 0), (95, 9)]
83	123	1	8	36	[(33, 5), (118, 5), (132, 6), (126, 3), (53, 5), (186, 5), (131, 7), (1, 2), (219, 10), (124, 2), (37, 8), (210, 10), (120, 7), (19, 10), (3, 7), (165, 0), (130, 8), (181, 2), (90, 5), (50, 5), (23, 8), (198, 5), (122, 1), (5, 10), (243, 3), (100, 5), (151, 0), (18, 4), (106, 4), (14, 1), (144, 9), (83, 2), (150, 3), (95, 5), (82, 4), (98, 1)]
84	65	2	8	30	[(244, 8), (142, 0), (166, 7), (66, 1), (13, 9), (175, 0), (23, 6), (51, 2), (96, 3), (3, 5), (139, 4), (57, 1), (97, 5), (64, 0), (11, 4), (222, 1), (216, 1), (165, 1), (185, 9), (106, 9), (246, 2), (201, 8), (155, 8), (43, 2), (56, 10), (170, 8), (10, 5), (107, 5), (203, 3), (188, 0)]
85	1	1	8	34	[(25, 0), (40, 7), (244, 5), (200, 10), (75, 2), (162, 4), (24, 6), (216, 2), (230, 4), (239, 2), (250, 5), (135, 3), (183, 1), (173, 3), (217, 5), (205, 9), (245, 4), (206, 7), (44, 8), (97, 8), (16, 4), (249, 8), (204, 7), (159, 1), (195, 1), (151, 2), (37, 7), (193, 7), (144, 3), (148, 6), (64, 4), (147, 1), (118, 10), (9, 2)]
86	1	1	8	25	[(144, 9), (186, 2), (230, 5), (87, 2), (33, 5), (64, 8), (20, 3), (244, 9), (40, 4), (157, 6), (39, 5), (201, 5), (249, 7), (234, 5), (176, 4), (241, 9), (10, 4), (188, 8), (52, 2), (197, 2), (174, 7), (18, 8), (43, 0), (117, 2), (139, 0)]
87	3	2	8	30	[(218, 8), (40, 6), (167, 5), (191, 9), (184, 7), (249, 3), (223, 3), (28, 2), (176, 5), (226, 9), (105, 8), (229, 8), (190, 5), (46, 1), (75, 5), (38, 9), (163, 10), (64, 9), (17, 2), (117, 1), (59, 3), (43, 6), (104, 7), (129, 9), (8, 10), (225, 7), (16, 3), (60, 0), (162, 6), (134, 7)]
88	5	1	8	26	[(13, 9), (114, 1), (184, 10), (113, 1), (217, 10), (65, 4), (96, 1), (129, 4), (11, 7), (108, 10), (154, 5), (195, 9), (229, 8), (79, 4), (233, 4), (4, 8), (231, 7), (105, 0), (171, 9), (191, 6), (14, 7), (194, 3), (53, 2), (204, 4), (51, 0), (80, 5)]
89	6	2	8	31	[(200, 1), (37, 6), (227, 6), (226, 5), (207, 4), (30, 4), (107, 9), (155, 5), (208, 8), (42, 9), (199, 1), (144, 3), (153, 5), (174, 10), (7, 1), (109, 2), (108, 3), (188, 2), (91, 0), (177, 5), (102, 5), (250, 6), (131, 5), (87, 3), (176, 4), (180, 9), (52, 5), (229, 4), (36, 5), (203, 4), (204, 8)]
90	1	1	8	42	[(20, 7), (75, 4), (151, 8), (86, 4), (39, 7), (179, 3), (10, 1), (226, 3), (229, 10), (106, 1), (70, 1), (152, 2), (59, 7), (111, 2), (133, 7), (58, 10), (19, 3), (187, 6), (27, 8), (38, 5), (210, 1), (12, 0), (174, 9), (24, 2), (193, 4), (36, 7), (235, 7), (231, 9), (85, 1), (71, 6), (68, 10), (234, 7), (142, 6), (213, 3), (11, 2), (79, 3), (241, 2), (208, 5), (190, 1), (137, 6), (242, 8), (120, 3)]
91	1	2	8	33	[(54, 4), (153, 3), (98, 1), (238, 0), (85, 2), (162, 4), (48, 0), (51, 4), (152, 1), (147, 3), (74, 0), (61, 6), (191, 7), (214, 8), (71, 8), (52, 4), (129, 3), (192, 10), (29, 2), (221, 2), (15, 5), (82, 3), (116, 9), (145, 4), (97, 7), (57, 0), (196, 9), (93, 10), (66, 3), (178, 0), (215, 0), (79, 9), (33, 9)]
92	3	6	8	39	[(48, 4), (236, 0), (94, 1), (35, 4), (119, 1), (248, 6), (65, 5), (159, 2), (43, 10), (160, 6), (15, 7), (168, 4), (64, 0), (198, 10), (90, 2), (37, 7), (120, 10), (218, 4), (23, 5), (9, 1), (169, 0), (3, 2), (240, 4), (243, 7), (229, 1), (122, 4), (244, 3), (149, 10), (230, 2), (72, 3), (148, 5), (189, 5), (34, 1), (195, 1), (114, 9), (247, 1), (31, 4), (127, 7), (207, 10)]
93	3	1	2	32	[(3, 4), (196, 1), (105, 10), (170, 6), (215, 1), (104, 2), (11, 4), (76, 4), (132, 6), (158, 5), (25, 6), (199, 0), (194, 2), (148, 6), (210, 7), (222, 4), (60, 0), (123, 0), (128, 2), (22, 3), (119, 4), (127, 10), (197, 8), (177, 5), (214, 6), (80, 7), (96, 3), (193, 3), (33, 4), (234, 7), (98, 6), (114, 6)]
94	6	1	8	29	[(72, 2), (18, 10), (8, 7), (11, 10), (111, 0), (154, 8), (21, 6), (113, 5), (157, 7), (242, 6), (223, 10), (187, 3), (4, 9), (120, 7), (235, 1), (67, 7), (123, 2), (86, 5), (215, 9), (51, 1), (124, 9), (45, 10), (170, 8), (117, 2), (20, 9), (246, 9), (3, 9), (90, 3), (171, 3)]
95	1	1	2	30	[(217, 0), (142, 9), (32, 4), (82, 2), (178, 1), (83, 9), (116, 9), (194, 5), (123, 1), (213, 10), (108, 6), (56, 8), (101, 4), (39, 9), (30, 1), (67, 9), (9, 8), (208, 5), (184, 3), (223, 6), (135, 6), (147, 8), (5, 6), (144, 10), (234, 0), (75, 8), (115, 5), (112, 4), (132, 4), (243, 7)]
96	1	1	8	46	[(56, 1), (60, 0), (36, 5), (3, 8), (5, 0), (173, 10), (150, 3), (100, 5), (141, 1), (44, 9), (12, 1), (123, 8), (163, 10), (185, 3), (229, 5), (92, 9), (76, 10), (119, 1), (31, 10), (234, 8), (239, 5), (210, 6), (153, 3), (221, 3), (120, 10), (232, 8), (118, 0), (127, 6), (192, 5), (189, 0), (198, 2), (226, 8), (180, 3), (33, 10), (2, 10), (160, 6), (223, 6), (165, 10), (84, 3), (231, 5), (9, 8), (97, 0), (193, 4), (228, 3), (182, 4), (73, 0)]
97	1	1	8	26	[(242, 6), (130, 3), (197, 7), (17, 1), (237, 4), (132, 7), (218, 7), (49, 1), (93, 4), (238, 1), (131, 6), (88, 3), (27, 6), (38, 10), (211, 3), (99, 1), (76, 1), (58, 0), (90, 5), (126, 6), (96, 4), (10, 4), (61, 10), (175, 4), (236, 1), (63, 4)]
98	6	1	8	27	[(91, 6), (39, 10), (44, 0), (63, 7), (224, 1), (163, 5), (41, 4), (165, 1), (208, 7), (117, 5), (125, 7), (108, 2), (120, 10), (101, 5), (58, 6), (51, 4), (228, 9), (111, 1), (8, 7), (52, 8), (198, 4), (142, 3), (19, 5), (23, 10), (250, 0), (21, 1), (130, 2)]
99	2	1	8	36	[(157, 10), (192, 1), (12, 10), (26, 4), (229, 7), (206, 2), (86, 0), (83, 5), (15, 1), (143, 4), (185, 0), (222, 5), (139, 4), (66, 6), (239, 1), (135, 4), (211, 6), (117, 8), (197, 2), (171, 9), (106, 7), (161, 3), (73, 1), (101, 10), (175, 0), (240, 7), (128, 0), (38, 8), (65, 6), (202, 2), (203, 3), (36, 1), (137, 1), (125, 4), (183, 2), (154, 5)]
100	2	2	8	29	[(71, 9), (174, 1), (59, 9), (69, 5), (44, 1), (15, 4), (178, 10), (73, 4), (112, 5), (26, 9), (93, 8), (134, 9), (22, 1), (170, 7), (146, 6), (105, 2), (24, 0), (96, 6), (6, 0), (110, 10), (171, 4), (210, 10), (231, 1), (13, 5), (167, 8), (49, 6), (106, 2), (155, 6), (223, 1)]
101	2	1	8	32	[(31, 7), (67, 5), (160, 8), (35, 6), (209, 7), (195, 2), (238, 2), (16, 4), (184, 6), (167, 5), (94, 9), (201, 10), (193, 10), (154, 8), (197, 2), (249, 1), (211, 7), (216, 6), (48, 10), (1, 3), (115, 8), (61, 0), (100, 7), (139, 8), (23, 1), (191, 5), (243, 4), (93, 6), (213, 4), (173, 7), (101, 1), (79, 4)]
102	12	1	32	33	[(180, 10), (28, 10), (233, 8), (30, 8), (127, 5), (115, 1), (185, 3), (117, 6), (24, 2), (242, 9), (137, 5), (34, 4), (84, 10), (2, 8), (240, 3), (197, 8), (97, 8), (246, 2), (13, 2), (217, 9), (130, 7), (8, 7), (6, 7), (244, 7), (204, 9), (25, 5), (230, 5), (70, 2), (49, 10), (148, 5), (209, 0), (38, 5), (202, 2)]
103	1	1	8	38	[(120, 8), (153, 7), (8, 2), (59, 5), (144, 4), (60, 3), (39, 1), (22, 8), (113, 0), (29, 4), (182, 5), (163, 4), (72, 8), (211, 0), (174, 6), (38, 4), (166, 4), (164, 10), (201, 0), (122, 0), (142, 10), (225, 5), (93, 5), (200, 5), (84, 5), (205, 6), (140, 7), (192, 0), (250, 6), (148, 0), (73, 9), (7, 1), (16, 5), (43, 3), (112, 2), (74, 2), (57, 0), (3, 4)]
104	7	1	7	33	[(133, 8), (68, 8), (67, 6), (143, 9), (42, 6), (196, 0), (178, 9), (151, 7), (225, 5), (78, 7), (239, 1), (89, 8), (9, 7), (185, 8), (224, 4), (173, 10), (222, 4), (228, 2), (94, 5), (140, 6), (31, 4), (21, 0), (38, 5), (141, 2), (177, 6), (204, 3), (244, 3), (210, 3), (219, 9), (201, 8), (218, 10), (215, 2), (71, 7)]
105	2	1	8	31	[(196, 8), (115, 5), (215, 8), (57, 0), (146, 8), (241, 0), (15, 0), (91, 2), (98, 7), (109, 9), (58, 7), (6, 1), (171, 5), (55, 3), (208, 8), (112, 1), (96, 2), (9, 2), (103, 9), (102, 2), (124, 8), (224, 5), (73, 8), (13, 4), (4, 0), (244, 7), (118, 2), (145, 3), (68, 8), (2, 4), (160, 2)]
106	2	1	8	30	[(141, 2), (105, 0), (188, 5), (69, 1), (137, 2), (114, 4), (216, 4), (77, 10), (44, 9), (57, 7), (72, 9), (135, 8), (124, 7), (175, 10), (204, 3), (215, 9), (70, 7), (60, 5), (198, 5), (19, 7), (213, 6), (151, 1), (116, 10), (85, 6), (20, 7), (130, 2), (240, 0), (3, 6), (138, 10), (10, 2)]
107	1	1	8	34	[(189, 10), (118, 3), (137, 9), (194, 4), (248, 5), (72, 7), (210, 6), (195, 2), (44, 7), (140, 8), (224, 1), (64, 9), (144, 3), (162, 9), (207, 4), (186, 5), (247, 0), (63, 3), (249, 10), (213, 1), (112, 0), (172, 1), (158, 7), (12, 6), (88, 9), (226, 3), (22, 5), (19, 9), (219, 1), (93, 10), (173, 7), (82, 10), (218, 6), (25, 10)]
108	72	1	2	25	[(237, 10), (73, 6), (104, 3), (247, 6), (113, 5), (205, 2), (77, 7), (35, 8), (174, 7), (152, 3), (42, 8), (173, 0), (165, 3), (226, 8), (151, 9), (159, 7), (153, 5), (172, 1), (118, 2), (132, 2), (2, 10), (168, 6), (129, 2), (219, 10), (162, 3)]
109	2	4	8	25	[(139, 3), (206, 10), (28, 3), (73, 7), (121, 10), (239, 9), (178, 8), (37, 9), (75, 9), (167, 2), (107, 8), (214, 2), (149, 8), (225, 3), (12, 9), (138, 0), (168, 1), (169, 5), (163, 4), (249, 3), (112, 6), (39, 4), (184, 3), (137, 0), (233, 1)]
110	1	1	8	36	[(223, 6), (136, 3), (87, 6), (100, 0), (30, 7), (120, 7), (148, 9), (99, 8), (166, 3), (10, 3), (201, 4), (41, 7), (74, 9), (51, 3), (169, 1), (69, 5), (43, 8), (170, 9), (83, 2), (112, 3), (40, 1), (32, 7), (31, 6), (54, 10), (161, 8), (176, 6), (175, 8), (57, 9), (232, 4), (22, 7), (46, 5), (95, 8), (224, 0), (192, 5), (222, 10), (129, 3)]
111	1	1	8	38	[(90, 0), (159, 7), (160, 1), (27, 2), (226, 0), (135, 5), (163, 2), (168, 2), (206, 1), (92, 9), (170, 1), (172, 8), (94, 4), (60, 2), (129, 4), (173, 2), (194, 4), (32, 9), (91, 2), (169, 5), (182, 8), (116, 1), (147, 10), (202, 4), (6, 4), (210, 5), (45, 7), (14, 10), (48, 2), (81, 9), (228, 5), (17, 1), (31, 0), (176, 0), (229, 0), (184, 3), (15, 8), (236, 6)]
112	2	1	4	31	[(237, 6), (69, 4), (5, 6), (123, 9), (247, 5), (78, 5), (246, 1), (250, 7), (77, 1), (137, 1), (4, 6), (139, 4), (126, 0), (98, 7), (48, 0), (61, 3), (54, 9), (249, 5), (97, 6), (31, 7), (210, 0), (175, 10), (76, 5), (37, 2), (217, 4), (113, 3), (105, 2), (58, 4), (162, 1), (233, 3), (122, 3)]
113	2	3	8	29	[(84, 6), (199, 0), (135, 6), (161, 5), (192, 0), (163, 10), (100, 1), (45, 3), (176, 0), (137, 2), (34, 5), (153, 2), (218, 6), (180, 10), (190, 2), (142, 4), (20, 0), (157, 0), (28, 3), (97, 0), (26, 0), (175, 0), (58, 6), (13, 9), (230, 1), (92, 1), (155, 0), (125, 3), (144, 4)]
114	2	1	8	35	[(94, 6), (143, 1), (147, 2), (221, 5), (52, 5), (85, 1), (170, 5), (75, 2), (160, 1), (62, 5), (133, 6), (66, 9), (167, 4), (171, 1), (127, 8), (88, 8), (37, 10), (34, 7), (10, 9), (8, 8), (72, 3), (97, 0), (239, 7), (190, 5), (157, 6), (89, 10), (104, 10), (199, 1), (18, 2), (164, 10), (12, 2), (124, 10), (228, 3), (21, 7), (23, 7)]
115	4	1	8	32	[(6, 4), (232, 3), (92, 10), (135, 3), (66, 7), (76, 0), (101, 10), (77, 10), (206, 8), (130, 3), (94, 1), (123, 2), (14, 8), (217, 8), (132, 5), (225, 6), (75, 7), (233, 1), (116, 4), (166, 0), (70, 5), (193, 8), (63, 4), (229, 4), (211, 2), (212, 2), (103, 8), (234, 3), (154, 8), (172, 7), (142, 6), (8, 1)]
116	2	1	8	31	[(142, 9), (78, 3), (175, 2), (106, 5), (84, 6), (45, 1), (214, 2), (59, 5), (86, 5), (224, 1), (127, 1), (207, 5), (111, 10), (76, 7), (23, 10), (231, 3), (19, 2), (132, 1), (169, 3), (206, 2), (159, 3), (241, 1), (174, 7), (145, 3), (193, 7), (50, 9), (171, 10), (188, 5), (41, 2), (110, 2), (92, 0)]
117	3	1	8	31	[(29, 7), (199, 3), (148, 6), (211, 10), (223, 3), (5, 3), (89, 0), (190, 5), (39, 6), (69, 3), (186, 7), (158, 4), (80, 1), (31, 0), (227, 1), (56, 4), (142, 10), (247, 10), (160, 2), (219, 6), (151, 8), (64, 4), (246, 3), (138, 10), (101, 5), (91, 7), (87, 8), (72, 8), (108, 6), (22, 0), (170, 7)]
118	2	1	1	36	[(22, 1), (170, 1), (53, 3), (154, 6), (220, 8), (234, 7), (233, 0), (81, 6), (169, 6), (69, 1), (107, 1), (213, 5), (73, 9), (240, 3), (94, 7), (63, 6), (134, 8), (203, 1), (149, 5), (119, 5), (186, 7), (246, 4), (95, 9), (133, 9), (104, 10), (214, 10), (75, 5), (136, 0), (248, 3), (50, 3), (212, 3), (3, 3), (135, 9), (64, 8), (12, 9), (9, 9)]
119	1	4	2	26	[(243, 4), (117, 6), (163, 8), (147, 0), (119, 1), (124, 10), (104, 9), (150, 10), (60, 4), (190, 8), (187, 2), (242, 6), (247, 8), (250, 5), (10, 9), (172, 1), (19, 8), (207, 4), (239, 7), (168, 8), (113, 10), (122, 2), (5, 10), (121, 1), (132, 0), (50, 5)]
120	5	1	16	34	[(211, 7), (195, 6), (210, 1), (12, 6), (101, 5), (60, 10), (175, 5), (70, 2), (246, 10), (122, 3), (128, 8), (91, 4), (179, 9), (80, 7), (161, 7), (52, 3), (196, 10), (114, 5), (157, 6), (98, 5), (127, 2), (27, 5), (102, 3), (22, 6), (103, 3), (30, 4), (230, 6), (194, 0), (117, 9), (88, 4), (65, 7), (241, 3), (173, 1), (227, 4)]
121	1	1	8	40	[(37, 1), (163, 4), (32, 7), (66, 1), (124, 3), (55, 5), (72, 10), (193, 3), (159, 4), (29, 3), (31, 1), (39, 3), (198, 9), (116, 6), (231, 1), (232, 0), (90, 5), (180, 10), (173, 5), (221, 0), (42, 3), (136, 10), (40, 5), (204, 4), (249, 7), (166, 7), (24, 5), (59, 9), (78, 0), (100, 5), (103, 0), (197, 2), (13, 0), (151, 8), (46, 3), (250, 3), (161, 6), (143, 1), (125, 2), (120, 5)]
122	2	1	1	36	[(123, 5), (43, 4), (237, 6), (10, 6), (196, 8), (192, 10), (228, 0), (23, 4), (9, 3), (159, 2), (238, 10), (224, 8), (208, 1), (108, 7), (65, 3), (164, 1), (4, 4), (8, 8), (226, 9), (72, 2), (99, 3), (102, 8), (87, 1), (165, 6), (106, 1), (115, 3), (48, 8), (216, 8), (247, 2), (131, 4), (74, 1), (62, 10), (98, 7), (46, 3), (157, 8), (218, 9)]
123	3	1	8	36	[(100, 4), (90, 2), (109, 6), (180, 8), (244, 9), (103, 10), (18, 7), (70, 3), (38, 2), (62, 8), (226, 6), (183, 4), (35, 9), (60, 7), (122, 1), (108, 9), (171, 1), (124, 5), (40, 2), (81, 1), (221, 5), (149, 3), (242, 2), (194, 6), (232, 10), (46, 7), (61, 10), (83, 4), (4, 6), (193, 10), (87, 4), (187, 0), (145, 8), (143, 3), (186, 0), (163, 3)]
124	2	4	8	30	[(179, 10), (170, 5), (112, 9), (35, 3), (120, 6), (80, 0), (246, 9), (41, 4), (206, 5), (155, 7), (72, 7), (204, 7), (86, 6), (29, 1), (151, 7), (160, 9), (44, 6), (188, 1), (94, 0), (36, 0), (69, 2), (125, 7), (100, 3), (190, 7), (138, 5), (189, 4), (64, 6), (102, 7), (221, 2), (26, 9)]
125	2	1	8	42	[(70, 8), (149, 5), (79, 4), (57, 8), (133, 8), (40, 4), (89, 7), (198, 0), (230, 10), (213, 4), (229, 5), (187, 8), (106, 7), (140, 8), (87, 7), (12, 8), (249, 6), (135, 0), (118, 4), (18, 2), (227, 10), (60, 5), (5, 4), (74, 5), (22, 1), (190, 9), (180, 1), (164, 4), (210, 6), (209, 6), (173, 1), (103, 10), (250, 8), (235, 8), (137, 7), (121, 6), (17, 4), (169, 5), (35, 7), (132, 3), (119, 6), (37, 2)]
126	2	3	8	34	[(182, 8), (16, 1), (27, 7), (64, 0), (127, 1), (185, 4), (238, 2), (247, 0), (220, 10), (139, 0), (130, 0), (66, 2), (124, 4), (121, 7), (187, 5), (9, 8), (87, 6), (200, 2), (46, 10), (180, 8), (179, 1), (165, 7), (2, 1), (1, 8), (85, 0), (45, 4), (33, 5), (132, 7), (89, 4), (204, 8), (73, 9), (21, 7), (174, 8), (15, 3)]
127	7	1	8	34	[(9, 9), (177, 10), (18, 7), (183, 8), (90, 0), (246, 7), (55, 4), (168, 8), (137, 10), (115, 0), (15, 6), (97, 7), (134, 1), (77, 3), (35, 6), (197, 0), (87, 1), (34, 10), (237, 9), (212, 9), (61, 1), (214, 10), (51, 1), (103, 5), (80, 6), (60, 2), (128, 8), (100, 7), (171, 10), (142, 2), (52, 9), (141, 7), (62, 0), (126, 3)]
128	2	4	8	32	[(52, 8), (83, 10), (234, 6), (110, 10), (46, 1), (112, 6), (193, 10), (172, 7), (229, 5), (41, 3), (22, 5), (129, 5), (137, 6), (156, 4), (131, 7), (173, 3), (88, 3), (176, 5), (23, 3), (220, 0), (226, 9), (65, 4), (56, 2), (70, 6), (2, 7), (50, 6), (221, 4), (55, 8), (21, 2), (101, 0), (124, 4), (114, 2)]
129	5	1	8	32	[(36, 3), (86, 1), (224, 8), (54, 4), (35, 2), (129, 8), (85, 4), (95, 10), (183, 1), (248, 0), (174, 6), (94, 1), (167, 4), (64, 6), (25, 9), (87, 4), (62, 3), (109, 1), (103, 1), (209, 2), (58, 7), (27, 0), (159, 1), (108, 1), (240, 4), (205, 2), (182, 7), (131, 10), (13, 5), (2, 8), (9, 8), (113, 5)]
130	7	1	8	37	[(146, 9), (230, 1), (26, 9), (216, 8), (232, 7), (241, 5), (71, 4), (212, 3), (11, 9), (226, 8), (191, 10), (127, 6), (112, 10), (105, 0), (126, 4), (36, 0), (33, 1), (239, 6), (211, 9), (213, 10), (151, 10), (107, 5), (21, 5), (29, 5), (208, 7), (236, 5), (190, 2), (215, 6), (64, 4), (95, 6), (218, 0), (214, 3), (176, 10), (83, 4), (135, 2), (157, 4), (116, 7)]
131	1	1	8	28	[(8, 10), (190, 1), (83, 9), (59, 4), (223, 10), (117, 5), (141, 9), (82, 10), (234, 2), (109, 6), (43, 1), (63, 8), (37, 2), (222, 0), (165, 7), (36, 7), (123, 7), (209, 3), (184, 10), (106, 8), (168, 1), (172, 10), (25, 8), (227, 7), (70, 8), (14, 4), (79, 0), (231, 4)]
132	21	2	8	32	[(238, 4), (4, 8), (141, 10), (136, 10), (93, 1), (126, 3), (69, 5), (211, 8), (196, 6), (26, 0), (199, 2), (99, 1), (232, 4), (48, 0), (156, 4), (193, 9), (208, 6), (186, 10), (133, 1), (180, 0), (103, 9), (67, 8), (146, 3), (173, 1), (97, 7), (176, 6), (198, 10), (95, 7), (237, 6), (144, 10), (114, 1), (2, 4)]
133	4	1	16	28	[(207, 10), (83, 1), (110, 7), (87, 0), (96, 6), (157, 3), (91, 5), (22, 8), (173, 2), (39, 5), (160, 2), (100, 9), (158, 2), (44, 7), (201, 0), (25, 4), (79, 10), (176, 10), (129, 0), (20, 3), (127, 5), (11, 9), (13, 0), (221, 4), (179, 2), (235, 5), (19, 6), (37, 5)]
134	5	1	6	39	[(91, 8), (78, 7), (92, 1), (44, 3), (119, 6), (146, 5), (118, 4), (114, 4), (222, 5), (214, 3), (148, 9), (195, 4), (211, 8), (207, 7), (155, 1), (206, 6), (59, 2), (138, 8), (235, 10), (220, 3), (21, 4), (250, 7), (149, 7), (85, 2), (242, 10), (168, 5), (32, 5), (151, 3), (94, 7), (80, 2), (34, 3), (202, 4), (5, 6), (14, 2), (112, 1), (205, 3), (209, 4), (181, 5), (74, 8)]
135	5	4	8	31	[(226, 7), (78, 4), (202, 0), (250, 5), (66, 2), (177, 3), (240, 7), (160, 6), (156, 3), (212, 7), (137, 7), (69, 9), (139, 2), (106, 1), (126, 2), (232, 4), (238, 3), (85, 9), (40, 9), (38, 9), (17, 1), (222, 4), (36, 8), (31, 4), (61, 1), (84, 3), (115, 3), (8, 8), (57, 7), (130, 2), (241, 8)]
136	2	2	8	39	[(68, 10), (150, 9), (222, 8), (153, 1), (198, 7), (24, 10), (236, 1), (4, 0), (171, 2), (105, 8), (53, 2), (216, 5), (242, 3), (64, 0), (111, 10), (21, 9), (182, 8), (116, 3), (235, 4), (245, 3), (120, 1), (37, 8), (56, 5), (33, 4), (45, 0), (144, 6), (18, 7), (77, 0), (67, 6), (112, 10), (249, 4), (118, 8), (210, 0), (151, 9), (209, 7), (148, 4), (32, 1), (23, 0), (130, 2)]
137	18	1	8	28	[(129, 2), (111, 6), (33, 8), (23, 0), (44, 0), (37, 6), (93, 1), (66, 8), (77, 5), (181, 5), (244, 8), (155, 5), (62, 8), (5, 0), (108, 7), (236, 7), (53, 4), (243, 5), (141, 4), (92, 3), (216, 7), (172, 8), (56, 8), (20, 10), (42, 0), (21, 8), (202, 6), (91, 4)]
138	2	4	4	43	[(179, 5), (96, 2), (202, 4), (3, 7), (227, 7), (110, 8), (65, 6), (104, 5), (234, 5), (21, 8), (243, 6), (148, 9), (46, 3), (103, 0), (186, 5), (84, 1), (226, 1), (170, 2), (182, 9), (205, 1), (113, 3), (79, 2), (37, 6), (53, 5), (10, 9), (125, 2), (198, 6), (82, 3), (145, 4), (41, 2), (40, 4), (62, 0), (74, 10), (68, 5), (129, 7), (144, 0), (99, 9), (242, 10), (50, 8), (141, 2), (49, 0), (73, 4), (66, 5)]
139	1	8	2	32	[(233, 1), (48, 1), (13, 10), (162, 5), (196, 7), (20, 3), (160, 0), (185, 1), (75, 8), (6, 8), (31, 4), (247, 3), (73, 9), (2, 8), (56, 6), (52, 9), (47, 9), (132, 1), (124, 4), (128, 9), (63, 2), (121, 10), (212, 10), (28, 8), (33, 8), (250, 2), (70, 9), (235, 5), (180, 8), (144, 0), (108, 1), (206, 10)]
140	1	1	8	34	[(10, 4), (233, 6), (235, 8), (213, 4), (16, 10), (230, 5), (166, 4), (137, 9), (149, 10), (14, 0), (219, 1), (73, 3), (18, 1), (153, 0), (158, 0), (43, 2), (139, 6), (128, 5), (121, 8), (193, 8), (161, 10), (246, 8), (182, 7), (244, 5), (232, 0), (186, 4), (155, 7), (245, 9), (243, 1), (214, 9), (7, 4), (4, 5), (71, 4), (61, 1)]
141	6	1	8	42	[(215, 8), (176, 9), (83, 4), (2, 0), (17, 2), (127, 6), (232, 2), (28, 8), (145, 2), (104, 2), (143, 3), (126, 7), (186, 0), (242, 7), (96, 6), (87, 1), (134, 7), (61, 5), (129, 9), (19, 1), (248, 0), (185, 4), (35, 5), (246, 3), (171, 7), (43, 0), (146, 3), (250, 9), (222, 3), (94, 0), (115, 10), (51, 0), (37, 3), (86, 9), (166, 5), (73, 6), (247, 3), (144, 10), (156, 7), (155, 10), (202, 8), (58, 2)]
142	3	1	8	25	[(183, 3), (181, 10), (174, 4), (69, 1), (138, 7), (176, 3), (148, 4), (203, 6), (198, 1), (35, 5), (180, 2), (128, 7), (234, 3), (46, 3), (5, 8), (186, 8), (210, 6), (44, 8), (228, 7), (23, 8), (218, 5), (195, 7), (149, 10), (163, 4), (67, 2)]
143	5	1	8	29	[(38, 10), (240, 3), (194, 5), (39, 7), (170, 1), (248, 1), (174, 5), (70, 4), (204, 8), (41, 5), (189, 8), (87, 2), (100, 3), (101, 1), (201, 4), (158, 10), (60, 4), (8, 5), (243, 7), (211, 6), (131, 1), (111, 10), (35, 10), (159, 9), (97, 2), (146, 7), (124, 10), (210, 8), (215, 7)]
144	4	1	8	31	[(77, 8), (137, 9), (13, 5), (149, 4), (49, 8), (98, 8), (239, 4), (213, 3), (169, 10), (87, 4), (42, 2), (39, 4), (43, 7), (9, 3), (19, 9), (172, 3), (93, 10), (71, 8), (220, 3), (191, 9), (26, 0), (79, 6), (182, 1), (155, 0), (23, 2), (250, 4), (30, 4), (245, 3), (224, 10), (90, 5), (116, 4)]
145	2	1	16	38	[(35, 6), (36, 9), (96, 1), (12, 1), (37, 1), (10, 2), (157, 2), (28, 9), (117, 6), (16, 1), (83, 0), (115, 0), (72, 8), (156, 7), (150, 10), (214, 9), (204, 2), (231, 10), (219, 8), (178, 7), (226, 1), (151, 0), (141, 6), (134, 8), (199, 2), (168, 2), (70, 4), (90, 10), (135, 1), (202, 1), (110, 7), (216, 8), (19, 5), (97, 1), (26, 8), (154, 0), (172, 1), (193, 5)]
146	2	2	1	32	[(79, 3), (23, 1), (103, 10), (10, 0), (183, 4), (107, 9), (249, 8), (83, 3), (35, 8), (219, 9), (88, 9), (100, 8), (18, 2), (174, 1), (134, 8), (105, 5), (51, 1), (70, 1), (102, 2), (94, 10), (164, 6), (108, 2), (78, 5), (64, 2), (151, 5), (237, 5), (4, 0), (162, 6), (7, 10), (92, 5), (89, 9), (6, 5)]
147	11	1	8	28	[(212, 8), (81, 10), (75, 4), (77, 0), (190, 1), (56, 3), (197, 6), (60, 4), (127, 0), (141, 1), (177, 4), (101, 9), (21, 2), (4, 8), (35, 3), (240, 5), (24, 4), (62, 10), (84, 7), (155, 5), (208, 9), (213, 5), (139, 9), (206, 9), (161, 9), (118, 9), (37, 2), (26, 1)]
148	1	2	8	33	[(175, 7), (134, 0), (77, 8), (174, 1), (208, 4), (95, 2), (104, 3), (96, 7), (19, 4), (5, 2), (209, 1), (92, 1), (230, 6), (109, 5), (44, 0), (39, 6), (228, 7), (72, 5), (145, 4), (26, 3), (163, 5), (210, 0), (16, 10), (102, 5), (110, 7), (165, 0), (73, 7), (120, 6), (155, 0), (101, 8), (68, 5), (157, 4), (159, 4)]
149	12	1	2	37	[(71, 10), (175, 2), (148, 0), (57, 1), (115, 9), (229, 5), (212, 6), (185, 10), (243, 2), (193, 4), (133, 2), (226, 6), (187, 2), (208, 4), (241, 7), (124, 1), (146, 0), (129, 2), (152, 4), (79, 3), (9, 1), (143, 10), (211, 7), (31, 7), (238, 9), (153, 5), (24, 3), (112, 4), (32, 0), (136, 8), (103, 5), (53, 10), (237, 7), (107, 5), (177, 5), (127, 10), (132, 1)]
150	2	1	8	30	[(155, 4), (73, 6), (204, 0), (171, 9), (56, 4), (134, 10), (146, 1), (59, 0), (201, 9), (184, 4), (161, 3), (14, 0), (17, 7), (18, 3), (223, 10), (98, 0), (139, 10), (115, 1), (175, 9), (42, 8), (168, 9), (58, 8), (172, 4), (195, 2), (136, 7), (210, 6), (230, 9), (187, 2), (15, 9), (7, 10)]
151	2	2	8	45	[(102, 0), (37, 7), (198, 0), (22, 4), (67, 10), (216, 7), (71, 9), (16, 9), (152, 10), (215, 6), (229, 0), (89, 0), (139, 5), (56, 5), (92, 1), (181, 3), (217, 5), (145, 10), (196, 10), (5, 3), (247, 10), (47, 8), (170, 0), (151, 10), (134, 4), (235, 7), (242, 8), (49, 0), (207, 6), (100, 2), (200, 5), (19, 7), (182, 8), (188, 6), (197, 4), (21, 8), (249, 7), (41, 1), (150, 3), (233, 6), (128, 0), (210, 4), (76, 9), (82, 3), (250, 9)]
152	2	1	8	22	[(44, 1), (58, 3), (33, 5), (227, 8), (204, 4), (13, 10), (165, 1), (127, 0), (39, 2), (117, 0), (122, 1), (78, 1), (199, 0), (89, 0), (81, 8), (174, 8), (118, 3), (187, 1), (196, 0), (54, 4), (32, 4), (248, 1)]
153	3	1	8	34	[(144, 9), (48, 3), (146, 6), (219, 1), (138, 4), (62, 8), (90, 0), (82, 2), (162, 9), (221, 2), (204, 10), (178, 2), (208, 5), (86, 6), (97, 8), (24, 1), (59, 8), (77, 1), (227, 3), (94, 10), (13, 9), (169, 6), (80, 7), (8, 8), (93, 7), (121, 3), (92, 6), (148, 8), (185, 5), (242, 10), (2, 2), (111, 4), (119, 7), (40, 4)]
154	1	5	8	35	[(168, 0), (138, 3), (95, 10), (45, 2), (147, 0), (83, 4), (123, 2), (153, 3), (212, 6), (91, 9), (70, 7), (103, 2), (119, 4), (87, 2), (225, 5), (150, 6), (230, 7), (53, 5), (124, 3), (52, 10), (92, 7), (112, 3), (244, 5), (104, 2), (33, 10), (156, 4), (108, 9), (81, 8), (121, 5), (19, 10), (74, 5), (149, 8), (94, 0), (96, 8), (192, 8)]
155	2	1	1	36	[(220, 4), (98, 3), (65, 2), (7, 2), (60, 6), (247, 4), (224, 9), (38, 10), (208, 3), (1, 10), (52, 6), (111, 4), (192, 1), (53, 10), (87, 9), (228, 7), (147, 6), (40, 9), (133, 6), (165, 2), (131, 10), (144, 4), (236, 8), (189, 3), (191, 4), (57, 3), (244, 2), (88, 6), (164, 10), (250, 1), (231, 6), (102, 6), (45, 6), (234, 10), (69, 8), (153, 4)]
156	2	1	8	38	[(138, 5), (1, 7), (214, 8), (164, 4), (228, 6), (47, 6), (134, 1), (198, 5), (173, 1), (32, 2), (223, 1), (132, 2), (137, 1), (199, 9), (189, 1), (54, 3), (154, 8), (196, 3), (62, 0), (179, 4), (141, 0), (167, 2), (206, 10), (249, 0), (39, 4), (246, 8), (81, 6), (120, 8), (183, 0), (250, 9), (7, 9), (46, 2), (125, 1), (96, 4), (190, 4), (59, 5), (140, 8), (121, 4)]
157	1	1	36	32	[(135, 1), (167, 2), (219, 7), (109, 9), (81, 6), (152, 2), (235, 4), (67, 7), (26, 10), (248, 0), (74, 6), (162, 9), (38, 10), (151, 10), (188, 1), (144, 2), (11, 2), (36, 4), (56, 0), (6, 2), (103, 0), (224, 0), (240, 0), (148, 7), (155, 6), (142, 8), (37, 0), (12, 4), (246, 1), (69, 8), (106, 5), (24, 2)]
158	1	1	8	31	[(60, 9), (47, 3), (208, 9), (61, 2), (99, 10), (206, 9), (242, 4), (76, 4), (81, 2), (15, 4), (69, 5), (124, 2), (151, 7), (158, 1), (13, 10), (185, 10), (237, 4), (167, 6), (234, 1), (227, 1), (11, 9), (168, 0), (245, 1), (109, 2), (181, 1), (4, 7), (218, 0), (1, 3), (41, 5), (216, 9), (155, 8)]
159	5	1	8	27	[(157, 3), (57, 6), (65, 4), (16, 10), (133, 8), (73, 4), (52, 4), (139, 9), (241, 7), (86, 7), (249, 5), (27, 7), (122, 6), (223, 10), (107, 9), (217, 7), (208, 6), (186, 2), (232, 1), (64, 4), (34, 8), (99, 5), (195, 4), (58, 1), (165, 0), (11, 7), (88, 8)]
160	5	1	8	24	[(204, 10), (169, 9), (143, 7), (47, 3), (145, 4), (43, 2), (245, 10), (219, 7), (237, 2), (102, 3), (220, 8), (58, 1), (79, 5), (180, 0), (165, 8), (35, 6), (176, 5), (8, 10), (212, 3), (68, 9), (235, 2), (173, 10), (90, 9), (201, 5)]
161	2	1	8	33	[(196, 1), (235, 6), (80, 1), (146, 5), (93, 9), (181, 9), (81, 9), (199, 5), (138, 7), (172, 6), (217, 10), (40, 5), (77, 6), (194, 3), (215, 1), (168, 10), (227, 3), (202, 6), (178, 4), (173, 2), (63, 1), (37, 10), (49, 5), (150, 10), (22, 6), (55, 6), (36, 6), (53, 7), (28, 4), (5, 2), (200, 7), (151, 8), (112, 4)]
162	2	1	8	28	[(55, 1), (192, 7), (58, 3), (95, 10), (117, 4), (184, 3), (149, 9), (241, 2), (57, 2), (45, 6), (50, 0), (105, 5), (77, 2), (153, 9), (206, 3), (30, 4), (25, 9), (233, 8), (36, 8), (98, 8), (205, 7), (167, 7), (178, 8), (187, 0), (170, 5), (165, 1), (16, 2), (13, 9)]
163	3	1	8	31	[(194, 4), (244, 9), (200, 10), (237, 4), (90, 0), (95, 10), (85, 3), (165, 10), (84, 7), (24, 1), (39, 2), (149, 10), (206, 0), (214, 2), (250, 0), (158, 2), (13, 2), (34, 7), (113, 10), (67, 6), (62, 10), (71, 10), (152, 8), (170, 3), (83, 4), (204, 4), (105, 0), (28, 9), (177, 5), (248, 0), (142, 6)]
164	5	1	8	36	[(165, 8), (143, 4), (162, 6), (248, 4), (134, 0), (42, 3), (9, 9), (40, 2), (62, 8), (68, 9), (86, 4), (14, 5), (179, 1), (224, 6), (180, 9), (57, 6), (38, 9), (118, 4), (67, 1), (11, 10), (131, 10), (140, 10), (167, 6), (121, 7), (151, 1), (156, 9), (56, 4), (194, 4), (15, 0), (249, 8), (78, 1), (85, 9), (128, 4), (196, 4), (241, 5), (235, 0)]
165	1	2	8	33	[(162, 6), (18, 8), (180, 5), (22, 10), (189, 9), (25, 4), (138, 8), (90, 10), (198, 0), (103, 10), (82, 0), (64, 1), (229, 9), (165, 4), (226, 1), (140, 3), (50, 6), (3, 9), (238, 5), (48, 7), (68, 5), (92, 2), (201, 0), (67, 6), (142, 9), (5, 7), (168, 0), (183, 8), (188, 6), (79, 6), (117, 7), (65, 0), (47, 8)]
166	1	1	8	37	[(20, 8), (141, 7), (118, 5), (39, 2), (231, 5), (146, 4), (83, 1), (34, 6), (77, 7), (213, 4), (8, 2), (43, 10), (66, 2), (24, 6), (37, 4), (30, 7), (122, 2), (99, 5), (167, 10), (80, 2), (164, 1), (1, 9), (234, 2), (54, 0), (25, 10), (250, 10), (79, 6), (149, 9), (224, 4), (126, 5), (33, 1), (40, 10), (205, 4), (241, 4), (245, 0), (212, 1), (120, 7)]
167	5	1	1	29	[(188, 8), (88, 4), (213, 6), (89, 2), (118, 3), (35, 4), (41, 4), (19, 6), (157, 5), (200, 4), (185, 8), (192, 0), (71, 7), (30, 5), (183, 4), (56, 5), (173, 4), (146, 3), (138, 4), (83, 1), (115, 8), (28, 6), (145, 0), (1, 7), (66, 2), (238, 3), (10, 0), (167, 8), (135, 1)]
168	4	1	8	28	[(43, 4), (126, 5), (183, 1), (67, 5), (153, 2), (211, 0), (219, 5), (27, 3), (79, 8), (129, 5), (214, 6), (119, 9), (105, 2), (4, 0), (127, 2), (81, 2), (110, 0), (178, 0), (220, 2), (122, 8), (206, 7), (212, 6), (155, 8), (30, 10), (101, 0), (125, 5), (46, 8), (64, 8)]
169	2	4	3	35	[(156, 9), (196, 1), (165, 2), (7, 5), (134, 0), (106, 4), (229, 10), (193, 7), (112, 3), (99, 1), (195, 2), (208, 5), (85, 2), (179, 3), (100, 4), (111, 6), (16, 8), (161, 0), (64, 7), (18, 5), (34, 9), (31, 1), (116, 0), (151, 8), (241, 6), (5, 9), (68, 5), (147, 9), (163, 9), (183, 4), (188, 7), (172, 10), (201, 9), (162, 9), (137, 4)]
170	1	3	8	39	[(160, 4), (130, 5), (78, 9), (34, 1), (80, 9), (116, 5), (156, 8), (200, 10), (196, 7), (250, 2), (194, 1), (215, 7), (67, 6), (52, 1), (68, 1), (69, 8), (152, 2), (88, 3), (178, 2), (202, 5), (129, 1), (54, 10), (242, 0), (36, 5), (7, 0), (159, 9), (132, 2), (70, 6), (248, 4), (25, 4), (93, 2), (39, 0), (42, 10), (227, 1), (97, 7), (243, 8), (182, 7), (124, 9), (40, 2)]
171	2	1	8	29	[(19, 5), (183, 8), (118, 10), (98, 5), (46, 5), (18, 5), (202, 8), (150, 7), (34, 6), (165, 0), (191, 6), (152, 9), (241, 2), (142, 8), (56, 9), (81, 0), (86, 0), (101, 5), (14, 2), (60, 9), (205, 1), (248, 2), (157, 2), (58, 2), (147, 5), (175, 4), (111, 5), (72, 3), (181, 0)]
172	5	1	8	35	[(51, 10), (55, 9), (97, 4), (25, 0), (23, 7), (158, 2), (152, 0), (57, 0), (3, 3), (9, 3), (52, 3), (43, 5), (249, 7), (31, 2), (10, 8), (19, 0), (21, 10), (171, 6), (29, 10), (76, 7), (193, 5), (184, 3), (136, 6), (201, 9), (194, 6), (131, 10), (47, 2), (200, 1), (141, 0), (37, 8), (224, 5), (239, 0), (86, 8), (156, 1), (148, 3)]
173	2	2	8	25	[(78, 2), (108, 5), (240, 6), (19, 1), (6, 5), (175, 2), (155, 2), (8, 4), (132, 9), (131, 6), (85, 2), (83, 2), (48, 7), (5, 2), (33, 4), (77, 8), (223, 1), (199, 4), (10, 5), (79, 9), (114, 7), (158, 7), (24, 3), (125, 5), (146, 3)]
174	1	3	8	46	[(186, 8), (116, 3), (115, 3), (80, 5), (109, 3), (28, 1), (131, 7), (25, 7), (210, 1), (163, 4), (24, 5), (118, 5), (42, 4), (193, 9), (94, 2), (159, 5), (162, 7), (134, 4), (184, 3), (160, 9), (242, 1), (20, 7), (35, 4), (121, 3), (205, 4), (243, 3), (8, 1), (232, 3), (209, 6), (14, 7), (164, 0), (172, 4), (46, 5), (33, 9), (111, 5), (48, 8), (155, 6), (212, 6), (47, 7), (18, 8), (206, 10), (114, 6), (218, 5), (170, 7), (231, 3), (219, 2)]
175	2	1	8	32	[(235, 10), (231, 1), (202, 6), (193, 3), (208, 5), (62, 10), (116, 7), (115, 3), (244, 3), (57, 9), (175, 8), (35, 2), (102, 7), (207, 10), (79, 4), (100, 5), (158, 9), (4, 7), (146, 7), (168, 10), (157, 3), (52, 8), (169, 8), (41, 6), (68, 4), (144, 6), (32, 9), (137, 3), (141, 3), (12, 1), (150, 6), (109, 5)]
176	3	1	8	34	[(40, 9), (66, 3), (240, 6), (145, 8), (35, 6), (57, 2), (34, 8), (158, 1), (249, 6), (108, 4), (119, 8), (31, 3), (236, 7), (170, 3), (76, 7), (74, 4), (94, 0), (217, 7), (16, 1), (163, 10), (73, 7), (75, 9), (67, 8), (91, 9), (11, 5), (103, 2), (231, 5), (208, 3), (166, 3), (54, 1), (134, 5), (135, 1), (131, 5), (165, 4)]
177	3	4	8	30	[(185, 9), (218, 7), (165, 5), (18, 7), (194, 6), (42, 1), (177, 10), (59, 0), (15, 3), (22, 4), (200, 2), (115, 10), (93, 1), (195, 4), (2, 10), (248, 3), (49, 2), (124, 2), (54, 10), (70, 9), (206, 4), (175, 7), (166, 7), (132, 9), (66, 8), (57, 4), (245, 3), (234, 0), (152, 2), (121, 1)]
178	2	1	8	43	[(237, 6), (4, 5), (125, 8), (82, 3), (108, 3), (197, 1), (226, 7), (146, 9), (24, 1), (78, 3), (72, 2), (140, 6), (248, 5), (23, 10), (99, 0), (132, 7), (133, 4), (8, 0), (83, 3), (75, 10), (26, 8), (116, 7), (228, 1), (174, 3), (170, 4), (98, 6), (181, 0), (168, 6), (13, 6), (7, 8), (204, 1), (216, 5), (227, 6), (207, 8), (12, 9), (56, 3), (171, 10), (219, 3), (52, 3), (131, 8), (127, 10), (101, 5), (246, 10)]
179	2	1	1	32	[(44, 8), (96, 10), (180, 8), (161, 5), (160, 7), (49, 1), (57, 3), (158, 0), (146, 5), (143, 6), (185, 2), (182, 0), (145, 2), (58, 3), (168, 2), (73, 6), (79, 0), (48, 10), (194, 7), (39, 3), (102, 10), (98, 2), (113, 6), (157, 1), (134, 6), (183, 10), (243, 10), (22, 8), (138, 4), (187, 0), (201, 9), (233, 6)]
180	2	1	8	34	[(17, 5), (140, 1), (188, 3), (217, 5), (82, 1), (239, 4), (15, 5), (198, 0), (117, 3), (118, 6), (78, 3), (164, 3), (156, 2), (171, 3), (65, 4), (220, 7), (222, 0), (178, 10), (74, 6), (97, 10), (77, 2), (196, 10), (57, 4), (165, 5), (247, 8), (58, 8), (14, 8), (11, 4), (61, 2), (64, 5), (141, 7), (2, 6), (149, 7), (71, 9)]
181	2	1	8	30	[(225, 10), (124, 1), (245, 3), (106, 7), (210, 6), (4, 5), (39, 5), (160, 8), (189, 10), (31, 2), (65, 0), (68, 6), (141, 4), (204, 9), (37, 2), (48, 5), (104, 7), (209, 7), (181, 7), (185, 4), (196, 2), (97, 10), (157, 9), (26, 2), (138, 0), (115, 5), (52, 0), (169, 3), (33, 3), (69, 1)]
182	5	6	8	34	[(85, 5), (196, 3), (161, 8), (239, 8), (122, 5), (127, 0), (199, 8), (9, 5), (61, 1), (143, 9), (133, 1), (14, 10), (22, 0), (109, 0), (181, 5), (152, 3), (241, 0), (100, 7), (185, 0), (35, 5), (101, 7), (95, 0), (45, 5), (7, 4), (44, 0), (54, 2), (167, 5), (99, 0), (142, 1), (250, 8), (145, 3), (117, 8), (193, 1), (91, 8)]
183	1	1	8	24	[(96, 9), (41, 10), (208, 5), (133, 2), (197, 3), (102, 5), (38, 1), (221, 5), (123, 5), (7, 3), (73, 3), (53, 4), (192, 5), (231, 10), (58, 7), (249, 0), (234, 9), (183, 1), (67, 2), (205, 8), (109, 5), (176, 4), (24, 4), (68, 1)]
184	2	1	2	28	[(38, 2), (222, 6), (131, 7), (92, 9), (45, 2), (79, 4), (198, 3), (199, 6), (168, 7), (173, 1), (64, 6), (227, 5), (195, 2), (193, 6), (114, 1), (55, 7), (140, 10), (40, 6), (94, 10), (16, 10), (99, 5), (103, 4), (190, 4), (10, 1), (123, 10), (245, 1), (217, 6), (91, 8)]
185	25	1	8	29	[(183, 3), (94, 8), (44, 8), (132, 1), (246, 3), (237, 2), (65, 10), (242, 7), (205, 2), (61, 1), (197, 5), (96, 1), (146, 7), (111, 1), (204, 10), (170, 2), (43, 7), (206, 4), (91, 4), (211, 3), (229, 2), (52, 2), (194, 3), (39, 9), (200, 3), (243, 1), (169, 8), (155, 6), (190, 4)]
186	2	1	4	34	[(114, 7), (202, 10), (79, 0), (94, 9), (16, 6), (145, 10), (90, 4), (25, 4), (151, 8), (34, 4), (91, 3), (2, 10), (112, 6), (203, 6), (241, 8), (49, 0), (22, 2), (116, 10), (53, 0), (61, 7), (184, 8), (178, 8), (140, 2), (243, 5), (179, 4), (143, 7), (189, 8), (45, 2), (149, 7), (117, 2), (156, 8), (12, 5), (177, 9), (159, 1)]
187	20	1	8	25	[(208, 8), (165, 6), (59, 9), (195, 1), (32, 3), (239, 4), (107, 9), (237, 10), (19, 8), (217, 8), (168, 0), (95, 0), (114, 4), (100, 5), (7, 0), (242, 8), (48, 0), (67, 0), (22, 9), (188, 7), (163, 9), (109, 7), (24, 8), (187, 1), (4, 8)]
188	1	1	2	34	[(72, 8), (140, 4), (121, 0), (21, 7), (48, 1), (100, 10), (94, 2), (221, 0), (155, 3), (84, 1), (113, 9), (238, 8), (105, 8), (91, 2), (32, 1), (112, 7), (171, 3), (138, 2), (14, 3), (143, 2), (211, 3), (74, 5), (220, 2), (154, 2), (202, 9), (243, 5), (141, 1), (125, 9), (99, 10), (46, 2), (160, 6), (249, 9), (203, 7), (158, 10)]
189	35	1	8	31	[(74, 2), (209, 1), (213, 9), (22, 7), (108, 10), (40, 10), (73, 1), (115, 1), (223, 6), (39, 1), (165, 9), (153, 5), (199, 5), (185, 10), (117, 5), (211, 10), (158, 6), (149, 9), (83, 4), (188, 3), (176, 5), (69, 7), (119, 0), (125, 4), (85, 2), (141, 9), (226, 8), (10, 8), (35, 7), (147, 4), (45, 8)]
190	4	1	16	25	[(167, 1), (104, 5), (29, 10), (125, 2), (124, 4), (27, 5), (162, 3), (52, 6), (156, 0), (1, 6), (59, 1), (215, 5), (244, 6), (9, 0), (12, 2), (189, 5), (25, 0), (117, 8), (57, 10), (212, 8), (136, 3), (81, 7), (78, 6), (170, 3), (88, 0)]
191	3	1	5	35	[(113, 3), (105, 3), (36, 9), (106, 9), (108, 4), (42, 6), (93, 6), (1, 8), (174, 8), (107, 8), (202, 4), (221, 3), (70, 2), (15, 1), (231, 4), (34, 9), (118, 8), (187, 2), (4, 10), (25, 8), (109, 1), (92, 1), (87, 2), (247, 5), (89, 0), (167, 1), (208, 9), (228, 4), (13, 0), (55, 1), (215, 0), (152, 5), (35, 9), (26, 7), (33, 6)]
192	4	1	1	30	[(204, 10), (29, 0), (154, 3), (214, 9), (217, 9), (102, 2), (42, 6), (32, 10), (166, 9), (243, 8), (56, 10), (127, 0), (64, 1), (74, 9), (212, 8), (11, 10), (209, 4), (78, 6), (222, 6), (15, 2), (145, 3), (20, 0), (121, 0), (175, 2), (237, 4), (76, 3), (218, 8), (40, 7), (226, 1), (143, 7)]
193	1	1	7	32	[(134, 6), (21, 3), (20, 10), (158, 2), (35, 4), (153, 8), (164, 0), (141, 10), (170, 5), (213, 7), (130, 10), (165, 6), (32, 9), (88, 3), (30, 6), (15, 7), (37, 3), (48, 5), (115, 4), (232, 0), (203, 8), (217, 9), (198, 10), (14, 2), (5, 5), (39, 1), (118, 10), (12, 5), (243, 8), (122, 1), (175, 4), (161, 7)]
194	2	4	8	26	[(125, 7), (205, 0), (165, 4), (79, 8), (152, 7), (95, 3), (240, 10), (70, 8), (126, 10), (108, 0), (122, 10), (224, 4), (123, 3), (219, 8), (185, 9), (160, 10), (197, 0), (241, 10), (145, 4), (2, 10), (174, 8), (54, 6), (20, 9), (28, 0), (151, 10), (116, 5)]
195	1	1	2	33	[(124, 5), (120, 2), (171, 7), (113, 7), (85, 6), (21, 9), (236, 7), (107, 1), (99, 6), (227, 5), (15, 3), (5, 1), (65, 6), (104, 7), (37, 1), (137, 8), (176, 2), (102, 7), (12, 5), (76, 8), (133, 10), (86, 8), (196, 6), (198, 1), (149, 5), (98, 0), (233, 2), (242, 9), (14, 0), (48, 9), (11, 9), (140, 7), (167, 8)]
196	7	6	8	22	[(115, 8), (46, 0), (159, 8), (189, 10), (63, 6), (118, 5), (137, 8), (199, 3), (134, 8), (195, 10), (147, 2), (142, 1), (177, 4), (92, 6), (143, 4), (26, 3), (204, 6), (34, 4), (19, 10), (107, 2), (95, 2), (155, 5)]
197	1	1	10	36	[(177, 5), (248, 6), (39, 1), (178, 5), (56, 6), (104, 8), (51, 5), (218, 0), (64, 1), (34, 9), (70, 9), (10, 6), (100, 6), (247, 10), (204, 9), (59, 7), (25, 9), (188, 9), (36, 7), (243, 1), (167, 9), (176, 10), (96, 6), (133, 9), (22, 9), (152, 9), (244, 10), (242, 2), (38, 0), (191, 0), (193, 3), (180, 2), (83, 8), (84, 1), (26, 3), (82, 2)]
198	1	6	8	33	[(181, 6), (100, 5), (226, 8), (96, 7), (124, 0), (18, 10), (159, 3), (99, 4), (232, 10), (135, 10), (92, 6), (90, 2), (1, 9), (6, 7), (216, 5), (223, 0), (185, 10), (220, 9), (126, 5), (61, 9), (17, 6), (67, 4), (40, 2), (145, 2), (22, 2), (192, 9), (231, 4), (20, 1), (147, 1), (128, 2), (81, 0), (74, 4), (2, 3)]
199	3	12	2	36	[(136, 0), (28, 8), (9, 8), (232, 6), (42, 10), (124, 4), (218, 6), (87, 8), (205, 4), (203, 7), (112, 10), (132, 9), (185, 3), (213, 8), (66, 8), (69, 9), (168, 10), (242, 10), (233, 9), (226, 10), (80, 5), (6, 0), (195, 8), (117, 2), (78, 5), (94, 0), (133, 8), (157, 8), (196, 3), (18, 0), (24, 7), (115, 3), (154, 3), (228, 3), (85, 2), (129, 7)]
200	1	1	8	26	[(236, 9), (226, 8), (147, 8), (172, 6), (118, 4), (13, 9), (129, 8), (128, 10), (173, 5), (23, 6), (211, 1), (107, 2), (228, 1), (227, 8), (179, 0), (155, 5), (62, 3), (144, 6), (93, 1), (145, 3), (239, 2), (117, 4), (19, 1), (77, 4), (216, 3), (8, 0)]
201	1	1	8	35	[(168, 1), (244, 2), (169, 9), (197, 5), (210, 5), (229, 0), (246, 10), (87, 4), (224, 5), (60, 6), (182, 7), (40, 6), (32, 4), (2, 3), (207, 10), (31, 8), (171, 9), (146, 1), (50, 10), (201, 5), (240, 4), (1, 1), (20, 9), (232, 4), (154, 4), (19, 7), (52, 3), (109, 7), (166, 1), (158, 9), (121, 8), (61, 7), (156, 1), (86, 6), (250, 4)]
202	2	2	8	43	[(198, 4), (92, 9), (131, 4), (242, 3), (227, 1), (197, 1), (53, 5), (196, 4), (47, 8), (3, 9), (118, 2), (188, 3), (193, 1), (34, 3), (68, 2), (35, 7), (139, 9), (233, 6), (191, 7), (42, 3), (212, 3), (105, 7), (94, 7), (63, 6), (40, 3), (238, 10), (173, 4), (187, 7), (199, 8), (143, 1), (228, 8), (192, 8), (36, 2), (194, 10), (113, 1), (195, 7), (159, 1), (23, 10), (128, 9), (237, 0), (6, 10), (202, 8), (87, 5)]
203	2	1	16	33	[(103, 4), (190, 1), (124, 10), (154, 0), (23, 6), (149, 1), (68, 2), (15, 0), (214, 6), (134, 1), (195, 1), (231, 3), (99, 3), (204, 6), (41, 10), (36, 5), (164, 8), (233, 5), (46, 5), (117, 6), (230, 5), (81, 2), (235, 2), (187, 9), (78, 10), (221, 9), (104, 5), (156, 7), (60, 2), (96, 1), (217, 3), (108, 0), (197, 9)]
204	12	1	32	41	[(18, 5), (111, 1), (54, 5), (218, 1), (221, 0), (154, 9), (196, 6), (55, 5), (8, 8), (127, 5), (42, 7), (5, 10), (151, 4), (108, 10), (50, 9), (166, 9), (98, 0), (62, 0), (21, 5), (181, 0), (34, 2), (58, 9), (120, 4), (200, 8), (180, 1), (94, 10), (233, 2), (90, 9), (16, 4), (198, 6), (9, 4), (73, 4), (38, 3), (6, 7), (139, 9), (32, 9), (177, 10), (188, 8), (209, 6), (156, 8), (97, 1)]
205	1	1	8	38	[(209, 3), (14, 0), (243, 9), (19, 2), (100, 3), (203, 2), (76, 6), (173, 5), (210, 3), (82, 2), (211, 9), (24, 10), (122, 9), (87, 9), (181, 4), (110, 2), (202, 0), (228, 1), (26, 8), (158, 4), (190, 8), (182, 8), (22, 1), (233, 5), (195, 1), (63, 10), (98, 1), (34, 1), (71, 4), (105, 9), (15, 9), (213, 5), (58, 6), (20, 4), (74, 0), (222, 3), (179, 0), (33, 1)]
206	2	2	16	36	[(85, 5), (99, 9), (245, 2), (123, 9), (237, 4), (38, 1), (25, 2), (211, 4), (92, 3), (107, 10), (1, 3), (118, 9), (31, 2), (227, 1), (6, 8), (204, 5), (140, 2), (138, 3), (195, 2), (122, 7), (60, 3), (64, 1), (215, 3), (63, 8), (80, 7), (149, 8), (7, 2), (4, 1), (115, 8), (34, 2), (21, 2), (98, 2), (243, 3), (48, 8), (217, 8), (79, 5)]
207	2	1	3	44	[(212, 5), (137, 4), (163, 4), (120, 2), (8, 0), (21, 5), (230, 5), (179, 0), (96, 8), (109, 0), (7, 0), (148, 2), (20, 2), (207, 3), (59, 3), (171, 4), (50, 6), (16, 4), (172, 9), (85, 3), (177, 2), (128, 0), (60, 1), (209, 6), (69, 6), (32, 0), (238, 6), (13, 3), (89, 1), (51, 8), (75, 5), (71, 8), (73, 2), (42, 0), (213, 2), (170, 1), (191, 1), (133, 0), (79, 7), (228, 0), (68, 8), (160, 7), (249, 5), (241, 5)]
208	2	1	8	20	[(157, 6), (21, 8), (221, 6), (34, 7), (206, 3), (48, 7), (174, 4), (176, 2), (89, 6), (208, 6), (5, 3), (224, 9), (96, 5), (55, 6), (70, 3), (177, 5), (143, 2), (193, 0), (125, 4), (114, 5)]
209	12	1	8	24	[(23, 1), (210, 1), (6, 5), (73, 8), (145, 7), (10, 6), (154, 1), (50, 8), (35, 5), (112, 0), (234, 0), (205, 5), (229, 6), (160, 5), (130, 7), (170, 4), (164, 3), (149, 4), (53, 2), (204, 0), (212, 9), (227, 8), (209, 4), (211, 10)]
210	2	4	8	28	[(118, 2), (108, 7), (73, 5), (19, 5), (149, 2), (176, 10), (116, 7), (143, 6), (53, 0), (16, 5), (236, 6), (115, 0), (180, 6), (42, 9), (153, 1), (121, 10), (213, 9), (139, 6), (82, 5), (189, 6), (182, 6), (217, 3), (154, 3), (67, 5), (1, 1), (86, 9), (13, 10), (89, 9)]
211	2	1	8	32	[(119, 1), (99, 7), (17, 2), (204, 5), (232, 0), (109, 8), (175, 0), (182, 1), (250, 4), (236, 6), (78, 8), (112, 3), (54, 1), (79, 7), (23, 2), (220, 0), (7, 4), (229, 3), (46, 8), (230, 9), (18, 9), (228, 8), (225, 10), (145, 6), (125, 10), (123, 1), (181, 8), (25, 6), (84, 1), (82, 7), (38, 6), (72, 1)]
212	4	1	8	40	[(1, 5), (61, 6), (186, 5), (222, 1), (235, 2), (117, 4), (41, 4), (183, 0), (241, 3), (9, 6), (180, 7), (101, 5), (159, 1), (229, 5), (206, 2), (10, 9), (111, 8), (80, 5), (102, 1), (89, 8), (239, 0), (126, 2), (156, 3), (58, 7), (92, 2), (198, 7), (168, 1), (119, 4), (27, 8), (218, 5), (195, 4), (15, 3), (157, 9), (75, 2), (66, 4), (238, 3), (83, 6), (110, 0), (192, 9), (139, 0)]
213	5	2	8	24	[(112, 10), (109, 1), (60, 6), (113, 4), (111, 0), (235, 0), (42, 10), (192, 8), (208, 9), (20, 0), (24, 3), (35, 8), (239, 4), (16, 0), (189, 7), (78, 6), (169, 9), (151, 5), (41, 8), (5, 2), (51, 7), (13, 5), (220, 8), (161, 3)]
214	3	1	16	30	[(135, 5), (217, 1), (91, 4), (19, 1), (87, 0), (94, 3), (65, 7), (74, 9), (2, 10), (239, 0), (99, 4), (1, 1), (41, 2), (161, 6), (214, 5), (134, 7), (76, 4), (171, 2), (62, 7), (88, 4), (117, 8), (163, 10), (92, 2), (140, 3), (34, 2), (202, 1), (173, 8), (244, 1), (4, 7), (71, 3)]
215	1	1	8	37	[(109, 2), (130, 6), (7, 8), (221, 8), (166, 0), (101, 3), (103, 1), (223, 10), (89, 7), (131, 3), (62, 2), (199, 7), (64, 4), (88, 1), (153, 7), (135, 9), (165, 0), (225, 6), (11, 1), (152, 10), (10, 7), (186, 3), (35, 8), (76, 5), (93, 8), (159, 10), (13, 4), (17, 1), (243, 5), (106, 4), (8, 0), (178, 7), (171, 4), (77, 0), (29, 3), (81, 9), (247, 6)]
216	2	1	8	31	[(7, 2), (55, 9), (129, 1), (243, 3), (115, 4), (246, 6), (245, 8), (52, 10), (92, 2), (189, 6), (117, 7), (29, 10), (123, 2), (91, 1), (203, 0), (241, 1), (202, 5), (17, 6), (121, 2), (85, 6), (48, 0), (159, 2), (6, 8), (8, 6), (138, 3), (155, 9), (67, 3), (18, 6), (12, 10), (22, 0), (44, 5)]
217	3	2	16	26	[(118, 6), (122, 10), (193, 6), (119, 1), (140, 7), (152, 4), (21, 4), (10, 1), (167, 6), (197, 7), (103, 6), (53, 9), (117, 4), (138, 1), (209, 10), (169, 9), (11, 5), (106, 1), (112, 4), (37, 9), (156, 2), (233, 8), (3, 7), (219, 5), (12, 2), (185, 2)]
218	4	1	8	27	[(93, 4), (197, 5), (98, 8), (86, 9), (227, 7), (113, 3), (29, 6), (126, 2), (149, 2), (42, 8), (8, 2), (128, 4), (50, 4), (88, 4), (173, 1), (48, 3), (77, 5), (35, 0), (203, 6), (18, 3), (100, 3), (102, 9), (232, 0), (63, 7), (119, 9), (151, 6), (145, 1)]
219	3	4	7	22	[(4, 9), (105, 2), (46, 7), (92, 7), (108, 1), (22, 9), (9, 3), (134, 7), (222, 6), (70, 7), (243, 7), (229, 1), (176, 3), (103, 9), (163, 8), (87, 9), (91, 5), (230, 5), (107, 2), (35, 9), (109, 5), (58, 2)]
220	2	1	8	29	[(217, 6), (154, 4), (7, 1), (231, 8), (159, 1), (147, 5), (30, 4), (54, 7), (151, 8), (240, 9), (61, 2), (248, 4), (13, 0), (59, 10), (246, 1), (84, 1), (149, 10), (19, 0), (116, 3), (87, 1), (138, 8), (115, 6), (99, 1), (249, 0), (215, 10), (28, 8), (2, 1), (171, 1), (173, 10)]
221	5	1	7	34	[(141, 10), (118, 7), (24, 1), (148, 1), (103, 6), (28, 0), (40, 7), (109, 5), (46, 3), (48, 1), (80, 2), (67, 5), (146, 5), (13, 10), (156, 4), (195, 5), (84, 2), (4, 8), (79, 10), (105, 10), (70, 5), (231, 1), (2, 4), (243, 4), (169, 8), (209, 10), (91, 3), (217, 1), (10, 2), (224, 2), (87, 2), (89, 10), (190, 4), (99, 0)]
222	1	1	8	32	[(24, 7), (130, 2), (107, 6), (140, 6), (200, 3), (22, 8), (94, 4), (10, 3), (188, 1), (21, 10), (209, 6), (222, 7), (52, 7), (80, 9), (62, 9), (9, 1), (240, 1), (234, 9), (215, 3), (216, 8), (15, 6), (184, 1), (70, 6), (31, 0), (45, 6), (246, 4), (242, 9), (18, 8), (5, 1), (133, 9), (193, 5), (12, 10)]
223	2	1	3	32	[(21, 4), (145, 2), (171, 3), (80, 10), (113, 9), (212, 7), (200, 5), (47, 0), (244, 4), (86, 10), (108, 10), (240, 0), (4, 4), (62, 4), (3, 5), (68, 3), (243, 3), (72, 3), (198, 6), (245, 7), (194, 7), (69, 9), (247, 0), (92, 6), (195, 8), (137, 5), (103, 4), (217, 6), (221, 9), (97, 2), (56, 4), (202, 8)]
224	1	1	1	35	[(104, 10), (36, 1), (66, 8), (201, 8), (210, 7), (188, 4), (249, 6), (153, 4), (59, 9), (6, 8), (179, 0), (64, 5), (152, 2), (91, 5), (125, 2), (143, 8), (21, 0), (93, 9), (218, 0), (115, 1), (189, 5), (33, 0), (95, 6), (35, 7), (154, 5), (194, 7), (236, 7), (63, 6), (27, 7), (31, 10), (16, 1), (43, 1), (114, 1), (128, 9), (102, 9)]
225	1	1	8	28	[(226, 5), (169, 0), (225, 8), (126, 9), (30, 6), (154, 5), (24, 5), (160, 0), (25, 6), (89, 6), (48, 10), (128, 0), (71, 6), (242, 3), (20, 4), (10, 10), (16, 10), (250, 4), (162, 3), (34, 7), (76, 8), (177, 7), (46, 8), (57, 1), (224, 7), (2, 3), (12, 5), (133, 10)]
226	2	1	8	37	[(111, 1), (125, 2), (218, 4), (122, 10), (199, 9), (198, 6), (119, 9), (189, 4), (91, 8), (30, 8), (169, 4), (220, 5), (134, 1), (59, 3), (168, 2), (14, 0), (44, 10), (87, 0), (129, 10), (98, 9), (205, 1), (146, 8), (113, 1), (154, 4), (147, 7), (12, 4), (104, 1), (200, 9), (69, 9), (156, 8), (142, 8), (246, 2), (123, 9), (8, 2), (237, 7), (167, 0), (184, 8)]
227	4	1	16	30	[(218, 7), (119, 10), (145, 3), (94, 7), (146, 7), (21, 2), (98, 10), (137, 4), (194, 10), (156, 0), (204, 1), (191, 9), (35, 5), (148, 10), (165, 3), (172, 9), (47, 3), (79, 3), (142, 10), (105, 9), (178, 8), (163, 5), (127, 8), (69, 0), (195, 0), (43, 0), (214, 0), (115, 6), (33, 5), (212, 0)]
228	2	1	8	39	[(221, 5), (68, 7), (137, 1), (196, 8), (93, 10), (15, 2), (214, 3), (39, 4), (64, 3), (73, 10), (25, 0), (218, 10), (209, 7), (170, 8), (103, 8), (181, 7), (97, 9), (184, 7), (32, 1), (124, 0), (198, 1), (40, 10), (7, 5), (18, 0), (144, 10), (33, 5), (24, 10), (142, 2), (29, 3), (235, 5), (28, 7), (100, 8), (77, 1), (182, 3), (166, 10), (246, 6), (190, 4), (186, 7), (240, 7)]
229	1	4	8	19	[(70, 5), (133, 2), (28, 2), (125, 3), (99, 5), (108, 7), (228, 10), (32, 5), (117, 2), (36, 5), (135, 2), (97, 7), (29, 2), (124, 9), (193, 0), (43, 0), (90, 0), (15, 9), (200, 2)]
230	1	2	8	38	[(33, 5), (84, 8), (139, 6), (121, 5), (160, 6), (8, 6), (144, 5), (119, 9), (150, 8), (159, 4), (64, 10), (42, 2), (196, 10), (228, 8), (147, 4), (74, 6), (197, 7), (194, 10), (102, 6), (109, 5), (178, 10), (83, 5), (183, 2), (250, 5), (190, 7), (116, 3), (87, 5), (30, 0), (182, 10), (151, 10), (53, 3), (211, 2), (157, 5), (122, 0), (176, 5), (232, 7), (204, 5), (207, 7)]
231	2	1	8	29	[(61, 5), (210, 2), (11, 4), (171, 8), (20, 5), (7, 9), (1, 8), (85, 1), (5, 1), (187, 5), (164, 6), (15, 5), (203, 9), (131, 10), (68, 7), (177, 9), (28, 2), (197, 9), (142, 10), (140, 0), (81, 5), (40, 1), (84, 4), (49, 9), (155, 3), (170, 10), (57, 5), (249, 0), (152, 0)]
232	1	1	11	35	[(226, 4), (81, 6), (69, 0), (128, 5), (18, 0), (64, 10), (183, 9), (201, 9), (175, 3), (70, 9), (144, 5), (173, 3), (62, 6), (207, 2), (242, 4), (19, 1), (227, 3), (122, 4), (43, 1), (85, 9), (51, 5), (225, 7), (160, 7), (123, 2), (179, 2), (246, 4), (118, 1), (241, 6), (238, 5), (137, 9), (75, 2), (157, 8), (126, 0), (231, 5), (243, 5)]
233	87	1	8	27	[(157, 7), (166, 6), (41, 3), (101, 2), (154, 2), (50, 2), (7, 7), (201, 2), (125, 8), (28, 6), (173, 0), (1, 10), (36, 1), (122, 4), (210, 1), (103, 9), (139, 8), (224, 4), (66, 9), (215, 4), (124, 1), (65, 3), (134, 8), (151, 6), (112, 6), (218, 4), (76, 3)]
234	1	4	8	34	[(204, 10), (66, 9), (6, 1), (39, 0), (100, 9), (17, 4), (37, 4), (5, 4), (93, 6), (98, 0), (176, 8), (158, 0), (63, 8), (171, 1), (240, 10), (52, 5), (114, 8), (193, 6), (110, 4), (28, 0), (87, 3), (231, 7), (179, 9), (244, 4), (163, 2), (80, 6), (16, 1), (150, 9), (226, 7), (15, 1), (10, 2), (106, 0), (155, 1), (145, 8)]
235	2	4	8	29	[(14, 6), (68, 4), (56, 10), (129, 6), (165, 9), (250, 1), (122, 10), (9, 2), (144, 6), (21, 9), (204, 5), (179, 1), (216, 0), (180, 7), (178, 3), (26, 5), (212, 0), (158, 8), (154, 9), (163, 4), (227, 10), (237, 7), (164, 5), (110, 10), (104, 2), (209, 5), (240, 7), (47, 9), (243, 1)]
236	13	1	8	32	[(72, 1), (74, 8), (194, 6), (246, 9), (6, 7), (89, 0), (75, 5), (178, 3), (27, 10), (152, 9), (236, 7), (164, 8), (62, 9), (71, 6), (151, 9), (114, 10), (155, 6), (22, 0), (49, 9), (113, 2), (10, 9), (220, 4), (136, 2), (109, 10), (169, 1), (206, 0), (90, 4), (12, 2), (20, 5), (201, 9), (77, 1), (205, 9)]
237	2	1	16	33	[(220, 3), (223, 3), (37, 1), (236, 1), (57, 4), (88, 7), (123, 1), (50, 9), (77, 8), (20, 6), (78, 7), (240, 1), (203, 6), (94, 2), (19, 3), (102, 4), (114, 0), (71, 8), (85, 0), (184, 4), (66, 9), (86, 7), (148, 4), (91, 8), (11, 1), (131, 0), (62, 8), (198, 5), (145, 7), (65, 8), (183, 7), (237, 6), (155, 10)]
238	2	1	8	34	[(153, 3), (138, 1), (243, 1), (136, 5), (238, 5), (127, 5), (109, 7), (122, 2), (236, 8), (98, 7), (4, 1), (102, 7), (187, 0), (198, 10), (121, 3), (31, 5), (111, 3), (117, 5), (44, 1), (200, 4), (242, 6), (38, 4), (66, 9), (97, 3), (172, 0), (157, 5), (151, 7), (3, 10), (188, 9), (104, 5), (43, 5), (28, 1), (45, 4), (108, 9)]
239	1	1	8	35	[(63, 2), (181, 4), (140, 8), (57, 5), (176, 5), (141, 5), (39, 8), (248, 3), (113, 6), (212, 6), (187, 0), (182, 5), (136, 8), (105, 7), (213, 0), (137, 7), (184, 2), (191, 5), (93, 2), (89, 0), (66, 6), (153, 3), (231, 2), (170, 5), (216, 4), (168, 7), (160, 0), (151, 8), (230, 3), (237, 3), (228, 6), (189, 10), (108, 8), (127, 5), (217, 2)]
240	5	4	8	37	[(183, 6), (26, 10), (232, 0), (125, 3), (109, 1), (153, 1), (223, 3), (54, 10), (35, 10), (224, 9), (81, 0), (70, 10), (195, 10), (14, 2), (19, 4), (6, 9), (194, 5), (2, 7), (210, 0), (250, 2), (243, 1), (144, 0), (130, 7), (86, 1), (61, 8), (132, 7), (21, 3), (171, 3), (112, 2), (69, 4), (8, 8), (202, 2), (137, 9), (1, 9), (241, 1), (156, 9), (131, 0)]
241	2	2	8	27	[(159, 7), (222, 7), (45, 6), (141, 10), (119, 4), (37, 5), (103, 1), (19, 10), (140, 6), (64, 0), (98, 0), (229, 2), (192, 10), (133, 0), (176, 9), (70, 8), (208, 6), (195, 6), (177, 2), (48, 10), (168, 8), (145, 8), (56, 4), (214, 3), (249, 7), (34, 0), (17, 9)]
242	4	1	8	29	[(51, 5), (80, 7), (33, 8), (91, 6), (146, 0), (20, 0), (82, 0), (50, 1), (237, 0), (21, 8), (193, 0), (234, 1), (120, 0), (119, 4), (236, 5), (31, 6), (171, 9), (187, 4), (75, 5), (200, 6), (153, 8), (158, 7), (52, 9), (111, 9), (220, 3), (229, 6), (64, 0), (188, 7), (18, 2)]
243	9	2	8	30	[(197, 4), (55, 1), (22, 2), (212, 0), (142, 9), (178, 3), (107, 8), (77, 3), (215, 1), (200, 0), (240, 3), (101, 7), (65, 0), (1, 8), (108, 3), (27, 3), (182, 4), (149, 10), (247, 5), (181, 9), (60, 2), (164, 5), (28, 4), (222, 0), (4, 5), (32, 0), (90, 7), (139, 1), (192, 8), (41, 2)]
244	1	1	2	33	[(55, 9), (22, 10), (91, 8), (18, 6), (224, 7), (124, 10), (27, 6), (221, 9), (24, 9), (26, 6), (90, 10), (188, 9), (61, 10), (140, 0), (229, 3), (189, 7), (115, 10), (12, 4), (41, 1), (230, 8), (98, 4), (235, 9), (141, 3), (48, 8), (239, 7), (176, 5), (149, 1), (218, 6), (151, 9), (46, 4), (198, 10), (178, 1), (82, 6)]
245	6	4	2	34	[(57, 5), (114, 3), (27, 3), (211, 9), (159, 0), (207, 3), (231, 2), (45, 6), (46, 8), (15, 9), (210, 1), (19, 6), (147, 8), (70, 4), (30, 2), (49, 10), (101, 10), (92, 8), (148, 7), (226, 8), (111, 2), (75, 7), (73, 8), (13, 6), (61, 3), (5, 6), (105, 2), (91, 7), (93, 5), (149, 2), (3, 7), (191, 3), (245, 9), (209, 4)]
246	3	1	8	32	[(10, 9), (72, 6), (35, 0), (142, 0), (183, 4), (180, 7), (47, 8), (103, 9), (84, 9), (65, 0), (110, 3), (206, 7), (136, 1), (71, 6), (190, 3), (87, 4), (97, 2), (199, 6), (60, 3), (102, 6), (165, 6), (19, 7), (50, 10), (194, 5), (207, 7), (211, 1), (242, 5), (151, 8), (95, 2), (49, 0), (172, 5), (228, 8)]
247	1	1	8	34	[(200, 7), (81, 0), (161, 2), (50, 1), (143, 0), (183, 8), (178, 5), (242, 8), (114, 4), (142, 9), (128, 6), (23, 6), (204, 4), (77, 3), (224, 1), (236, 10), (249, 6), (171, 6), (90, 5), (102, 7), (221, 9), (39, 5), (154, 4), (115, 7), (112, 4), (14, 8), (167, 9), (232, 4), (202, 10), (199, 7), (127, 8), (2, 7), (63, 4), (11, 1)]
248	1	3	8	24	[(154, 4), (43, 10), (200, 10), (52, 10), (150, 6), (201, 7), (107, 2), (123, 9), (7, 10), (17, 7), (23, 7), (164, 6), (85, 0), (67, 1), (243, 0), (10, 4), (26, 9), (222, 5), (238, 1), (112, 9), (78, 5), (94, 10), (190, 3), (193, 6)]
249	1	4	8	32	[(203, 0), (170, 7), (78, 8), (18, 3), (191, 2), (80, 1), (152, 2), (127, 2), (69, 2), (93, 6), (1, 1), (237, 8), (193, 4), (3, 4), (33, 9), (146, 9), (207, 5), (8, 1), (83, 1), (36, 6), (134, 1), (150, 8), (171, 0), (89, 4), (124, 5), (40, 8), (113, 10), (201, 9), (56, 1), (226, 9), (219, 5), (214, 9)]
250	2	1	8	40	[(15, 6), (37, 5), (212, 0), (162, 0), (199, 0), (241, 10), (93, 10), (112, 2), (197, 3), (205, 9), (231, 0), (124, 2), (87, 5), (208, 3), (20, 0), (26, 7), (248, 6), (239, 3), (79, 5), (108, 1), (100, 3), (23, 7), (175, 8), (133, 1), (181, 5), (165, 10), (109, 6), (143, 7), (3, 5), (198, 6), (43, 1), (193, 7), (38, 2), (243, 0), (191, 8), (41, 1), (118, 4), (67, 7), (9, 7), (189, 3)]
