app_id	nb_instances	core	memory	inter_degree	inter_aff
1	14	1	8	2	[(229, 10), (220, 5)]
2	33	1	8	1	[(212, 8)]
3	5	1	8	1	[(150, 6)]
4	1	1	8	1	[(168, 3)]
5	2	4	8	6	[(48, 5), (4, 4), (199, 4), (250, 1), (52, 6), (44, 1)]
6	10	2	2	2	[(52, 9), (205, 0)]
7	4	1	1	6	[(25, 10), (204, 10), (16, 7), (205, 3), (149, 1), (34, 6)]
8	4	1	8	3	[(109, 8), (104, 8), (198, 8)]
9	18	1	24	3	[(48, 4), (154, 0), (103, 0)]
10	8	1	2	1	[(242, 2)]
11	1	1	8	1	[(17, 10)]
12	4	1	8	3	[(209, 6), (211, 10), (68, 5)]
13	2	4	8	2	[(150, 6), (80, 1)]
14	5	3	8	2	[(49, 2), (45, 8)]
15	1	2	32	4	[(124, 1), (170, 1), (229, 4), (115, 4)]
16	2	1	8	1	[(21, 6)]
17	6	1	16	3	[(185, 4), (180, 8), (249, 8)]
18	2	1	16	3	[(7, 1), (228, 2), (105, 4)]
19	38	1	8	1	[(144, 8)]
20	2	1	8	4	[(85, 4), (51, 5), (200, 5), (24, 0)]
21	2	1	8	1	[(179, 5)]
22	1	1	2	3	[(11, 2), (96, 6), (66, 2)]
23	2	1	8	3	[(246, 2), (165, 6), (116, 1)]
24	2	11	10	0	[]
25	2	1	8	4	[(93, 0), (195, 9), (106, 6), (137, 2)]
26	5	6	8	1	[(160, 8)]
27	1	1	8	2	[(231, 7), (130, 9)]
28	1	4	8	3	[(19, 9), (16, 7), (177, 2)]
29	28	1	8	1	[(247, 1)]
30	2	1	2	6	[(67, 9), (33, 1), (143, 10), (7, 10), (13, 9), (62, 10)]
31	3	1	8	2	[(219, 1), (17, 9)]
32	3	1	16	1	[(176, 1)]
33	2	2	8	2	[(75, 8), (63, 8)]
34	51	1	8	3	[(46, 9), (215, 9), (90, 7)]
35	9	1	8	5	[(69, 4), (37, 2), (171, 5), (199, 1), (54, 7)]
36	2	1	8	0	[]
37	1	1	8	4	[(172, 8), (34, 3), (104, 7), (235, 9)]
38	5	3	8	2	[(6, 5), (66, 6)]
39	1	1	7	4	[(86, 8), (194, 3), (39, 5), (2, 4)]
40	3	5	8	3	[(206, 3), (248, 6), (204, 5)]
41	16	1	8	3	[(42, 6), (66, 1), (31, 9)]
42	3	1	8	1	[(59, 3)]
43	20	2	8	6	[(130, 10), (51, 4), (186, 7), (58, 0), (81, 6), (238, 9)]
44	1	2	16	5	[(125, 5), (88, 4), (70, 3), (68, 5), (73, 8)]
45	3	1	8	4	[(16, 7), (97, 0), (130, 7), (6, 3)]
46	20	1	8	2	[(247, 7), (167, 2)]
47	2	1	8	1	[(162, 10)]
48	2	1	8	4	[(101, 1), (213, 6), (29, 1), (187, 8)]
49	2	4	8	1	[(8, 8)]
50	1	4	8	3	[(113, 10), (239, 10), (78, 8)]
51	2	1	10	5	[(59, 0), (129, 8), (164, 3), (228, 5), (79, 7)]
52	1	1	8	2	[(13, 0), (212, 7)]
53	70	1	16	3	[(196, 2), (14, 3), (37, 0)]
54	16	1	8	2	[(230, 10), (232, 2)]
55	2	1	8	1	[(60, 6)]
56	1	1	8	3	[(189, 6), (195, 1), (162, 6)]
57	3	2	8	0	[]
58	2	1	1	2	[(106, 2), (154, 6)]
59	4	1	8	0	[]
60	3	1	8	3	[(112, 7), (74, 9), (181, 6)]
61	18	3	8	2	[(220, 3), (27, 0)]
62	2	1	5	4	[(180, 0), (139, 10), (69, 9), (208, 4)]
63	32	2	8	2	[(152, 9), (229, 10)]
64	18	1	8	3	[(165, 4), (147, 0), (110, 6)]
65	6	1	8	2	[(18, 0), (67, 8)]
66	4	1	8	2	[(128, 3), (87, 0)]
67	8	1	8	1	[(250, 8)]
68	2	1	8	0	[]
69	5	1	12	1	[(173, 2)]
70	19	1	8	3	[(30, 3), (238, 6), (133, 9)]
71	3	1	8	0	[]
72	2	2	8	2	[(212, 0), (38, 9)]
73	23	1	8	1	[(13, 4)]
74	1	1	8	1	[(92, 5)]
75	282	1	8	1	[(165, 6)]
76	3	1	8	4	[(189, 2), (1, 6), (51, 3), (202, 5)]
77	1	2	1	3	[(174, 6), (16, 1), (217, 7)]
78	1	1	16	1	[(103, 7)]
79	16	1	8	2	[(46, 3), (77, 2)]
80	14	1	16	2	[(10, 8), (8, 9)]
81	1	5	8	2	[(104, 5), (112, 1)]
82	1	1	8	4	[(158, 7), (212, 7), (74, 5), (80, 1)]
83	1	4	2	1	[(23, 3)]
84	2	1	1	5	[(46, 5), (93, 3), (205, 2), (91, 0), (233, 10)]
85	124	3	8	1	[(174, 2)]
86	2	1	2	2	[(109, 2), (60, 0)]
87	2	1	2	3	[(62, 4), (231, 10), (246, 9)]
88	1	6	8	4	[(2, 9), (149, 2), (21, 8), (219, 0)]
89	8	1	16	2	[(27, 1), (116, 2)]
90	1	1	32	1	[(28, 6)]
91	2	1	8	1	[(58, 3)]
92	1	1	8	3	[(179, 8), (42, 5), (173, 6)]
93	2	1	8	2	[(68, 3), (190, 3)]
94	2	1	8	1	[(16, 1)]
95	1	4	8	4	[(204, 4), (49, 10), (55, 8), (232, 1)]
96	1	1	8	4	[(138, 0), (231, 0), (105, 3), (121, 0)]
97	2	1	2	4	[(234, 2), (195, 3), (12, 9), (110, 8)]
98	2	6	8	3	[(98, 6), (172, 2), (184, 10)]
99	3	1	8	3	[(66, 7), (197, 4), (44, 9)]
100	3	5	8	3	[(110, 9), (214, 7), (176, 7)]
101	2	1	16	3	[(81, 8), (195, 5), (19, 1)]
102	1	6	8	3	[(153, 2), (98, 4), (221, 7)]
103	1	1	8	0	[]
104	6	1	8	4	[(227, 10), (97, 4), (163, 1), (231, 5)]
105	6	1	8	2	[(209, 6), (13, 10)]
106	3	1	8	2	[(160, 8), (131, 8)]
107	1	5	7	5	[(121, 7), (168, 3), (68, 1), (106, 10), (92, 8)]
108	1	1	16	5	[(132, 6), (221, 3), (21, 3), (153, 1), (50, 9)]
109	39	4	16	3	[(196, 9), (78, 3), (72, 1)]
110	3	1	8	6	[(115, 2), (44, 3), (215, 7), (250, 2), (165, 7), (88, 6)]
111	2	4	8	3	[(97, 1), (117, 3), (65, 7)]
112	4	1	8	3	[(167, 2), (93, 0), (197, 3)]
113	9	1	8	1	[(108, 5)]
114	21	1	8	2	[(35, 0), (8, 7)]
115	2	2	8	3	[(14, 8), (56, 6), (59, 7)]
116	2	1	8	2	[(239, 1), (60, 9)]
117	2	2	8	5	[(238, 6), (86, 7), (54, 3), (18, 10), (120, 2)]
118	1	1	8	1	[(36, 6)]
119	1	1	8	3	[(200, 5), (52, 5), (152, 7)]
120	1	1	2	3	[(229, 9), (159, 8), (63, 1)]
121	5	1	8	3	[(72, 9), (230, 6), (26, 4)]
122	2	4	8	7	[(14, 4), (207, 4), (223, 8), (128, 4), (84, 1), (107, 4), (106, 7)]
123	2	1	2	1	[(199, 5)]
124	2	1	8	1	[(142, 4)]
125	2	1	2	3	[(9, 8), (37, 4), (178, 1)]
126	14	2	8	2	[(225, 2), (108, 0)]
127	1	1	8	2	[(239, 8), (144, 6)]
128	1	12	8	4	[(200, 8), (189, 3), (218, 10), (196, 10)]
129	3	3	1	1	[(178, 1)]
130	1	1	6	2	[(78, 6), (103, 8)]
131	4	2	8	2	[(99, 9), (218, 4)]
132	2	1	8	4	[(195, 9), (50, 3), (211, 1), (153, 10)]
133	2	1	8	5	[(180, 2), (208, 9), (148, 6), (215, 1), (106, 1)]
134	13	1	9	3	[(126, 7), (106, 6), (96, 4)]
135	2	1	8	1	[(180, 6)]
136	3	2	2	0	[]
137	3	1	8	0	[]
138	10	1	1	5	[(185, 3), (46, 0), (13, 9), (68, 2), (203, 4)]
139	4	1	8	1	[(21, 3)]
140	2	3	8	0	[]
141	5	4	8	1	[(133, 5)]
142	5	1	8	2	[(28, 6), (208, 10)]
143	2	1	8	4	[(169, 5), (233, 6), (168, 3), (230, 4)]
144	2	1	8	2	[(93, 7), (176, 7)]
145	2	5	8	1	[(40, 9)]
146	6	1	8	3	[(139, 7), (12, 0), (16, 5)]
147	3	3	8	2	[(130, 9), (23, 6)]
148	3	2	1	1	[(165, 8)]
149	3	1	2	2	[(93, 4), (117, 2)]
150	2	1	8	0	[]
151	1	2	8	8	[(211, 0), (190, 8), (67, 1), (14, 7), (77, 9), (122, 4), (4, 2), (64, 2)]
152	2	1	8	1	[(110, 10)]
153	13	1	2	3	[(91, 2), (249, 5), (136, 2)]
154	5	1	8	6	[(182, 2), (167, 9), (10, 4), (197, 3), (195, 2), (24, 4)]
155	4	1	8	0	[]
156	3	4	8	6	[(49, 8), (243, 1), (64, 9), (5, 1), (6, 9), (194, 3)]
157	1	1	8	1	[(2, 1)]
158	6	3	3	4	[(232, 9), (249, 3), (92, 8), (68, 10)]
159	1	1	1	5	[(154, 3), (194, 7), (24, 3), (116, 10), (21, 7)]
160	5	4	1	3	[(14, 0), (208, 9), (15, 5)]
161	8	12	8	3	[(78, 9), (105, 10), (237, 1)]
162	16	2	8	2	[(192, 4), (115, 8)]
163	2	1	8	5	[(134, 5), (243, 7), (117, 1), (74, 1), (121, 7)]
164	2	1	8	2	[(160, 9), (210, 10)]
165	1	36	8	1	[(122, 10)]
166	1	1	60	3	[(20, 8), (91, 7), (149, 4)]
167	2	2	8	0	[]
168	1	2	4	2	[(27, 2), (109, 4)]
169	2	1	8	7	[(209, 9), (15, 3), (55, 5), (98, 0), (224, 7), (81, 0), (38, 2)]
170	6	2	8	5	[(143, 3), (116, 8), (87, 7), (157, 3), (126, 3)]
171	4	2	8	2	[(18, 1), (10, 10)]
172	1	6	8	5	[(106, 6), (85, 8), (192, 6), (11, 2), (103, 9)]
173	1	1	8	0	[]
174	23	6	8	2	[(110, 6), (58, 8)]
175	2	6	1	3	[(75, 1), (102, 1), (249, 7)]
176	1	1	8	1	[(223, 0)]
177	2	1	2	0	[]
178	1	4	8	3	[(185, 3), (122, 5), (115, 7)]
179	1	1	8	2	[(192, 6), (174, 3)]
180	2	6	8	3	[(162, 0), (211, 8), (81, 4)]
181	16	6	8	1	[(170, 7)]
182	4	2	8	4	[(241, 8), (196, 7), (231, 3), (7, 5)]
183	2	6	8	6	[(96, 9), (249, 9), (179, 6), (223, 2), (168, 8), (247, 10)]
184	6	1	8	3	[(54, 10), (178, 5), (207, 8)]
185	37	3	8	0	[]
186	5	2	8	2	[(116, 10), (233, 8)]
187	6	1	4	2	[(104, 1), (77, 1)]
188	3	1	8	1	[(203, 2)]
189	1	6	2	2	[(236, 5), (228, 4)]
190	3	1	8	2	[(154, 4), (143, 10)]
191	1	1	8	2	[(164, 5), (46, 7)]
192	4	1	16	2	[(135, 1), (24, 4)]
193	2	1	8	2	[(31, 2), (36, 5)]
194	1	1	2	2	[(37, 5), (204, 5)]
195	3	4	4	2	[(247, 10), (100, 5)]
196	2	4	32	3	[(197, 5), (198, 8), (3, 5)]
197	2	1	2	4	[(127, 5), (95, 9), (116, 0), (228, 0)]
198	226	8	32	0	[]
199	14	1	8	7	[(176, 10), (87, 9), (206, 4), (19, 2), (172, 3), (86, 8), (163, 8)]
200	2	1	8	1	[(96, 7)]
201	3	1	36	3	[(132, 2), (151, 4), (195, 0)]
202	3	1	8	2	[(182, 9), (228, 4)]
203	2	4	16	1	[(249, 6)]
204	3	1	8	2	[(25, 8), (65, 6)]
205	2	1	8	7	[(90, 10), (129, 2), (88, 4), (170, 0), (115, 10), (178, 2), (35, 0)]
206	2	1	1	5	[(130, 6), (131, 4), (235, 1), (249, 10), (149, 0)]
207	1	1	1	4	[(5, 10), (207, 4), (211, 2), (67, 0)]
208	1	1	8	3	[(174, 2), (43, 0), (1, 3)]
209	1	2	8	3	[(219, 8), (212, 10), (96, 5)]
210	1	6	8	2	[(159, 9), (130, 5)]
211	1	2	2	1	[(125, 5)]
212	1	1	1	2	[(74, 9), (183, 5)]
213	2	1	16	4	[(66, 3), (84, 1), (94, 2), (122, 8)]
214	11	1	8	1	[(45, 10)]
215	1	1	8	1	[(126, 2)]
216	1	1	8	0	[]
217	2	1	8	2	[(107, 9), (213, 8)]
218	3	6	16	0	[]
219	2	1	8	2	[(205, 8), (210, 7)]
220	4	1	8	2	[(188, 1), (112, 1)]
221	2	1	8	4	[(155, 5), (89, 2), (117, 6), (168, 0)]
222	1	1	8	3	[(129, 2), (247, 3), (204, 4)]
223	1	1	8	0	[]
224	1	2	8	2	[(49, 10), (220, 6)]
225	2	1	8	1	[(84, 6)]
226	50	1	8	3	[(206, 1), (200, 2), (77, 6)]
227	2	1	1	3	[(65, 8), (224, 8), (58, 10)]
228	2	1	8	3	[(61, 6), (189, 5), (135, 1)]
229	1	1	8	4	[(210, 10), (132, 9), (123, 3), (150, 3)]
230	16	1	8	2	[(29, 1), (87, 1)]
231	1	1	8	3	[(93, 8), (195, 2), (45, 9)]
232	3	1	16	1	[(152, 7)]
233	12	1	8	1	[(28, 8)]
234	1	4	8	0	[]
235	2	5	8	5	[(49, 3), (184, 4), (77, 4), (128, 6), (102, 9)]
236	10	3	8	4	[(53, 10), (200, 7), (74, 9), (198, 10)]
237	1	2	8	3	[(23, 0), (155, 1), (176, 2)]
238	2	1	8	6	[(186, 8), (95, 0), (224, 1), (12, 9), (204, 6), (31, 1)]
239	1	3	32	3	[(32, 1), (179, 5), (146, 1)]
240	1	1	2	3	[(51, 0), (211, 4), (165, 4)]
241	1	1	8	0	[]
242	2	1	8	2	[(105, 4), (74, 9)]
243	1	1	8	4	[(105, 1), (35, 2), (156, 10), (97, 9)]
244	1	2	8	4	[(140, 6), (146, 10), (115, 0), (94, 1)]
245	9	6	8	0	[]
246	1	1	8	2	[(58, 1), (114, 2)]
247	2	6	8	2	[(88, 5), (215, 8)]
248	1	3	8	2	[(143, 10), (98, 4)]
249	5	1	8	4	[(47, 5), (11, 2), (143, 4), (62, 5)]
250	5	4	8	3	[(6, 0), (30, 3), (2, 2)]
