app_id	nb_instances	core	memory	inter_degree	inter_aff
1	2	1	8	29	[(61, 2), (192, 3), (217, 6), (85, 1), (130, 6), (221, 0), (176, 5), (18, 1), (76, 6), (228, 1), (79, 3), (146, 3), (20, 1), (72, 2), (133, 0), (210, 10), (184, 8), (101, 6), (174, 6), (83, 9), (173, 1), (55, 2), (165, 7), (89, 5), (38, 6), (68, 9), (141, 8), (103, 7), (178, 0)]
2	2	3	8	37	[(153, 1), (135, 4), (89, 8), (68, 0), (114, 2), (40, 9), (163, 0), (229, 10), (240, 1), (170, 6), (129, 2), (106, 6), (15, 7), (125, 4), (17, 3), (158, 0), (223, 10), (190, 7), (16, 3), (109, 5), (60, 7), (117, 0), (31, 4), (78, 8), (226, 5), (218, 0), (72, 5), (46, 1), (112, 9), (84, 9), (157, 2), (80, 2), (134, 5), (105, 7), (87, 8), (200, 7), (27, 9)]
3	4	1	8	32	[(200, 0), (163, 5), (97, 6), (54, 1), (19, 10), (117, 4), (66, 7), (16, 9), (224, 6), (181, 2), (202, 0), (35, 5), (39, 2), (12, 10), (210, 5), (174, 7), (64, 1), (90, 7), (127, 9), (201, 2), (1, 1), (23, 5), (141, 3), (154, 4), (124, 6), (73, 9), (205, 10), (68, 6), (142, 2), (189, 2), (178, 1), (119, 5)]
4	1	1	2	33	[(248, 3), (78, 0), (147, 1), (156, 6), (58, 2), (98, 2), (88, 1), (145, 9), (3, 2), (76, 4), (81, 2), (228, 8), (136, 5), (206, 9), (63, 3), (96, 7), (240, 8), (100, 6), (55, 4), (45, 10), (177, 2), (174, 10), (249, 3), (193, 6), (7, 3), (15, 10), (225, 6), (221, 10), (99, 4), (2, 8), (165, 3), (218, 5), (33, 5)]
5	4	1	16	37	[(85, 1), (235, 9), (30, 2), (229, 0), (3, 10), (193, 6), (48, 7), (171, 0), (113, 7), (205, 7), (241, 7), (218, 3), (194, 2), (215, 0), (129, 4), (158, 7), (147, 7), (16, 1), (77, 8), (177, 5), (152, 3), (245, 4), (222, 2), (115, 3), (188, 4), (68, 4), (247, 5), (21, 10), (136, 0), (91, 0), (93, 9), (140, 10), (210, 6), (226, 5), (5, 10), (185, 5), (90, 8)]
6	2	1	2	41	[(112, 8), (123, 6), (138, 10), (63, 9), (86, 5), (242, 1), (121, 4), (122, 2), (181, 1), (50, 7), (201, 1), (162, 7), (9, 6), (35, 8), (245, 7), (234, 2), (87, 0), (197, 8), (145, 8), (117, 1), (27, 3), (224, 4), (115, 7), (247, 2), (216, 4), (220, 3), (26, 6), (8, 5), (237, 4), (32, 1), (69, 0), (129, 1), (76, 4), (153, 3), (196, 0), (163, 3), (200, 2), (78, 4), (89, 7), (185, 7), (239, 10)]
7	16	1	7	43	[(119, 0), (161, 4), (185, 4), (111, 2), (36, 7), (213, 3), (97, 7), (125, 1), (57, 8), (73, 10), (56, 5), (178, 0), (86, 5), (245, 2), (132, 5), (154, 7), (180, 8), (71, 4), (155, 8), (65, 0), (136, 10), (75, 5), (214, 0), (1, 2), (159, 2), (127, 10), (89, 4), (149, 9), (20, 7), (215, 1), (192, 9), (186, 7), (27, 5), (67, 4), (81, 9), (133, 8), (30, 7), (188, 7), (169, 8), (54, 5), (79, 10), (85, 2), (134, 3)]
8	1	1	8	38	[(93, 2), (179, 9), (92, 5), (48, 4), (31, 8), (100, 3), (60, 2), (91, 10), (172, 7), (156, 7), (61, 5), (212, 7), (8, 5), (90, 0), (144, 3), (73, 8), (164, 9), (7, 0), (216, 0), (94, 8), (151, 5), (123, 1), (149, 9), (59, 7), (166, 6), (182, 6), (142, 9), (218, 3), (64, 2), (22, 6), (44, 10), (245, 8), (17, 8), (2, 5), (67, 7), (20, 5), (105, 2), (85, 6)]
9	1	12	3	48	[(32, 9), (138, 8), (134, 7), (72, 8), (77, 10), (147, 5), (173, 0), (127, 10), (10, 10), (25, 10), (22, 8), (145, 3), (126, 5), (85, 6), (249, 0), (132, 4), (11, 4), (30, 6), (44, 8), (18, 1), (235, 4), (169, 9), (21, 0), (34, 2), (192, 6), (238, 2), (29, 0), (228, 0), (82, 3), (57, 0), (131, 9), (27, 4), (236, 8), (99, 9), (156, 2), (217, 2), (144, 2), (190, 5), (91, 7), (245, 9), (87, 4), (179, 7), (229, 2), (37, 9), (221, 10), (224, 0), (109, 9), (94, 5)]
10	3	1	8	54	[(166, 1), (213, 3), (37, 7), (98, 1), (235, 5), (11, 6), (210, 9), (38, 10), (161, 2), (226, 8), (5, 9), (48, 7), (67, 0), (85, 2), (19, 1), (121, 6), (95, 7), (180, 2), (179, 10), (158, 8), (47, 6), (176, 10), (84, 3), (151, 7), (97, 3), (134, 0), (189, 10), (94, 4), (220, 1), (127, 0), (236, 5), (125, 7), (230, 3), (229, 9), (143, 5), (240, 3), (183, 0), (139, 0), (242, 6), (133, 0), (105, 3), (201, 2), (57, 9), (45, 9), (181, 9), (76, 8), (132, 0), (54, 8), (248, 9), (170, 9), (116, 0), (46, 3), (89, 6), (16, 3)]
11	1	2	16	31	[(17, 5), (174, 1), (213, 5), (223, 5), (59, 8), (196, 5), (224, 3), (153, 1), (4, 0), (201, 7), (94, 6), (169, 4), (30, 6), (235, 1), (92, 8), (229, 1), (192, 2), (65, 3), (107, 4), (199, 8), (6, 7), (238, 0), (215, 4), (35, 8), (182, 7), (63, 0), (73, 10), (207, 5), (90, 10), (34, 9), (225, 7)]
12	3	4	3	35	[(246, 9), (215, 6), (208, 2), (249, 6), (221, 6), (145, 10), (230, 0), (172, 10), (107, 4), (173, 7), (241, 6), (77, 9), (91, 8), (147, 3), (7, 2), (1, 10), (10, 2), (202, 4), (157, 3), (134, 10), (105, 9), (94, 2), (176, 2), (165, 4), (232, 7), (34, 9), (181, 6), (90, 5), (167, 8), (73, 4), (81, 0), (84, 9), (129, 1), (109, 8), (234, 3)]
13	1	1	16	38	[(88, 10), (178, 3), (175, 9), (161, 0), (196, 8), (184, 9), (101, 3), (117, 4), (241, 5), (137, 9), (125, 3), (244, 3), (43, 6), (77, 2), (221, 10), (93, 6), (78, 0), (185, 9), (142, 4), (67, 2), (201, 6), (229, 0), (144, 10), (102, 1), (36, 0), (100, 9), (56, 8), (218, 3), (82, 3), (227, 1), (216, 2), (60, 10), (87, 0), (191, 0), (210, 8), (119, 4), (107, 5), (235, 4)]
14	1	1	8	40	[(230, 1), (148, 7), (151, 9), (163, 1), (160, 1), (192, 2), (150, 0), (52, 8), (59, 1), (186, 5), (126, 9), (36, 1), (130, 6), (65, 0), (173, 1), (226, 6), (77, 7), (5, 5), (227, 7), (131, 3), (60, 1), (249, 2), (201, 3), (74, 4), (134, 5), (121, 9), (33, 0), (216, 3), (195, 4), (6, 5), (221, 2), (225, 4), (236, 10), (69, 10), (84, 2), (90, 4), (20, 6), (187, 5), (232, 4), (80, 1)]
15	2	1	8	34	[(28, 10), (222, 3), (67, 10), (205, 0), (109, 0), (243, 9), (45, 10), (100, 6), (173, 8), (234, 10), (20, 4), (63, 0), (108, 7), (177, 3), (129, 2), (71, 10), (211, 9), (174, 3), (244, 4), (110, 8), (23, 1), (178, 9), (151, 3), (120, 0), (48, 7), (30, 3), (184, 5), (203, 1), (54, 5), (214, 8), (2, 10), (104, 1), (99, 3), (86, 8)]
16	2	1	2	38	[(38, 0), (158, 0), (11, 3), (90, 8), (52, 0), (103, 3), (162, 6), (61, 3), (85, 9), (3, 9), (178, 3), (150, 0), (185, 0), (172, 4), (202, 0), (42, 4), (183, 6), (193, 4), (153, 3), (83, 0), (224, 2), (92, 2), (179, 1), (99, 5), (87, 7), (119, 0), (70, 7), (82, 0), (44, 2), (101, 8), (76, 2), (220, 9), (117, 5), (20, 4), (60, 10), (88, 5), (231, 10), (168, 8)]
17	1	2	8	30	[(5, 1), (68, 4), (47, 8), (23, 3), (99, 10), (93, 4), (227, 9), (95, 8), (237, 1), (91, 2), (176, 7), (232, 5), (212, 10), (52, 6), (121, 9), (228, 1), (167, 5), (45, 8), (150, 9), (239, 2), (190, 2), (245, 6), (156, 2), (139, 5), (197, 7), (185, 10), (183, 10), (191, 4), (186, 10), (154, 10)]
18	2	3	8	33	[(20, 7), (237, 8), (33, 0), (13, 2), (45, 9), (91, 1), (55, 0), (22, 4), (158, 1), (41, 7), (2, 3), (183, 8), (216, 1), (75, 10), (204, 10), (146, 8), (1, 0), (144, 1), (4, 9), (147, 0), (233, 5), (250, 3), (236, 7), (164, 8), (241, 1), (99, 1), (18, 4), (169, 2), (107, 8), (34, 4), (227, 9), (111, 10), (219, 4)]
19	3	2	2	34	[(155, 0), (145, 6), (158, 1), (19, 8), (130, 4), (141, 9), (216, 3), (149, 0), (23, 7), (106, 10), (57, 2), (93, 3), (14, 8), (103, 3), (91, 4), (8, 7), (169, 10), (165, 1), (6, 7), (212, 8), (58, 1), (197, 0), (12, 9), (182, 8), (64, 9), (16, 5), (186, 3), (122, 8), (198, 7), (243, 3), (29, 2), (43, 8), (184, 10), (4, 2)]
20	1	2	8	34	[(221, 1), (189, 10), (223, 6), (243, 9), (25, 2), (156, 0), (94, 2), (43, 9), (241, 0), (103, 4), (147, 4), (218, 0), (141, 5), (76, 4), (240, 3), (105, 10), (62, 6), (13, 2), (234, 2), (56, 5), (55, 0), (248, 9), (98, 8), (84, 8), (162, 8), (171, 10), (160, 10), (114, 4), (58, 10), (54, 5), (183, 6), (19, 5), (191, 2), (67, 7)]
21	2	1	8	32	[(96, 7), (108, 1), (123, 0), (99, 2), (78, 6), (23, 5), (177, 8), (245, 9), (220, 7), (194, 8), (126, 0), (89, 10), (247, 0), (59, 8), (219, 7), (33, 8), (40, 3), (172, 1), (73, 5), (176, 9), (174, 7), (127, 4), (137, 5), (94, 2), (74, 4), (208, 1), (136, 10), (97, 5), (92, 3), (61, 7), (161, 0), (38, 4)]
22	1	1	8	45	[(34, 10), (122, 1), (89, 0), (240, 8), (180, 8), (77, 10), (150, 3), (82, 1), (31, 3), (241, 7), (80, 7), (136, 9), (244, 2), (239, 2), (102, 5), (203, 4), (134, 5), (6, 5), (48, 6), (24, 6), (42, 6), (103, 0), (131, 8), (238, 6), (214, 6), (196, 2), (44, 2), (197, 5), (92, 6), (13, 5), (78, 2), (121, 9), (51, 10), (101, 7), (109, 4), (19, 5), (124, 9), (194, 7), (178, 6), (229, 5), (169, 1), (167, 9), (153, 4), (30, 9), (100, 1)]
23	2	1	16	30	[(61, 3), (50, 9), (242, 10), (216, 6), (148, 4), (184, 1), (187, 2), (107, 8), (51, 9), (80, 0), (198, 9), (222, 0), (69, 4), (86, 9), (185, 10), (212, 0), (211, 8), (203, 7), (208, 6), (57, 10), (207, 4), (83, 9), (27, 4), (175, 1), (28, 6), (158, 8), (196, 10), (112, 6), (199, 0), (3, 8)]
24	3	1	8	42	[(150, 1), (161, 10), (83, 9), (20, 9), (149, 0), (89, 8), (173, 10), (170, 6), (186, 4), (35, 8), (164, 3), (82, 1), (211, 3), (234, 0), (232, 7), (95, 6), (60, 6), (102, 8), (208, 2), (178, 3), (106, 5), (21, 9), (248, 4), (236, 2), (137, 0), (127, 2), (181, 8), (155, 4), (40, 2), (124, 3), (88, 2), (75, 4), (91, 2), (198, 3), (214, 9), (141, 4), (51, 7), (85, 8), (8, 7), (4, 5), (176, 1), (229, 0)]
25	2	4	8	37	[(137, 3), (238, 7), (239, 7), (78, 9), (20, 10), (13, 6), (250, 10), (177, 1), (76, 8), (157, 0), (17, 5), (58, 3), (102, 0), (228, 6), (87, 9), (116, 3), (42, 4), (85, 8), (86, 10), (125, 2), (198, 5), (186, 9), (175, 0), (83, 1), (223, 5), (135, 8), (158, 6), (211, 8), (184, 7), (77, 6), (118, 0), (96, 8), (48, 0), (150, 7), (183, 10), (64, 10), (92, 2)]
26	2	4	1	32	[(77, 3), (84, 0), (69, 7), (225, 5), (158, 0), (239, 0), (236, 5), (94, 1), (24, 2), (6, 0), (19, 8), (163, 0), (242, 3), (57, 10), (15, 6), (74, 10), (160, 6), (75, 8), (215, 4), (222, 3), (154, 6), (156, 9), (161, 0), (16, 6), (127, 2), (202, 1), (73, 1), (28, 7), (206, 3), (46, 7), (128, 2), (52, 10)]
27	1	2	8	47	[(151, 4), (185, 6), (63, 6), (127, 0), (112, 3), (94, 4), (100, 3), (70, 9), (84, 5), (31, 5), (157, 5), (101, 3), (58, 0), (244, 6), (139, 8), (71, 7), (242, 9), (148, 0), (193, 6), (123, 0), (41, 0), (95, 0), (15, 7), (225, 4), (145, 3), (22, 6), (124, 9), (3, 8), (223, 8), (99, 10), (98, 9), (234, 9), (37, 2), (168, 9), (189, 3), (42, 9), (181, 2), (192, 7), (200, 8), (180, 3), (231, 10), (24, 4), (164, 3), (30, 6), (72, 4), (160, 10), (6, 8)]
28	7	1	1	34	[(166, 7), (176, 10), (92, 0), (198, 8), (204, 4), (26, 8), (206, 1), (218, 8), (44, 9), (79, 2), (161, 6), (234, 8), (224, 1), (243, 1), (134, 6), (179, 10), (112, 0), (102, 4), (227, 5), (118, 8), (51, 8), (207, 7), (77, 9), (121, 0), (114, 2), (25, 2), (236, 8), (132, 9), (96, 9), (119, 2), (230, 2), (250, 4), (95, 6), (185, 5)]
29	1	1	8	31	[(110, 5), (223, 3), (18, 3), (116, 10), (39, 0), (172, 10), (44, 4), (10, 1), (70, 0), (22, 1), (71, 1), (248, 5), (175, 8), (217, 8), (91, 5), (11, 10), (81, 4), (93, 5), (144, 3), (249, 9), (240, 8), (103, 2), (86, 2), (201, 7), (12, 2), (218, 8), (45, 1), (59, 9), (47, 4), (206, 4), (1, 5)]
30	3	3	8	50	[(136, 7), (140, 7), (214, 9), (232, 2), (118, 4), (77, 8), (68, 3), (146, 0), (54, 7), (27, 8), (16, 5), (85, 8), (220, 8), (137, 0), (4, 4), (217, 8), (31, 7), (123, 1), (206, 7), (170, 3), (96, 4), (109, 10), (53, 0), (129, 7), (58, 1), (215, 4), (202, 2), (216, 9), (10, 5), (93, 0), (163, 7), (149, 6), (89, 7), (43, 9), (199, 8), (64, 6), (17, 7), (120, 7), (71, 3), (138, 1), (210, 4), (156, 10), (106, 1), (190, 8), (165, 7), (179, 5), (180, 7), (185, 7), (74, 6), (205, 4)]
31	2	6	8	40	[(187, 8), (212, 10), (180, 3), (159, 1), (215, 6), (95, 9), (91, 9), (103, 5), (120, 7), (66, 4), (244, 9), (87, 4), (49, 2), (22, 2), (126, 5), (48, 10), (78, 6), (96, 5), (45, 6), (97, 4), (224, 5), (23, 5), (44, 4), (105, 8), (199, 5), (82, 9), (79, 8), (233, 1), (156, 3), (24, 9), (14, 1), (4, 9), (29, 5), (185, 10), (61, 5), (160, 7), (57, 2), (6, 0), (33, 6), (200, 8)]
32	11	1	8	34	[(24, 1), (19, 3), (66, 2), (237, 7), (134, 7), (71, 10), (172, 10), (225, 3), (138, 7), (56, 9), (155, 6), (193, 5), (121, 2), (31, 9), (39, 10), (156, 1), (232, 8), (240, 4), (22, 4), (51, 5), (195, 5), (248, 10), (12, 10), (103, 9), (159, 7), (28, 2), (176, 7), (62, 7), (149, 6), (110, 1), (250, 6), (162, 2), (113, 5), (235, 5)]
33	6	2	8	31	[(185, 4), (203, 1), (6, 0), (17, 6), (119, 9), (136, 4), (219, 4), (235, 9), (126, 5), (3, 7), (170, 3), (141, 7), (88, 4), (8, 1), (138, 4), (69, 4), (234, 9), (47, 4), (152, 10), (80, 4), (213, 1), (197, 3), (202, 6), (210, 2), (154, 10), (199, 0), (250, 0), (102, 8), (13, 2), (130, 7), (50, 8)]
34	1	3	8	36	[(147, 10), (244, 3), (198, 5), (151, 2), (21, 4), (140, 4), (5, 10), (162, 4), (149, 8), (238, 9), (65, 8), (6, 2), (200, 9), (189, 2), (184, 6), (207, 4), (167, 6), (180, 7), (206, 8), (205, 8), (102, 0), (230, 10), (247, 8), (94, 5), (59, 4), (139, 10), (107, 7), (221, 10), (53, 2), (61, 8), (58, 2), (42, 9), (176, 1), (209, 4), (90, 0), (148, 8)]
35	2	1	8	31	[(75, 10), (47, 10), (187, 9), (191, 3), (117, 5), (19, 6), (147, 6), (178, 4), (137, 0), (161, 8), (233, 2), (241, 2), (52, 8), (203, 0), (155, 3), (234, 2), (106, 4), (194, 10), (135, 8), (131, 4), (63, 10), (18, 1), (143, 7), (136, 7), (154, 10), (17, 1), (243, 8), (124, 8), (168, 9), (232, 9), (20, 1)]
36	1	4	8	30	[(3, 2), (106, 0), (214, 7), (169, 0), (45, 7), (206, 0), (177, 7), (36, 1), (64, 3), (218, 10), (152, 1), (159, 7), (217, 10), (209, 5), (244, 9), (161, 5), (92, 1), (167, 2), (52, 1), (250, 6), (84, 2), (5, 4), (143, 1), (181, 2), (80, 2), (227, 7), (81, 4), (246, 3), (118, 6), (238, 10)]
37	2	1	8	44	[(131, 8), (185, 0), (81, 5), (92, 8), (146, 8), (217, 6), (68, 1), (99, 9), (22, 6), (80, 2), (219, 3), (46, 0), (211, 7), (152, 1), (30, 4), (15, 9), (54, 5), (103, 3), (64, 10), (48, 7), (222, 2), (181, 8), (243, 5), (51, 5), (24, 2), (201, 10), (17, 5), (250, 4), (188, 7), (159, 3), (228, 10), (200, 2), (73, 9), (187, 8), (59, 4), (27, 9), (241, 4), (199, 9), (202, 7), (156, 6), (128, 4), (117, 9), (119, 6), (110, 5)]
38	2	1	8	28	[(135, 7), (222, 5), (107, 1), (196, 10), (47, 0), (174, 6), (37, 10), (100, 3), (123, 10), (218, 9), (30, 8), (207, 10), (185, 5), (239, 7), (112, 5), (120, 4), (212, 7), (103, 4), (193, 8), (18, 2), (156, 7), (205, 6), (183, 8), (62, 6), (69, 4), (165, 3), (88, 9), (28, 5)]
39	18	1	8	33	[(66, 6), (131, 8), (127, 2), (135, 10), (195, 10), (220, 10), (119, 10), (88, 1), (189, 8), (41, 5), (242, 10), (11, 4), (3, 5), (143, 3), (70, 6), (25, 3), (13, 9), (225, 0), (191, 9), (61, 3), (245, 2), (43, 7), (113, 6), (33, 8), (156, 9), (187, 7), (227, 4), (9, 2), (160, 2), (37, 7), (22, 2), (177, 10), (80, 1)]
40	5	1	8	39	[(235, 0), (160, 0), (43, 9), (4, 5), (72, 7), (5, 5), (36, 9), (244, 10), (224, 0), (107, 7), (239, 0), (93, 5), (76, 8), (198, 7), (3, 3), (146, 10), (13, 8), (9, 10), (97, 5), (169, 9), (243, 5), (202, 3), (67, 7), (167, 8), (111, 4), (55, 5), (207, 3), (101, 6), (127, 7), (51, 8), (250, 5), (144, 0), (189, 2), (56, 5), (27, 9), (112, 8), (88, 0), (199, 6), (122, 9)]
41	15	1	8	41	[(243, 10), (87, 8), (185, 7), (244, 7), (135, 1), (159, 6), (82, 4), (220, 9), (69, 10), (41, 9), (99, 2), (183, 10), (71, 9), (128, 6), (86, 10), (94, 3), (129, 2), (107, 9), (123, 1), (231, 1), (44, 1), (26, 9), (116, 6), (57, 1), (162, 6), (137, 6), (208, 4), (22, 10), (125, 2), (67, 10), (55, 1), (92, 6), (77, 5), (190, 4), (105, 0), (36, 9), (207, 5), (210, 2), (245, 6), (64, 0), (234, 9)]
42	4	1	8	31	[(181, 8), (178, 2), (149, 5), (11, 10), (20, 5), (40, 2), (5, 6), (69, 3), (61, 7), (146, 8), (19, 5), (119, 1), (182, 5), (87, 0), (64, 9), (46, 5), (158, 10), (232, 3), (75, 2), (4, 6), (231, 3), (53, 3), (115, 4), (126, 5), (174, 7), (167, 0), (16, 8), (216, 9), (44, 6), (200, 5), (250, 7)]
43	1	1	8	47	[(245, 0), (45, 9), (100, 6), (108, 3), (197, 10), (217, 9), (82, 2), (239, 10), (97, 10), (74, 8), (136, 2), (14, 3), (170, 2), (224, 1), (16, 10), (7, 5), (126, 3), (186, 6), (32, 6), (218, 1), (173, 4), (147, 9), (156, 3), (79, 3), (193, 9), (247, 5), (5, 0), (115, 1), (113, 6), (11, 5), (64, 10), (60, 5), (172, 2), (232, 0), (68, 9), (59, 6), (228, 6), (122, 3), (103, 9), (128, 0), (192, 4), (121, 3), (212, 6), (227, 5), (139, 1), (222, 2), (234, 6)]
44	1	4	8	38	[(49, 2), (55, 3), (145, 7), (103, 8), (179, 0), (210, 6), (123, 8), (193, 8), (36, 2), (186, 0), (154, 5), (131, 9), (140, 10), (220, 3), (3, 6), (61, 7), (160, 1), (124, 1), (213, 3), (122, 6), (111, 0), (227, 8), (79, 9), (236, 3), (99, 7), (11, 4), (93, 5), (98, 1), (112, 4), (69, 8), (54, 1), (76, 6), (136, 2), (8, 6), (117, 10), (15, 9), (77, 0), (205, 5)]
45	2	1	8	39	[(67, 0), (96, 2), (66, 3), (32, 4), (207, 9), (77, 6), (200, 1), (115, 6), (34, 8), (62, 4), (134, 8), (206, 0), (72, 7), (111, 10), (73, 3), (119, 4), (181, 10), (241, 7), (78, 7), (30, 1), (163, 3), (40, 3), (25, 2), (237, 6), (236, 10), (128, 6), (49, 7), (3, 4), (79, 10), (129, 9), (124, 9), (64, 8), (98, 1), (179, 2), (23, 8), (95, 0), (27, 10), (244, 4), (158, 0)]
46	2	1	8	47	[(80, 8), (6, 7), (224, 7), (226, 3), (231, 0), (210, 0), (222, 4), (166, 2), (186, 9), (82, 0), (38, 3), (244, 0), (148, 5), (221, 8), (89, 3), (124, 0), (8, 7), (162, 6), (144, 8), (106, 10), (92, 3), (24, 10), (200, 3), (15, 3), (187, 6), (163, 0), (84, 4), (116, 4), (44, 8), (153, 3), (83, 9), (172, 4), (62, 8), (150, 6), (55, 5), (41, 0), (235, 9), (12, 7), (96, 0), (188, 0), (236, 0), (39, 5), (171, 9), (247, 9), (173, 2), (29, 6), (61, 10)]
47	1	1	10	42	[(172, 3), (1, 9), (244, 3), (197, 9), (15, 7), (235, 6), (40, 10), (97, 7), (145, 9), (92, 3), (108, 2), (111, 6), (241, 5), (86, 7), (208, 3), (12, 6), (4, 9), (246, 9), (8, 2), (37, 0), (120, 3), (134, 4), (230, 2), (177, 7), (243, 5), (128, 10), (178, 2), (99, 8), (175, 3), (187, 1), (32, 10), (190, 6), (156, 1), (100, 4), (153, 9), (149, 2), (11, 8), (35, 9), (238, 6), (202, 10), (234, 9), (192, 0)]
48	1	1	1	52	[(208, 7), (33, 6), (219, 1), (173, 5), (237, 9), (194, 0), (82, 2), (215, 4), (222, 2), (41, 7), (216, 2), (115, 8), (56, 4), (166, 4), (13, 5), (30, 10), (10, 2), (228, 4), (214, 1), (132, 4), (50, 0), (126, 2), (17, 7), (119, 5), (22, 9), (108, 10), (32, 0), (68, 5), (109, 4), (182, 3), (153, 5), (220, 9), (169, 5), (231, 4), (203, 8), (136, 4), (31, 6), (60, 10), (23, 0), (62, 4), (98, 3), (99, 9), (197, 0), (171, 0), (241, 10), (135, 9), (73, 1), (246, 2), (204, 5), (54, 10), (183, 3), (110, 0)]
49	2	4	8	44	[(71, 6), (73, 0), (245, 1), (7, 10), (97, 9), (160, 9), (136, 7), (22, 4), (161, 4), (92, 3), (16, 5), (38, 8), (144, 5), (85, 9), (234, 6), (80, 6), (31, 9), (250, 9), (87, 6), (2, 1), (170, 0), (117, 4), (1, 3), (200, 1), (248, 9), (39, 10), (238, 6), (146, 7), (198, 0), (104, 8), (116, 9), (150, 3), (229, 7), (180, 8), (240, 5), (69, 10), (52, 4), (49, 7), (77, 0), (57, 9), (222, 1), (99, 4), (42, 0), (203, 5)]
50	26	4	8	44	[(211, 10), (170, 3), (39, 6), (169, 3), (245, 8), (47, 4), (102, 5), (142, 1), (180, 4), (192, 10), (152, 3), (46, 9), (7, 5), (75, 0), (122, 7), (90, 1), (73, 6), (74, 3), (147, 1), (29, 5), (167, 1), (84, 8), (125, 5), (34, 10), (208, 5), (159, 10), (133, 4), (232, 8), (248, 2), (91, 1), (184, 1), (187, 10), (25, 5), (28, 10), (69, 2), (8, 9), (116, 7), (200, 4), (106, 4), (42, 2), (193, 10), (62, 0), (177, 3), (23, 1)]
51	2	12	1	46	[(149, 1), (246, 5), (106, 2), (7, 10), (230, 8), (146, 6), (184, 9), (178, 8), (112, 3), (212, 1), (58, 8), (232, 5), (181, 1), (145, 4), (110, 2), (224, 7), (64, 2), (203, 8), (198, 2), (233, 5), (124, 5), (217, 3), (176, 8), (88, 8), (220, 10), (169, 7), (60, 6), (243, 3), (20, 5), (134, 6), (154, 1), (163, 1), (18, 3), (98, 5), (87, 10), (244, 7), (26, 9), (213, 0), (44, 7), (80, 10), (172, 6), (55, 1), (141, 7), (39, 4), (197, 7), (40, 8)]
52	1	1	8	37	[(65, 8), (83, 8), (221, 4), (150, 8), (240, 1), (107, 10), (53, 1), (160, 10), (172, 0), (228, 2), (50, 0), (155, 6), (126, 5), (28, 4), (219, 0), (166, 10), (91, 5), (226, 6), (121, 0), (190, 8), (199, 10), (147, 9), (139, 4), (69, 7), (149, 3), (193, 0), (115, 2), (70, 4), (116, 8), (94, 8), (15, 2), (26, 9), (8, 1), (2, 8), (136, 6), (233, 10), (82, 3)]
53	5	1	16	39	[(198, 0), (205, 0), (168, 6), (69, 6), (220, 9), (216, 0), (7, 7), (232, 3), (13, 1), (74, 10), (142, 0), (59, 2), (147, 4), (177, 9), (81, 7), (130, 5), (178, 9), (194, 7), (125, 1), (174, 3), (52, 8), (200, 2), (17, 2), (187, 10), (246, 10), (72, 3), (111, 9), (236, 7), (107, 1), (190, 2), (221, 2), (132, 0), (93, 8), (101, 10), (28, 8), (21, 6), (58, 8), (96, 0), (106, 9)]
54	1	1	8	38	[(25, 8), (32, 10), (161, 9), (234, 10), (149, 9), (173, 9), (73, 3), (190, 3), (184, 6), (247, 3), (74, 4), (119, 1), (70, 2), (77, 10), (203, 7), (43, 5), (122, 4), (14, 2), (237, 2), (15, 8), (44, 1), (212, 5), (148, 6), (10, 6), (106, 5), (27, 7), (221, 6), (200, 0), (121, 7), (39, 5), (167, 1), (78, 3), (53, 5), (159, 3), (60, 6), (75, 3), (58, 9), (81, 3)]
55	2	1	8	36	[(98, 5), (169, 7), (161, 1), (175, 1), (59, 8), (35, 10), (190, 5), (168, 6), (123, 1), (126, 6), (128, 7), (163, 0), (211, 0), (172, 10), (108, 4), (231, 2), (244, 10), (21, 6), (132, 0), (208, 2), (4, 7), (249, 6), (246, 3), (194, 5), (210, 3), (162, 6), (147, 1), (209, 3), (60, 1), (12, 6), (136, 1), (151, 9), (186, 9), (73, 9), (51, 5), (142, 6)]
56	2	1	1	41	[(59, 2), (40, 4), (237, 0), (235, 1), (89, 9), (105, 10), (16, 8), (182, 7), (127, 1), (8, 8), (12, 6), (146, 5), (32, 3), (118, 8), (244, 9), (4, 3), (109, 8), (134, 4), (136, 3), (148, 4), (188, 3), (240, 2), (34, 6), (101, 8), (75, 4), (82, 6), (241, 3), (169, 5), (60, 4), (3, 0), (185, 8), (25, 10), (9, 9), (104, 0), (88, 0), (221, 7), (13, 0), (62, 9), (163, 10), (199, 2), (96, 0)]
57	2	1	16	43	[(171, 3), (231, 6), (131, 1), (221, 3), (29, 5), (173, 3), (234, 7), (155, 10), (85, 0), (207, 7), (110, 10), (150, 5), (46, 2), (11, 9), (65, 3), (18, 1), (30, 5), (117, 3), (104, 9), (174, 2), (19, 8), (134, 10), (92, 4), (194, 1), (141, 5), (147, 7), (145, 8), (243, 10), (192, 1), (52, 2), (62, 7), (126, 0), (59, 5), (78, 7), (43, 1), (224, 4), (226, 4), (249, 4), (216, 1), (175, 10), (193, 9), (31, 8), (146, 1)]
58	2	4	8	30	[(127, 10), (35, 1), (146, 8), (38, 9), (12, 10), (159, 7), (61, 2), (23, 5), (75, 1), (246, 5), (76, 4), (92, 8), (104, 3), (89, 4), (32, 1), (215, 7), (69, 5), (167, 4), (67, 1), (156, 10), (245, 4), (28, 6), (154, 0), (200, 10), (238, 3), (118, 9), (162, 10), (63, 4), (87, 9), (16, 4)]
59	2	2	8	33	[(82, 7), (247, 1), (124, 2), (219, 10), (152, 3), (181, 5), (70, 6), (155, 3), (177, 7), (240, 4), (190, 5), (91, 7), (46, 9), (57, 1), (120, 10), (103, 3), (104, 8), (135, 2), (4, 5), (30, 5), (199, 5), (28, 4), (229, 10), (246, 10), (185, 0), (178, 5), (49, 9), (137, 9), (159, 9), (77, 9), (62, 10), (180, 5), (63, 4)]
60	24	4	2	31	[(97, 9), (81, 4), (183, 5), (190, 7), (5, 1), (47, 5), (75, 6), (223, 1), (134, 2), (136, 3), (2, 5), (131, 9), (119, 10), (106, 8), (3, 7), (57, 4), (178, 7), (219, 0), (210, 7), (90, 9), (29, 0), (110, 4), (231, 3), (34, 1), (72, 6), (185, 9), (128, 7), (197, 7), (76, 7), (132, 6), (174, 1)]
61	1	1	8	38	[(87, 10), (96, 3), (188, 2), (110, 5), (154, 8), (129, 9), (42, 4), (147, 3), (104, 2), (194, 7), (248, 6), (56, 1), (206, 1), (39, 3), (149, 9), (111, 7), (231, 5), (141, 9), (213, 9), (173, 5), (176, 5), (59, 2), (169, 9), (238, 7), (93, 8), (23, 9), (250, 9), (217, 2), (85, 6), (112, 8), (48, 7), (162, 2), (30, 3), (43, 4), (180, 1), (29, 0), (202, 8), (170, 0)]
62	2	4	8	36	[(125, 0), (77, 8), (163, 7), (55, 10), (1, 9), (105, 9), (61, 1), (50, 6), (148, 9), (231, 6), (82, 0), (189, 3), (217, 7), (25, 3), (242, 3), (137, 2), (102, 4), (145, 2), (175, 6), (97, 8), (203, 6), (222, 7), (233, 3), (42, 9), (13, 1), (64, 7), (135, 8), (166, 8), (155, 7), (246, 7), (169, 10), (128, 9), (103, 8), (96, 2), (228, 1), (8, 9)]
63	5	1	1	37	[(221, 6), (40, 6), (69, 8), (59, 5), (10, 6), (218, 10), (145, 3), (241, 6), (27, 2), (43, 10), (247, 8), (147, 2), (235, 4), (71, 5), (84, 6), (4, 4), (54, 3), (90, 4), (51, 5), (98, 10), (87, 2), (97, 8), (101, 5), (79, 10), (82, 0), (180, 7), (217, 7), (66, 8), (153, 7), (181, 3), (31, 0), (41, 6), (135, 8), (60, 3), (1, 5), (154, 7), (166, 8)]
64	4	1	8	46	[(59, 5), (106, 3), (143, 8), (13, 10), (63, 3), (3, 4), (92, 4), (146, 7), (123, 6), (190, 10), (163, 8), (145, 10), (216, 8), (97, 10), (64, 2), (164, 0), (169, 4), (43, 2), (35, 10), (228, 3), (136, 5), (215, 4), (237, 7), (103, 3), (235, 3), (144, 0), (36, 0), (199, 6), (83, 8), (185, 8), (58, 4), (26, 0), (9, 1), (173, 1), (27, 10), (175, 2), (171, 6), (20, 5), (115, 3), (248, 6), (209, 0), (223, 1), (177, 6), (195, 6), (202, 7), (100, 7)]
65	2	1	8	34	[(184, 10), (39, 10), (78, 9), (144, 5), (199, 8), (7, 9), (60, 3), (168, 1), (182, 0), (84, 8), (148, 7), (79, 2), (19, 10), (194, 5), (113, 1), (204, 8), (189, 9), (119, 2), (27, 1), (178, 9), (245, 6), (244, 7), (95, 3), (157, 1), (246, 7), (15, 0), (41, 6), (210, 1), (207, 10), (1, 5), (140, 4), (4, 5), (242, 9), (26, 3)]
66	2	1	16	32	[(82, 2), (243, 8), (157, 9), (30, 8), (136, 5), (171, 10), (200, 6), (129, 4), (77, 4), (8, 7), (137, 2), (19, 9), (176, 6), (148, 0), (40, 0), (184, 5), (239, 3), (2, 10), (125, 5), (32, 3), (88, 3), (241, 6), (236, 8), (198, 9), (178, 2), (103, 2), (115, 5), (119, 7), (91, 3), (250, 6), (101, 2), (138, 7)]
67	6	3	8	35	[(21, 4), (24, 6), (246, 5), (56, 9), (41, 7), (176, 1), (208, 5), (195, 5), (134, 0), (239, 10), (191, 7), (231, 7), (154, 7), (20, 1), (217, 4), (142, 2), (126, 0), (99, 2), (237, 3), (39, 8), (58, 9), (86, 0), (221, 6), (172, 5), (37, 0), (50, 4), (119, 10), (165, 3), (162, 1), (138, 6), (200, 3), (63, 4), (78, 9), (9, 5), (155, 10)]
68	1	1	4	36	[(76, 1), (162, 1), (136, 0), (188, 3), (178, 5), (73, 6), (111, 10), (242, 3), (183, 7), (161, 9), (14, 0), (15, 7), (20, 10), (210, 6), (141, 1), (12, 9), (67, 8), (101, 1), (144, 9), (31, 5), (90, 10), (79, 0), (132, 3), (247, 2), (160, 5), (35, 9), (200, 6), (248, 9), (13, 6), (198, 5), (246, 4), (3, 9), (134, 3), (120, 1), (87, 10), (114, 3)]
69	1	1	8	33	[(94, 5), (181, 1), (239, 6), (98, 7), (2, 7), (132, 1), (167, 4), (96, 1), (141, 10), (59, 2), (206, 1), (146, 1), (147, 2), (176, 2), (8, 8), (235, 7), (64, 9), (109, 10), (238, 4), (7, 0), (128, 10), (241, 6), (115, 2), (137, 6), (180, 5), (73, 1), (230, 7), (63, 8), (47, 7), (32, 5), (86, 10), (125, 0), (197, 2)]
70	2	1	1	33	[(250, 10), (70, 3), (220, 9), (146, 7), (16, 6), (237, 1), (128, 9), (94, 10), (199, 0), (115, 0), (225, 3), (248, 4), (74, 6), (147, 5), (23, 8), (219, 8), (29, 7), (187, 5), (222, 0), (110, 4), (129, 4), (93, 4), (167, 3), (209, 10), (143, 9), (14, 2), (134, 8), (189, 0), (12, 8), (223, 4), (62, 8), (32, 7), (141, 3)]
71	2	1	8	36	[(77, 3), (64, 10), (113, 2), (147, 1), (140, 6), (244, 9), (19, 5), (5, 5), (199, 0), (222, 10), (127, 9), (74, 10), (34, 5), (209, 0), (167, 1), (179, 6), (103, 8), (157, 7), (212, 2), (55, 9), (3, 2), (248, 3), (188, 9), (88, 1), (106, 0), (249, 6), (75, 5), (142, 8), (49, 7), (246, 3), (76, 8), (238, 0), (214, 3), (24, 5), (223, 0), (196, 6)]
72	15	1	8	32	[(30, 1), (135, 1), (70, 9), (28, 5), (218, 3), (9, 4), (153, 9), (185, 5), (206, 7), (182, 2), (99, 9), (173, 4), (149, 8), (102, 3), (171, 5), (156, 0), (142, 9), (74, 5), (88, 10), (226, 10), (166, 3), (188, 2), (126, 4), (96, 6), (123, 2), (83, 9), (97, 5), (177, 10), (170, 9), (67, 4), (230, 8), (138, 8)]
73	3	1	8	34	[(6, 1), (47, 0), (182, 7), (122, 5), (133, 10), (117, 10), (147, 3), (231, 6), (200, 1), (94, 8), (144, 8), (110, 0), (37, 6), (190, 9), (149, 1), (120, 6), (204, 4), (31, 4), (86, 9), (26, 10), (235, 7), (176, 8), (68, 9), (228, 2), (191, 6), (189, 3), (134, 7), (161, 2), (203, 9), (33, 8), (99, 6), (38, 0), (61, 5), (45, 5)]
74	10	2	8	35	[(235, 4), (231, 5), (169, 2), (85, 3), (36, 4), (250, 2), (5, 6), (152, 5), (104, 7), (18, 2), (60, 5), (114, 10), (80, 9), (20, 1), (247, 8), (194, 3), (16, 2), (240, 8), (118, 8), (91, 5), (151, 10), (174, 0), (110, 0), (10, 5), (55, 2), (46, 7), (29, 8), (180, 3), (64, 6), (172, 10), (116, 5), (47, 2), (196, 9), (7, 3), (149, 8)]
75	2	4	8	34	[(37, 3), (147, 2), (54, 3), (234, 9), (18, 4), (214, 0), (231, 9), (238, 5), (161, 5), (42, 5), (46, 3), (154, 10), (95, 9), (107, 7), (218, 3), (86, 4), (47, 6), (176, 4), (237, 7), (39, 8), (69, 1), (77, 1), (85, 4), (175, 9), (63, 5), (228, 7), (239, 5), (92, 1), (149, 6), (157, 10), (103, 8), (20, 8), (236, 7), (198, 2)]
76	20	4	8	39	[(117, 3), (250, 8), (28, 9), (177, 8), (64, 1), (91, 7), (230, 3), (92, 6), (19, 1), (192, 2), (187, 8), (45, 3), (48, 5), (106, 2), (210, 7), (125, 2), (132, 8), (199, 10), (127, 10), (118, 5), (214, 8), (37, 7), (209, 10), (194, 0), (76, 2), (97, 7), (158, 2), (90, 1), (144, 1), (34, 8), (226, 6), (169, 5), (35, 9), (201, 9), (237, 10), (9, 0), (234, 4), (69, 0), (218, 4)]
77	4	1	8	33	[(28, 8), (19, 10), (132, 9), (110, 6), (123, 2), (52, 4), (152, 7), (72, 0), (232, 2), (130, 4), (196, 8), (102, 9), (71, 8), (93, 8), (113, 4), (229, 5), (172, 1), (192, 7), (60, 1), (205, 7), (10, 3), (107, 2), (27, 6), (240, 10), (199, 9), (34, 2), (91, 4), (35, 10), (7, 10), (76, 9), (75, 4), (100, 3), (233, 1)]
78	1	1	4	37	[(122, 3), (62, 7), (220, 5), (118, 5), (222, 7), (25, 9), (232, 2), (223, 10), (105, 4), (74, 6), (115, 7), (191, 8), (156, 9), (83, 0), (76, 8), (158, 4), (129, 10), (212, 2), (236, 1), (110, 10), (147, 3), (217, 1), (208, 7), (109, 2), (136, 4), (245, 0), (239, 1), (151, 6), (45, 3), (128, 8), (170, 6), (135, 6), (171, 9), (18, 5), (186, 5), (165, 9), (65, 0)]
79	2	1	32	44	[(32, 1), (182, 5), (111, 10), (66, 8), (56, 2), (26, 9), (38, 6), (101, 3), (204, 7), (131, 0), (103, 4), (89, 2), (230, 2), (185, 7), (100, 6), (33, 0), (106, 9), (110, 5), (170, 9), (108, 5), (116, 0), (241, 6), (60, 3), (245, 7), (156, 3), (97, 6), (130, 5), (52, 7), (238, 9), (149, 9), (88, 10), (227, 6), (64, 8), (7, 7), (71, 2), (206, 5), (50, 2), (161, 4), (75, 4), (28, 2), (217, 6), (223, 4), (78, 2), (69, 10)]
80	2	2	8	43	[(91, 5), (249, 9), (50, 1), (19, 2), (145, 6), (209, 10), (136, 0), (197, 7), (113, 6), (18, 9), (35, 0), (49, 9), (184, 6), (57, 10), (127, 5), (23, 0), (9, 9), (4, 3), (135, 9), (54, 7), (115, 10), (73, 7), (43, 10), (156, 0), (130, 8), (133, 1), (177, 4), (175, 2), (70, 10), (106, 7), (181, 8), (80, 1), (39, 7), (236, 2), (201, 0), (231, 2), (105, 9), (154, 6), (182, 1), (52, 5), (155, 5), (86, 3), (21, 6)]
81	2	1	8	44	[(37, 0), (19, 8), (153, 10), (242, 7), (138, 7), (125, 2), (137, 0), (164, 1), (92, 5), (72, 9), (81, 9), (42, 7), (145, 6), (74, 7), (189, 7), (1, 1), (18, 4), (33, 2), (192, 7), (222, 4), (100, 2), (43, 9), (195, 9), (134, 6), (78, 7), (163, 4), (158, 9), (14, 8), (128, 9), (49, 1), (152, 9), (46, 3), (17, 9), (201, 9), (208, 6), (191, 0), (241, 1), (160, 9), (243, 9), (98, 9), (118, 8), (88, 7), (13, 4), (123, 5)]
82	2	1	8	38	[(147, 5), (79, 0), (205, 5), (28, 4), (72, 5), (54, 1), (84, 3), (124, 10), (140, 7), (35, 5), (158, 7), (213, 5), (20, 8), (22, 7), (217, 9), (219, 10), (227, 10), (77, 0), (61, 9), (175, 9), (187, 0), (18, 3), (47, 5), (76, 10), (56, 8), (102, 3), (232, 0), (233, 9), (191, 4), (152, 9), (119, 9), (48, 2), (90, 3), (103, 9), (228, 8), (116, 1), (178, 7), (250, 8)]
83	1	4	8	28	[(140, 6), (167, 0), (66, 2), (115, 6), (234, 3), (241, 1), (51, 4), (24, 10), (122, 1), (20, 1), (199, 2), (148, 7), (143, 8), (41, 7), (178, 7), (77, 8), (114, 4), (207, 4), (158, 9), (190, 1), (156, 1), (113, 4), (4, 10), (85, 5), (126, 0), (244, 9), (192, 3), (92, 1)]
84	1	3	8	41	[(184, 2), (142, 6), (216, 6), (16, 0), (250, 5), (100, 9), (173, 6), (74, 7), (95, 8), (248, 3), (220, 6), (83, 10), (73, 7), (137, 3), (133, 6), (230, 3), (162, 1), (6, 0), (19, 8), (115, 0), (225, 8), (94, 5), (249, 4), (104, 7), (52, 8), (81, 1), (145, 9), (54, 7), (80, 6), (182, 9), (208, 3), (125, 7), (146, 1), (21, 3), (150, 7), (119, 9), (207, 8), (147, 9), (36, 2), (128, 9), (46, 4)]
85	2	1	8	39	[(27, 6), (126, 0), (71, 4), (140, 0), (100, 2), (107, 9), (31, 6), (9, 1), (206, 2), (42, 8), (197, 5), (13, 1), (181, 1), (73, 7), (133, 8), (201, 5), (155, 0), (165, 5), (185, 1), (72, 10), (160, 10), (207, 5), (210, 7), (20, 0), (151, 2), (130, 10), (163, 2), (111, 8), (215, 4), (221, 2), (242, 7), (157, 2), (102, 7), (1, 5), (61, 10), (34, 1), (250, 9), (38, 7), (228, 7)]
86	2	1	32	37	[(249, 5), (47, 0), (214, 3), (91, 2), (200, 6), (54, 7), (178, 2), (168, 7), (81, 2), (157, 8), (220, 5), (31, 4), (83, 1), (164, 7), (32, 9), (53, 5), (215, 1), (23, 2), (138, 8), (206, 5), (193, 5), (87, 4), (75, 9), (37, 2), (223, 9), (50, 2), (90, 5), (1, 6), (46, 10), (188, 2), (35, 3), (72, 8), (221, 10), (126, 3), (191, 2), (228, 9), (123, 4)]
87	2	1	8	41	[(73, 3), (239, 10), (113, 6), (247, 10), (96, 7), (250, 9), (244, 7), (241, 4), (19, 9), (112, 4), (98, 1), (208, 9), (101, 5), (85, 7), (66, 4), (186, 6), (8, 7), (230, 2), (2, 3), (138, 3), (32, 7), (235, 8), (232, 6), (118, 10), (67, 4), (124, 5), (31, 4), (87, 10), (5, 1), (119, 3), (95, 8), (102, 1), (69, 4), (161, 0), (204, 7), (78, 10), (53, 5), (190, 8), (120, 2), (206, 7), (6, 0)]
88	3	1	8	44	[(175, 1), (67, 10), (243, 3), (122, 5), (100, 7), (246, 9), (37, 8), (90, 5), (78, 8), (210, 4), (211, 3), (41, 4), (58, 0), (70, 6), (45, 3), (106, 8), (215, 7), (109, 1), (98, 2), (239, 5), (79, 9), (84, 9), (158, 10), (22, 6), (172, 6), (125, 7), (124, 3), (108, 5), (247, 9), (237, 7), (156, 0), (101, 5), (133, 9), (5, 9), (15, 6), (187, 4), (64, 4), (9, 6), (213, 7), (160, 0), (219, 4), (191, 6), (200, 10), (232, 5)]
89	2	1	8	42	[(55, 3), (88, 2), (231, 3), (224, 6), (222, 8), (236, 4), (118, 4), (138, 8), (60, 0), (50, 6), (162, 10), (169, 4), (110, 7), (170, 4), (24, 3), (135, 4), (218, 4), (175, 3), (216, 1), (238, 5), (95, 0), (225, 7), (61, 6), (132, 0), (8, 8), (3, 7), (193, 6), (143, 2), (249, 8), (38, 0), (125, 4), (234, 10), (94, 4), (64, 5), (16, 8), (12, 7), (226, 1), (111, 5), (239, 1), (108, 0), (204, 8), (133, 7)]
90	1	1	8	31	[(157, 4), (67, 10), (133, 2), (245, 10), (174, 8), (177, 2), (15, 9), (248, 10), (102, 5), (99, 6), (79, 0), (55, 1), (74, 1), (218, 2), (120, 10), (77, 2), (138, 2), (107, 8), (223, 9), (132, 3), (58, 6), (162, 7), (26, 4), (235, 6), (130, 3), (123, 4), (17, 4), (192, 2), (137, 7), (69, 4), (140, 5)]
91	1	2	8	36	[(112, 4), (247, 0), (203, 7), (64, 0), (188, 8), (108, 7), (78, 8), (127, 5), (196, 10), (150, 10), (206, 7), (55, 2), (67, 4), (182, 0), (219, 10), (153, 10), (223, 7), (179, 1), (246, 6), (45, 1), (62, 2), (228, 8), (233, 10), (114, 7), (68, 2), (250, 2), (220, 6), (36, 1), (132, 4), (167, 2), (106, 0), (120, 4), (194, 0), (17, 2), (30, 3), (109, 10)]
92	1	1	8	32	[(51, 6), (166, 4), (24, 3), (224, 5), (146, 2), (218, 4), (68, 4), (242, 4), (225, 2), (31, 7), (35, 8), (10, 8), (195, 5), (63, 4), (182, 8), (208, 6), (244, 2), (96, 1), (167, 6), (92, 2), (206, 7), (98, 8), (187, 10), (144, 1), (155, 10), (13, 2), (246, 10), (104, 7), (173, 2), (50, 2), (170, 0), (147, 7)]
93	11	6	1	43	[(167, 6), (94, 5), (117, 9), (51, 10), (130, 2), (168, 2), (232, 10), (25, 5), (221, 0), (71, 7), (26, 8), (227, 2), (153, 3), (140, 8), (211, 10), (38, 8), (109, 7), (229, 4), (163, 0), (49, 6), (208, 2), (110, 4), (178, 6), (79, 3), (224, 6), (103, 2), (105, 10), (113, 3), (226, 4), (111, 0), (149, 1), (27, 0), (159, 9), (76, 8), (116, 9), (137, 9), (63, 5), (238, 0), (194, 7), (8, 1), (31, 7), (186, 7), (73, 3)]
94	15	4	8	35	[(56, 7), (88, 3), (203, 5), (155, 3), (154, 3), (134, 3), (81, 6), (64, 0), (79, 0), (220, 2), (52, 1), (227, 2), (147, 0), (9, 3), (8, 0), (222, 6), (133, 1), (72, 0), (120, 3), (102, 5), (212, 2), (200, 0), (18, 8), (54, 0), (91, 8), (178, 4), (24, 8), (132, 9), (58, 5), (229, 9), (10, 6), (191, 2), (209, 4), (228, 0), (104, 8)]
95	2	1	8	42	[(142, 5), (207, 10), (62, 5), (157, 7), (137, 4), (36, 8), (93, 4), (179, 5), (75, 2), (29, 0), (135, 8), (13, 0), (105, 10), (89, 4), (221, 9), (150, 2), (199, 9), (198, 7), (129, 1), (1, 4), (193, 5), (121, 5), (37, 9), (71, 10), (175, 7), (234, 10), (138, 6), (115, 9), (125, 4), (143, 1), (155, 2), (40, 9), (245, 4), (45, 5), (225, 2), (211, 7), (100, 10), (147, 9), (9, 0), (10, 2), (226, 7), (109, 7)]
96	2	2	8	28	[(25, 3), (6, 6), (121, 10), (67, 7), (82, 0), (187, 0), (106, 7), (144, 10), (127, 7), (176, 2), (213, 7), (110, 6), (73, 5), (88, 7), (7, 10), (46, 0), (221, 7), (210, 9), (229, 7), (37, 1), (76, 5), (241, 7), (48, 8), (19, 2), (224, 8), (79, 10), (21, 5), (12, 3)]
97	1	1	8	33	[(17, 7), (171, 9), (147, 4), (193, 7), (92, 9), (106, 10), (102, 9), (85, 8), (245, 8), (179, 3), (76, 3), (78, 4), (101, 10), (248, 7), (198, 5), (95, 2), (79, 6), (5, 7), (103, 7), (133, 0), (93, 1), (141, 2), (66, 7), (137, 2), (203, 3), (227, 1), (43, 1), (189, 9), (64, 7), (60, 0), (12, 4), (209, 8), (150, 2)]
98	5	1	8	40	[(218, 2), (90, 3), (232, 8), (148, 10), (18, 0), (98, 5), (153, 1), (249, 3), (152, 2), (34, 9), (228, 1), (65, 2), (231, 2), (247, 6), (97, 4), (196, 8), (116, 6), (164, 1), (102, 1), (245, 8), (119, 0), (209, 4), (110, 2), (133, 2), (187, 5), (29, 9), (138, 0), (78, 2), (79, 3), (44, 1), (42, 4), (27, 0), (240, 2), (212, 4), (178, 7), (136, 2), (248, 0), (169, 9), (183, 7), (134, 9)]
99	1	1	2	28	[(122, 6), (57, 10), (223, 3), (20, 4), (205, 10), (38, 6), (103, 7), (42, 1), (224, 8), (209, 0), (146, 0), (221, 0), (181, 10), (214, 6), (207, 3), (231, 7), (230, 8), (115, 7), (72, 6), (31, 5), (40, 6), (130, 0), (179, 9), (151, 6), (169, 5), (74, 5), (47, 5), (196, 9)]
100	1	1	8	41	[(231, 2), (183, 2), (218, 7), (224, 8), (27, 8), (48, 10), (117, 0), (208, 9), (59, 6), (225, 3), (20, 2), (145, 1), (233, 10), (216, 10), (85, 4), (56, 1), (47, 8), (95, 6), (44, 10), (209, 7), (138, 1), (58, 3), (179, 4), (9, 4), (101, 4), (104, 10), (46, 9), (236, 2), (70, 10), (144, 5), (110, 9), (188, 6), (205, 6), (24, 4), (25, 3), (78, 10), (137, 2), (207, 1), (54, 2), (1, 4), (250, 6)]
101	1	1	8	37	[(182, 5), (158, 1), (177, 1), (170, 7), (145, 6), (93, 1), (20, 8), (173, 1), (186, 0), (223, 8), (49, 5), (52, 2), (147, 0), (211, 6), (125, 7), (48, 10), (153, 6), (190, 1), (112, 7), (248, 5), (191, 1), (134, 2), (9, 5), (89, 4), (23, 4), (67, 8), (101, 4), (115, 4), (151, 4), (241, 1), (65, 8), (123, 8), (196, 2), (213, 0), (62, 4), (157, 8), (175, 7)]
102	2	4	8	41	[(15, 1), (72, 7), (100, 9), (40, 10), (229, 4), (156, 8), (2, 6), (186, 1), (233, 0), (77, 1), (228, 6), (249, 8), (193, 2), (135, 9), (83, 9), (179, 2), (46, 10), (120, 1), (23, 1), (66, 2), (131, 10), (87, 4), (18, 8), (114, 4), (31, 9), (3, 2), (14, 6), (51, 0), (176, 5), (33, 7), (154, 10), (210, 10), (130, 3), (239, 0), (183, 1), (44, 10), (17, 9), (112, 6), (35, 8), (63, 4), (164, 1)]
103	1	1	8	37	[(100, 10), (110, 2), (205, 2), (235, 1), (134, 5), (12, 5), (18, 6), (173, 6), (166, 8), (249, 9), (150, 7), (194, 10), (146, 6), (141, 9), (218, 7), (71, 10), (109, 9), (75, 7), (70, 8), (21, 4), (210, 3), (6, 7), (27, 8), (108, 5), (219, 6), (9, 8), (151, 1), (160, 4), (220, 9), (208, 8), (237, 5), (68, 6), (95, 9), (132, 10), (184, 0), (63, 8), (217, 10)]
104	2	1	8	27	[(46, 7), (61, 1), (246, 6), (121, 9), (167, 1), (74, 9), (17, 8), (135, 7), (183, 8), (127, 2), (100, 5), (84, 8), (126, 7), (245, 7), (62, 0), (33, 2), (9, 9), (158, 7), (120, 3), (97, 4), (116, 10), (192, 3), (101, 0), (76, 1), (212, 6), (197, 6), (90, 9)]
105	2	1	8	39	[(140, 7), (103, 4), (239, 4), (79, 4), (29, 9), (90, 5), (208, 2), (23, 10), (129, 6), (225, 4), (52, 1), (84, 9), (163, 1), (153, 8), (15, 2), (14, 9), (16, 2), (1, 1), (41, 4), (127, 10), (68, 8), (169, 9), (232, 0), (40, 0), (184, 7), (7, 2), (250, 8), (92, 7), (164, 1), (176, 5), (12, 5), (105, 3), (101, 2), (218, 3), (244, 3), (191, 5), (189, 10), (20, 8), (119, 8)]
106	2	1	2	41	[(42, 9), (17, 9), (223, 9), (113, 9), (209, 0), (81, 2), (83, 5), (211, 7), (201, 10), (89, 8), (108, 6), (109, 10), (235, 1), (82, 1), (206, 9), (168, 4), (175, 3), (36, 3), (172, 5), (190, 6), (187, 8), (37, 0), (56, 7), (6, 7), (193, 7), (95, 4), (135, 1), (162, 9), (220, 8), (11, 3), (204, 7), (14, 1), (163, 1), (33, 3), (64, 0), (215, 1), (100, 5), (39, 6), (216, 8), (132, 8), (212, 8)]
107	6	1	1	38	[(104, 0), (84, 1), (237, 2), (215, 3), (133, 1), (231, 4), (95, 10), (74, 2), (202, 4), (224, 8), (177, 8), (92, 3), (83, 1), (191, 2), (28, 3), (3, 9), (29, 6), (55, 1), (37, 0), (86, 5), (242, 6), (183, 3), (65, 10), (121, 6), (91, 8), (49, 6), (5, 3), (63, 4), (21, 3), (214, 2), (153, 2), (51, 8), (60, 3), (41, 6), (146, 7), (11, 8), (141, 9), (178, 8)]
108	2	1	16	33	[(113, 2), (36, 4), (188, 5), (101, 7), (38, 0), (138, 0), (247, 6), (2, 5), (61, 4), (45, 9), (216, 5), (23, 9), (53, 10), (16, 5), (70, 7), (44, 1), (124, 0), (161, 7), (24, 1), (248, 0), (165, 5), (137, 1), (27, 10), (211, 10), (127, 7), (105, 10), (26, 9), (37, 2), (63, 1), (130, 6), (240, 0), (58, 0), (225, 3)]
109	1	1	8	36	[(17, 4), (60, 2), (192, 6), (47, 6), (19, 6), (69, 8), (42, 4), (191, 6), (87, 7), (145, 2), (245, 6), (233, 4), (187, 0), (131, 0), (109, 4), (13, 6), (110, 10), (93, 2), (239, 7), (196, 7), (123, 0), (202, 0), (38, 2), (57, 4), (71, 0), (102, 0), (197, 0), (144, 7), (12, 3), (242, 9), (8, 1), (193, 1), (189, 2), (166, 4), (129, 10), (151, 5)]
110	1	1	8	43	[(89, 8), (34, 8), (68, 10), (1, 0), (31, 7), (192, 2), (95, 8), (246, 9), (197, 7), (145, 6), (12, 2), (23, 10), (106, 5), (82, 8), (214, 9), (174, 1), (130, 6), (15, 1), (7, 5), (57, 4), (69, 2), (103, 7), (220, 5), (218, 8), (62, 4), (65, 9), (225, 3), (88, 8), (18, 5), (105, 3), (182, 10), (248, 1), (168, 7), (150, 10), (125, 6), (159, 5), (33, 1), (173, 4), (39, 8), (191, 9), (162, 2), (198, 5), (124, 9)]
111	3	2	8	37	[(22, 6), (98, 3), (106, 8), (170, 0), (107, 4), (67, 9), (169, 4), (129, 9), (46, 1), (19, 10), (165, 8), (176, 1), (194, 8), (5, 6), (150, 0), (183, 10), (196, 7), (186, 8), (127, 7), (220, 0), (227, 4), (179, 1), (144, 2), (234, 6), (237, 7), (240, 2), (15, 0), (175, 2), (57, 6), (51, 3), (85, 6), (74, 0), (213, 3), (64, 1), (6, 7), (63, 8), (82, 9)]
112	6	3	48	38	[(89, 2), (192, 10), (80, 0), (20, 3), (140, 0), (149, 6), (8, 8), (191, 3), (189, 0), (34, 5), (97, 1), (23, 3), (57, 6), (101, 3), (94, 4), (142, 1), (148, 4), (168, 2), (196, 5), (98, 5), (38, 1), (86, 2), (166, 10), (128, 7), (144, 2), (56, 1), (76, 2), (207, 0), (114, 2), (215, 7), (236, 6), (177, 4), (194, 5), (96, 2), (244, 8), (136, 2), (3, 9), (60, 0)]
113	2	1	8	36	[(62, 8), (226, 10), (206, 4), (187, 4), (86, 8), (101, 5), (184, 7), (139, 10), (70, 5), (82, 8), (12, 10), (8, 5), (237, 7), (191, 0), (127, 4), (205, 10), (69, 2), (76, 0), (104, 2), (91, 0), (4, 2), (210, 4), (238, 6), (171, 10), (250, 9), (47, 5), (67, 2), (164, 2), (215, 0), (109, 3), (212, 1), (134, 5), (241, 8), (33, 10), (178, 7), (85, 10)]
114	1	1	8	32	[(164, 6), (56, 1), (77, 6), (100, 7), (148, 4), (165, 4), (61, 2), (45, 4), (133, 1), (166, 7), (150, 0), (246, 3), (40, 4), (176, 4), (217, 10), (249, 6), (18, 5), (169, 8), (52, 5), (11, 6), (181, 3), (200, 0), (196, 10), (142, 9), (126, 6), (26, 3), (188, 9), (158, 7), (38, 5), (124, 5), (108, 6), (115, 1)]
115	3	1	1	31	[(115, 3), (178, 4), (227, 1), (55, 2), (60, 4), (92, 0), (101, 9), (123, 4), (44, 5), (71, 8), (189, 8), (99, 5), (67, 3), (39, 10), (23, 5), (180, 4), (204, 8), (112, 4), (228, 3), (74, 8), (40, 8), (65, 7), (86, 2), (48, 6), (229, 0), (235, 9), (53, 1), (179, 10), (51, 0), (61, 6), (125, 4)]
116	1	2	2	40	[(4, 0), (63, 0), (72, 6), (160, 7), (202, 0), (119, 10), (2, 6), (68, 3), (241, 9), (1, 9), (117, 2), (91, 0), (80, 6), (27, 3), (167, 2), (169, 0), (112, 5), (28, 4), (16, 7), (3, 0), (123, 5), (220, 2), (44, 6), (172, 6), (161, 4), (146, 2), (37, 10), (48, 0), (224, 9), (126, 10), (248, 4), (59, 7), (51, 10), (193, 8), (124, 0), (32, 8), (214, 8), (234, 2), (47, 10), (247, 8)]
117	1	2	8	28	[(195, 4), (83, 9), (243, 3), (20, 1), (139, 6), (94, 3), (214, 3), (99, 2), (120, 7), (9, 0), (69, 5), (165, 1), (79, 6), (177, 7), (115, 5), (199, 4), (104, 3), (134, 0), (84, 4), (25, 5), (191, 7), (137, 0), (111, 6), (24, 10), (32, 1), (112, 2), (96, 10), (97, 7)]
118	1	1	1	31	[(130, 6), (66, 4), (136, 10), (153, 4), (104, 7), (19, 5), (11, 6), (245, 7), (195, 1), (95, 6), (116, 0), (94, 4), (142, 0), (22, 10), (210, 7), (35, 7), (154, 3), (158, 7), (71, 9), (160, 9), (122, 6), (202, 3), (48, 5), (165, 8), (143, 9), (205, 10), (212, 2), (89, 1), (186, 4), (33, 1), (214, 7)]
119	2	1	8	41	[(162, 10), (150, 3), (201, 4), (220, 6), (135, 3), (198, 10), (187, 9), (88, 4), (117, 3), (51, 6), (131, 9), (193, 10), (26, 2), (72, 7), (38, 10), (16, 9), (77, 7), (199, 0), (18, 10), (62, 0), (143, 8), (45, 7), (168, 6), (148, 2), (50, 1), (154, 4), (141, 9), (163, 1), (208, 9), (241, 7), (125, 3), (75, 1), (133, 7), (159, 7), (166, 8), (106, 3), (118, 1), (179, 1), (60, 3), (2, 9), (229, 3)]
120	2	1	8	39	[(191, 9), (200, 5), (149, 9), (239, 3), (205, 0), (18, 10), (73, 2), (20, 9), (166, 1), (39, 2), (216, 9), (129, 6), (68, 3), (13, 8), (157, 3), (34, 7), (31, 1), (25, 5), (67, 1), (115, 6), (33, 10), (135, 4), (168, 3), (130, 5), (234, 0), (86, 4), (210, 5), (243, 4), (230, 9), (7, 5), (110, 8), (55, 10), (139, 8), (179, 5), (65, 5), (249, 1), (38, 6), (16, 7), (150, 1)]
121	31	2	8	41	[(229, 9), (156, 4), (73, 10), (154, 7), (123, 9), (47, 1), (227, 2), (136, 8), (214, 9), (99, 10), (165, 1), (192, 9), (168, 5), (94, 2), (215, 2), (235, 7), (248, 3), (108, 0), (228, 9), (79, 2), (4, 6), (122, 0), (206, 6), (167, 1), (67, 2), (143, 1), (42, 3), (113, 8), (46, 4), (109, 6), (184, 1), (82, 5), (20, 0), (241, 8), (182, 7), (110, 0), (208, 2), (57, 7), (3, 3), (163, 9), (199, 8)]
122	2	3	8	42	[(15, 6), (180, 10), (230, 2), (38, 9), (226, 7), (102, 7), (231, 2), (73, 10), (35, 0), (147, 1), (144, 5), (108, 8), (237, 9), (205, 2), (56, 8), (52, 7), (14, 0), (19, 4), (184, 7), (84, 5), (66, 6), (40, 2), (49, 9), (32, 6), (235, 2), (72, 4), (143, 7), (26, 7), (59, 7), (10, 9), (17, 4), (61, 9), (241, 10), (135, 9), (9, 2), (167, 10), (112, 8), (168, 2), (156, 3), (227, 6), (165, 7), (178, 7)]
123	5	2	8	40	[(234, 6), (45, 5), (99, 9), (77, 1), (206, 5), (28, 1), (210, 4), (50, 3), (70, 0), (100, 3), (118, 8), (82, 7), (22, 0), (217, 2), (154, 4), (41, 7), (161, 0), (212, 5), (211, 7), (30, 7), (125, 0), (127, 3), (62, 10), (194, 10), (2, 5), (48, 6), (209, 1), (105, 1), (56, 0), (75, 10), (112, 0), (122, 1), (200, 8), (21, 4), (91, 5), (226, 0), (84, 3), (142, 4), (92, 7), (204, 0)]
124	5	1	2	32	[(174, 10), (82, 10), (7, 0), (183, 3), (90, 2), (15, 4), (159, 1), (165, 9), (211, 0), (45, 2), (219, 7), (189, 6), (67, 2), (125, 3), (102, 2), (182, 1), (38, 3), (79, 1), (249, 1), (210, 9), (59, 2), (110, 1), (142, 10), (191, 9), (169, 0), (186, 10), (14, 5), (119, 5), (16, 2), (103, 0), (205, 4), (126, 1)]
125	1	4	8	40	[(51, 10), (118, 8), (227, 10), (193, 10), (145, 0), (189, 4), (33, 5), (40, 6), (5, 6), (241, 1), (103, 6), (44, 1), (231, 2), (183, 1), (148, 10), (222, 7), (86, 4), (52, 3), (161, 6), (243, 3), (178, 3), (202, 4), (36, 10), (233, 1), (158, 6), (167, 8), (156, 8), (105, 8), (95, 3), (187, 5), (74, 6), (31, 3), (220, 4), (98, 6), (234, 9), (26, 2), (64, 2), (221, 10), (229, 6), (191, 4)]
126	2	4	32	48	[(35, 4), (198, 4), (237, 7), (215, 3), (107, 4), (158, 8), (51, 8), (190, 8), (106, 0), (161, 0), (23, 9), (44, 6), (231, 8), (69, 8), (233, 8), (31, 4), (182, 5), (125, 3), (203, 8), (139, 8), (156, 4), (72, 4), (248, 9), (148, 7), (70, 5), (200, 7), (101, 2), (250, 1), (109, 1), (84, 2), (1, 9), (164, 0), (172, 0), (145, 1), (82, 0), (112, 7), (81, 2), (22, 1), (189, 7), (45, 1), (92, 6), (6, 2), (41, 9), (196, 6), (211, 5), (136, 0), (29, 4), (157, 8)]
127	5	4	8	34	[(46, 10), (245, 7), (141, 1), (230, 5), (40, 3), (106, 2), (34, 9), (222, 5), (242, 1), (202, 4), (146, 10), (137, 8), (147, 3), (90, 10), (29, 2), (218, 9), (121, 4), (165, 4), (180, 6), (95, 7), (154, 6), (177, 8), (191, 2), (86, 3), (3, 3), (69, 1), (1, 10), (5, 7), (138, 9), (243, 2), (194, 1), (235, 4), (108, 8), (136, 1)]
128	2	1	8	34	[(151, 1), (17, 3), (25, 4), (9, 0), (111, 7), (10, 7), (227, 4), (193, 0), (36, 8), (174, 10), (205, 8), (119, 10), (59, 7), (50, 8), (221, 6), (118, 0), (179, 8), (88, 1), (68, 2), (18, 10), (26, 8), (7, 3), (114, 4), (97, 1), (52, 1), (127, 6), (124, 4), (164, 2), (163, 4), (168, 2), (220, 10), (53, 10), (226, 8), (112, 7)]
129	2	1	8	35	[(43, 9), (82, 9), (65, 4), (137, 8), (228, 7), (95, 7), (86, 4), (103, 2), (117, 9), (88, 3), (181, 9), (125, 10), (177, 8), (55, 4), (222, 0), (48, 4), (132, 3), (130, 7), (74, 9), (146, 6), (239, 7), (42, 9), (24, 9), (198, 5), (234, 5), (91, 1), (148, 1), (243, 6), (202, 7), (214, 7), (211, 7), (237, 2), (140, 0), (238, 8), (196, 0)]
130	2	1	8	41	[(173, 9), (115, 5), (135, 2), (10, 5), (46, 10), (90, 9), (54, 5), (235, 7), (212, 3), (201, 6), (49, 0), (60, 6), (244, 6), (3, 5), (211, 7), (131, 7), (154, 9), (82, 5), (208, 8), (20, 5), (55, 3), (156, 10), (50, 7), (87, 5), (122, 1), (38, 4), (120, 6), (94, 0), (111, 5), (175, 7), (180, 4), (164, 4), (172, 3), (24, 1), (39, 0), (169, 0), (125, 3), (42, 7), (73, 0), (116, 6), (106, 10)]
131	1	1	8	47	[(204, 1), (161, 6), (96, 8), (200, 8), (65, 6), (42, 1), (62, 7), (61, 5), (106, 8), (125, 1), (229, 2), (59, 9), (212, 6), (37, 7), (32, 3), (137, 1), (139, 10), (142, 6), (160, 4), (206, 10), (17, 10), (11, 0), (209, 7), (168, 5), (148, 9), (3, 7), (246, 5), (165, 6), (153, 9), (95, 1), (244, 10), (25, 4), (10, 8), (230, 8), (169, 7), (75, 7), (151, 4), (40, 0), (101, 5), (90, 8), (72, 5), (233, 9), (172, 5), (64, 2), (167, 6), (205, 2), (16, 0)]
132	2	6	8	34	[(85, 5), (133, 4), (71, 7), (47, 9), (176, 4), (153, 10), (234, 3), (15, 1), (186, 10), (93, 7), (222, 3), (164, 1), (215, 10), (205, 3), (137, 4), (223, 3), (209, 4), (187, 1), (134, 0), (101, 8), (235, 3), (108, 0), (103, 3), (116, 7), (67, 0), (24, 4), (8, 9), (193, 9), (98, 4), (79, 0), (194, 8), (74, 4), (140, 4), (177, 3)]
133	2	1	8	37	[(211, 2), (93, 3), (115, 4), (84, 2), (210, 6), (193, 6), (56, 3), (183, 9), (243, 0), (212, 9), (71, 10), (246, 5), (97, 3), (189, 0), (22, 3), (214, 8), (107, 1), (103, 8), (65, 3), (234, 10), (101, 8), (91, 8), (187, 8), (59, 9), (179, 10), (8, 10), (100, 1), (21, 4), (228, 5), (241, 4), (177, 6), (50, 4), (213, 8), (58, 5), (13, 1), (170, 4), (133, 3)]
134	78	4	7	40	[(212, 1), (91, 9), (53, 2), (234, 3), (165, 9), (152, 4), (229, 9), (147, 5), (96, 8), (74, 2), (250, 5), (193, 0), (120, 6), (162, 4), (226, 8), (117, 1), (55, 2), (44, 10), (20, 9), (118, 3), (31, 8), (133, 5), (202, 9), (40, 0), (203, 0), (32, 9), (236, 3), (82, 6), (95, 6), (67, 10), (124, 4), (92, 0), (233, 10), (122, 5), (192, 7), (227, 1), (99, 8), (218, 9), (7, 0), (61, 2)]
135	1	2	8	43	[(107, 8), (74, 1), (175, 7), (156, 0), (130, 7), (161, 3), (5, 7), (1, 7), (174, 1), (153, 4), (248, 6), (56, 2), (46, 0), (144, 5), (244, 9), (209, 3), (31, 7), (24, 10), (68, 1), (199, 0), (169, 5), (35, 10), (208, 7), (38, 8), (204, 10), (222, 1), (47, 0), (10, 1), (164, 8), (126, 9), (190, 6), (94, 10), (238, 10), (205, 4), (121, 6), (57, 10), (21, 3), (51, 10), (246, 5), (173, 4), (100, 0), (213, 7), (191, 0)]
136	1	2	8	46	[(29, 4), (62, 2), (109, 4), (23, 9), (41, 1), (209, 1), (66, 10), (198, 8), (187, 2), (45, 4), (14, 8), (43, 6), (15, 3), (218, 8), (99, 3), (149, 8), (127, 0), (37, 2), (90, 8), (121, 6), (46, 1), (55, 8), (104, 3), (73, 2), (111, 4), (78, 7), (92, 3), (7, 9), (180, 0), (204, 7), (118, 5), (94, 6), (22, 2), (101, 3), (172, 7), (159, 1), (125, 9), (26, 0), (61, 2), (147, 1), (156, 1), (75, 2), (122, 5), (38, 6), (214, 6), (40, 0)]
137	2	2	8	34	[(127, 1), (234, 0), (223, 0), (88, 5), (93, 3), (102, 5), (193, 7), (42, 6), (4, 6), (186, 8), (41, 6), (194, 6), (158, 9), (80, 1), (167, 0), (39, 4), (169, 1), (95, 7), (216, 2), (6, 10), (180, 6), (31, 3), (238, 2), (231, 10), (130, 6), (208, 9), (211, 7), (68, 0), (165, 0), (115, 4), (97, 6), (120, 9), (196, 4), (183, 10)]
138	28	2	32	30	[(150, 2), (225, 9), (236, 4), (25, 3), (102, 7), (5, 8), (135, 9), (204, 6), (115, 2), (120, 9), (69, 1), (132, 10), (126, 3), (205, 7), (45, 10), (195, 1), (149, 7), (83, 7), (57, 2), (210, 4), (107, 9), (111, 7), (86, 8), (193, 7), (11, 1), (90, 10), (9, 2), (99, 10), (232, 3), (68, 10)]
139	2	3	8	33	[(119, 4), (210, 6), (225, 5), (38, 4), (195, 7), (82, 8), (21, 8), (15, 2), (142, 4), (77, 5), (227, 10), (71, 5), (184, 4), (208, 9), (109, 2), (183, 10), (1, 7), (161, 3), (31, 0), (81, 0), (62, 1), (219, 1), (14, 10), (94, 2), (131, 9), (11, 7), (175, 8), (174, 0), (91, 7), (106, 2), (76, 6), (93, 3), (118, 9)]
140	7	1	8	36	[(226, 7), (48, 2), (4, 0), (133, 1), (118, 5), (77, 2), (78, 3), (13, 5), (106, 9), (46, 4), (249, 8), (213, 10), (201, 2), (62, 5), (119, 7), (229, 7), (29, 3), (243, 1), (185, 2), (236, 2), (175, 7), (116, 10), (246, 10), (161, 0), (81, 3), (94, 6), (217, 9), (191, 9), (245, 8), (55, 2), (196, 3), (53, 1), (192, 9), (137, 2), (204, 1), (122, 10)]
141	1	8	8	34	[(18, 4), (70, 1), (38, 10), (190, 4), (189, 9), (42, 0), (243, 7), (213, 6), (100, 5), (131, 7), (188, 10), (126, 4), (5, 4), (227, 0), (200, 7), (152, 5), (170, 3), (89, 0), (49, 7), (6, 7), (66, 7), (12, 2), (222, 2), (33, 9), (142, 10), (192, 6), (149, 3), (226, 8), (184, 7), (145, 10), (214, 1), (71, 8), (168, 3), (246, 6)]
142	1	2	8	34	[(199, 5), (206, 9), (163, 3), (6, 9), (43, 5), (13, 8), (111, 1), (51, 7), (126, 6), (224, 10), (27, 1), (139, 7), (15, 1), (212, 4), (124, 9), (47, 9), (189, 6), (117, 4), (205, 9), (168, 6), (195, 3), (55, 0), (137, 0), (120, 9), (53, 0), (221, 6), (96, 5), (234, 6), (54, 4), (56, 6), (149, 10), (242, 8), (133, 3), (223, 7)]
143	10	1	8	53	[(140, 0), (51, 1), (32, 4), (224, 1), (14, 9), (138, 0), (186, 10), (37, 7), (236, 2), (143, 3), (204, 5), (135, 4), (103, 10), (12, 6), (38, 7), (147, 0), (102, 10), (239, 10), (116, 2), (82, 7), (113, 2), (211, 3), (232, 1), (245, 10), (105, 1), (139, 8), (36, 4), (117, 3), (238, 3), (39, 8), (188, 1), (93, 8), (10, 8), (121, 9), (190, 8), (168, 7), (112, 3), (45, 0), (216, 10), (20, 10), (207, 10), (43, 2), (246, 2), (127, 2), (153, 9), (126, 10), (89, 0), (110, 5), (180, 2), (79, 6), (1, 8), (47, 7), (63, 1)]
144	2	1	2	45	[(55, 5), (246, 5), (111, 6), (8, 9), (96, 2), (65, 8), (174, 6), (213, 9), (67, 7), (117, 2), (16, 9), (162, 7), (218, 7), (43, 3), (138, 0), (61, 1), (103, 9), (248, 10), (161, 4), (110, 9), (116, 9), (217, 4), (182, 0), (175, 3), (78, 4), (130, 7), (144, 1), (172, 4), (37, 6), (53, 7), (141, 5), (62, 1), (13, 4), (3, 7), (200, 2), (83, 1), (128, 2), (190, 2), (87, 0), (50, 10), (56, 8), (145, 5), (214, 6), (157, 8), (75, 3)]
145	2	1	8	40	[(213, 2), (82, 2), (84, 3), (185, 9), (158, 4), (209, 3), (35, 9), (24, 6), (5, 1), (94, 10), (124, 2), (148, 7), (53, 3), (4, 1), (77, 8), (174, 5), (217, 7), (48, 8), (178, 6), (233, 4), (56, 7), (69, 3), (110, 0), (184, 5), (237, 8), (39, 6), (38, 7), (86, 0), (122, 9), (61, 10), (139, 4), (76, 5), (127, 8), (116, 6), (230, 2), (72, 7), (55, 3), (68, 7), (137, 2), (106, 5)]
146	5	12	8	46	[(20, 2), (16, 6), (24, 3), (72, 0), (188, 9), (249, 1), (175, 2), (85, 6), (160, 5), (172, 9), (153, 9), (193, 1), (171, 2), (114, 7), (151, 9), (179, 0), (5, 1), (104, 1), (168, 1), (103, 6), (181, 0), (120, 5), (169, 1), (117, 3), (133, 1), (232, 10), (105, 6), (92, 0), (212, 9), (15, 3), (174, 2), (48, 5), (176, 9), (211, 6), (12, 5), (140, 8), (159, 9), (59, 7), (199, 4), (31, 4), (150, 10), (100, 1), (58, 9), (18, 9), (223, 1), (144, 0)]
147	2	2	16	33	[(95, 4), (60, 9), (33, 7), (65, 0), (124, 8), (49, 4), (53, 9), (114, 10), (174, 4), (246, 10), (248, 7), (37, 1), (191, 0), (146, 7), (42, 6), (206, 10), (31, 8), (127, 4), (4, 7), (214, 5), (8, 9), (64, 1), (164, 3), (113, 10), (21, 4), (153, 10), (38, 9), (175, 4), (134, 5), (142, 7), (23, 8), (221, 10), (213, 3)]
148	8	3	8	41	[(32, 3), (78, 0), (1, 7), (190, 7), (216, 1), (80, 10), (229, 0), (22, 7), (77, 10), (196, 10), (150, 0), (107, 4), (178, 2), (158, 3), (173, 2), (76, 10), (175, 3), (102, 3), (151, 0), (206, 8), (163, 6), (16, 10), (52, 9), (223, 8), (208, 8), (174, 2), (43, 3), (186, 2), (45, 10), (243, 1), (250, 2), (82, 6), (37, 4), (127, 5), (21, 4), (132, 1), (176, 10), (106, 5), (104, 2), (172, 8), (155, 1)]
149	1	1	8	30	[(79, 3), (55, 9), (24, 0), (216, 7), (119, 5), (230, 8), (188, 9), (199, 8), (231, 0), (101, 9), (250, 1), (105, 8), (19, 5), (244, 7), (137, 0), (60, 2), (5, 3), (240, 2), (50, 5), (171, 4), (34, 3), (238, 6), (58, 5), (22, 6), (152, 0), (4, 7), (208, 2), (92, 2), (155, 10), (122, 6)]
150	3	1	8	31	[(15, 5), (76, 10), (71, 8), (127, 10), (207, 7), (213, 10), (44, 1), (61, 1), (243, 10), (149, 10), (196, 6), (161, 3), (101, 3), (57, 6), (136, 9), (116, 3), (132, 0), (46, 1), (250, 0), (212, 10), (106, 3), (232, 4), (155, 8), (158, 9), (109, 8), (17, 4), (182, 0), (197, 9), (82, 2), (21, 2), (84, 5)]
151	2	5	8	27	[(85, 2), (106, 4), (4, 1), (171, 4), (48, 8), (6, 8), (45, 1), (136, 5), (26, 6), (18, 4), (128, 5), (182, 10), (154, 5), (129, 7), (143, 9), (24, 10), (247, 7), (64, 1), (243, 1), (108, 10), (223, 10), (61, 7), (236, 7), (68, 4), (197, 10), (215, 6), (86, 10)]
152	3	3	8	33	[(17, 8), (96, 6), (14, 0), (233, 8), (21, 2), (243, 6), (185, 7), (180, 3), (163, 7), (12, 1), (95, 3), (248, 1), (105, 7), (151, 10), (81, 10), (187, 9), (16, 9), (55, 4), (58, 2), (89, 5), (245, 6), (146, 9), (241, 4), (184, 9), (216, 2), (155, 0), (90, 2), (209, 3), (44, 9), (11, 4), (110, 4), (169, 6), (35, 2)]
153	1	3	8	39	[(140, 8), (190, 2), (202, 2), (214, 10), (63, 6), (183, 2), (225, 0), (168, 2), (44, 9), (111, 8), (79, 2), (49, 6), (14, 8), (201, 5), (107, 5), (244, 7), (50, 10), (114, 3), (77, 7), (17, 4), (135, 3), (16, 2), (9, 9), (61, 9), (200, 7), (224, 4), (119, 2), (55, 7), (10, 6), (56, 0), (155, 5), (243, 6), (216, 8), (75, 2), (175, 3), (112, 5), (90, 0), (237, 4), (69, 10)]
154	9	3	8	44	[(72, 8), (187, 1), (167, 8), (109, 0), (113, 9), (102, 6), (70, 2), (5, 5), (199, 5), (184, 5), (176, 7), (159, 2), (62, 3), (25, 6), (243, 10), (235, 2), (135, 7), (56, 3), (66, 10), (86, 8), (186, 7), (233, 9), (91, 9), (145, 5), (156, 10), (238, 3), (228, 10), (193, 2), (181, 0), (158, 2), (52, 1), (37, 9), (99, 9), (105, 8), (10, 2), (9, 8), (190, 4), (179, 1), (250, 7), (93, 2), (169, 0), (121, 5), (234, 3), (31, 1)]
155	2	1	8	36	[(180, 7), (124, 1), (184, 4), (146, 4), (7, 2), (29, 1), (120, 8), (207, 1), (46, 9), (135, 2), (227, 8), (12, 9), (97, 5), (33, 2), (36, 9), (145, 10), (106, 8), (75, 2), (54, 3), (222, 5), (211, 4), (229, 8), (137, 7), (230, 6), (242, 8), (127, 8), (57, 0), (156, 3), (40, 3), (132, 8), (118, 8), (128, 10), (238, 3), (169, 1), (43, 4), (59, 10)]
156	1	4	8	35	[(209, 5), (42, 0), (7, 1), (143, 5), (104, 0), (197, 9), (29, 10), (219, 4), (139, 7), (144, 5), (34, 3), (36, 2), (70, 5), (80, 2), (153, 3), (27, 2), (205, 4), (167, 7), (173, 2), (106, 2), (194, 8), (112, 5), (239, 0), (43, 9), (110, 1), (119, 1), (232, 0), (127, 8), (178, 8), (44, 10), (138, 8), (130, 2), (196, 1), (46, 9), (124, 1)]
157	1	1	8	40	[(16, 7), (125, 10), (202, 6), (201, 0), (229, 10), (30, 6), (38, 7), (114, 0), (210, 4), (214, 2), (171, 5), (150, 2), (68, 2), (207, 6), (180, 6), (122, 8), (24, 7), (28, 3), (190, 6), (72, 2), (197, 1), (213, 3), (93, 0), (33, 9), (249, 1), (130, 2), (53, 7), (161, 0), (165, 3), (152, 9), (222, 10), (168, 7), (94, 6), (184, 1), (42, 8), (83, 9), (187, 0), (203, 2), (183, 10), (238, 0)]
158	1	4	8	42	[(74, 1), (176, 5), (228, 8), (23, 5), (54, 9), (19, 0), (103, 6), (237, 9), (90, 7), (230, 0), (2, 10), (150, 9), (161, 0), (75, 3), (27, 6), (214, 7), (138, 6), (133, 3), (78, 9), (186, 2), (144, 9), (85, 4), (89, 5), (125, 9), (235, 8), (107, 3), (108, 6), (52, 6), (92, 8), (157, 2), (182, 7), (96, 8), (80, 0), (3, 0), (238, 9), (33, 4), (171, 1), (231, 9), (158, 8), (146, 5), (17, 2), (88, 6)]
159	4	6	1	39	[(145, 5), (190, 5), (165, 3), (247, 2), (31, 4), (80, 10), (176, 8), (22, 0), (115, 10), (243, 3), (208, 3), (57, 9), (3, 8), (148, 5), (249, 6), (143, 6), (225, 4), (132, 6), (99, 6), (238, 1), (6, 1), (178, 3), (18, 0), (75, 5), (151, 7), (39, 2), (197, 1), (172, 5), (157, 1), (56, 9), (226, 9), (203, 5), (85, 5), (156, 1), (52, 8), (19, 9), (104, 0), (24, 5), (213, 8)]
160	3	1	8	43	[(97, 6), (36, 0), (58, 9), (183, 5), (180, 4), (18, 10), (231, 0), (128, 10), (217, 3), (204, 1), (240, 7), (102, 5), (220, 8), (109, 8), (157, 10), (95, 6), (149, 10), (1, 3), (124, 9), (61, 1), (121, 1), (130, 3), (12, 0), (114, 6), (182, 10), (63, 0), (212, 2), (247, 8), (165, 1), (68, 1), (115, 10), (200, 0), (125, 5), (150, 4), (46, 2), (185, 6), (99, 6), (9, 4), (3, 2), (241, 7), (30, 6), (94, 6), (225, 8)]
161	2	2	16	36	[(173, 1), (58, 2), (248, 5), (93, 7), (91, 9), (119, 6), (240, 2), (159, 10), (6, 8), (147, 3), (230, 4), (112, 0), (10, 6), (118, 0), (223, 1), (43, 9), (55, 4), (242, 2), (82, 2), (54, 5), (73, 5), (92, 7), (238, 5), (41, 9), (9, 7), (3, 4), (101, 4), (26, 9), (114, 10), (79, 3), (11, 4), (193, 3), (243, 9), (138, 5), (63, 4), (46, 7)]
162	1	6	8	34	[(87, 9), (207, 5), (227, 5), (6, 8), (72, 8), (60, 8), (15, 1), (10, 7), (211, 4), (123, 6), (217, 6), (243, 5), (159, 6), (35, 9), (47, 10), (250, 3), (92, 1), (85, 6), (84, 4), (206, 2), (37, 4), (18, 7), (187, 6), (70, 5), (240, 1), (184, 8), (93, 10), (120, 5), (67, 5), (205, 8), (1, 0), (192, 9), (221, 9), (197, 2)]
163	5	1	8	36	[(150, 10), (187, 0), (239, 9), (232, 10), (242, 0), (217, 9), (228, 6), (112, 8), (72, 6), (69, 3), (16, 6), (143, 0), (84, 3), (43, 10), (52, 7), (7, 4), (32, 1), (134, 4), (227, 3), (176, 5), (205, 3), (96, 0), (167, 5), (98, 0), (244, 10), (40, 0), (191, 8), (117, 6), (94, 1), (130, 5), (161, 4), (100, 6), (186, 4), (159, 6), (201, 4), (42, 2)]
164	2	1	8	47	[(221, 4), (215, 8), (111, 6), (130, 8), (38, 6), (81, 1), (64, 5), (65, 3), (55, 2), (40, 1), (154, 2), (161, 4), (62, 2), (87, 7), (238, 4), (67, 6), (32, 1), (93, 9), (171, 8), (99, 3), (107, 9), (146, 10), (42, 8), (56, 2), (10, 1), (36, 3), (63, 3), (246, 5), (169, 1), (222, 1), (139, 3), (48, 2), (96, 7), (180, 9), (108, 1), (141, 6), (229, 9), (59, 9), (80, 6), (110, 9), (165, 2), (12, 7), (153, 10), (70, 8), (164, 4), (202, 3), (95, 1)]
165	2	1	8	34	[(62, 6), (226, 9), (9, 4), (115, 9), (223, 2), (155, 9), (177, 10), (199, 10), (24, 1), (243, 7), (58, 5), (39, 5), (132, 7), (183, 10), (87, 8), (173, 4), (31, 8), (191, 6), (38, 9), (193, 3), (49, 0), (117, 3), (175, 1), (198, 8), (219, 0), (184, 1), (37, 9), (94, 5), (170, 5), (53, 10), (124, 4), (27, 10), (209, 9), (106, 2)]
166	1	1	8	33	[(65, 6), (154, 4), (108, 10), (138, 10), (163, 2), (246, 6), (91, 8), (149, 0), (104, 2), (237, 4), (249, 3), (227, 3), (152, 7), (211, 8), (38, 10), (15, 5), (157, 1), (35, 9), (50, 9), (243, 7), (135, 6), (238, 9), (23, 4), (200, 5), (191, 5), (205, 3), (132, 3), (123, 1), (95, 2), (244, 0), (184, 3), (42, 8), (179, 3)]
167	3	1	8	38	[(120, 3), (124, 1), (24, 9), (129, 9), (165, 1), (156, 9), (183, 5), (45, 0), (53, 1), (133, 1), (138, 8), (172, 10), (42, 1), (117, 3), (81, 8), (98, 7), (99, 3), (249, 6), (190, 2), (91, 0), (114, 7), (189, 9), (234, 3), (158, 4), (5, 0), (18, 9), (159, 5), (106, 5), (200, 7), (176, 8), (56, 2), (233, 2), (164, 0), (16, 4), (67, 7), (33, 9), (220, 0), (208, 8)]
168	3	1	8	34	[(90, 0), (134, 3), (148, 3), (97, 6), (236, 0), (81, 6), (209, 2), (94, 4), (80, 7), (140, 6), (17, 10), (48, 8), (65, 3), (64, 4), (1, 4), (27, 10), (151, 4), (237, 4), (222, 7), (107, 0), (128, 7), (238, 9), (71, 9), (208, 3), (161, 0), (33, 10), (77, 5), (82, 8), (213, 5), (197, 6), (85, 2), (188, 10), (248, 5), (177, 5)]
169	2	1	8	40	[(204, 10), (98, 3), (107, 5), (126, 7), (91, 5), (104, 4), (152, 2), (122, 8), (101, 7), (180, 10), (223, 5), (143, 9), (65, 5), (19, 2), (110, 5), (214, 8), (165, 4), (54, 10), (169, 10), (81, 0), (87, 5), (175, 10), (44, 3), (229, 0), (23, 4), (135, 9), (103, 3), (83, 4), (38, 10), (153, 1), (8, 2), (47, 4), (207, 8), (190, 10), (226, 0), (69, 3), (227, 4), (117, 1), (96, 5), (2, 2)]
170	1	1	8	34	[(159, 2), (46, 4), (203, 6), (175, 6), (1, 9), (208, 5), (178, 9), (166, 1), (221, 7), (143, 3), (38, 9), (212, 6), (161, 0), (218, 1), (124, 2), (13, 9), (92, 7), (216, 4), (152, 10), (3, 3), (12, 7), (191, 0), (34, 9), (48, 10), (230, 3), (58, 8), (225, 10), (127, 6), (170, 1), (47, 5), (52, 2), (64, 0), (41, 6), (125, 6)]
171	1	1	8	37	[(68, 8), (67, 8), (52, 3), (231, 3), (125, 9), (189, 8), (22, 5), (160, 6), (77, 3), (60, 4), (119, 4), (211, 10), (218, 7), (140, 4), (156, 6), (76, 10), (188, 5), (14, 5), (199, 1), (93, 3), (233, 2), (209, 9), (205, 4), (32, 2), (194, 10), (145, 0), (45, 5), (113, 2), (81, 3), (130, 0), (217, 2), (147, 10), (126, 2), (200, 3), (104, 1), (196, 0), (107, 0)]
172	2	2	1	41	[(189, 8), (243, 6), (223, 4), (231, 1), (249, 3), (156, 1), (67, 3), (64, 10), (119, 3), (78, 4), (168, 0), (248, 8), (1, 7), (191, 8), (91, 3), (240, 4), (217, 9), (151, 8), (181, 1), (130, 8), (221, 3), (196, 1), (176, 9), (6, 6), (235, 0), (225, 1), (16, 9), (31, 2), (205, 7), (108, 3), (166, 6), (112, 1), (60, 7), (180, 6), (199, 2), (116, 10), (159, 10), (207, 9), (153, 8), (61, 1), (11, 7)]
173	43	1	8	40	[(178, 7), (195, 7), (66, 6), (151, 2), (29, 4), (121, 3), (211, 6), (248, 1), (5, 7), (43, 9), (31, 10), (130, 9), (205, 2), (176, 10), (70, 2), (108, 5), (139, 10), (242, 8), (13, 2), (71, 8), (122, 5), (240, 6), (232, 8), (223, 2), (189, 8), (192, 4), (93, 3), (190, 3), (196, 0), (153, 0), (6, 4), (209, 7), (83, 6), (218, 2), (37, 9), (8, 7), (214, 10), (207, 10), (155, 8), (188, 0)]
174	5	1	8	50	[(46, 6), (7, 4), (100, 0), (27, 10), (240, 0), (89, 2), (218, 9), (180, 5), (112, 8), (122, 9), (234, 8), (99, 6), (228, 6), (229, 4), (20, 5), (210, 6), (14, 1), (204, 4), (17, 3), (19, 3), (197, 2), (250, 2), (76, 6), (168, 6), (69, 10), (26, 7), (134, 5), (224, 9), (138, 7), (116, 6), (215, 2), (18, 10), (164, 5), (163, 2), (95, 6), (59, 0), (157, 3), (214, 4), (178, 5), (102, 6), (34, 4), (123, 6), (185, 10), (104, 8), (191, 6), (84, 9), (52, 9), (54, 0), (220, 8), (6, 7)]
175	2	1	8	19	[(206, 2), (236, 0), (163, 2), (53, 6), (209, 3), (204, 6), (152, 2), (109, 3), (102, 9), (148, 9), (174, 1), (140, 2), (114, 9), (85, 2), (42, 1), (226, 3), (194, 5), (177, 3), (101, 5)]
176	2	1	8	38	[(68, 8), (1, 9), (234, 1), (116, 8), (154, 3), (135, 7), (136, 0), (212, 2), (47, 5), (231, 4), (222, 4), (168, 2), (131, 1), (246, 7), (55, 10), (110, 9), (134, 2), (164, 5), (89, 1), (37, 2), (93, 2), (233, 10), (220, 3), (15, 10), (181, 6), (206, 0), (195, 7), (123, 6), (41, 4), (190, 10), (49, 10), (217, 0), (58, 2), (102, 10), (44, 8), (245, 9), (239, 8), (98, 7)]
177	4	1	2	32	[(239, 10), (1, 10), (95, 8), (125, 1), (216, 6), (40, 7), (32, 2), (198, 3), (199, 4), (51, 8), (28, 10), (75, 7), (56, 8), (12, 10), (37, 5), (217, 3), (33, 4), (46, 0), (14, 3), (2, 4), (228, 2), (82, 9), (243, 2), (87, 10), (76, 2), (163, 8), (117, 0), (176, 6), (219, 5), (246, 0), (108, 3), (168, 2)]
178	2	3	8	39	[(10, 1), (67, 10), (60, 6), (51, 7), (132, 8), (62, 0), (114, 6), (105, 6), (152, 1), (223, 2), (117, 3), (63, 5), (147, 0), (166, 8), (6, 8), (224, 0), (8, 6), (217, 3), (187, 1), (134, 10), (9, 1), (215, 1), (138, 0), (172, 2), (80, 0), (76, 5), (190, 0), (53, 2), (43, 3), (181, 2), (185, 8), (171, 2), (56, 5), (163, 3), (213, 2), (183, 9), (49, 4), (13, 9), (40, 4)]
179	16	1	8	28	[(5, 2), (234, 0), (14, 5), (98, 4), (250, 8), (180, 7), (89, 5), (188, 5), (172, 3), (63, 8), (4, 0), (71, 9), (102, 1), (18, 6), (212, 2), (182, 1), (77, 1), (29, 3), (7, 4), (217, 1), (21, 3), (136, 8), (11, 6), (138, 3), (68, 4), (87, 10), (178, 1), (156, 9)]
180	2	4	8	40	[(37, 3), (160, 8), (157, 8), (203, 6), (128, 6), (183, 0), (95, 4), (103, 2), (246, 8), (205, 9), (186, 10), (170, 6), (238, 1), (119, 4), (4, 0), (10, 0), (172, 10), (117, 10), (181, 0), (50, 8), (247, 9), (220, 8), (78, 3), (63, 5), (2, 3), (26, 5), (124, 1), (226, 4), (46, 0), (114, 9), (196, 9), (143, 0), (159, 3), (33, 9), (120, 0), (144, 3), (178, 5), (45, 0), (164, 6), (184, 8)]
181	3	6	2	42	[(25, 0), (147, 10), (102, 2), (89, 5), (177, 7), (181, 10), (72, 9), (87, 10), (246, 9), (44, 1), (188, 5), (183, 0), (53, 0), (244, 10), (194, 2), (74, 5), (211, 1), (75, 4), (28, 5), (61, 1), (81, 10), (182, 7), (121, 2), (112, 6), (120, 1), (159, 5), (6, 2), (39, 1), (50, 5), (127, 4), (37, 0), (248, 5), (96, 5), (250, 6), (237, 4), (82, 3), (56, 6), (220, 0), (219, 4), (129, 6), (118, 7), (152, 10)]
182	3	1	16	41	[(86, 8), (20, 6), (85, 2), (202, 8), (50, 3), (82, 1), (167, 6), (110, 3), (183, 3), (188, 3), (76, 9), (139, 8), (247, 8), (18, 3), (114, 3), (113, 8), (27, 10), (101, 4), (236, 0), (155, 3), (48, 1), (129, 0), (87, 4), (19, 1), (102, 5), (189, 0), (196, 0), (197, 6), (8, 4), (46, 10), (147, 10), (242, 5), (132, 10), (117, 8), (100, 8), (31, 0), (165, 7), (62, 4), (195, 3), (159, 1), (239, 6)]
183	2	1	8	34	[(77, 7), (62, 9), (169, 0), (99, 5), (85, 6), (61, 9), (147, 2), (39, 4), (122, 7), (212, 6), (4, 5), (157, 0), (197, 4), (165, 4), (180, 9), (101, 4), (88, 0), (68, 9), (20, 7), (209, 8), (1, 4), (171, 5), (112, 2), (28, 8), (78, 9), (90, 10), (105, 3), (17, 7), (118, 8), (144, 0), (43, 3), (46, 10), (80, 5), (102, 4)]
184	4	1	8	33	[(232, 1), (78, 6), (239, 8), (80, 8), (149, 6), (193, 0), (227, 0), (174, 5), (83, 2), (1, 8), (89, 9), (51, 1), (137, 10), (69, 1), (125, 6), (13, 4), (77, 8), (31, 4), (205, 3), (160, 0), (56, 4), (162, 10), (189, 0), (24, 1), (161, 10), (12, 10), (115, 7), (245, 5), (190, 3), (124, 8), (121, 7), (29, 7), (106, 5)]
185	4	1	1	36	[(191, 10), (56, 2), (82, 8), (189, 5), (119, 4), (70, 7), (34, 5), (73, 5), (146, 9), (188, 7), (49, 5), (80, 8), (24, 10), (174, 4), (55, 5), (192, 8), (161, 3), (46, 10), (196, 3), (68, 2), (118, 4), (166, 4), (57, 4), (98, 2), (155, 3), (112, 5), (232, 7), (36, 1), (217, 7), (176, 8), (214, 8), (74, 7), (69, 10), (228, 9), (157, 3), (37, 9)]
186	1	1	8	45	[(133, 5), (156, 5), (229, 10), (19, 10), (189, 10), (63, 1), (62, 1), (25, 1), (125, 7), (193, 10), (34, 3), (212, 4), (60, 2), (180, 0), (84, 10), (47, 10), (130, 5), (106, 5), (68, 8), (137, 2), (166, 2), (249, 2), (241, 6), (195, 2), (171, 0), (197, 10), (57, 10), (210, 7), (245, 2), (11, 10), (53, 1), (79, 6), (77, 7), (232, 3), (116, 5), (188, 2), (136, 10), (177, 0), (226, 1), (236, 0), (20, 0), (218, 1), (41, 7), (12, 6), (107, 1)]
187	1	1	8	45	[(139, 6), (136, 9), (232, 0), (137, 2), (38, 6), (124, 7), (61, 5), (112, 7), (119, 7), (230, 2), (2, 5), (60, 10), (140, 0), (209, 9), (34, 2), (41, 5), (248, 6), (206, 5), (161, 0), (32, 5), (233, 6), (58, 1), (216, 2), (54, 6), (20, 0), (156, 4), (49, 7), (211, 10), (203, 0), (221, 6), (12, 6), (200, 1), (7, 0), (151, 8), (8, 7), (82, 1), (132, 3), (177, 2), (127, 10), (246, 7), (202, 6), (45, 10), (218, 6), (207, 7), (141, 1)]
188	1	1	2	44	[(108, 10), (33, 0), (244, 2), (182, 6), (103, 2), (28, 7), (179, 10), (80, 0), (93, 7), (105, 6), (27, 8), (223, 0), (6, 10), (177, 10), (91, 1), (26, 7), (239, 10), (161, 8), (118, 6), (97, 0), (5, 8), (186, 6), (165, 3), (57, 0), (24, 7), (169, 0), (183, 5), (236, 5), (44, 5), (204, 4), (87, 0), (100, 6), (21, 9), (50, 7), (128, 1), (110, 4), (232, 9), (243, 4), (51, 9), (250, 3), (112, 9), (29, 2), (222, 2), (155, 1)]
189	1	4	8	31	[(84, 3), (108, 7), (94, 3), (114, 8), (195, 6), (106, 6), (249, 7), (164, 0), (211, 8), (239, 4), (71, 2), (56, 9), (204, 1), (183, 0), (92, 9), (142, 9), (131, 0), (206, 10), (137, 7), (125, 10), (57, 1), (135, 4), (177, 10), (124, 1), (42, 8), (27, 8), (46, 3), (3, 2), (82, 5), (75, 1), (156, 2)]
190	3	1	8	38	[(232, 5), (54, 9), (86, 3), (231, 7), (131, 7), (247, 5), (133, 8), (107, 0), (148, 1), (206, 4), (8, 1), (62, 6), (3, 10), (93, 10), (88, 7), (44, 7), (39, 6), (184, 2), (31, 6), (210, 9), (111, 2), (14, 9), (115, 9), (75, 4), (40, 9), (227, 4), (59, 10), (171, 8), (196, 7), (35, 8), (67, 3), (181, 1), (43, 9), (228, 6), (233, 9), (98, 0), (116, 8), (135, 3)]
191	25	1	16	30	[(23, 9), (162, 9), (121, 10), (113, 3), (206, 2), (92, 8), (223, 7), (57, 4), (147, 2), (224, 10), (166, 6), (212, 10), (142, 4), (98, 2), (48, 10), (64, 6), (27, 10), (31, 1), (156, 5), (231, 3), (228, 5), (133, 3), (128, 0), (190, 7), (118, 8), (171, 5), (158, 1), (97, 0), (42, 9), (107, 7)]
192	2	2	8	38	[(68, 8), (204, 8), (30, 7), (207, 9), (121, 8), (125, 6), (38, 6), (49, 1), (184, 0), (37, 8), (139, 5), (245, 4), (143, 6), (32, 4), (233, 0), (127, 3), (47, 9), (26, 2), (137, 6), (243, 4), (45, 6), (168, 1), (106, 3), (82, 8), (25, 6), (69, 1), (103, 6), (138, 4), (173, 3), (165, 1), (1, 0), (61, 2), (109, 10), (151, 3), (110, 2), (76, 0), (36, 9), (41, 6)]
193	9	5	8	27	[(210, 4), (139, 3), (18, 0), (234, 9), (157, 9), (229, 9), (109, 2), (65, 1), (69, 3), (31, 5), (26, 6), (100, 2), (83, 0), (130, 3), (250, 9), (75, 3), (154, 10), (140, 10), (29, 7), (133, 6), (161, 0), (211, 9), (128, 3), (11, 8), (194, 2), (196, 6), (44, 7)]
194	1	1	16	48	[(232, 6), (184, 3), (20, 6), (28, 0), (16, 4), (246, 9), (185, 2), (103, 3), (236, 9), (209, 6), (25, 4), (70, 1), (78, 5), (223, 5), (238, 0), (24, 1), (207, 6), (57, 6), (143, 6), (64, 6), (29, 4), (127, 9), (104, 4), (2, 10), (158, 0), (157, 4), (139, 3), (106, 10), (12, 6), (23, 1), (113, 6), (142, 10), (45, 2), (82, 5), (249, 8), (193, 4), (170, 0), (131, 2), (140, 6), (89, 2), (44, 5), (61, 3), (108, 10), (177, 9), (49, 1), (153, 10), (126, 0), (138, 8)]
195	2	5	8	44	[(154, 3), (224, 10), (96, 10), (93, 7), (244, 7), (55, 7), (12, 3), (67, 3), (151, 3), (207, 8), (131, 6), (87, 3), (13, 8), (179, 4), (88, 7), (221, 0), (60, 3), (144, 8), (51, 3), (45, 5), (103, 2), (53, 8), (125, 0), (97, 3), (107, 5), (201, 5), (231, 2), (19, 7), (128, 4), (249, 10), (195, 7), (143, 7), (134, 10), (95, 7), (222, 7), (22, 3), (80, 1), (49, 5), (184, 1), (82, 3), (233, 0), (16, 0), (247, 4), (106, 10)]
196	3	1	8	41	[(102, 8), (101, 2), (193, 5), (66, 1), (121, 1), (105, 4), (125, 0), (156, 10), (60, 0), (128, 9), (148, 3), (14, 0), (198, 0), (46, 10), (21, 8), (158, 3), (231, 5), (44, 7), (233, 4), (123, 2), (23, 9), (42, 7), (48, 1), (164, 2), (242, 3), (63, 6), (137, 10), (59, 7), (104, 0), (202, 0), (54, 1), (70, 5), (113, 10), (208, 9), (97, 2), (107, 0), (92, 5), (236, 4), (190, 1), (36, 0), (69, 8)]
197	3	1	16	36	[(149, 3), (186, 10), (18, 9), (41, 4), (203, 6), (45, 6), (137, 9), (243, 4), (58, 3), (227, 8), (61, 10), (169, 6), (69, 3), (221, 0), (181, 4), (33, 6), (110, 1), (13, 8), (44, 6), (188, 10), (75, 0), (242, 0), (124, 3), (81, 5), (47, 0), (64, 7), (67, 6), (200, 3), (160, 6), (68, 5), (24, 6), (172, 9), (238, 2), (216, 9), (55, 9), (210, 7)]
198	2	1	2	40	[(176, 2), (242, 7), (200, 8), (163, 5), (177, 0), (64, 0), (189, 10), (44, 2), (198, 8), (213, 5), (206, 7), (7, 4), (138, 3), (74, 4), (235, 2), (145, 8), (156, 8), (60, 3), (90, 6), (183, 3), (21, 4), (243, 0), (208, 10), (54, 4), (59, 7), (233, 4), (135, 4), (123, 7), (173, 2), (83, 8), (140, 6), (28, 6), (26, 5), (222, 1), (192, 4), (77, 3), (116, 0), (216, 6), (72, 4), (223, 8)]
199	3	1	8	41	[(178, 2), (106, 1), (183, 6), (63, 5), (191, 4), (192, 1), (104, 2), (223, 2), (64, 7), (148, 10), (105, 3), (61, 4), (145, 10), (89, 8), (18, 3), (185, 1), (200, 3), (112, 7), (2, 7), (171, 3), (197, 7), (1, 1), (78, 10), (173, 0), (97, 8), (83, 5), (156, 9), (86, 6), (247, 5), (226, 5), (176, 7), (138, 0), (220, 5), (131, 9), (214, 5), (40, 3), (21, 4), (193, 5), (157, 8), (43, 2), (175, 5)]
200	2	1	8	38	[(97, 4), (86, 6), (105, 8), (47, 9), (63, 2), (65, 4), (132, 4), (61, 1), (170, 3), (156, 8), (71, 10), (82, 10), (184, 2), (177, 2), (31, 0), (221, 6), (55, 3), (248, 1), (68, 7), (99, 4), (158, 5), (186, 9), (20, 3), (137, 6), (157, 0), (145, 8), (84, 4), (182, 9), (80, 2), (151, 7), (181, 8), (205, 6), (17, 1), (2, 1), (51, 2), (13, 8), (192, 3), (227, 3)]
201	1	2	8	43	[(181, 10), (32, 2), (147, 10), (37, 0), (236, 10), (30, 5), (217, 0), (168, 2), (164, 2), (237, 7), (75, 2), (70, 1), (213, 0), (60, 3), (118, 5), (244, 5), (165, 8), (134, 6), (204, 2), (50, 8), (41, 5), (94, 0), (245, 10), (126, 4), (57, 7), (73, 9), (86, 9), (2, 4), (133, 0), (27, 3), (248, 1), (150, 8), (222, 4), (243, 7), (84, 2), (120, 7), (106, 1), (143, 5), (47, 7), (21, 5), (176, 9), (16, 8), (225, 5)]
202	11	2	8	37	[(47, 2), (190, 10), (179, 9), (53, 1), (144, 5), (7, 0), (145, 2), (92, 1), (141, 9), (78, 10), (127, 6), (245, 5), (224, 7), (80, 4), (196, 1), (167, 8), (71, 7), (137, 0), (84, 10), (51, 4), (197, 4), (30, 3), (81, 6), (70, 6), (129, 2), (181, 1), (201, 0), (35, 4), (233, 5), (248, 10), (188, 4), (156, 4), (61, 10), (223, 5), (24, 0), (204, 5), (2, 2)]
203	2	1	4	38	[(140, 1), (161, 6), (148, 4), (56, 7), (35, 1), (213, 4), (210, 5), (136, 5), (128, 10), (150, 7), (44, 9), (196, 0), (240, 8), (68, 1), (90, 9), (69, 2), (188, 8), (133, 5), (225, 10), (34, 7), (52, 5), (241, 4), (194, 2), (127, 6), (107, 4), (170, 6), (74, 3), (84, 7), (131, 5), (159, 7), (175, 7), (236, 4), (75, 10), (207, 3), (233, 2), (42, 0), (121, 1), (37, 0)]
204	2	6	8	43	[(9, 3), (248, 2), (124, 2), (51, 9), (125, 3), (12, 0), (102, 6), (169, 3), (250, 7), (50, 7), (55, 2), (225, 4), (208, 8), (133, 10), (21, 8), (130, 6), (198, 8), (167, 8), (185, 7), (216, 6), (168, 3), (195, 4), (45, 5), (187, 3), (7, 8), (191, 2), (179, 5), (200, 8), (100, 1), (164, 10), (117, 10), (233, 9), (228, 4), (107, 2), (56, 8), (176, 4), (139, 4), (134, 6), (78, 4), (103, 5), (17, 2), (101, 9), (73, 1)]
205	1	4	16	36	[(32, 8), (152, 1), (213, 2), (99, 9), (110, 8), (158, 7), (203, 5), (247, 5), (80, 6), (58, 9), (128, 8), (202, 3), (194, 9), (77, 2), (21, 6), (103, 7), (82, 8), (67, 10), (227, 9), (208, 5), (123, 5), (178, 2), (183, 3), (240, 1), (113, 8), (184, 0), (13, 2), (140, 3), (51, 6), (137, 10), (233, 7), (226, 7), (78, 8), (59, 9), (177, 4), (169, 5)]
206	16	2	8	38	[(208, 3), (1, 5), (248, 3), (145, 3), (96, 6), (40, 2), (220, 9), (119, 5), (182, 3), (250, 2), (153, 3), (199, 1), (218, 7), (15, 8), (63, 4), (27, 2), (246, 4), (34, 5), (167, 4), (39, 10), (160, 6), (78, 8), (58, 10), (154, 8), (25, 8), (130, 10), (69, 0), (104, 9), (133, 4), (193, 5), (225, 9), (151, 4), (64, 7), (235, 8), (168, 9), (81, 4), (36, 7), (101, 6)]
207	2	4	8	44	[(212, 0), (23, 9), (34, 5), (221, 3), (219, 0), (239, 8), (143, 5), (75, 1), (211, 5), (21, 1), (130, 9), (222, 5), (32, 10), (201, 10), (241, 2), (41, 8), (156, 4), (118, 6), (113, 1), (116, 3), (54, 5), (110, 10), (77, 0), (19, 0), (29, 1), (101, 3), (8, 0), (184, 1), (67, 5), (96, 2), (15, 8), (109, 7), (232, 7), (205, 2), (249, 6), (197, 7), (155, 3), (128, 6), (135, 2), (82, 5), (66, 9), (216, 10), (24, 6), (227, 5)]
208	1	6	2	45	[(15, 6), (8, 2), (160, 8), (192, 10), (197, 5), (77, 4), (120, 3), (12, 3), (31, 8), (217, 6), (212, 8), (150, 0), (6, 8), (93, 1), (158, 9), (134, 6), (243, 10), (32, 3), (57, 9), (67, 6), (199, 4), (34, 6), (142, 5), (223, 9), (164, 0), (64, 8), (68, 8), (189, 3), (117, 4), (230, 10), (103, 10), (109, 9), (152, 0), (3, 5), (128, 10), (244, 10), (7, 9), (83, 3), (171, 2), (48, 6), (185, 10), (236, 0), (208, 8), (181, 7), (174, 7)]
209	1	1	8	41	[(11, 4), (67, 2), (37, 5), (152, 10), (30, 3), (55, 1), (96, 4), (108, 1), (105, 1), (200, 7), (42, 8), (138, 7), (165, 4), (141, 7), (214, 0), (117, 7), (104, 8), (112, 2), (36, 9), (121, 1), (204, 3), (245, 7), (190, 10), (4, 4), (168, 3), (50, 9), (127, 1), (182, 8), (34, 3), (185, 5), (134, 7), (39, 5), (234, 9), (118, 4), (189, 6), (98, 5), (51, 3), (68, 7), (162, 0), (148, 4), (44, 2)]
210	1	7	8	33	[(231, 5), (230, 4), (165, 0), (154, 6), (40, 9), (239, 9), (246, 3), (147, 4), (97, 0), (52, 7), (219, 1), (227, 9), (25, 0), (56, 7), (155, 0), (209, 0), (4, 9), (119, 1), (41, 1), (54, 4), (196, 6), (89, 2), (116, 6), (27, 8), (45, 10), (93, 10), (132, 3), (137, 5), (217, 2), (55, 4), (223, 5), (47, 10), (61, 7)]
211	4	1	8	40	[(113, 2), (95, 0), (53, 10), (62, 8), (194, 2), (1, 5), (61, 3), (123, 10), (115, 4), (128, 6), (225, 6), (198, 0), (56, 8), (249, 3), (196, 4), (108, 8), (204, 7), (76, 8), (230, 7), (39, 5), (197, 1), (37, 1), (96, 3), (22, 10), (15, 2), (3, 3), (40, 2), (16, 4), (131, 0), (121, 5), (147, 9), (143, 8), (238, 9), (124, 7), (189, 6), (149, 10), (137, 4), (81, 1), (144, 6), (28, 9)]
212	2	3	8	28	[(119, 4), (237, 10), (176, 7), (134, 2), (236, 7), (1, 9), (178, 5), (222, 1), (79, 4), (213, 3), (247, 1), (235, 6), (113, 9), (62, 6), (56, 10), (17, 3), (244, 1), (179, 7), (11, 10), (242, 1), (189, 4), (12, 2), (212, 1), (243, 10), (203, 6), (2, 8), (155, 6), (241, 4)]
213	1	1	8	35	[(77, 4), (108, 2), (207, 5), (166, 5), (17, 7), (167, 1), (181, 4), (169, 8), (141, 3), (36, 7), (119, 5), (74, 6), (37, 2), (93, 0), (102, 8), (196, 1), (32, 0), (31, 7), (227, 9), (45, 1), (193, 0), (72, 6), (107, 10), (110, 10), (134, 9), (229, 1), (149, 9), (62, 3), (165, 10), (49, 10), (246, 5), (131, 1), (226, 3), (89, 6), (232, 9)]
214	1	2	8	44	[(200, 7), (191, 6), (3, 8), (161, 5), (208, 8), (14, 7), (106, 2), (138, 6), (224, 1), (133, 1), (164, 3), (246, 0), (6, 6), (29, 9), (235, 2), (199, 5), (230, 9), (144, 1), (227, 7), (132, 2), (145, 8), (124, 2), (26, 1), (173, 4), (92, 5), (40, 6), (113, 0), (45, 5), (16, 0), (17, 1), (240, 0), (195, 4), (61, 9), (197, 8), (247, 10), (186, 8), (233, 1), (203, 10), (75, 8), (35, 8), (53, 4), (108, 5), (44, 3), (65, 3)]
215	1	1	8	25	[(21, 1), (1, 6), (28, 6), (236, 10), (138, 6), (194, 8), (126, 7), (240, 9), (232, 2), (133, 5), (250, 1), (32, 6), (197, 8), (59, 9), (116, 1), (44, 7), (217, 4), (72, 5), (214, 8), (30, 0), (91, 7), (73, 8), (140, 2), (29, 6), (81, 4)]
216	2	3	8	35	[(113, 5), (139, 1), (32, 5), (114, 8), (144, 10), (41, 6), (201, 4), (132, 9), (130, 7), (16, 3), (159, 7), (169, 4), (241, 3), (102, 2), (57, 0), (207, 10), (191, 1), (213, 2), (58, 8), (214, 7), (230, 5), (158, 6), (209, 3), (172, 6), (195, 5), (79, 4), (126, 3), (208, 3), (153, 4), (225, 1), (154, 1), (78, 0), (249, 4), (168, 6), (84, 0)]
217	2	1	8	32	[(72, 6), (191, 2), (44, 1), (117, 10), (52, 3), (55, 1), (132, 2), (241, 10), (235, 2), (23, 4), (202, 10), (236, 4), (97, 1), (225, 2), (171, 6), (220, 5), (167, 7), (5, 0), (172, 6), (87, 10), (124, 0), (96, 10), (140, 7), (246, 8), (100, 9), (162, 10), (151, 5), (18, 5), (219, 6), (28, 10), (105, 1), (115, 4)]
218	2	1	8	38	[(184, 8), (22, 9), (103, 5), (73, 5), (15, 0), (238, 4), (21, 6), (216, 6), (181, 5), (9, 4), (140, 2), (118, 3), (226, 0), (235, 6), (236, 9), (136, 5), (215, 9), (32, 5), (149, 6), (10, 7), (99, 9), (8, 5), (250, 7), (27, 3), (59, 1), (42, 9), (248, 2), (3, 3), (199, 9), (221, 8), (180, 4), (33, 3), (105, 8), (121, 3), (123, 1), (89, 5), (147, 4), (85, 1)]
219	3	1	8	39	[(190, 7), (186, 3), (66, 1), (234, 6), (179, 4), (176, 4), (127, 9), (174, 0), (248, 8), (12, 5), (143, 1), (70, 9), (83, 6), (6, 4), (172, 6), (100, 0), (52, 2), (41, 9), (206, 10), (95, 10), (194, 6), (116, 5), (101, 2), (92, 5), (191, 5), (200, 10), (98, 3), (182, 3), (135, 5), (34, 6), (27, 2), (164, 3), (216, 9), (160, 3), (241, 9), (113, 10), (219, 4), (243, 0), (89, 9)]
220	2	1	8	39	[(36, 1), (224, 9), (60, 6), (97, 3), (5, 10), (6, 4), (91, 3), (143, 7), (133, 7), (240, 1), (186, 8), (119, 0), (117, 4), (204, 2), (214, 0), (59, 1), (70, 3), (210, 4), (247, 0), (7, 5), (160, 5), (125, 6), (13, 0), (147, 1), (196, 6), (236, 1), (82, 5), (92, 0), (35, 3), (39, 4), (10, 2), (130, 9), (225, 0), (193, 1), (118, 10), (110, 3), (246, 7), (122, 5), (32, 1)]
221	2	1	8	42	[(226, 7), (186, 5), (85, 4), (177, 0), (101, 3), (237, 2), (56, 7), (133, 10), (25, 8), (149, 4), (70, 0), (201, 7), (112, 10), (124, 8), (58, 5), (231, 2), (172, 5), (24, 0), (135, 5), (106, 0), (187, 1), (128, 0), (78, 0), (75, 3), (182, 8), (83, 2), (72, 1), (165, 10), (32, 5), (84, 9), (223, 0), (243, 6), (140, 1), (125, 10), (74, 2), (246, 8), (161, 1), (41, 5), (198, 6), (3, 7), (159, 4), (95, 2)]
222	1	1	8	33	[(96, 5), (53, 2), (36, 0), (79, 8), (51, 8), (103, 2), (73, 7), (20, 4), (44, 1), (93, 4), (105, 10), (91, 2), (194, 9), (195, 0), (144, 1), (109, 3), (200, 9), (232, 7), (158, 7), (131, 5), (2, 3), (125, 8), (164, 0), (98, 0), (207, 0), (233, 9), (239, 4), (196, 3), (94, 6), (84, 9), (246, 5), (152, 3), (88, 8)]
223	1	1	8	45	[(22, 7), (38, 1), (109, 2), (149, 6), (86, 4), (66, 2), (117, 1), (206, 2), (70, 0), (54, 2), (80, 3), (189, 2), (203, 0), (250, 6), (111, 4), (55, 7), (94, 3), (239, 9), (82, 9), (178, 3), (110, 10), (249, 6), (208, 10), (4, 4), (6, 0), (143, 8), (35, 6), (9, 3), (124, 1), (150, 4), (197, 4), (227, 0), (59, 3), (166, 4), (26, 6), (93, 3), (133, 6), (235, 6), (68, 4), (148, 3), (99, 5), (48, 3), (221, 9), (190, 5), (44, 8)]
224	5	6	8	25	[(161, 4), (179, 8), (78, 0), (193, 8), (66, 3), (151, 1), (237, 4), (213, 3), (21, 10), (206, 10), (173, 7), (9, 6), (47, 4), (59, 7), (33, 3), (13, 4), (86, 8), (73, 7), (218, 7), (111, 8), (105, 4), (64, 0), (225, 7), (100, 9), (60, 4)]
225	4	1	8	38	[(36, 9), (103, 9), (75, 1), (201, 7), (125, 2), (109, 7), (68, 3), (174, 1), (27, 10), (218, 7), (202, 3), (229, 6), (152, 3), (121, 1), (39, 10), (227, 6), (52, 8), (241, 3), (168, 8), (160, 3), (183, 4), (156, 5), (28, 9), (173, 2), (238, 10), (212, 2), (155, 8), (167, 7), (3, 5), (57, 3), (224, 1), (135, 6), (107, 10), (186, 7), (13, 8), (67, 0), (58, 5), (92, 6)]
226	10	5	8	44	[(107, 6), (126, 2), (12, 1), (112, 4), (71, 1), (168, 7), (53, 5), (166, 8), (43, 4), (1, 8), (177, 10), (208, 10), (120, 7), (207, 9), (114, 6), (36, 5), (60, 1), (26, 1), (170, 6), (122, 10), (236, 9), (198, 10), (149, 4), (240, 7), (243, 10), (49, 10), (130, 6), (193, 6), (35, 10), (4, 3), (242, 5), (158, 10), (19, 1), (20, 2), (139, 7), (235, 1), (15, 6), (78, 1), (138, 4), (215, 4), (17, 8), (210, 4), (199, 6), (56, 1)]
227	2	1	2	35	[(17, 3), (33, 8), (14, 10), (10, 7), (54, 1), (141, 10), (2, 0), (93, 5), (208, 3), (1, 2), (29, 2), (166, 7), (211, 5), (61, 5), (223, 6), (151, 7), (192, 9), (142, 6), (81, 4), (107, 6), (134, 8), (83, 4), (217, 0), (122, 0), (84, 10), (206, 7), (89, 3), (173, 10), (150, 4), (170, 8), (242, 2), (116, 0), (85, 8), (221, 3), (175, 0)]
228	52	1	2	41	[(246, 9), (103, 6), (63, 1), (250, 0), (88, 3), (122, 10), (206, 8), (189, 10), (96, 7), (4, 10), (23, 3), (144, 5), (224, 8), (87, 2), (32, 10), (235, 0), (79, 9), (58, 1), (148, 0), (142, 9), (192, 7), (188, 9), (118, 0), (78, 2), (149, 6), (106, 4), (195, 1), (19, 8), (110, 4), (147, 2), (13, 2), (70, 6), (97, 4), (209, 9), (74, 9), (244, 3), (150, 5), (194, 2), (57, 2), (56, 4), (238, 8)]
229	4	1	16	42	[(96, 7), (90, 4), (124, 2), (101, 3), (97, 6), (56, 3), (87, 9), (74, 9), (100, 1), (44, 4), (164, 0), (161, 8), (8, 10), (28, 3), (159, 8), (149, 7), (53, 3), (232, 3), (237, 0), (63, 5), (34, 3), (198, 7), (209, 9), (180, 2), (141, 9), (186, 9), (171, 5), (112, 5), (153, 7), (197, 7), (42, 1), (43, 4), (249, 4), (5, 10), (46, 4), (16, 2), (15, 4), (114, 2), (110, 6), (121, 6), (223, 3), (106, 4)]
230	3	6	8	37	[(92, 3), (195, 6), (30, 7), (234, 4), (11, 7), (110, 10), (141, 0), (116, 0), (115, 4), (20, 7), (76, 4), (133, 4), (124, 8), (138, 6), (32, 8), (137, 4), (152, 10), (99, 3), (111, 10), (140, 5), (215, 10), (203, 4), (57, 0), (96, 9), (6, 7), (101, 10), (71, 3), (223, 5), (231, 6), (25, 9), (114, 1), (202, 5), (199, 9), (247, 7), (65, 5), (2, 9), (160, 7)]
231	7	2	8	40	[(123, 1), (231, 2), (121, 3), (216, 1), (32, 6), (97, 3), (72, 4), (191, 0), (120, 6), (73, 10), (58, 8), (187, 7), (193, 6), (242, 5), (111, 4), (19, 7), (82, 4), (169, 7), (13, 10), (88, 10), (70, 4), (180, 5), (227, 4), (25, 6), (59, 6), (33, 3), (102, 9), (87, 10), (42, 6), (200, 0), (40, 1), (218, 4), (156, 9), (100, 3), (7, 2), (34, 9), (69, 4), (153, 3), (46, 6), (78, 10)]
232	17	1	8	34	[(219, 2), (136, 5), (35, 0), (148, 2), (70, 9), (213, 7), (71, 2), (3, 7), (194, 6), (69, 1), (138, 4), (204, 3), (13, 7), (197, 9), (248, 10), (54, 6), (43, 9), (96, 5), (239, 3), (160, 9), (29, 9), (193, 6), (192, 7), (174, 7), (21, 10), (245, 8), (28, 10), (191, 3), (143, 1), (152, 1), (42, 2), (232, 4), (122, 3), (113, 5)]
233	21	4	8	27	[(86, 10), (176, 5), (9, 2), (83, 9), (27, 7), (58, 2), (38, 7), (220, 0), (249, 5), (179, 6), (5, 9), (154, 1), (43, 7), (186, 8), (219, 10), (131, 1), (47, 5), (139, 7), (145, 0), (190, 1), (156, 6), (142, 8), (240, 7), (166, 1), (76, 5), (97, 7), (242, 7)]
234	2	1	8	39	[(18, 1), (108, 7), (36, 0), (203, 3), (247, 10), (139, 0), (81, 6), (205, 1), (23, 3), (68, 5), (98, 0), (70, 0), (104, 8), (153, 3), (204, 6), (144, 4), (131, 10), (7, 8), (4, 9), (192, 4), (2, 8), (106, 10), (94, 5), (202, 8), (158, 5), (119, 3), (14, 5), (191, 4), (138, 2), (175, 3), (177, 8), (51, 10), (31, 8), (223, 10), (73, 7), (230, 8), (217, 10), (67, 7), (109, 10)]
235	1	5	1	39	[(162, 10), (148, 3), (108, 9), (184, 1), (213, 9), (96, 4), (250, 2), (183, 9), (114, 8), (161, 0), (167, 9), (135, 7), (101, 7), (85, 8), (10, 7), (173, 4), (14, 0), (170, 8), (177, 2), (166, 7), (246, 4), (169, 8), (92, 1), (41, 1), (70, 9), (117, 9), (174, 5), (147, 5), (83, 7), (223, 4), (211, 10), (145, 10), (30, 5), (59, 2), (32, 10), (236, 3), (192, 5), (158, 7), (73, 1)]
236	4	3	8	34	[(213, 3), (86, 2), (229, 3), (186, 2), (100, 10), (178, 0), (109, 7), (182, 7), (219, 2), (176, 4), (230, 7), (99, 5), (25, 3), (184, 5), (81, 9), (52, 0), (58, 2), (84, 9), (145, 3), (34, 6), (54, 5), (104, 1), (210, 10), (38, 3), (129, 6), (135, 7), (226, 7), (87, 1), (61, 5), (44, 5), (202, 4), (171, 10), (92, 9), (160, 9)]
237	1	1	2	42	[(245, 7), (188, 4), (189, 9), (226, 5), (60, 3), (237, 2), (96, 8), (127, 1), (112, 2), (141, 0), (148, 3), (18, 10), (6, 4), (40, 6), (105, 6), (135, 2), (156, 5), (22, 0), (25, 5), (173, 0), (209, 7), (154, 8), (215, 3), (24, 4), (195, 0), (77, 8), (122, 0), (206, 1), (46, 1), (70, 2), (121, 7), (45, 0), (179, 7), (33, 3), (107, 0), (81, 3), (153, 4), (101, 2), (159, 1), (232, 9), (142, 1), (155, 6)]
238	49	5	8	42	[(101, 9), (119, 1), (34, 8), (22, 4), (28, 5), (5, 0), (4, 4), (186, 9), (134, 8), (175, 7), (68, 9), (195, 0), (122, 3), (177, 9), (121, 4), (112, 3), (12, 10), (182, 5), (82, 5), (130, 7), (129, 9), (132, 7), (15, 0), (183, 9), (238, 8), (94, 0), (110, 10), (60, 8), (224, 3), (189, 4), (106, 8), (84, 5), (11, 2), (18, 6), (171, 9), (230, 5), (43, 2), (19, 2), (196, 9), (178, 1), (247, 4), (147, 0)]
239	73	1	8	39	[(246, 9), (189, 4), (6, 6), (75, 9), (213, 7), (47, 4), (211, 3), (21, 10), (77, 2), (16, 8), (103, 5), (139, 3), (99, 10), (187, 4), (109, 7), (104, 10), (195, 1), (161, 0), (172, 5), (66, 0), (22, 10), (247, 0), (249, 2), (5, 1), (159, 7), (36, 5), (228, 7), (37, 0), (158, 8), (17, 10), (215, 10), (152, 2), (138, 5), (87, 0), (229, 6), (55, 3), (80, 4), (177, 9), (131, 1)]
240	2	1	3	34	[(192, 2), (28, 7), (176, 9), (62, 3), (156, 7), (119, 5), (36, 8), (69, 4), (179, 6), (82, 5), (198, 0), (89, 3), (150, 6), (83, 7), (146, 5), (204, 3), (74, 8), (101, 1), (130, 6), (211, 8), (169, 4), (153, 10), (64, 7), (141, 2), (29, 7), (3, 0), (218, 5), (158, 0), (134, 0), (24, 1), (225, 9), (33, 8), (81, 5), (244, 0)]
241	2	1	1	36	[(246, 1), (40, 4), (103, 7), (152, 3), (231, 8), (137, 0), (59, 10), (61, 2), (96, 9), (38, 4), (85, 3), (149, 5), (26, 8), (200, 7), (54, 4), (185, 9), (12, 3), (155, 10), (4, 9), (43, 8), (104, 3), (131, 0), (212, 3), (206, 4), (57, 7), (213, 10), (174, 10), (119, 7), (195, 5), (102, 6), (74, 6), (13, 4), (224, 9), (60, 10), (159, 8), (97, 4)]
242	2	1	6	46	[(73, 3), (101, 3), (145, 9), (233, 10), (2, 8), (5, 10), (29, 3), (1, 1), (74, 6), (244, 1), (176, 5), (53, 9), (147, 8), (28, 2), (220, 10), (58, 7), (227, 3), (42, 7), (59, 7), (76, 3), (164, 9), (241, 9), (230, 2), (189, 3), (196, 2), (207, 3), (38, 5), (161, 3), (180, 7), (149, 0), (93, 2), (55, 10), (212, 6), (225, 1), (172, 5), (12, 3), (90, 10), (122, 7), (39, 4), (32, 1), (24, 9), (203, 4), (43, 9), (95, 0), (158, 4), (9, 10)]
243	2	1	8	37	[(241, 0), (83, 2), (91, 0), (138, 5), (7, 0), (137, 10), (49, 10), (207, 8), (104, 8), (205, 8), (152, 0), (224, 3), (20, 8), (96, 9), (188, 6), (140, 3), (144, 3), (226, 8), (48, 1), (209, 0), (174, 3), (69, 6), (189, 9), (54, 3), (204, 3), (198, 4), (65, 6), (70, 2), (82, 6), (45, 10), (230, 6), (21, 5), (173, 2), (125, 9), (23, 3), (161, 2), (56, 1)]
244	2	1	2	40	[(13, 2), (47, 10), (247, 7), (151, 6), (168, 0), (65, 8), (174, 1), (233, 10), (77, 9), (179, 0), (182, 4), (125, 1), (136, 3), (160, 6), (46, 8), (239, 7), (129, 0), (203, 0), (187, 2), (199, 0), (131, 2), (51, 7), (61, 5), (202, 9), (4, 8), (167, 4), (54, 6), (30, 8), (83, 6), (154, 8), (110, 1), (112, 5), (40, 8), (69, 1), (139, 8), (20, 7), (170, 10), (111, 7), (39, 0), (84, 7)]
245	1	1	5	35	[(201, 7), (94, 2), (188, 10), (138, 3), (149, 7), (147, 5), (50, 8), (226, 10), (112, 4), (1, 4), (12, 3), (182, 6), (108, 10), (122, 1), (42, 3), (146, 3), (191, 7), (15, 5), (222, 2), (154, 6), (61, 1), (82, 8), (67, 10), (193, 4), (37, 3), (6, 3), (237, 7), (8, 5), (185, 3), (57, 8), (169, 0), (225, 3), (99, 7), (9, 9), (160, 6)]
246	2	1	8	35	[(198, 4), (238, 1), (223, 10), (68, 2), (154, 2), (13, 9), (52, 5), (76, 6), (209, 2), (64, 3), (188, 1), (177, 8), (226, 10), (173, 5), (138, 2), (94, 9), (135, 6), (45, 8), (195, 9), (176, 4), (105, 10), (160, 4), (9, 6), (242, 0), (192, 1), (130, 3), (15, 2), (243, 10), (124, 3), (60, 0), (224, 7), (100, 2), (92, 10), (212, 4), (129, 9)]
247	4	2	8	28	[(2, 8), (195, 5), (88, 4), (58, 4), (141, 9), (245, 7), (70, 2), (168, 9), (71, 9), (14, 1), (48, 2), (94, 4), (240, 4), (116, 8), (229, 10), (200, 5), (59, 9), (12, 1), (53, 9), (236, 7), (172, 4), (179, 5), (198, 8), (1, 7), (165, 1), (20, 8), (243, 6), (13, 5)]
248	7	3	8	36	[(58, 5), (152, 5), (143, 4), (112, 3), (138, 8), (157, 8), (163, 4), (73, 8), (82, 2), (172, 9), (148, 9), (97, 1), (99, 2), (160, 2), (195, 2), (23, 2), (232, 5), (83, 0), (30, 8), (62, 2), (243, 7), (79, 10), (46, 8), (140, 7), (77, 5), (87, 1), (66, 5), (193, 0), (42, 10), (32, 2), (135, 6), (181, 0), (209, 9), (150, 6), (198, 9), (64, 10)]
249	1	1	8	48	[(168, 0), (207, 4), (151, 10), (108, 0), (25, 5), (180, 0), (85, 1), (95, 8), (87, 6), (116, 6), (6, 2), (89, 1), (148, 9), (21, 1), (208, 2), (58, 0), (185, 1), (179, 6), (69, 9), (158, 8), (166, 10), (195, 8), (126, 0), (51, 9), (217, 7), (99, 9), (246, 3), (102, 9), (68, 3), (163, 8), (172, 9), (118, 3), (90, 3), (198, 7), (107, 5), (29, 0), (160, 1), (216, 5), (26, 4), (211, 2), (223, 4), (224, 10), (60, 1), (40, 6), (214, 0), (7, 4), (133, 6), (209, 9)]
250	2	1	8	36	[(250, 3), (212, 6), (73, 10), (64, 0), (10, 10), (109, 9), (50, 4), (186, 3), (68, 1), (43, 4), (74, 7), (107, 9), (84, 8), (65, 4), (205, 3), (244, 1), (55, 4), (125, 8), (181, 0), (37, 2), (58, 5), (110, 7), (17, 8), (41, 4), (8, 5), (210, 10), (5, 2), (81, 1), (70, 8), (214, 0), (225, 1), (177, 4), (15, 5), (129, 7), (9, 2), (179, 4)]
