app_id	nb_instances	core	memory	inter_degree	inter_aff
1	2	1	2	0	[]
2	6	1	7	0	[]
3	3	1	8	0	[]
4	3	1	8	0	[]
5	17	4	8	0	[]
6	2	3	8	0	[]
7	5	1	1	0	[]
8	2	1	16	0	[]
9	1	1	8	0	[]
10	5	3	1	0	[]
11	3	4	2	0	[]
12	2	1	8	0	[]
13	2	1	2	0	[]
14	1	1	8	0	[]
15	1	2	2	0	[]
16	1	2	8	0	[]
17	179	1	8	0	[]
18	2	6	8	0	[]
19	1	2	16	0	[]
20	2	1	8	0	[]
21	3	1	8	0	[]
22	4	4	8	0	[]
23	1	1	8	0	[]
24	1	6	8	0	[]
25	152	1	8	0	[]
26	2	4	8	0	[]
27	7	4	8	0	[]
28	2	4	2	0	[]
29	7	1	8	0	[]
30	2	1	8	0	[]
31	2	4	8	0	[]
32	2	1	8	0	[]
33	2	1	8	0	[]
34	1	2	8	0	[]
35	60	1	8	0	[]
36	2	2	8	0	[]
37	94	1	7	0	[]
38	10	1	2	0	[]
39	55	1	2	0	[]
40	1	1	8	0	[]
41	3	1	8	0	[]
42	2	4	8	0	[]
43	2	6	8	0	[]
44	2	3	8	0	[]
45	1	1	8	0	[]
46	3	2	8	0	[]
47	1	1	8	0	[]
48	1	1	8	0	[]
49	8	1	8	0	[]
50	2	1	8	0	[]
51	1	4	7	0	[]
52	2	1	8	0	[]
53	4	4	8	0	[]
54	4	1	1	0	[]
55	4	1	8	0	[]
56	2	1	16	0	[]
57	1	4	8	0	[]
58	2	2	8	0	[]
59	29	1	8	0	[]
60	59	1	8	0	[]
61	191	1	8	0	[]
62	1	4	8	0	[]
63	1	3	8	0	[]
64	13	1	8	0	[]
65	1	1	8	0	[]
66	5	2	8	0	[]
67	6	1	30	0	[]
68	5	1	8	0	[]
69	1	1	8	0	[]
70	2	1	2	0	[]
71	4	1	16	0	[]
72	2	1	8	0	[]
73	1	4	8	0	[]
74	19	1	1	0	[]
75	2	1	8	0	[]
76	2	1	8	0	[]
77	6	1	8	0	[]
78	110	4	8	0	[]
79	3	1	8	0	[]
80	1	2	8	0	[]
81	1	4	8	0	[]
82	2	4	8	0	[]
83	3	4	8	0	[]
84	1	2	8	0	[]
85	1	1	8	0	[]
86	2	1	8	0	[]
87	2	1	2	0	[]
88	1	1	8	0	[]
89	67	1	8	0	[]
90	2	1	16	0	[]
91	2	1	8	0	[]
92	45	1	8	0	[]
93	2	2	8	0	[]
94	1	1	8	0	[]
95	1	1	2	0	[]
96	4	4	8	0	[]
97	1	6	16	0	[]
98	1	1	6	0	[]
99	1	1	30	0	[]
100	9	1	8	0	[]
