app_id	nb_instances	core	memory	inter_degree	inter_aff
1	4	4	8	0	[]
2	2	3	8	0	[]
3	2	1	2	2	[(3, 1), (3, 7)]
4	2	1	1	1	[(4, 5)]
5	2	1	8	0	[]
6	4	2	8	0	[]
7	8	1	8	0	[]
8	10	3	8	0	[]
9	2	1	8	0	[]
10	8	1	8	0	[]
11	3	2	8	0	[]
12	1	1	8	1	[(12, 1)]
13	1	1	1	0	[]
14	1	2	8	1	[(14, 9)]
15	44	4	8	0	[]
16	2	1	8	0	[]
17	1	1	8	1	[(17, 9)]
18	4	1	8	0	[]
19	2	1	4	0	[]
20	25	1	8	1	[(20, 3)]
21	1	2	8	0	[]
22	2	1	8	0	[]
23	1	1	8	0	[]
24	2	1	8	0	[]
25	3	1	8	0	[]
26	9	1	6	0	[]
27	1	1	8	0	[]
28	1	1	16	0	[]
29	1	1	8	0	[]
30	2	1	5	0	[]
31	2	1	8	0	[]
32	56	3	8	1	[(32, 8)]
33	2	2	8	0	[]
34	2	2	8	0	[]
35	2	1	8	0	[]
36	2	1	16	0	[]
37	3	1	3	0	[]
38	7	1	2	1	[(38, 3)]
39	2	1	8	0	[]
40	2	1	8	0	[]
41	1	2	8	0	[]
42	1	1	16	0	[]
43	47	1	8	0	[]
44	2	4	8	0	[]
45	6	2	8	0	[]
46	4	1	4	0	[]
47	1	4	8	0	[]
48	4	1	8	0	[]
49	40	1	8	1	[(49, 2)]
50	2	1	3	0	[]
51	2	1	8	0	[]
52	3	2	8	0	[]
53	1	6	8	0	[]
54	2	1	8	1	[(54, 4)]
55	11	1	8	0	[]
56	3	1	3	0	[]
57	1	1	8	0	[]
58	1	1	8	0	[]
59	12	1	8	0	[]
60	1	1	8	0	[]
61	2	1	2	0	[]
62	10	1	8	0	[]
63	2	1	1	0	[]
64	5	1	8	1	[(64, 2)]
65	18	1	8	0	[]
66	1	1	8	1	[(66, 10)]
67	2	1	8	0	[]
68	2	1	8	0	[]
69	1	1	8	1	[(69, 2)]
70	4	2	8	0	[]
71	2	2	8	0	[]
72	4	1	8	0	[]
73	1	2	8	1	[(73, 5)]
74	23	1	8	1	[(74, 6)]
75	2	1	8	0	[]
76	1	2	8	0	[]
77	2	1	8	0	[]
78	2	10	2	1	[(78, 10)]
79	4	1	8	0	[]
80	20	6	6	0	[]
81	6	3	2	0	[]
82	1	1	8	0	[]
83	1	1	8	0	[]
84	1	2	8	0	[]
85	2	1	8	0	[]
86	2	1	8	0	[]
87	2	1	8	0	[]
88	6	1	2	0	[]
89	26	1	8	0	[]
90	12	1	8	0	[]
91	2	8	2	0	[]
92	2	2	8	0	[]
93	4	1	8	0	[]
94	3	4	8	0	[]
95	5	2	8	0	[]
96	1	1	8	0	[]
97	2	1	8	2	[(97, 3), (97, 9)]
98	3	1	8	0	[]
99	1	1	8	0	[]
100	2	2	8	1	[(100, 2)]
