app_id	nb_instances	core	memory	inter_degree	inter_aff
1	2	1	8	6	[(81, 7), (98, 4), (86, 9), (50, 3), (77, 7), (52, 8)]
2	23	1	8	7	[(3, 1), (18, 4), (51, 5), (20, 9), (67, 4), (83, 7), (64, 7)]
3	10	3	8	13	[(83, 7), (19, 6), (45, 2), (51, 10), (60, 10), (32, 7), (6, 6), (38, 4), (88, 1), (22, 9), (89, 2), (11, 10), (95, 7)]
4	5	4	28	15	[(67, 2), (11, 3), (69, 3), (26, 0), (4, 8), (27, 5), (83, 10), (43, 1), (95, 6), (92, 9), (55, 0), (82, 4), (75, 0), (52, 4), (90, 6)]
5	1	1	8	9	[(27, 1), (72, 10), (97, 6), (41, 3), (10, 6), (32, 6), (86, 1), (24, 0), (51, 10)]
6	5	1	8	8	[(76, 9), (31, 2), (95, 1), (92, 2), (27, 10), (58, 4), (21, 5), (88, 3)]
7	2	1	8	12	[(1, 4), (83, 6), (33, 2), (97, 7), (88, 10), (98, 8), (48, 1), (8, 0), (45, 3), (85, 10), (29, 10), (35, 0)]
8	1	4	8	9	[(84, 3), (8, 1), (10, 8), (90, 8), (6, 3), (37, 2), (41, 5), (55, 7), (74, 10)]
9	5	1	8	11	[(84, 1), (70, 8), (83, 10), (91, 4), (27, 2), (63, 7), (48, 2), (1, 10), (52, 8), (43, 3), (47, 5)]
10	1	1	8	11	[(19, 3), (100, 5), (97, 7), (72, 8), (50, 10), (17, 5), (81, 3), (31, 7), (29, 5), (18, 3), (49, 4)]
11	2	1	8	18	[(91, 8), (39, 6), (63, 8), (45, 3), (75, 8), (71, 10), (64, 1), (34, 8), (57, 9), (5, 0), (69, 1), (15, 1), (59, 10), (7, 1), (6, 2), (26, 1), (28, 3), (36, 7)]
12	3	1	8	7	[(61, 8), (64, 5), (97, 5), (65, 10), (4, 10), (62, 1), (56, 3)]
13	2	8	8	8	[(2, 10), (74, 3), (34, 6), (85, 0), (14, 0), (21, 7), (98, 3), (46, 5)]
14	2	1	2	10	[(73, 6), (93, 0), (38, 0), (14, 9), (70, 9), (40, 5), (2, 8), (67, 0), (68, 8), (7, 2)]
15	1	1	8	13	[(60, 8), (2, 10), (65, 3), (41, 4), (79, 2), (71, 7), (96, 0), (4, 2), (78, 2), (73, 4), (45, 7), (6, 3), (95, 5)]
16	4	1	5	7	[(14, 10), (19, 6), (23, 6), (98, 5), (29, 6), (67, 6), (11, 6)]
17	2	1	4	9	[(15, 7), (99, 5), (27, 7), (97, 6), (85, 6), (24, 0), (1, 0), (25, 2), (63, 5)]
18	3	1	8	10	[(21, 1), (51, 9), (42, 9), (55, 5), (1, 10), (83, 10), (20, 10), (27, 0), (33, 3), (98, 2)]
19	2	1	4	8	[(37, 7), (2, 7), (56, 6), (12, 8), (26, 8), (97, 5), (99, 6), (47, 1)]
20	7	1	8	13	[(19, 5), (56, 8), (8, 9), (100, 10), (54, 8), (35, 1), (72, 3), (43, 0), (44, 3), (30, 3), (14, 8), (62, 5), (41, 6)]
21	5	1	8	12	[(69, 2), (1, 8), (70, 9), (61, 1), (99, 10), (52, 9), (68, 1), (73, 5), (100, 6), (75, 5), (16, 4), (45, 6)]
22	16	2	2	12	[(7, 7), (91, 7), (9, 10), (36, 2), (100, 0), (89, 3), (14, 7), (26, 4), (21, 8), (15, 3), (43, 7), (34, 4)]
23	1	2	8	3	[(18, 9), (70, 9), (34, 10)]
24	5	4	8	8	[(19, 8), (31, 3), (29, 1), (97, 0), (7, 6), (50, 2), (67, 0), (39, 10)]
25	5	1	8	13	[(25, 9), (36, 6), (76, 2), (47, 5), (19, 2), (59, 7), (94, 10), (67, 0), (97, 4), (22, 9), (34, 0), (33, 0), (82, 7)]
26	1	1	8	11	[(37, 3), (99, 3), (76, 4), (89, 0), (36, 7), (86, 9), (87, 9), (40, 1), (51, 3), (68, 3), (59, 3)]
27	24	8	8	13	[(33, 8), (50, 8), (52, 10), (79, 8), (99, 2), (43, 7), (88, 4), (75, 3), (42, 3), (12, 4), (80, 0), (94, 4), (30, 3)]
28	2	1	8	7	[(78, 9), (50, 2), (17, 1), (3, 4), (67, 0), (27, 6), (76, 7)]
29	7	1	8	8	[(44, 7), (40, 1), (19, 0), (32, 2), (24, 5), (75, 9), (47, 6), (42, 10)]
30	3	2	8	8	[(6, 3), (16, 6), (8, 1), (99, 1), (44, 6), (65, 4), (66, 5), (11, 0)]
31	1	1	3	12	[(44, 4), (83, 5), (10, 2), (45, 4), (12, 6), (96, 1), (41, 3), (27, 7), (67, 4), (6, 10), (25, 2), (28, 7)]
32	2	1	16	15	[(7, 7), (69, 3), (14, 9), (11, 10), (28, 8), (31, 5), (88, 5), (89, 5), (59, 10), (99, 7), (20, 1), (67, 4), (77, 7), (24, 3), (37, 4)]
33	1	4	16	14	[(50, 1), (75, 7), (85, 0), (96, 7), (81, 3), (92, 9), (11, 9), (90, 6), (95, 9), (82, 1), (71, 9), (78, 3), (57, 9), (16, 1)]
34	8	1	8	10	[(74, 7), (39, 3), (60, 9), (95, 8), (30, 8), (98, 2), (23, 10), (81, 8), (11, 6), (36, 10)]
35	2	3	8	12	[(54, 0), (85, 2), (60, 8), (69, 2), (2, 5), (35, 2), (75, 5), (99, 7), (24, 7), (59, 0), (72, 10), (6, 4)]
36	6	1	8	8	[(83, 5), (1, 4), (35, 7), (94, 0), (52, 4), (76, 7), (13, 1), (42, 4)]
37	5	6	8	13	[(31, 7), (53, 4), (97, 4), (80, 0), (78, 5), (11, 9), (13, 8), (3, 10), (18, 10), (32, 3), (14, 10), (100, 5), (74, 8)]
38	2	4	2	3	[(6, 7), (96, 10), (30, 8)]
39	2	2	8	5	[(84, 6), (60, 6), (41, 6), (82, 0), (70, 9)]
40	1	2	8	7	[(94, 10), (34, 6), (59, 4), (92, 10), (35, 2), (27, 2), (23, 10)]
41	1	1	8	7	[(65, 1), (89, 5), (88, 6), (100, 1), (46, 2), (62, 7), (22, 8)]
42	5	2	8	16	[(83, 4), (4, 4), (58, 9), (65, 1), (78, 10), (64, 3), (22, 9), (70, 7), (93, 0), (41, 6), (63, 5), (2, 1), (11, 9), (23, 4), (81, 1), (92, 0)]
43	5	4	8	5	[(71, 7), (15, 9), (95, 9), (72, 7), (79, 4)]
44	4	4	8	6	[(61, 4), (13, 4), (25, 6), (83, 5), (10, 4), (59, 1)]
45	1	2	2	9	[(86, 9), (43, 7), (26, 6), (10, 9), (67, 4), (46, 6), (36, 6), (30, 6), (37, 6)]
46	14	1	8	11	[(23, 4), (26, 3), (65, 10), (64, 10), (68, 8), (1, 10), (66, 7), (38, 0), (11, 6), (39, 8), (16, 10)]
47	1	1	2	14	[(48, 3), (83, 3), (3, 6), (12, 2), (32, 7), (20, 0), (14, 3), (95, 4), (24, 0), (11, 6), (30, 1), (46, 6), (35, 1), (88, 4)]
48	1	1	8	7	[(35, 7), (93, 2), (8, 9), (17, 5), (39, 7), (25, 4), (42, 5)]
49	130	1	2	8	[(64, 3), (88, 2), (37, 5), (79, 9), (45, 9), (82, 10), (74, 5), (97, 6)]
50	2	1	8	8	[(72, 1), (83, 7), (79, 0), (77, 9), (56, 2), (8, 0), (88, 9), (63, 3)]
51	3	1	8	13	[(38, 10), (7, 7), (82, 2), (10, 1), (55, 8), (3, 8), (98, 4), (86, 10), (2, 1), (29, 3), (28, 3), (48, 5), (72, 6)]
52	5	1	8	16	[(66, 4), (99, 3), (44, 8), (18, 1), (2, 10), (34, 4), (19, 8), (73, 6), (51, 9), (77, 5), (57, 0), (88, 1), (38, 3), (72, 0), (94, 9), (67, 8)]
53	1	6	16	9	[(58, 6), (8, 6), (92, 4), (73, 6), (15, 0), (75, 10), (62, 3), (10, 5), (97, 6)]
54	429	1	8	9	[(41, 0), (36, 6), (2, 6), (26, 4), (29, 1), (89, 5), (38, 4), (13, 10), (67, 6)]
55	2	1	8	6	[(19, 3), (71, 0), (7, 6), (22, 0), (29, 10), (96, 9)]
56	8	1	2	11	[(48, 6), (89, 4), (4, 9), (79, 10), (12, 0), (52, 3), (59, 3), (38, 2), (66, 9), (20, 9), (18, 6)]
57	1	1	8	10	[(30, 2), (35, 9), (33, 10), (34, 7), (22, 1), (7, 10), (26, 1), (36, 8), (99, 5), (24, 5)]
58	3	1	8	11	[(24, 6), (47, 4), (15, 0), (8, 5), (25, 9), (58, 9), (81, 2), (27, 5), (4, 3), (94, 3), (18, 7)]
59	2	1	8	8	[(32, 8), (27, 2), (85, 1), (8, 10), (7, 8), (99, 5), (81, 2), (35, 8)]
60	6	1	2	8	[(15, 4), (29, 9), (9, 2), (38, 6), (53, 5), (46, 4), (68, 5), (84, 2)]
61	3	4	16	15	[(74, 8), (18, 5), (1, 2), (86, 4), (60, 7), (71, 8), (75, 3), (2, 7), (82, 9), (38, 7), (92, 0), (33, 9), (65, 7), (91, 1), (35, 4)]
62	2	10	8	14	[(26, 1), (24, 7), (49, 8), (78, 6), (48, 3), (90, 7), (77, 2), (6, 2), (85, 0), (70, 5), (45, 9), (93, 8), (14, 7), (75, 8)]
63	2	1	8	13	[(14, 8), (66, 2), (95, 7), (30, 3), (7, 1), (52, 5), (9, 6), (8, 3), (99, 3), (12, 9), (58, 6), (1, 6), (40, 7)]
64	2	3	1	3	[(68, 2), (65, 4), (82, 6)]
65	1	4	16	10	[(61, 10), (69, 10), (97, 10), (92, 5), (73, 7), (58, 2), (80, 9), (3, 7), (38, 9), (85, 1)]
66	3	4	16	10	[(51, 8), (18, 9), (67, 4), (89, 7), (95, 3), (56, 9), (32, 7), (10, 8), (15, 7), (43, 1)]
67	2	1	8	4	[(65, 10), (46, 4), (38, 6), (12, 1)]
68	1	1	8	5	[(62, 8), (14, 2), (48, 10), (99, 3), (79, 8)]
69	10	1	8	12	[(55, 8), (4, 9), (9, 2), (38, 2), (39, 4), (1, 5), (82, 7), (63, 1), (67, 3), (29, 3), (16, 9), (7, 3)]
70	1	1	8	10	[(67, 6), (28, 5), (72, 2), (61, 5), (14, 9), (5, 7), (76, 6), (41, 1), (17, 8), (70, 9)]
71	2	4	8	12	[(83, 5), (99, 3), (77, 5), (25, 8), (35, 6), (37, 7), (79, 10), (8, 10), (43, 2), (44, 9), (18, 6), (2, 3)]
72	3	1	8	9	[(66, 10), (68, 2), (26, 8), (40, 10), (60, 6), (65, 3), (1, 4), (19, 8), (80, 7)]
73	18	2	2	13	[(97, 9), (19, 2), (32, 2), (65, 7), (75, 4), (52, 9), (58, 8), (31, 6), (54, 5), (98, 2), (67, 4), (34, 7), (86, 2)]
74	2	1	8	12	[(13, 7), (10, 8), (24, 3), (7, 7), (46, 5), (72, 0), (71, 10), (79, 0), (23, 5), (94, 9), (19, 4), (27, 7)]
75	5	6	8	17	[(95, 9), (58, 4), (85, 2), (72, 1), (89, 9), (21, 4), (34, 5), (80, 0), (44, 5), (79, 4), (61, 9), (5, 3), (54, 3), (40, 2), (53, 5), (15, 9), (69, 10)]
76	2	5	1	14	[(78, 1), (94, 5), (7, 9), (17, 2), (21, 0), (81, 5), (76, 1), (54, 0), (47, 0), (19, 8), (48, 0), (89, 8), (90, 2), (61, 2)]
77	1	1	2	16	[(94, 3), (10, 9), (53, 8), (2, 0), (93, 10), (11, 10), (59, 5), (88, 10), (15, 9), (24, 3), (16, 6), (78, 5), (86, 2), (97, 5), (25, 7), (87, 10)]
78	1	1	2	8	[(84, 3), (96, 10), (53, 2), (17, 9), (65, 4), (57, 3), (95, 4), (73, 7)]
79	5	2	8	12	[(87, 6), (41, 3), (88, 10), (93, 3), (62, 9), (52, 8), (56, 1), (8, 6), (27, 10), (97, 3), (64, 7), (66, 0)]
80	5	6	16	15	[(48, 7), (6, 10), (68, 9), (38, 8), (13, 1), (70, 0), (34, 5), (8, 7), (10, 6), (79, 5), (19, 10), (43, 5), (24, 2), (95, 6), (5, 3)]
81	51	2	8	15	[(97, 2), (16, 8), (8, 2), (62, 8), (84, 6), (30, 5), (29, 10), (52, 0), (68, 9), (44, 2), (27, 0), (3, 3), (43, 1), (19, 2), (28, 9)]
82	1	1	3	10	[(76, 6), (33, 8), (48, 7), (79, 3), (24, 4), (78, 1), (83, 7), (28, 10), (54, 6), (88, 2)]
83	1	4	8	9	[(57, 10), (73, 3), (17, 1), (51, 4), (37, 6), (31, 1), (34, 8), (77, 4), (44, 6)]
84	8	1	1	9	[(46, 0), (89, 6), (85, 3), (76, 2), (28, 1), (61, 8), (60, 4), (2, 4), (70, 8)]
85	3	2	16	6	[(52, 1), (81, 9), (53, 4), (8, 10), (28, 3), (22, 0)]
86	6	1	8	10	[(24, 8), (88, 7), (46, 7), (43, 4), (16, 4), (77, 1), (72, 1), (28, 2), (59, 8), (82, 8)]
87	3	1	2	8	[(99, 6), (8, 10), (84, 1), (48, 1), (42, 8), (100, 2), (53, 2), (41, 9)]
88	9	1	8	6	[(32, 2), (77, 6), (59, 5), (67, 10), (100, 0), (80, 5)]
89	5	12	8	12	[(16, 5), (38, 0), (42, 4), (94, 6), (78, 4), (26, 8), (10, 10), (20, 8), (49, 6), (51, 5), (98, 8), (31, 5)]
90	2	12	8	11	[(36, 6), (68, 0), (28, 6), (44, 0), (62, 6), (77, 1), (4, 5), (9, 3), (24, 7), (48, 0), (55, 6)]
91	1	4	5	11	[(37, 8), (71, 1), (98, 9), (99, 5), (19, 0), (6, 9), (62, 10), (33, 1), (8, 3), (11, 7), (1, 3)]
92	3	1	8	8	[(87, 7), (9, 5), (55, 8), (18, 9), (27, 3), (67, 7), (37, 0), (59, 1)]
93	1	1	8	9	[(91, 7), (53, 6), (61, 0), (16, 10), (25, 9), (2, 3), (96, 0), (99, 1), (65, 8)]
94	2	1	8	12	[(13, 3), (91, 2), (57, 6), (45, 10), (40, 10), (79, 6), (94, 5), (10, 6), (53, 5), (87, 3), (36, 2), (88, 5)]
95	2	1	8	13	[(36, 5), (17, 7), (31, 3), (78, 1), (29, 7), (76, 0), (55, 7), (57, 8), (11, 3), (67, 4), (61, 3), (10, 2), (99, 3)]
96	4	1	8	11	[(74, 0), (49, 5), (84, 10), (81, 4), (25, 7), (73, 0), (45, 2), (72, 8), (99, 2), (16, 6), (42, 5)]
97	3	1	8	5	[(98, 8), (69, 3), (99, 4), (15, 0), (16, 7)]
98	3	1	8	14	[(93, 6), (42, 7), (82, 10), (38, 8), (39, 3), (34, 10), (46, 3), (4, 7), (45, 0), (85, 4), (33, 1), (49, 9), (23, 7), (69, 5)]
99	2	3	8	2	[(79, 3), (49, 0)]
100	15	4	8	5	[(41, 7), (74, 1), (99, 4), (1, 6), (86, 3)]
