app_id	nb_instances	core	memory	inter_degree	inter_aff
1	10	4	8	8	[(60, 9), (12, 10), (99, 1), (83, 6), (18, 4), (7, 3), (96, 0), (21, 10)]
2	6	1	1	6	[(100, 5), (50, 4), (94, 1), (56, 0), (11, 10), (69, 7)]
3	2	4	8	5	[(21, 5), (7, 0), (4, 7), (12, 9), (84, 6)]
4	40	1	8	4	[(65, 6), (5, 8), (41, 10), (100, 2)]
5	1	1	8	5	[(43, 9), (23, 9), (100, 2), (22, 3), (55, 9)]
6	1	1	8	9	[(28, 4), (20, 8), (90, 8), (42, 8), (22, 7), (41, 10), (13, 9), (31, 5), (68, 6)]
7	1	2	8	6	[(27, 4), (15, 7), (33, 9), (41, 5), (36, 10), (60, 3)]
8	1	5	8	1	[(100, 6)]
9	1	6	8	6	[(42, 0), (96, 5), (72, 2), (83, 1), (62, 10), (1, 0)]
10	1	1	8	5	[(25, 8), (8, 2), (43, 9), (45, 9), (61, 1)]
11	6	1	1	5	[(65, 2), (55, 10), (19, 0), (76, 10), (4, 10)]
12	2	4	8	3	[(82, 0), (40, 10), (32, 0)]
13	1	1	48	6	[(19, 0), (51, 8), (34, 3), (74, 3), (7, 3), (61, 1)]
14	95	4	8	7	[(83, 10), (34, 8), (77, 1), (30, 6), (24, 4), (1, 1), (52, 2)]
15	15	1	8	2	[(93, 4), (38, 3)]
16	43	1	1	5	[(97, 8), (45, 9), (25, 2), (47, 6), (12, 8)]
17	1	1	3	2	[(18, 1), (12, 10)]
18	1	3	8	5	[(6, 3), (18, 6), (91, 8), (92, 9), (4, 1)]
19	2	1	8	5	[(3, 2), (73, 0), (48, 0), (75, 2), (66, 8)]
20	1	1	8	6	[(60, 5), (52, 7), (44, 9), (6, 8), (2, 10), (42, 10)]
21	2	1	1	4	[(19, 5), (71, 1), (49, 5), (47, 6)]
22	3	1	8	9	[(73, 5), (23, 9), (25, 2), (19, 3), (71, 0), (39, 5), (80, 9), (13, 4), (57, 7)]
23	1	1	8	6	[(19, 8), (20, 6), (25, 6), (3, 2), (45, 1), (96, 2)]
24	3	1	3	4	[(85, 4), (27, 2), (30, 6), (67, 4)]
25	1	1	8	2	[(40, 7), (30, 7)]
26	6	4	8	4	[(2, 3), (82, 8), (34, 5), (4, 2)]
27	5	1	8	5	[(62, 1), (53, 1), (70, 2), (44, 1), (23, 9)]
28	1	1	8	5	[(48, 9), (21, 6), (9, 9), (94, 1), (77, 3)]
29	5	1	7	6	[(80, 5), (26, 5), (3, 0), (47, 1), (46, 4), (74, 1)]
30	1	1	8	3	[(61, 8), (63, 3), (40, 10)]
31	2	1	8	5	[(100, 7), (70, 0), (35, 10), (65, 2), (72, 9)]
32	3	4	8	3	[(6, 4), (84, 9), (1, 9)]
33	36	1	8	6	[(14, 0), (61, 2), (24, 5), (57, 1), (60, 0), (44, 4)]
34	3	1	8	2	[(83, 10), (15, 6)]
35	2	1	8	8	[(92, 3), (85, 2), (8, 3), (35, 1), (89, 5), (60, 9), (84, 2), (45, 8)]
36	4	1	8	2	[(51, 8), (82, 10)]
37	1	2	2	2	[(28, 3), (15, 8)]
38	4	1	8	0	[]
39	2	1	7	7	[(31, 10), (73, 4), (51, 1), (96, 4), (9, 6), (67, 10), (2, 6)]
40	1	1	8	0	[]
41	4	1	8	5	[(68, 4), (12, 5), (75, 10), (7, 6), (53, 4)]
42	3	1	96	4	[(28, 1), (54, 1), (79, 9), (55, 0)]
43	1	1	8	6	[(9, 2), (97, 8), (70, 0), (50, 9), (20, 10), (58, 9)]
44	2	1	8	3	[(67, 8), (66, 2), (58, 0)]
45	1	1	7	5	[(38, 3), (1, 4), (72, 3), (57, 8), (27, 6)]
46	2	6	8	10	[(25, 6), (87, 10), (32, 5), (30, 9), (90, 4), (58, 5), (77, 5), (73, 6), (44, 5), (89, 8)]
47	1	1	8	4	[(40, 2), (68, 4), (94, 0), (73, 6)]
48	2	2	8	5	[(96, 2), (39, 0), (4, 4), (97, 1), (91, 7)]
49	1	1	16	6	[(91, 5), (15, 9), (61, 2), (25, 9), (5, 0), (11, 5)]
50	2	1	8	7	[(61, 10), (33, 7), (54, 6), (100, 4), (6, 1), (11, 3), (21, 5)]
51	5	1	8	10	[(8, 8), (71, 6), (18, 9), (66, 2), (48, 5), (31, 0), (19, 1), (44, 1), (45, 6), (91, 6)]
52	5	2	8	4	[(42, 9), (80, 6), (21, 2), (60, 10)]
53	5	1	8	6	[(19, 10), (15, 6), (43, 6), (89, 10), (99, 3), (54, 8)]
54	2	1	8	5	[(41, 2), (68, 3), (64, 5), (100, 7), (2, 4)]
55	2	2	8	5	[(68, 10), (18, 6), (66, 0), (60, 4), (36, 0)]
56	1	1	8	5	[(57, 10), (4, 2), (26, 8), (2, 6), (87, 9)]
57	2	4	8	10	[(3, 10), (59, 0), (25, 3), (62, 4), (2, 6), (86, 6), (31, 7), (8, 4), (75, 8), (13, 4)]
58	3	4	8	4	[(45, 3), (80, 7), (92, 6), (94, 0)]
59	12	1	2	1	[(8, 8)]
60	1	1	8	4	[(77, 2), (98, 1), (50, 8), (82, 3)]
61	3	1	8	2	[(22, 9), (72, 5)]
62	1	4	8	7	[(59, 5), (46, 3), (13, 10), (4, 1), (79, 3), (7, 10), (68, 2)]
63	1	1	8	6	[(34, 0), (98, 0), (92, 7), (9, 7), (61, 0), (64, 2)]
64	1	1	16	6	[(13, 1), (84, 10), (35, 1), (34, 8), (29, 5), (86, 7)]
65	15	1	8	7	[(16, 9), (8, 4), (10, 9), (79, 0), (85, 4), (14, 9), (98, 4)]
66	2	6	8	8	[(8, 0), (71, 9), (12, 5), (56, 8), (5, 10), (82, 4), (47, 6), (86, 7)]
67	1	2	1	10	[(18, 9), (93, 2), (21, 5), (73, 9), (49, 8), (42, 0), (5, 10), (44, 7), (64, 10), (90, 2)]
68	1	1	2	3	[(33, 10), (62, 4), (38, 4)]
69	2	1	8	6	[(49, 1), (90, 4), (89, 5), (74, 8), (100, 3), (51, 0)]
70	2	4	16	6	[(99, 9), (34, 5), (44, 1), (14, 7), (95, 2), (57, 10)]
71	4	1	32	3	[(11, 4), (5, 7), (10, 4)]
72	3	1	7	2	[(98, 7), (82, 7)]
73	2	1	8	3	[(47, 4), (3, 3), (96, 4)]
74	2	1	8	3	[(75, 3), (20, 8), (87, 8)]
75	8	1	8	6	[(62, 9), (34, 6), (30, 2), (37, 10), (92, 9), (42, 5)]
76	2	1	8	6	[(11, 7), (37, 6), (24, 8), (92, 5), (31, 2), (82, 7)]
77	2	4	8	6	[(15, 7), (89, 9), (37, 6), (8, 9), (45, 10), (61, 4)]
78	1	1	8	2	[(13, 8), (69, 1)]
79	27	1	8	4	[(9, 5), (32, 4), (17, 8), (28, 5)]
80	2	1	2	9	[(93, 10), (1, 2), (30, 8), (16, 5), (61, 10), (31, 5), (29, 10), (63, 0), (88, 9)]
81	2	1	8	5	[(47, 4), (81, 3), (38, 1), (34, 2), (56, 1)]
82	6	12	16	2	[(57, 10), (100, 9)]
83	2	1	8	6	[(11, 3), (23, 2), (16, 3), (90, 0), (97, 5), (41, 6)]
84	10	1	8	7	[(15, 5), (76, 8), (21, 7), (73, 2), (81, 10), (40, 4), (75, 8)]
85	1	1	8	8	[(65, 6), (34, 9), (12, 0), (35, 0), (21, 1), (31, 2), (47, 7), (8, 10)]
86	5	1	8	5	[(57, 2), (27, 0), (51, 0), (87, 10), (83, 7)]
87	1	1	8	5	[(92, 8), (71, 1), (93, 6), (69, 0), (73, 6)]
88	2	1	8	4	[(59, 9), (92, 7), (96, 6), (88, 1)]
89	1	1	1	6	[(87, 0), (29, 6), (63, 4), (6, 1), (94, 10), (25, 0)]
90	1	3	8	7	[(47, 1), (64, 8), (9, 8), (50, 6), (32, 3), (4, 3), (61, 1)]
91	4	1	8	4	[(31, 9), (42, 2), (77, 2), (87, 9)]
92	2	1	8	1	[(16, 1)]
93	1	4	8	10	[(56, 3), (72, 4), (41, 4), (89, 6), (35, 0), (5, 10), (29, 2), (66, 8), (23, 6), (12, 6)]
94	1	1	8	3	[(42, 9), (20, 8), (70, 10)]
95	4	1	8	8	[(38, 0), (39, 7), (37, 5), (13, 0), (86, 6), (79, 4), (17, 5), (74, 0)]
96	2	1	8	3	[(34, 7), (38, 1), (70, 1)]
97	4	1	2	1	[(77, 5)]
98	2	12	8	6	[(17, 5), (20, 9), (12, 3), (16, 7), (53, 5), (58, 2)]
99	2	2	8	7	[(40, 5), (85, 5), (25, 0), (21, 4), (96, 4), (90, 5), (48, 3)]
100	2	2	8	4	[(62, 5), (63, 6), (69, 3), (17, 10)]
