app_id	nb_instances	core	memory	inter_degree	inter_aff
1	10	1	8	1	[(45, 1)]
2	2	3	8	1	[(38, 10)]
3	1	1	8	0	[]
4	1	1	16	0	[]
5	2	1	8	3	[(4, 3), (10, 10), (27, 9)]
6	23	1	8	2	[(61, 2), (47, 8)]
7	13	1	8	0	[]
8	2	1	8	2	[(15, 8), (23, 10)]
9	3	1	8	3	[(77, 8), (90, 10), (43, 0)]
10	2	1	16	2	[(91, 6), (17, 6)]
11	16	1	8	1	[(48, 10)]
12	28	4	7	0	[]
13	2	1	8	0	[]
14	2	4	4	0	[]
15	1	2	8	0	[]
16	1	2	8	0	[]
17	23	1	8	1	[(62, 10)]
18	1	1	1	1	[(67, 1)]
19	2	1	8	1	[(99, 1)]
20	1	2	8	0	[]
21	210	4	8	0	[]
22	1	1	8	0	[]
23	98	1	8	0	[]
24	1	2	8	0	[]
25	2	1	8	2	[(96, 6), (34, 5)]
26	1	6	8	1	[(13, 5)]
27	3	1	1	1	[(38, 6)]
28	2	1	8	0	[]
29	1	1	2	1	[(58, 0)]
30	1	1	2	0	[]
31	3	1	8	0	[]
32	2	1	8	3	[(31, 1), (48, 4), (86, 2)]
33	1	12	8	2	[(100, 8), (85, 0)]
34	69	1	8	1	[(88, 6)]
35	3	1	8	0	[]
36	67	3	8	0	[]
37	1	2	8	0	[]
38	3	4	8	1	[(29, 7)]
39	1	5	8	2	[(21, 7), (1, 10)]
40	9	1	2	0	[]
41	2	1	8	1	[(42, 0)]
42	1	1	3	2	[(81, 3), (79, 2)]
43	2	1	8	5	[(10, 3), (56, 7), (84, 2), (30, 4), (53, 3)]
44	13	1	8	2	[(84, 1), (8, 5)]
45	4	1	2	0	[]
46	2	1	8	0	[]
47	2	1	7	0	[]
48	1	1	8	1	[(31, 7)]
49	5	1	8	0	[]
50	2	1	8	2	[(75, 4), (54, 7)]
51	3	1	8	2	[(19, 3), (8, 0)]
52	22	1	1	0	[]
53	2	2	8	1	[(61, 9)]
54	26	4	8	0	[]
55	2	1	1	2	[(58, 4), (26, 1)]
56	2	4	8	1	[(55, 4)]
57	1	1	8	0	[]
58	10	1	8	1	[(8, 0)]
59	2	2	8	2	[(98, 8), (75, 6)]
60	13	1	8	1	[(49, 10)]
61	1	4	8	0	[]
62	2	2	8	0	[]
63	2	1	8	1	[(48, 0)]
64	128	2	1	0	[]
65	2	1	8	1	[(81, 0)]
66	26	4	1	0	[]
67	1	1	8	1	[(41, 0)]
68	1	1	8	2	[(78, 3), (22, 3)]
69	13	4	8	4	[(49, 2), (44, 0), (80, 8), (23, 3)]
70	3	1	8	2	[(36, 6), (67, 7)]
71	37	1	8	2	[(5, 1), (9, 7)]
72	2	1	8	4	[(34, 10), (37, 10), (80, 10), (11, 1)]
73	2	1	8	0	[]
74	2	1	8	1	[(73, 1)]
75	37	1	8	0	[]
76	2	4	1	1	[(23, 9)]
77	2	6	2	1	[(54, 7)]
78	2	1	8	3	[(34, 7), (53, 2), (27, 4)]
79	2	1	8	3	[(40, 0), (32, 5), (15, 5)]
80	9	1	8	0	[]
81	1	10	8	1	[(91, 8)]
82	2	1	8	0	[]
83	10	1	2	1	[(65, 8)]
84	2	1	16	0	[]
85	4	2	8	1	[(37, 3)]
86	2	1	8	3	[(52, 4), (19, 9), (85, 7)]
87	3	1	8	2	[(7, 7), (34, 1)]
88	1	1	8	0	[]
89	2	4	8	0	[]
90	1	1	8	1	[(62, 6)]
91	1	1	9	2	[(4, 10), (20, 7)]
92	6	6	8	0	[]
93	4	4	8	2	[(18, 4), (58, 2)]
94	1	1	8	2	[(62, 5), (64, 9)]
95	1	1	8	1	[(83, 10)]
96	2	2	30	1	[(55, 9)]
97	1	1	8	0	[]
98	24	1	8	1	[(37, 7)]
99	2	2	8	0	[]
100	2	4	8	1	[(22, 7)]
