app_id	nb_instances	core	memory	inter_degree	inter_aff
1	1	1	8	10	[(46, 10), (16, 7), (90, 8), (35, 10), (48, 7), (60, 10), (51, 2), (52, 2), (91, 0), (1, 6)]
2	6	1	8	4	[(11, 10), (3, 6), (79, 2), (52, 1)]
3	1	1	8	13	[(2, 8), (63, 7), (80, 2), (23, 0), (97, 0), (64, 3), (26, 8), (15, 1), (87, 8), (19, 7), (36, 9), (30, 10), (69, 6)]
4	1	2	16	14	[(37, 7), (9, 10), (93, 2), (59, 10), (69, 7), (46, 4), (95, 6), (53, 5), (71, 1), (33, 3), (66, 5), (28, 4), (17, 4), (43, 7)]
5	1	1	8	11	[(27, 9), (73, 7), (77, 9), (43, 2), (63, 8), (86, 3), (20, 3), (15, 5), (78, 0), (95, 8), (38, 9)]
6	1	1	8	14	[(65, 4), (80, 4), (75, 3), (9, 7), (96, 5), (85, 6), (37, 2), (25, 10), (31, 0), (83, 4), (46, 4), (39, 4), (82, 7), (69, 6)]
7	1	3	8	12	[(90, 9), (20, 8), (14, 0), (23, 0), (79, 10), (72, 2), (93, 6), (29, 2), (4, 9), (91, 6), (3, 3), (6, 5)]
8	3	5	8	12	[(51, 9), (65, 3), (37, 9), (35, 10), (28, 1), (50, 2), (14, 1), (76, 5), (80, 6), (96, 5), (70, 7), (6, 6)]
9	3	4	8	12	[(38, 1), (54, 2), (70, 3), (3, 10), (74, 3), (13, 4), (34, 2), (63, 4), (68, 10), (79, 6), (57, 2), (87, 3)]
10	2	2	8	9	[(42, 4), (39, 7), (91, 4), (99, 1), (1, 0), (93, 10), (70, 4), (7, 5), (61, 6)]
11	2	6	8	10	[(39, 9), (8, 6), (11, 9), (18, 8), (25, 2), (12, 1), (57, 8), (45, 6), (66, 10), (36, 1)]
12	14	1	8	10	[(27, 5), (100, 4), (51, 4), (16, 4), (23, 5), (2, 4), (6, 3), (98, 9), (80, 1), (95, 4)]
13	19	3	16	13	[(63, 0), (14, 0), (53, 9), (24, 9), (32, 5), (60, 9), (35, 0), (36, 10), (91, 2), (86, 1), (42, 1), (49, 2), (71, 4)]
14	1	1	8	17	[(32, 1), (15, 1), (92, 6), (59, 9), (81, 7), (83, 9), (43, 0), (82, 10), (98, 5), (1, 1), (84, 1), (40, 10), (91, 9), (80, 3), (42, 7), (44, 4), (21, 3)]
15	10	1	8	10	[(40, 6), (46, 3), (98, 4), (8, 9), (58, 6), (36, 3), (47, 2), (29, 8), (56, 5), (72, 0)]
16	8	1	8	7	[(27, 0), (22, 8), (95, 8), (58, 9), (67, 5), (24, 8), (51, 10)]
17	1	1	32	13	[(20, 7), (34, 2), (2, 1), (90, 1), (75, 7), (49, 1), (13, 0), (31, 7), (78, 1), (39, 6), (62, 4), (29, 8), (51, 8)]
18	2	1	2	13	[(55, 8), (94, 9), (42, 8), (90, 3), (11, 4), (76, 0), (1, 9), (71, 8), (36, 7), (46, 9), (19, 10), (62, 9), (77, 7)]
19	1	1	8	12	[(23, 3), (50, 5), (47, 6), (16, 8), (97, 4), (82, 2), (69, 8), (99, 5), (57, 3), (43, 7), (75, 6), (95, 1)]
20	3	1	8	9	[(16, 7), (25, 10), (44, 1), (56, 3), (66, 9), (28, 1), (62, 9), (82, 3), (36, 9)]
21	6	1	16	17	[(52, 4), (70, 2), (87, 0), (83, 10), (68, 0), (73, 7), (3, 6), (98, 6), (28, 3), (80, 3), (7, 6), (78, 6), (1, 4), (91, 8), (33, 10), (77, 2), (64, 2)]
22	2	1	8	13	[(79, 0), (14, 6), (72, 8), (31, 0), (76, 8), (28, 9), (91, 2), (53, 5), (44, 9), (12, 5), (57, 0), (52, 0), (48, 7)]
23	4	2	8	8	[(65, 7), (36, 0), (41, 9), (92, 5), (12, 2), (50, 3), (79, 2), (58, 5)]
24	4	1	8	9	[(21, 0), (59, 5), (24, 2), (95, 3), (29, 6), (56, 1), (81, 4), (36, 8), (31, 10)]
25	4	1	16	6	[(67, 3), (1, 9), (74, 7), (47, 5), (10, 3), (31, 1)]
26	15	1	8	9	[(62, 4), (51, 0), (47, 7), (53, 10), (13, 7), (35, 3), (52, 10), (79, 9), (48, 3)]
27	1	1	8	15	[(55, 5), (57, 7), (2, 9), (78, 3), (56, 8), (28, 8), (19, 7), (58, 6), (36, 4), (23, 4), (6, 3), (20, 5), (25, 2), (8, 1), (30, 4)]
28	2	1	8	6	[(45, 1), (10, 3), (82, 6), (62, 10), (37, 3), (94, 1)]
29	4	1	8	8	[(46, 3), (71, 2), (86, 9), (22, 10), (73, 6), (48, 8), (3, 5), (68, 5)]
30	4	1	2	9	[(67, 8), (66, 6), (87, 3), (71, 5), (75, 6), (74, 0), (40, 2), (92, 7), (30, 10)]
31	1	1	8	14	[(9, 4), (42, 4), (73, 6), (77, 0), (14, 0), (53, 2), (61, 7), (13, 7), (79, 6), (72, 9), (54, 2), (80, 6), (10, 7), (57, 5)]
32	1	4	8	10	[(25, 1), (53, 7), (14, 5), (62, 6), (65, 7), (50, 7), (46, 8), (85, 7), (68, 1), (97, 3)]
33	1	5	8	6	[(32, 6), (14, 7), (100, 5), (23, 7), (50, 2), (69, 6)]
34	5	1	16	5	[(5, 7), (54, 10), (34, 8), (36, 8), (84, 8)]
35	4	1	8	9	[(73, 10), (72, 4), (20, 8), (11, 5), (2, 9), (36, 7), (54, 9), (32, 1), (68, 0)]
36	5	1	8	9	[(32, 4), (12, 3), (62, 6), (42, 8), (33, 1), (6, 8), (29, 6), (4, 4), (47, 3)]
37	2	1	4	15	[(19, 5), (24, 3), (53, 6), (34, 9), (76, 10), (40, 5), (43, 4), (21, 4), (79, 4), (31, 6), (56, 10), (26, 4), (58, 6), (71, 10), (51, 0)]
38	3	6	8	10	[(92, 6), (50, 0), (53, 9), (89, 9), (56, 7), (33, 3), (36, 9), (24, 2), (2, 2), (99, 2)]
39	5	1	1	13	[(84, 6), (78, 3), (47, 6), (72, 2), (89, 2), (13, 4), (96, 0), (86, 4), (62, 2), (18, 9), (31, 4), (49, 0), (66, 5)]
40	4	1	16	4	[(90, 3), (95, 6), (49, 10), (93, 0)]
41	5	4	16	5	[(47, 4), (29, 9), (86, 10), (73, 6), (13, 10)]
42	1	1	8	11	[(51, 9), (47, 5), (33, 9), (98, 10), (73, 4), (7, 5), (97, 9), (21, 6), (43, 5), (32, 3), (81, 1)]
43	225	1	8	9	[(55, 3), (41, 9), (30, 5), (85, 8), (88, 8), (49, 5), (100, 1), (47, 5), (44, 3)]
44	2	1	8	12	[(43, 1), (11, 3), (90, 2), (81, 9), (76, 10), (75, 9), (49, 5), (21, 7), (35, 3), (61, 3), (80, 1), (55, 3)]
45	3	2	8	10	[(45, 8), (96, 0), (38, 6), (61, 3), (62, 9), (74, 8), (31, 10), (86, 1), (10, 0), (35, 9)]
46	50	6	8	11	[(99, 6), (29, 5), (6, 7), (71, 10), (39, 8), (31, 10), (95, 0), (44, 4), (86, 5), (36, 6), (55, 4)]
47	1	1	8	8	[(96, 9), (69, 2), (22, 4), (18, 5), (13, 9), (37, 8), (60, 8), (49, 3)]
48	2	3	8	8	[(85, 4), (48, 3), (35, 10), (12, 0), (84, 10), (21, 6), (40, 0), (14, 0)]
49	27	1	8	10	[(11, 1), (75, 7), (16, 8), (40, 0), (20, 10), (4, 4), (36, 9), (8, 3), (99, 7), (27, 2)]
50	2	1	8	7	[(74, 10), (41, 1), (79, 9), (86, 6), (90, 2), (44, 5), (69, 7)]
51	1	4	8	8	[(60, 9), (68, 1), (98, 5), (44, 5), (72, 10), (70, 8), (4, 7), (43, 8)]
52	1	2	8	10	[(77, 8), (44, 1), (36, 9), (89, 5), (70, 2), (3, 0), (50, 8), (83, 3), (46, 7), (17, 5)]
53	1	5	8	7	[(77, 4), (66, 1), (2, 6), (69, 7), (24, 1), (98, 2), (34, 10)]
54	1	1	8	15	[(47, 6), (41, 5), (88, 0), (16, 3), (4, 1), (10, 2), (99, 9), (7, 7), (77, 4), (52, 9), (15, 10), (29, 7), (32, 3), (31, 3), (80, 9)]
55	5	6	16	5	[(87, 0), (30, 8), (54, 6), (22, 7), (84, 3)]
56	85	1	8	5	[(25, 10), (63, 9), (86, 2), (17, 9), (89, 2)]
57	3	1	8	10	[(70, 3), (52, 5), (77, 0), (41, 2), (99, 4), (94, 10), (66, 2), (61, 3), (48, 2), (37, 9)]
58	5	1	8	11	[(80, 1), (73, 6), (24, 9), (99, 5), (81, 2), (42, 6), (70, 8), (33, 2), (44, 3), (67, 10), (35, 9)]
59	4	1	8	11	[(27, 3), (70, 3), (99, 6), (46, 1), (96, 4), (61, 1), (51, 1), (65, 2), (36, 0), (93, 6), (82, 6)]
60	2	1	1	11	[(20, 6), (27, 6), (33, 3), (84, 9), (71, 1), (83, 2), (81, 10), (2, 5), (12, 6), (86, 3), (56, 8)]
61	2	1	8	17	[(69, 2), (98, 3), (22, 7), (85, 4), (5, 6), (71, 6), (94, 3), (89, 3), (13, 6), (45, 9), (11, 8), (41, 6), (76, 10), (65, 1), (100, 4), (57, 8), (50, 7)]
62	3	6	8	18	[(23, 9), (11, 10), (47, 0), (22, 5), (36, 1), (82, 8), (70, 7), (18, 2), (27, 1), (61, 3), (56, 10), (15, 7), (6, 1), (39, 10), (78, 1), (38, 2), (10, 0), (31, 7)]
63	24	1	8	11	[(27, 2), (78, 6), (4, 10), (61, 0), (25, 8), (79, 4), (21, 4), (73, 3), (99, 3), (10, 9), (63, 6)]
64	4	1	8	10	[(37, 4), (8, 2), (65, 9), (12, 6), (89, 7), (57, 9), (86, 7), (99, 4), (80, 6), (19, 3)]
65	1	1	10	9	[(65, 10), (69, 0), (89, 7), (11, 7), (44, 10), (21, 9), (58, 6), (87, 10), (25, 5)]
66	1	1	8	8	[(55, 4), (34, 10), (40, 2), (31, 5), (77, 9), (99, 3), (20, 10), (58, 8)]
67	1	1	8	12	[(55, 1), (18, 1), (100, 0), (57, 9), (1, 9), (86, 0), (28, 0), (26, 5), (54, 7), (11, 0), (75, 9), (84, 4)]
68	4	2	8	12	[(47, 1), (23, 5), (34, 5), (72, 8), (45, 3), (9, 4), (61, 7), (63, 3), (29, 8), (100, 10), (21, 3), (68, 9)]
69	2	1	8	14	[(83, 1), (58, 1), (82, 1), (66, 2), (5, 7), (46, 1), (25, 4), (93, 0), (47, 8), (13, 1), (80, 7), (2, 9), (22, 9), (77, 4)]
70	5	1	8	12	[(77, 9), (56, 4), (90, 1), (5, 10), (15, 4), (35, 6), (51, 6), (4, 5), (26, 10), (66, 3), (92, 3), (63, 1)]
71	6	12	8	8	[(95, 1), (85, 8), (61, 1), (34, 5), (70, 6), (67, 5), (9, 0), (77, 2)]
72	2	2	2	6	[(75, 6), (91, 10), (35, 5), (19, 9), (76, 0), (66, 4)]
73	1	1	8	9	[(47, 4), (10, 4), (21, 0), (97, 4), (2, 4), (15, 8), (11, 4), (16, 3), (41, 2)]
74	2	1	1	8	[(81, 2), (61, 6), (74, 4), (84, 4), (58, 8), (36, 7), (9, 5), (93, 2)]
75	1	1	32	14	[(86, 4), (64, 8), (15, 1), (72, 3), (6, 8), (46, 2), (68, 3), (93, 4), (55, 5), (37, 4), (58, 3), (24, 3), (34, 10), (69, 5)]
76	28	3	1	7	[(86, 0), (61, 6), (22, 5), (90, 5), (75, 3), (93, 6), (81, 5)]
77	23	1	8	4	[(36, 0), (30, 4), (67, 1), (50, 8)]
78	5	1	7	9	[(33, 6), (48, 5), (15, 9), (88, 4), (29, 1), (100, 5), (68, 7), (77, 4), (30, 4)]
79	2	1	1	10	[(45, 5), (72, 6), (5, 0), (18, 1), (23, 6), (76, 8), (94, 0), (56, 2), (96, 1), (83, 6)]
80	4	1	8	7	[(92, 0), (23, 10), (42, 9), (12, 3), (52, 6), (5, 3), (8, 2)]
81	1	4	2	7	[(17, 0), (36, 1), (30, 7), (7, 9), (42, 9), (50, 5), (24, 8)]
82	3	1	8	10	[(50, 3), (85, 2), (78, 1), (62, 8), (34, 1), (17, 0), (26, 1), (31, 10), (56, 2), (45, 4)]
83	4	1	2	7	[(5, 5), (36, 9), (83, 9), (23, 5), (57, 9), (73, 7), (24, 4)]
84	1	1	8	5	[(88, 8), (18, 10), (76, 3), (27, 5), (23, 7)]
85	1	1	8	10	[(12, 5), (28, 5), (92, 2), (66, 8), (99, 5), (87, 4), (19, 7), (75, 5), (35, 0), (8, 3)]
86	1	1	8	10	[(68, 7), (58, 9), (56, 10), (38, 2), (32, 8), (34, 10), (70, 5), (30, 3), (17, 10), (64, 4)]
87	20	1	8	10	[(94, 5), (78, 4), (1, 1), (2, 2), (19, 9), (22, 9), (9, 0), (40, 9), (26, 9), (54, 4)]
88	2	1	8	14	[(66, 9), (69, 5), (93, 10), (77, 3), (78, 1), (27, 6), (89, 3), (75, 0), (49, 5), (10, 8), (100, 1), (71, 1), (58, 10), (52, 1)]
89	7	3	8	12	[(29, 1), (77, 6), (81, 10), (98, 10), (63, 10), (16, 4), (47, 6), (32, 9), (18, 1), (27, 6), (37, 0), (28, 6)]
90	1	1	8	12	[(81, 10), (19, 10), (51, 2), (64, 8), (59, 2), (41, 10), (27, 0), (30, 7), (42, 9), (76, 1), (48, 4), (92, 0)]
91	2	2	8	9	[(35, 2), (12, 1), (38, 0), (62, 7), (44, 3), (10, 9), (28, 5), (37, 7), (94, 2)]
92	2	5	2	6	[(43, 8), (21, 0), (58, 3), (60, 10), (63, 4), (97, 8)]
93	8	1	2	10	[(66, 1), (82, 0), (59, 1), (79, 9), (57, 5), (62, 2), (9, 4), (4, 1), (95, 4), (70, 4)]
94	1	1	8	10	[(62, 3), (92, 2), (83, 9), (97, 9), (39, 7), (100, 7), (46, 3), (54, 4), (1, 10), (75, 0)]
95	5	1	8	12	[(66, 9), (63, 6), (96, 2), (87, 3), (90, 3), (11, 5), (69, 0), (34, 3), (3, 6), (18, 10), (78, 7), (2, 7)]
96	2	1	8	14	[(61, 9), (54, 8), (80, 1), (5, 4), (60, 9), (10, 0), (86, 2), (21, 9), (70, 3), (2, 6), (94, 10), (46, 10), (90, 2), (56, 1)]
97	1	4	8	5	[(95, 0), (41, 3), (61, 7), (4, 10), (84, 1)]
98	1	1	2	12	[(99, 5), (69, 10), (28, 10), (74, 6), (68, 9), (57, 4), (48, 0), (82, 10), (26, 8), (50, 3), (93, 0), (37, 0)]
99	5	1	8	6	[(78, 7), (67, 9), (60, 0), (52, 0), (12, 9), (85, 3)]
100	2	1	8	10	[(69, 3), (23, 9), (57, 9), (100, 3), (53, 4), (72, 9), (45, 2), (80, 2), (22, 5), (81, 8)]
