app_id	nb_instances	core	memory	inter_degree	inter_aff
1	1	1	4	7	[(13, 10), (10, 1), (100, 3), (4, 4), (15, 4), (58, 4), (41, 2)]
2	24	1	8	3	[(22, 2), (97, 10), (40, 0)]
3	2	2	8	6	[(35, 9), (45, 9), (66, 7), (73, 2), (58, 3), (87, 3)]
4	4	2	8	5	[(98, 4), (94, 5), (4, 2), (73, 0), (92, 7)]
5	2	1	8	6	[(76, 9), (78, 5), (46, 8), (30, 2), (77, 0), (69, 9)]
6	1	1	8	5	[(22, 1), (60, 7), (69, 7), (50, 1), (14, 8)]
7	1	1	16	6	[(27, 6), (42, 7), (41, 9), (83, 10), (79, 6), (28, 7)]
8	1	1	4	4	[(39, 5), (82, 1), (16, 10), (12, 2)]
9	41	5	8	1	[(9, 2)]
10	2	1	8	4	[(84, 6), (56, 2), (96, 7), (43, 9)]
11	4	1	8	2	[(25, 0), (17, 1)]
12	3	1	8	4	[(63, 8), (57, 9), (49, 9), (10, 1)]
13	2	1	8	5	[(57, 8), (75, 4), (7, 2), (21, 2), (78, 8)]
14	5	1	8	4	[(85, 1), (16, 3), (57, 8), (25, 2)]
15	2	4	8	3	[(50, 5), (75, 7), (95, 10)]
16	1	1	8	0	[]
17	1	1	8	9	[(58, 0), (45, 9), (56, 5), (67, 9), (37, 7), (69, 7), (9, 3), (74, 1), (73, 0)]
18	1	4	16	3	[(49, 1), (65, 5), (63, 4)]
19	4	1	8	4	[(20, 7), (13, 9), (27, 1), (78, 8)]
20	2	4	8	4	[(99, 3), (82, 3), (74, 3), (22, 1)]
21	1	2	8	6	[(80, 2), (74, 10), (30, 1), (71, 6), (18, 4), (48, 2)]
22	20	1	2	3	[(68, 0), (41, 5), (25, 9)]
23	3	1	8	6	[(31, 7), (10, 3), (1, 8), (50, 3), (80, 6), (86, 3)]
24	5	1	8	7	[(13, 9), (76, 4), (16, 8), (27, 3), (98, 1), (50, 1), (58, 2)]
25	2	2	8	2	[(5, 8), (68, 10)]
26	2	2	8	2	[(80, 2), (91, 7)]
27	3	1	8	2	[(53, 9), (40, 0)]
28	8	1	8	9	[(44, 2), (8, 7), (32, 0), (87, 2), (93, 2), (83, 1), (28, 4), (43, 2), (23, 4)]
29	2	3	16	5	[(91, 10), (9, 0), (74, 8), (56, 9), (80, 0)]
30	1	1	8	5	[(47, 9), (61, 3), (55, 7), (59, 2), (56, 7)]
31	6	1	8	3	[(96, 1), (67, 2), (65, 1)]
32	3	2	8	13	[(15, 10), (66, 9), (81, 1), (30, 9), (70, 5), (36, 3), (93, 9), (3, 9), (18, 3), (95, 7), (39, 7), (35, 2), (50, 3)]
33	1	1	8	4	[(51, 6), (24, 0), (65, 7), (38, 1)]
34	2	1	8	7	[(43, 7), (16, 0), (25, 1), (81, 10), (84, 1), (51, 8), (18, 9)]
35	3	1	8	7	[(41, 6), (31, 3), (32, 4), (4, 10), (90, 0), (22, 5), (47, 2)]
36	6	1	8	12	[(61, 0), (86, 6), (98, 0), (73, 7), (30, 4), (97, 8), (2, 9), (89, 6), (38, 0), (69, 0), (46, 10), (91, 5)]
37	1	4	2	3	[(22, 3), (63, 8), (27, 8)]
38	1	1	8	7	[(96, 4), (45, 6), (41, 5), (23, 7), (7, 5), (28, 6), (31, 6)]
39	2	1	2	4	[(57, 1), (34, 0), (1, 5), (74, 6)]
40	4	1	8	3	[(64, 4), (14, 7), (17, 4)]
41	5	4	8	8	[(27, 10), (28, 8), (71, 2), (90, 10), (2, 8), (87, 9), (92, 2), (15, 4)]
42	6	6	8	6	[(13, 8), (65, 2), (72, 7), (57, 7), (38, 5), (83, 3)]
43	2	4	8	3	[(30, 2), (70, 7), (12, 3)]
44	2	1	8	3	[(76, 9), (75, 6), (36, 9)]
45	2	1	1	4	[(73, 10), (31, 2), (69, 3), (35, 4)]
46	1	2	2	1	[(45, 7)]
47	2	1	8	1	[(9, 6)]
48	2	1	8	6	[(25, 1), (6, 0), (40, 4), (30, 8), (88, 3), (100, 9)]
49	5	1	1	4	[(15, 3), (29, 9), (65, 10), (50, 5)]
50	2	1	7	3	[(50, 10), (95, 9), (11, 7)]
51	1	1	8	7	[(57, 10), (16, 10), (87, 3), (45, 7), (90, 0), (95, 2), (49, 10)]
52	2	1	2	2	[(91, 1), (89, 4)]
53	6	6	7	6	[(26, 9), (91, 9), (58, 10), (98, 3), (75, 10), (69, 8)]
54	20	3	8	4	[(64, 4), (51, 0), (14, 8), (86, 0)]
55	132	3	8	10	[(91, 9), (90, 7), (10, 0), (26, 5), (12, 4), (87, 10), (51, 2), (93, 3), (95, 3), (43, 6)]
56	1	2	16	1	[(98, 9)]
57	9	1	5	5	[(45, 1), (20, 7), (41, 7), (38, 1), (8, 0)]
58	2	1	8	5	[(79, 5), (5, 4), (84, 6), (59, 0), (44, 2)]
59	21	1	2	5	[(65, 5), (69, 0), (14, 10), (82, 3), (59, 1)]
60	2	1	7	5	[(42, 9), (58, 5), (92, 8), (98, 8), (12, 5)]
61	2	1	8	2	[(82, 5), (44, 4)]
62	2	2	8	2	[(74, 8), (63, 4)]
63	3	1	6	9	[(100, 10), (55, 5), (8, 8), (9, 0), (91, 4), (27, 3), (37, 3), (67, 6), (33, 6)]
64	2	6	8	6	[(67, 6), (47, 2), (57, 3), (17, 1), (12, 0), (64, 8)]
65	2	1	8	4	[(56, 5), (69, 0), (67, 9), (96, 2)]
66	3	1	8	3	[(83, 2), (1, 5), (22, 2)]
67	2	1	8	2	[(65, 8), (47, 3)]
68	3	1	8	3	[(46, 0), (28, 6), (42, 2)]
69	8	1	8	3	[(86, 10), (49, 6), (3, 10)]
70	10	2	16	8	[(15, 4), (76, 8), (48, 4), (1, 5), (52, 4), (60, 1), (71, 5), (40, 4)]
71	4	3	6	9	[(58, 2), (21, 5), (79, 2), (2, 0), (73, 4), (30, 0), (61, 2), (53, 10), (43, 1)]
72	15	2	8	6	[(80, 4), (17, 10), (23, 0), (31, 6), (92, 4), (56, 1)]
73	1	1	8	10	[(23, 0), (21, 10), (1, 6), (39, 0), (22, 1), (45, 9), (32, 9), (43, 0), (58, 10), (94, 7)]
74	1	1	8	6	[(88, 10), (83, 8), (42, 7), (91, 4), (73, 0), (94, 4)]
75	2	3	8	2	[(71, 10), (14, 9)]
76	16	3	8	9	[(99, 6), (18, 5), (24, 7), (32, 0), (78, 1), (54, 3), (58, 6), (26, 7), (61, 1)]
77	1	1	8	4	[(95, 0), (30, 5), (14, 2), (61, 8)]
78	2	1	8	5	[(69, 7), (65, 8), (54, 10), (2, 4), (47, 5)]
79	2	6	43	4	[(32, 3), (87, 10), (77, 6), (98, 9)]
80	2	1	8	6	[(55, 4), (20, 4), (25, 7), (46, 3), (1, 2), (17, 2)]
81	3	2	8	4	[(26, 9), (66, 2), (53, 6), (90, 8)]
82	2	1	8	5	[(38, 1), (23, 1), (37, 6), (11, 0), (7, 9)]
83	25	1	2	7	[(97, 0), (4, 9), (27, 9), (6, 4), (30, 3), (43, 5), (52, 8)]
84	1	1	8	5	[(22, 2), (13, 10), (95, 7), (52, 2), (40, 10)]
85	4	1	16	5	[(35, 7), (66, 9), (75, 3), (93, 0), (52, 8)]
86	4	1	8	7	[(73, 0), (1, 5), (51, 0), (77, 7), (22, 3), (3, 4), (36, 4)]
87	44	1	8	6	[(62, 8), (52, 9), (94, 10), (33, 2), (61, 8), (34, 4)]
88	1	1	8	8	[(70, 10), (14, 6), (80, 1), (60, 9), (34, 6), (57, 0), (96, 2), (32, 2)]
89	2	1	8	6	[(42, 1), (96, 6), (41, 3), (27, 8), (70, 10), (32, 2)]
90	2	1	8	2	[(58, 6), (57, 7)]
91	2	1	8	2	[(48, 9), (53, 0)]
92	2	1	8	5	[(2, 6), (26, 7), (37, 7), (46, 3), (93, 7)]
93	3	1	8	9	[(35, 0), (5, 3), (23, 7), (89, 9), (34, 4), (19, 0), (11, 9), (58, 3), (59, 9)]
94	7	2	16	8	[(57, 3), (9, 10), (58, 7), (80, 8), (10, 9), (68, 1), (91, 0), (73, 7)]
95	2	4	1	5	[(58, 5), (15, 0), (83, 1), (25, 7), (93, 0)]
96	3	2	8	4	[(44, 0), (25, 0), (62, 3), (78, 4)]
97	1	1	4	5	[(54, 8), (96, 7), (28, 1), (29, 0), (81, 4)]
98	7	1	8	6	[(58, 8), (37, 0), (38, 3), (96, 10), (64, 10), (77, 7)]
99	11	1	8	7	[(41, 6), (6, 2), (61, 7), (13, 0), (98, 5), (19, 2), (15, 0)]
100	1	7	8	7	[(24, 4), (47, 4), (23, 1), (13, 5), (40, 2), (21, 6), (19, 9)]
