app_id	nb_instances	core	memory	inter_degree	inter_aff
1	1	2	16	0	[]
2	1	1	8	1	[(2, 4)]
3	3	1	2	0	[]
4	2	2	16	0	[]
5	3	2	8	1	[(5, 10)]
6	1	1	2	0	[]
7	5	1	8	0	[]
8	1	2	8	0	[]
9	2	1	8	1	[(9, 1)]
10	3	4	2	0	[]
11	2	1	8	0	[]
12	1	1	8	1	[(12, 6)]
13	2	1	8	0	[]
14	1	1	8	1	[(14, 9)]
15	1	2	8	0	[]
16	3	2	8	0	[]
17	1	1	8	0	[]
18	4	2	8	0	[]
19	1	2	2	0	[]
20	11	11	8	0	[]
21	2	4	8	1	[(21, 2)]
22	4	1	8	0	[]
23	1	1	8	0	[]
24	1	2	8	0	[]
25	3	2	8	0	[]
26	4	4	8	0	[]
27	4	1	8	0	[]
28	5	1	2	0	[]
29	2	1	8	0	[]
30	6	6	8	0	[]
31	3	1	8	1	[(31, 4)]
32	1	1	8	0	[]
33	20	1	8	0	[]
34	2	6	8	0	[]
35	50	1	8	0	[]
36	24	1	8	1	[(36, 10)]
37	1	1	8	0	[]
38	3	2	8	0	[]
39	3	1	8	1	[(39, 1)]
40	1	1	8	1	[(40, 5)]
41	16	1	8	1	[(41, 4)]
42	4	1	8	1	[(42, 3)]
43	1	1	8	0	[]
44	2	2	8	1	[(44, 5)]
45	3	1	8	0	[]
46	1	1	1	0	[]
47	2	1	8	0	[]
48	2	1	8	0	[]
49	2	6	8	0	[]
50	2	1	1	0	[]
51	2	1	8	0	[]
52	2	1	32	0	[]
53	1	1	8	0	[]
54	2	4	8	0	[]
55	5	1	8	0	[]
56	3	1	8	0	[]
57	2	1	8	0	[]
58	2	1	8	0	[]
59	1	2	8	0	[]
60	1	1	8	0	[]
61	23	1	8	0	[]
62	12	6	8	0	[]
63	1	3	8	0	[]
64	2	2	8	0	[]
65	3	1	8	0	[]
66	100	1	8	0	[]
67	1	1	8	0	[]
68	4	1	8	1	[(68, 2)]
69	3	1	8	0	[]
70	2	1	8	0	[]
71	2	2	8	0	[]
72	7	1	8	0	[]
73	2	4	8	0	[]
74	82	1	8	0	[]
75	6	3	8	0	[]
76	2	4	8	0	[]
77	1	1	1	1	[(77, 9)]
78	1	1	8	0	[]
79	12	2	8	0	[]
80	1	4	8	0	[]
81	2	1	8	1	[(81, 1)]
82	2	2	8	0	[]
83	25	1	8	0	[]
84	4	1	8	0	[]
85	1	4	8	1	[(85, 9)]
86	1	1	2	0	[]
87	5	1	8	1	[(87, 10)]
88	2	1	2	0	[]
89	29	1	8	0	[]
90	2	4	8	0	[]
91	1	1	8	1	[(91, 4)]
92	1	1	1	0	[]
93	50	1	8	0	[]
94	1	1	8	1	[(94, 2)]
95	1	1	8	0	[]
96	1	1	8	0	[]
97	30	2	8	0	[]
98	5	1	8	0	[]
99	1	3	8	0	[]
100	3	1	8	0	[]
