app_id	nb_instances	core	memory	inter_degree	inter_aff
1	21	3	8	24	[(99, 3), (104, 7), (86, 9), (216, 10), (182, 4), (215, 1), (212, 5), (186, 7), (84, 7), (62, 3), (53, 10), (32, 8), (112, 5), (124, 10), (29, 4), (171, 3), (225, 7), (232, 0), (108, 0), (162, 3), (130, 8), (237, 9), (12, 6), (241, 8)]
2	4	1	8	26	[(48, 5), (130, 0), (80, 2), (76, 4), (220, 2), (103, 3), (7, 7), (18, 1), (143, 1), (37, 9), (139, 6), (120, 0), (69, 7), (66, 4), (72, 9), (242, 4), (125, 3), (12, 3), (88, 6), (29, 6), (141, 9), (236, 7), (240, 1), (178, 8), (11, 4), (186, 10)]
3	2	1	8	28	[(138, 3), (100, 4), (114, 0), (214, 3), (65, 10), (89, 2), (28, 3), (61, 5), (242, 4), (237, 8), (120, 1), (140, 6), (205, 10), (227, 1), (24, 5), (216, 1), (221, 2), (90, 6), (233, 8), (67, 5), (10, 10), (154, 9), (132, 10), (194, 0), (82, 9), (229, 7), (41, 6), (39, 8)]
4	42	12	8	26	[(243, 2), (118, 7), (63, 3), (157, 9), (230, 4), (241, 7), (202, 9), (14, 5), (218, 10), (216, 9), (163, 1), (176, 9), (29, 8), (12, 3), (209, 2), (237, 8), (198, 3), (20, 3), (167, 9), (207, 5), (135, 5), (101, 3), (158, 10), (146, 6), (169, 1), (82, 6)]
5	1	3	8	26	[(3, 7), (140, 5), (204, 8), (114, 10), (197, 9), (44, 7), (34, 6), (223, 2), (65, 2), (54, 0), (33, 3), (160, 0), (91, 2), (193, 10), (243, 10), (110, 5), (181, 0), (201, 7), (62, 7), (105, 6), (180, 3), (215, 3), (124, 9), (10, 3), (134, 0), (210, 10)]
6	6	1	8	23	[(176, 6), (165, 0), (209, 8), (198, 8), (182, 5), (38, 10), (119, 7), (148, 8), (193, 0), (116, 6), (161, 6), (59, 0), (101, 5), (86, 1), (220, 0), (213, 10), (225, 10), (236, 8), (22, 9), (141, 8), (65, 8), (36, 5), (208, 2)]
7	5	1	8	19	[(244, 8), (213, 3), (250, 9), (4, 9), (143, 2), (11, 7), (62, 10), (93, 6), (145, 1), (125, 0), (207, 0), (92, 5), (146, 3), (242, 2), (235, 4), (45, 7), (128, 9), (179, 10), (111, 4)]
8	1	6	1	19	[(69, 4), (94, 8), (149, 5), (42, 5), (52, 0), (192, 10), (18, 6), (227, 8), (44, 2), (162, 5), (144, 2), (17, 5), (219, 9), (14, 2), (127, 6), (97, 3), (36, 7), (126, 0), (77, 0)]
9	1	1	8	27	[(55, 4), (204, 4), (105, 8), (169, 2), (126, 0), (140, 7), (145, 8), (167, 9), (248, 1), (158, 3), (66, 5), (38, 4), (147, 6), (94, 5), (175, 6), (72, 5), (133, 3), (207, 6), (206, 10), (123, 1), (236, 8), (69, 4), (153, 1), (31, 7), (28, 8), (125, 10), (92, 3)]
10	1	1	8	25	[(230, 2), (69, 8), (121, 2), (106, 9), (203, 1), (177, 7), (202, 1), (136, 1), (6, 7), (248, 6), (145, 2), (122, 0), (48, 2), (11, 1), (115, 6), (57, 3), (56, 5), (1, 3), (235, 1), (195, 1), (216, 6), (71, 5), (164, 2), (20, 8), (38, 3)]
11	1	1	8	26	[(230, 10), (94, 5), (225, 6), (186, 9), (113, 0), (159, 2), (241, 0), (13, 8), (153, 3), (167, 7), (151, 3), (180, 10), (103, 3), (78, 3), (142, 6), (69, 4), (171, 8), (101, 3), (135, 1), (246, 4), (91, 3), (95, 8), (83, 0), (205, 2), (19, 6), (50, 6)]
12	2	4	8	32	[(46, 7), (84, 5), (4, 1), (240, 9), (232, 5), (100, 6), (233, 2), (7, 10), (31, 8), (57, 5), (217, 2), (18, 3), (116, 8), (30, 10), (76, 3), (151, 7), (81, 2), (225, 9), (73, 6), (246, 0), (74, 4), (103, 5), (175, 1), (195, 7), (176, 5), (65, 3), (203, 6), (86, 4), (20, 10), (144, 9), (87, 1), (243, 1)]
13	36	1	8	19	[(195, 0), (100, 0), (229, 7), (94, 6), (239, 7), (205, 5), (168, 8), (83, 0), (118, 1), (132, 8), (47, 0), (201, 10), (86, 2), (51, 10), (101, 6), (62, 1), (194, 5), (148, 1), (24, 8)]
14	2	1	1	27	[(178, 8), (141, 0), (232, 1), (213, 9), (109, 0), (148, 5), (92, 4), (124, 4), (97, 7), (214, 1), (118, 8), (14, 8), (154, 3), (20, 7), (218, 7), (29, 4), (63, 6), (220, 9), (215, 2), (132, 4), (122, 3), (17, 1), (125, 7), (51, 0), (191, 0), (41, 5), (79, 2)]
15	24	2	1	25	[(122, 9), (113, 9), (165, 8), (174, 2), (169, 5), (128, 10), (34, 3), (25, 0), (93, 8), (66, 3), (43, 6), (140, 0), (31, 3), (147, 2), (106, 5), (79, 8), (222, 6), (44, 3), (156, 10), (138, 2), (56, 0), (132, 5), (22, 2), (90, 0), (88, 8)]
16	1	1	8	24	[(1, 2), (164, 2), (52, 0), (143, 4), (87, 0), (131, 5), (173, 7), (132, 4), (98, 9), (222, 3), (115, 8), (135, 5), (63, 4), (150, 9), (51, 6), (241, 2), (117, 7), (140, 6), (205, 1), (196, 5), (72, 1), (249, 6), (152, 6), (18, 10)]
17	2	1	8	11	[(134, 3), (118, 10), (237, 3), (148, 7), (9, 0), (209, 7), (127, 0), (44, 8), (43, 5), (156, 6), (15, 2)]
18	1	2	8	30	[(20, 1), (219, 10), (22, 3), (199, 7), (71, 1), (105, 3), (229, 0), (227, 6), (47, 7), (9, 0), (122, 5), (147, 5), (25, 7), (236, 8), (12, 6), (200, 5), (232, 4), (84, 9), (79, 9), (194, 9), (163, 9), (223, 9), (40, 3), (173, 2), (192, 1), (64, 3), (35, 2), (249, 7), (24, 6), (135, 9)]
19	2	1	2	26	[(184, 3), (198, 0), (237, 6), (65, 0), (153, 7), (179, 2), (39, 0), (192, 4), (226, 5), (243, 8), (124, 4), (22, 0), (187, 2), (25, 6), (15, 3), (241, 9), (221, 5), (250, 3), (128, 8), (40, 6), (142, 8), (140, 8), (238, 8), (91, 4), (60, 8), (32, 1)]
20	2	1	6	20	[(241, 10), (74, 8), (200, 4), (140, 9), (245, 6), (2, 6), (212, 2), (30, 7), (24, 7), (221, 4), (97, 7), (180, 10), (154, 3), (224, 9), (29, 10), (41, 10), (146, 3), (70, 0), (118, 9), (108, 2)]
21	2	2	8	28	[(62, 5), (247, 3), (54, 9), (94, 8), (144, 4), (180, 9), (101, 5), (146, 9), (177, 2), (132, 8), (119, 0), (249, 6), (145, 0), (78, 2), (45, 8), (173, 2), (187, 10), (158, 4), (223, 6), (65, 8), (133, 4), (224, 9), (113, 4), (250, 6), (58, 1), (129, 10), (203, 8), (28, 0)]
22	1	6	8	20	[(50, 10), (195, 5), (123, 5), (90, 5), (118, 8), (219, 4), (125, 6), (182, 3), (190, 5), (94, 0), (245, 3), (80, 0), (46, 4), (86, 0), (176, 1), (242, 7), (30, 9), (226, 3), (48, 2), (45, 0)]
23	3	1	16	25	[(95, 4), (240, 5), (20, 5), (56, 1), (171, 4), (237, 4), (161, 9), (63, 7), (231, 6), (92, 10), (160, 1), (93, 8), (76, 4), (216, 10), (60, 9), (158, 2), (219, 9), (2, 2), (205, 9), (152, 10), (185, 0), (23, 1), (191, 0), (143, 8), (118, 4)]
24	130	2	2	23	[(85, 7), (136, 1), (250, 5), (163, 1), (218, 0), (142, 10), (62, 4), (1, 9), (150, 4), (31, 3), (77, 6), (68, 4), (34, 1), (128, 2), (126, 0), (248, 4), (170, 4), (48, 8), (189, 8), (115, 1), (157, 5), (111, 3), (15, 4)]
25	2	2	8	28	[(179, 8), (197, 10), (219, 0), (210, 1), (41, 1), (146, 6), (202, 1), (169, 5), (247, 2), (4, 2), (144, 5), (175, 3), (10, 1), (224, 1), (176, 2), (12, 9), (125, 1), (64, 2), (45, 3), (2, 6), (108, 6), (21, 8), (97, 6), (26, 2), (23, 1), (107, 1), (100, 6), (121, 8)]
26	1	1	8	25	[(139, 5), (89, 2), (168, 4), (7, 6), (173, 1), (143, 3), (61, 10), (203, 5), (117, 2), (227, 4), (114, 3), (160, 10), (234, 10), (93, 9), (69, 6), (157, 0), (118, 7), (177, 1), (96, 4), (223, 9), (125, 2), (133, 8), (204, 0), (40, 3), (36, 0)]
27	3	1	8	29	[(11, 3), (99, 4), (152, 3), (210, 10), (127, 9), (202, 2), (240, 0), (34, 8), (231, 3), (193, 4), (136, 7), (98, 4), (9, 10), (246, 2), (87, 2), (36, 6), (76, 9), (222, 7), (49, 8), (225, 5), (110, 2), (180, 7), (134, 9), (90, 0), (88, 0), (153, 3), (64, 0), (172, 0), (1, 10)]
28	2	4	7	25	[(78, 0), (163, 6), (241, 1), (156, 6), (16, 1), (154, 4), (1, 0), (54, 2), (73, 6), (47, 8), (248, 2), (89, 2), (127, 6), (190, 0), (250, 9), (99, 1), (196, 9), (229, 6), (75, 2), (67, 5), (96, 9), (135, 9), (151, 6), (59, 7), (162, 2)]
29	2	2	8	24	[(76, 7), (217, 0), (40, 3), (154, 7), (244, 2), (5, 7), (119, 1), (193, 2), (101, 0), (98, 0), (135, 2), (105, 10), (136, 3), (32, 3), (124, 0), (1, 7), (151, 4), (71, 8), (39, 7), (177, 10), (195, 8), (169, 4), (229, 2), (62, 5)]
30	6	3	8	32	[(62, 2), (9, 8), (179, 8), (192, 1), (51, 7), (127, 5), (89, 8), (118, 8), (130, 0), (84, 1), (73, 10), (4, 8), (219, 0), (117, 2), (34, 0), (43, 5), (59, 3), (149, 5), (168, 10), (154, 3), (28, 1), (60, 8), (129, 1), (228, 8), (140, 6), (61, 0), (197, 8), (88, 8), (30, 10), (175, 4), (147, 1), (170, 3)]
31	1	3	2	25	[(72, 3), (241, 1), (111, 10), (42, 4), (153, 1), (65, 0), (99, 6), (22, 8), (41, 2), (74, 5), (38, 10), (249, 5), (55, 9), (128, 7), (46, 3), (80, 8), (47, 10), (214, 7), (123, 7), (220, 5), (169, 5), (118, 2), (86, 4), (108, 9), (115, 2)]
32	3	1	8	35	[(213, 7), (115, 3), (250, 5), (162, 4), (204, 3), (42, 9), (16, 8), (30, 10), (243, 7), (97, 1), (43, 8), (184, 2), (91, 9), (96, 10), (132, 2), (123, 8), (153, 2), (35, 3), (151, 5), (113, 7), (22, 0), (8, 6), (53, 8), (90, 0), (218, 0), (117, 4), (146, 10), (157, 4), (20, 9), (93, 6), (142, 9), (172, 1), (230, 9), (12, 4), (178, 7)]
33	1	4	2	22	[(104, 5), (139, 0), (144, 8), (167, 4), (210, 3), (188, 5), (48, 2), (164, 4), (64, 9), (132, 5), (136, 0), (208, 7), (202, 9), (43, 4), (10, 3), (135, 6), (225, 5), (105, 3), (200, 1), (118, 5), (166, 0), (112, 6)]
34	1	4	8	23	[(36, 8), (66, 0), (47, 3), (245, 9), (37, 0), (49, 4), (220, 7), (135, 5), (201, 4), (65, 2), (198, 9), (68, 0), (128, 8), (91, 5), (219, 0), (173, 9), (106, 7), (26, 7), (243, 8), (162, 1), (203, 9), (71, 1), (235, 10)]
35	1	1	16	30	[(97, 1), (205, 6), (116, 7), (57, 4), (9, 6), (33, 9), (188, 5), (196, 8), (64, 8), (184, 6), (3, 2), (171, 4), (221, 9), (158, 0), (195, 8), (133, 6), (44, 0), (130, 8), (214, 8), (206, 4), (66, 10), (180, 6), (149, 2), (225, 10), (102, 1), (162, 1), (108, 6), (238, 0), (49, 0), (174, 2)]
36	2	4	8	31	[(152, 9), (53, 5), (98, 10), (28, 5), (20, 3), (108, 4), (121, 3), (189, 4), (231, 1), (226, 5), (41, 10), (36, 8), (225, 7), (188, 0), (207, 7), (38, 7), (168, 4), (217, 9), (184, 2), (17, 2), (131, 8), (155, 0), (105, 1), (246, 10), (242, 0), (124, 7), (132, 9), (45, 2), (137, 2), (192, 4), (157, 0)]
37	2	4	8	24	[(171, 3), (93, 4), (21, 2), (214, 7), (189, 0), (208, 0), (14, 3), (74, 9), (81, 3), (150, 0), (237, 10), (118, 6), (191, 0), (114, 3), (77, 9), (84, 7), (120, 1), (132, 3), (185, 5), (148, 5), (115, 0), (98, 10), (53, 4), (4, 7)]
38	1	4	8	28	[(228, 1), (238, 2), (241, 3), (30, 5), (171, 5), (249, 10), (24, 6), (154, 6), (62, 1), (155, 2), (129, 7), (20, 4), (18, 1), (149, 4), (111, 10), (193, 5), (222, 3), (22, 7), (173, 0), (163, 6), (56, 3), (186, 1), (85, 0), (104, 4), (178, 1), (45, 4), (141, 7), (205, 5)]
39	3	4	8	19	[(185, 2), (216, 10), (64, 0), (136, 4), (59, 4), (196, 4), (159, 7), (127, 3), (120, 10), (210, 4), (28, 9), (80, 3), (75, 10), (184, 9), (104, 2), (243, 3), (100, 6), (193, 1), (46, 8)]
40	3	2	8	24	[(155, 10), (119, 4), (21, 9), (53, 2), (18, 2), (85, 4), (120, 7), (148, 6), (77, 0), (233, 4), (76, 0), (227, 4), (52, 2), (103, 8), (90, 4), (44, 1), (42, 7), (169, 9), (209, 2), (170, 1), (220, 10), (244, 10), (39, 5), (63, 3)]
41	2	1	16	28	[(100, 10), (151, 2), (85, 7), (221, 8), (152, 9), (150, 6), (42, 0), (10, 1), (60, 7), (120, 5), (53, 3), (192, 8), (59, 0), (164, 1), (234, 1), (127, 1), (101, 3), (86, 2), (11, 2), (121, 1), (218, 10), (83, 6), (245, 8), (95, 0), (239, 1), (14, 1), (5, 10), (118, 9)]
42	1	1	8	20	[(248, 9), (221, 4), (57, 6), (60, 8), (52, 6), (10, 3), (64, 3), (29, 1), (38, 4), (239, 7), (65, 5), (66, 6), (156, 10), (74, 5), (76, 5), (39, 0), (182, 7), (51, 8), (69, 7), (148, 2)]
43	1	1	8	28	[(167, 4), (120, 2), (237, 0), (234, 9), (163, 10), (209, 1), (65, 0), (36, 1), (195, 10), (16, 5), (190, 0), (95, 5), (20, 2), (156, 0), (168, 8), (66, 8), (24, 6), (100, 3), (143, 6), (93, 9), (250, 9), (61, 2), (201, 7), (38, 8), (203, 4), (231, 9), (15, 8), (207, 8)]
44	15	4	8	32	[(229, 9), (53, 7), (23, 3), (191, 9), (147, 2), (58, 7), (24, 1), (237, 3), (226, 6), (201, 6), (177, 6), (168, 4), (66, 1), (206, 5), (199, 2), (19, 3), (56, 10), (204, 5), (74, 4), (54, 10), (76, 3), (239, 1), (240, 8), (228, 3), (217, 2), (214, 8), (216, 0), (20, 3), (188, 7), (245, 10), (107, 2), (63, 8)]
45	13	2	2	30	[(219, 5), (153, 9), (225, 1), (62, 10), (36, 9), (248, 7), (149, 6), (208, 6), (46, 5), (105, 1), (79, 6), (243, 1), (229, 3), (140, 7), (45, 2), (198, 0), (182, 10), (212, 3), (20, 1), (247, 3), (82, 3), (83, 5), (209, 0), (87, 7), (2, 1), (224, 10), (108, 8), (220, 9), (228, 7), (54, 8)]
46	2	8	2	20	[(223, 10), (235, 1), (222, 5), (202, 8), (219, 10), (41, 9), (9, 4), (225, 4), (165, 4), (229, 6), (232, 4), (227, 8), (95, 10), (157, 1), (48, 2), (103, 10), (158, 3), (128, 0), (97, 9), (70, 6)]
47	1	4	2	27	[(117, 0), (105, 8), (197, 5), (49, 2), (27, 9), (93, 0), (30, 1), (39, 0), (14, 2), (40, 9), (78, 2), (125, 3), (235, 7), (59, 0), (223, 5), (103, 9), (94, 1), (92, 0), (31, 2), (97, 5), (229, 4), (162, 5), (182, 9), (178, 4), (128, 1), (112, 7), (56, 8)]
48	2	1	8	31	[(12, 10), (166, 5), (160, 2), (22, 9), (90, 7), (113, 9), (72, 4), (221, 8), (9, 6), (232, 3), (132, 7), (75, 9), (218, 1), (157, 6), (96, 2), (104, 0), (43, 1), (197, 4), (28, 1), (243, 6), (245, 10), (164, 4), (152, 0), (46, 9), (213, 8), (110, 2), (220, 9), (228, 4), (246, 4), (187, 6), (146, 10)]
49	1	1	16	26	[(34, 8), (203, 9), (110, 7), (231, 8), (9, 7), (147, 2), (220, 2), (95, 4), (59, 1), (148, 8), (131, 5), (238, 10), (109, 9), (209, 4), (122, 5), (157, 0), (237, 4), (4, 9), (43, 10), (228, 6), (88, 7), (18, 1), (106, 6), (128, 7), (63, 5), (226, 10)]
50	1	1	12	21	[(121, 4), (125, 3), (229, 0), (159, 9), (180, 8), (13, 2), (30, 8), (26, 5), (5, 0), (225, 5), (209, 8), (213, 9), (95, 7), (177, 10), (157, 1), (181, 9), (54, 0), (222, 3), (228, 7), (19, 5), (25, 6)]
51	3	1	8	29	[(213, 2), (158, 5), (245, 10), (216, 9), (7, 6), (37, 9), (36, 9), (180, 0), (21, 7), (107, 5), (191, 8), (231, 10), (91, 5), (85, 7), (18, 9), (27, 2), (104, 8), (232, 7), (236, 1), (54, 10), (192, 6), (238, 10), (44, 10), (217, 3), (185, 5), (242, 10), (144, 5), (215, 4), (140, 6)]
52	1	2	8	25	[(180, 9), (204, 7), (58, 4), (116, 7), (85, 2), (70, 3), (140, 7), (53, 2), (71, 6), (54, 0), (166, 10), (219, 1), (4, 0), (13, 10), (9, 10), (161, 9), (233, 6), (247, 7), (216, 4), (68, 6), (75, 2), (81, 3), (36, 7), (46, 8), (119, 9)]
53	2	1	8	23	[(58, 2), (105, 2), (230, 2), (116, 7), (201, 8), (99, 0), (110, 10), (54, 9), (25, 7), (78, 1), (75, 6), (189, 7), (148, 2), (85, 0), (79, 3), (49, 7), (67, 5), (130, 2), (179, 0), (6, 7), (74, 9), (18, 5), (76, 9)]
54	4	1	8	24	[(113, 1), (223, 7), (209, 9), (63, 8), (73, 1), (206, 5), (51, 1), (107, 2), (250, 6), (30, 7), (33, 0), (36, 0), (161, 10), (248, 8), (237, 3), (151, 7), (127, 2), (229, 10), (46, 7), (140, 0), (202, 7), (48, 6), (117, 4), (167, 7)]
55	1	6	8	23	[(220, 4), (168, 5), (28, 1), (49, 6), (232, 2), (227, 3), (4, 4), (196, 2), (89, 4), (45, 7), (224, 10), (46, 5), (142, 6), (56, 6), (33, 2), (106, 5), (199, 4), (185, 2), (126, 6), (111, 5), (161, 6), (204, 0), (229, 7)]
56	2	1	8	31	[(33, 2), (204, 2), (222, 3), (214, 0), (142, 9), (181, 7), (66, 9), (140, 2), (194, 4), (137, 3), (50, 4), (107, 4), (217, 1), (70, 9), (22, 4), (216, 10), (89, 6), (98, 6), (56, 1), (189, 8), (225, 8), (53, 0), (75, 10), (118, 8), (234, 8), (134, 2), (163, 3), (164, 2), (157, 10), (151, 8), (169, 6)]
57	1	2	8	24	[(184, 8), (30, 10), (199, 1), (197, 7), (6, 5), (175, 9), (220, 10), (5, 0), (226, 4), (23, 4), (152, 2), (127, 9), (48, 2), (86, 1), (84, 6), (113, 6), (144, 5), (132, 0), (234, 1), (200, 1), (241, 10), (236, 5), (178, 1), (98, 7)]
58	4	1	16	19	[(182, 3), (216, 9), (61, 8), (234, 8), (239, 6), (51, 2), (68, 9), (100, 10), (200, 3), (174, 5), (205, 6), (160, 5), (141, 10), (17, 4), (238, 2), (82, 6), (108, 4), (124, 2), (222, 7)]
59	1	1	16	24	[(28, 7), (131, 5), (201, 5), (107, 10), (197, 10), (90, 4), (159, 2), (238, 10), (187, 0), (11, 5), (46, 5), (191, 3), (176, 0), (244, 5), (185, 1), (200, 6), (93, 3), (81, 10), (132, 10), (161, 3), (167, 8), (117, 9), (230, 2), (173, 9)]
60	4	6	32	24	[(13, 10), (190, 1), (245, 0), (219, 9), (168, 10), (208, 10), (135, 5), (65, 4), (224, 2), (4, 0), (149, 8), (56, 2), (211, 6), (247, 5), (194, 4), (241, 1), (88, 9), (30, 3), (197, 0), (231, 7), (141, 1), (108, 0), (134, 5), (133, 3)]
61	75	1	8	27	[(17, 2), (16, 0), (151, 9), (85, 1), (209, 3), (225, 3), (27, 10), (62, 0), (150, 10), (218, 8), (121, 0), (10, 5), (118, 4), (240, 4), (229, 8), (190, 8), (81, 3), (238, 5), (147, 0), (204, 3), (171, 5), (84, 10), (136, 9), (104, 7), (38, 1), (222, 8), (203, 9)]
62	4	1	16	22	[(53, 1), (20, 3), (217, 0), (32, 9), (86, 9), (250, 8), (185, 10), (101, 7), (102, 8), (136, 5), (120, 5), (65, 0), (184, 6), (60, 3), (150, 6), (96, 4), (214, 1), (16, 1), (172, 0), (221, 4), (76, 9), (237, 0)]
63	1	1	16	24	[(107, 0), (70, 4), (159, 8), (50, 3), (182, 8), (170, 3), (228, 0), (15, 2), (200, 9), (171, 1), (233, 7), (174, 4), (64, 6), (186, 3), (104, 10), (177, 7), (57, 4), (204, 6), (241, 6), (243, 7), (139, 6), (156, 9), (37, 0), (13, 0)]
64	14	1	8	23	[(125, 8), (84, 3), (228, 8), (236, 6), (46, 2), (170, 1), (42, 9), (206, 6), (66, 7), (133, 1), (57, 10), (146, 4), (180, 1), (89, 3), (100, 9), (204, 5), (26, 8), (129, 10), (69, 0), (40, 9), (171, 1), (208, 2), (86, 0)]
65	1	36	8	25	[(19, 1), (235, 3), (211, 0), (32, 2), (9, 3), (190, 6), (187, 5), (223, 3), (239, 6), (107, 3), (116, 9), (93, 1), (150, 1), (172, 0), (203, 0), (185, 7), (64, 4), (188, 1), (40, 6), (167, 4), (22, 9), (118, 2), (129, 7), (175, 1), (210, 10)]
66	2	1	8	35	[(32, 6), (119, 8), (192, 8), (47, 0), (166, 0), (123, 10), (4, 6), (13, 1), (112, 7), (18, 1), (229, 7), (12, 0), (34, 1), (147, 9), (189, 3), (223, 4), (208, 1), (183, 8), (89, 3), (214, 2), (144, 0), (29, 7), (202, 4), (70, 7), (197, 10), (161, 1), (114, 2), (184, 1), (16, 9), (135, 8), (212, 6), (38, 4), (179, 10), (224, 4), (231, 8)]
67	1	5	8	23	[(120, 6), (218, 1), (199, 9), (160, 7), (24, 3), (228, 1), (219, 10), (36, 1), (4, 9), (122, 0), (66, 6), (14, 8), (96, 1), (17, 2), (180, 7), (217, 4), (25, 3), (193, 5), (49, 9), (243, 8), (81, 9), (2, 0), (223, 2)]
68	2	6	8	21	[(74, 6), (184, 0), (94, 2), (82, 5), (242, 6), (246, 8), (108, 1), (144, 0), (151, 10), (3, 1), (103, 3), (97, 5), (6, 3), (68, 10), (22, 3), (174, 5), (29, 5), (27, 10), (54, 6), (85, 5), (119, 1)]
69	4	6	8	25	[(191, 0), (81, 0), (94, 4), (208, 9), (245, 1), (59, 2), (80, 7), (135, 1), (128, 2), (51, 0), (60, 9), (70, 10), (194, 4), (169, 3), (243, 3), (104, 9), (177, 10), (248, 1), (20, 7), (151, 6), (182, 0), (82, 7), (65, 10), (242, 0), (1, 3)]
70	3	4	8	28	[(50, 10), (121, 3), (108, 5), (114, 9), (207, 2), (213, 3), (4, 7), (84, 6), (26, 2), (92, 9), (131, 7), (117, 9), (172, 10), (157, 7), (41, 8), (56, 10), (203, 6), (52, 7), (80, 4), (53, 6), (112, 0), (163, 8), (19, 9), (180, 0), (63, 1), (111, 2), (137, 7), (130, 9)]
71	2	1	2	20	[(64, 4), (99, 4), (22, 7), (176, 2), (112, 3), (88, 2), (59, 7), (85, 0), (163, 8), (239, 8), (29, 0), (34, 3), (224, 4), (185, 7), (80, 4), (191, 4), (166, 8), (244, 8), (173, 5), (89, 7)]
72	2	1	8	26	[(131, 3), (108, 3), (81, 1), (155, 5), (142, 7), (19, 9), (90, 7), (186, 4), (174, 2), (73, 7), (110, 6), (72, 8), (145, 0), (119, 6), (123, 2), (95, 7), (147, 7), (180, 6), (185, 6), (240, 0), (69, 8), (237, 6), (223, 9), (136, 9), (159, 2), (29, 3)]
73	1	4	1	19	[(116, 8), (186, 7), (177, 8), (144, 4), (232, 4), (142, 10), (218, 8), (181, 4), (157, 9), (172, 5), (219, 1), (56, 0), (231, 6), (30, 7), (194, 4), (245, 7), (98, 7), (226, 6), (151, 10)]
74	28	1	2	27	[(244, 2), (204, 4), (34, 0), (247, 3), (219, 7), (196, 4), (46, 7), (211, 2), (123, 8), (35, 3), (195, 3), (120, 8), (69, 6), (86, 7), (163, 7), (113, 8), (72, 5), (193, 1), (63, 3), (236, 3), (154, 2), (27, 6), (39, 2), (209, 0), (80, 7), (172, 1), (243, 10)]
75	74	4	8	24	[(226, 10), (154, 10), (205, 6), (70, 8), (1, 0), (218, 6), (249, 9), (43, 1), (175, 8), (29, 7), (189, 7), (165, 3), (82, 0), (91, 9), (176, 6), (168, 10), (65, 8), (220, 1), (145, 0), (34, 5), (116, 8), (157, 8), (98, 6), (146, 5)]
76	2	1	8	35	[(218, 5), (81, 7), (180, 4), (9, 4), (12, 4), (205, 3), (132, 5), (146, 0), (109, 6), (220, 6), (202, 6), (63, 7), (53, 5), (232, 4), (126, 3), (215, 5), (211, 3), (131, 3), (46, 5), (122, 9), (175, 3), (27, 6), (179, 1), (214, 1), (192, 4), (87, 10), (67, 2), (37, 5), (168, 6), (22, 3), (141, 5), (221, 2), (110, 7), (160, 2), (78, 0)]
77	2	4	8	25	[(214, 5), (106, 7), (200, 7), (90, 10), (55, 9), (45, 3), (63, 3), (232, 5), (68, 8), (70, 0), (35, 4), (186, 3), (133, 4), (38, 9), (94, 5), (217, 6), (24, 5), (192, 0), (142, 8), (107, 9), (219, 3), (203, 6), (4, 6), (127, 10), (156, 6)]
78	1	1	8	21	[(204, 8), (99, 8), (40, 1), (76, 1), (206, 7), (26, 1), (35, 0), (87, 10), (70, 3), (218, 10), (13, 2), (57, 2), (237, 7), (88, 7), (72, 6), (225, 1), (139, 10), (118, 1), (85, 3), (34, 6), (213, 7)]
79	5	2	8	24	[(69, 1), (148, 6), (38, 1), (94, 2), (139, 7), (108, 8), (18, 0), (85, 7), (147, 8), (2, 10), (23, 4), (182, 7), (34, 0), (190, 1), (98, 1), (131, 4), (230, 2), (201, 6), (29, 4), (166, 6), (156, 8), (231, 6), (10, 1), (136, 2)]
80	7	6	8	24	[(158, 7), (17, 0), (139, 4), (41, 0), (81, 2), (240, 1), (40, 1), (154, 1), (230, 7), (95, 8), (229, 4), (116, 1), (101, 10), (163, 5), (183, 4), (97, 0), (63, 3), (35, 1), (209, 6), (5, 7), (102, 8), (70, 3), (22, 9), (99, 8)]
81	1	1	8	23	[(25, 5), (128, 7), (113, 6), (52, 5), (232, 10), (63, 7), (41, 9), (231, 4), (36, 3), (169, 8), (223, 0), (60, 2), (125, 10), (148, 0), (174, 8), (16, 1), (200, 3), (73, 4), (137, 0), (106, 8), (88, 4), (98, 6), (173, 4)]
82	1	1	8	23	[(11, 1), (171, 7), (123, 7), (39, 5), (71, 7), (192, 8), (184, 1), (137, 8), (221, 4), (91, 0), (157, 6), (5, 0), (150, 10), (186, 6), (87, 8), (164, 3), (128, 0), (193, 2), (195, 1), (170, 3), (185, 9), (21, 7), (229, 1)]
83	2	1	8	23	[(205, 1), (148, 1), (56, 0), (188, 1), (140, 3), (237, 9), (43, 6), (125, 1), (41, 6), (67, 0), (141, 10), (191, 9), (52, 9), (106, 1), (49, 5), (142, 1), (198, 2), (76, 7), (82, 9), (55, 3), (151, 3), (250, 7), (107, 2)]
84	7	2	8	29	[(133, 0), (250, 5), (62, 4), (135, 4), (228, 6), (44, 3), (97, 5), (45, 8), (118, 8), (230, 3), (216, 4), (25, 3), (224, 4), (129, 1), (238, 5), (112, 6), (58, 1), (169, 7), (89, 4), (107, 1), (55, 1), (186, 7), (51, 1), (185, 5), (108, 1), (130, 10), (212, 6), (239, 5), (249, 1)]
85	2	4	8	30	[(29, 4), (198, 3), (138, 7), (210, 3), (167, 0), (227, 5), (11, 1), (152, 4), (40, 7), (94, 4), (151, 5), (130, 5), (21, 2), (99, 8), (4, 7), (73, 8), (145, 7), (153, 5), (110, 2), (44, 0), (129, 5), (136, 0), (162, 6), (18, 4), (64, 5), (165, 1), (142, 6), (39, 4), (140, 9), (118, 7)]
86	1	2	8	24	[(52, 1), (61, 9), (228, 10), (62, 4), (56, 2), (101, 7), (169, 6), (131, 7), (199, 8), (103, 7), (152, 7), (65, 9), (40, 7), (190, 0), (109, 2), (91, 5), (245, 3), (205, 3), (127, 2), (86, 4), (221, 10), (230, 1), (82, 9), (158, 2)]
87	10	1	8	25	[(54, 7), (145, 3), (5, 7), (29, 1), (186, 2), (188, 5), (50, 2), (105, 5), (206, 3), (120, 10), (173, 2), (227, 3), (58, 0), (135, 3), (213, 10), (211, 6), (198, 9), (246, 5), (217, 2), (220, 5), (17, 5), (79, 4), (36, 6), (150, 0), (16, 2)]
88	2	1	1	28	[(10, 1), (138, 4), (17, 0), (93, 3), (61, 10), (194, 7), (134, 8), (103, 3), (12, 1), (40, 8), (62, 5), (72, 6), (113, 5), (58, 4), (159, 10), (234, 2), (237, 2), (153, 9), (51, 3), (35, 0), (131, 7), (168, 5), (186, 3), (215, 10), (188, 8), (221, 2), (167, 5), (150, 3)]
89	3	1	8	19	[(69, 3), (77, 8), (239, 7), (62, 9), (223, 0), (168, 8), (19, 0), (131, 5), (106, 10), (216, 2), (67, 5), (157, 6), (250, 9), (98, 5), (25, 0), (107, 5), (193, 8), (90, 4), (24, 2)]
90	1	1	8	20	[(88, 9), (103, 0), (27, 6), (65, 5), (155, 2), (144, 0), (10, 5), (169, 3), (223, 3), (221, 3), (202, 4), (66, 4), (242, 6), (25, 10), (48, 9), (39, 3), (13, 7), (100, 6), (55, 6), (5, 8)]
91	1	2	8	19	[(206, 2), (188, 2), (17, 8), (32, 5), (186, 7), (92, 9), (2, 5), (57, 6), (37, 5), (107, 4), (46, 4), (44, 3), (60, 1), (106, 0), (191, 3), (127, 9), (48, 6), (125, 2), (15, 0)]
92	1	1	8	30	[(234, 6), (211, 9), (245, 6), (95, 8), (161, 2), (107, 7), (170, 10), (13, 10), (130, 9), (202, 9), (38, 3), (54, 4), (68, 5), (178, 8), (73, 6), (131, 5), (99, 6), (213, 5), (108, 8), (215, 5), (224, 0), (186, 10), (12, 4), (113, 10), (123, 7), (21, 3), (145, 7), (135, 4), (34, 8), (50, 6)]
93	1	6	5	28	[(113, 9), (83, 7), (80, 5), (183, 6), (6, 3), (78, 6), (38, 3), (132, 3), (185, 6), (97, 10), (228, 7), (44, 5), (76, 0), (115, 4), (48, 0), (8, 4), (195, 3), (98, 9), (167, 8), (161, 2), (1, 2), (72, 3), (85, 4), (221, 5), (108, 8), (105, 2), (145, 5), (82, 3)]
94	1	2	16	27	[(113, 1), (155, 5), (15, 8), (190, 6), (112, 0), (108, 3), (124, 7), (14, 4), (149, 7), (238, 2), (174, 7), (36, 9), (23, 1), (203, 10), (54, 10), (1, 5), (31, 5), (134, 6), (236, 1), (117, 10), (21, 1), (77, 1), (220, 0), (19, 5), (128, 10), (201, 2), (250, 6)]
95	11	1	4	24	[(18, 3), (167, 3), (127, 3), (95, 6), (86, 4), (145, 7), (172, 1), (22, 9), (10, 9), (63, 10), (143, 9), (58, 1), (72, 8), (250, 4), (15, 0), (76, 1), (221, 2), (159, 1), (176, 1), (24, 0), (31, 2), (71, 2), (229, 0), (113, 5)]
96	9	1	2	24	[(10, 6), (20, 3), (39, 10), (225, 4), (109, 5), (82, 9), (127, 3), (191, 0), (221, 2), (23, 5), (170, 2), (4, 4), (74, 5), (8, 2), (113, 3), (128, 1), (64, 4), (16, 4), (189, 6), (172, 2), (162, 0), (6, 8), (84, 6), (238, 5)]
97	1	1	8	29	[(57, 6), (195, 4), (58, 9), (91, 4), (101, 2), (28, 3), (22, 6), (152, 3), (53, 4), (59, 1), (132, 6), (12, 5), (242, 5), (117, 7), (125, 10), (137, 8), (167, 3), (37, 10), (240, 3), (136, 2), (85, 0), (69, 1), (232, 3), (42, 8), (92, 6), (35, 9), (230, 1), (71, 5), (2, 10)]
98	35	1	8	28	[(108, 8), (105, 4), (65, 10), (87, 0), (113, 3), (162, 8), (164, 10), (165, 0), (18, 5), (80, 4), (95, 5), (16, 8), (103, 4), (54, 3), (243, 3), (157, 5), (4, 7), (38, 8), (137, 5), (20, 4), (122, 10), (188, 3), (33, 6), (32, 4), (169, 4), (75, 8), (178, 3), (1, 8)]
99	6	1	16	27	[(83, 6), (42, 8), (160, 0), (214, 4), (94, 1), (53, 1), (29, 1), (104, 5), (103, 3), (137, 1), (98, 2), (114, 0), (244, 8), (200, 1), (148, 8), (194, 2), (67, 7), (118, 3), (37, 9), (180, 4), (120, 7), (238, 2), (54, 1), (78, 6), (14, 1), (175, 5), (76, 0)]
100	2	1	8	28	[(199, 6), (145, 5), (85, 2), (188, 2), (148, 7), (74, 5), (43, 10), (97, 9), (216, 1), (60, 9), (82, 10), (157, 3), (84, 9), (147, 3), (11, 5), (14, 8), (132, 8), (238, 10), (232, 5), (50, 10), (16, 10), (95, 1), (178, 0), (99, 4), (51, 7), (191, 7), (45, 5), (6, 4)]
101	1	6	8	31	[(1, 10), (133, 9), (242, 3), (163, 10), (72, 3), (206, 6), (125, 1), (101, 9), (96, 5), (202, 5), (149, 6), (89, 4), (97, 5), (239, 3), (20, 4), (57, 6), (227, 4), (28, 9), (98, 4), (165, 0), (179, 5), (144, 10), (181, 7), (215, 5), (244, 9), (24, 3), (172, 10), (42, 5), (44, 7), (131, 4), (243, 7)]
102	3	1	8	24	[(161, 3), (15, 7), (128, 0), (231, 10), (246, 2), (247, 2), (100, 6), (125, 5), (75, 7), (99, 9), (147, 3), (55, 7), (217, 7), (5, 0), (54, 0), (52, 6), (211, 2), (222, 7), (68, 6), (143, 7), (16, 6), (98, 10), (233, 9), (215, 0)]
103	3	3	8	22	[(10, 5), (242, 10), (58, 5), (213, 3), (52, 5), (185, 5), (222, 3), (228, 3), (49, 10), (51, 7), (64, 6), (171, 9), (31, 10), (55, 10), (7, 4), (165, 8), (116, 7), (107, 5), (137, 3), (98, 8), (141, 4), (142, 9)]
104	2	1	6	22	[(157, 8), (142, 9), (240, 10), (82, 5), (222, 5), (112, 1), (184, 8), (161, 7), (51, 1), (44, 7), (167, 2), (104, 8), (160, 4), (122, 5), (5, 7), (59, 5), (174, 6), (81, 6), (22, 0), (76, 1), (13, 3), (18, 1)]
105	2	2	2	23	[(89, 10), (19, 5), (180, 1), (120, 4), (8, 2), (1, 7), (103, 0), (126, 0), (12, 5), (234, 7), (161, 3), (82, 9), (186, 9), (162, 10), (110, 3), (125, 10), (5, 4), (118, 5), (38, 5), (168, 0), (111, 5), (137, 2), (17, 10)]
106	8	1	8	23	[(141, 0), (146, 8), (5, 10), (189, 3), (151, 1), (222, 1), (181, 5), (46, 6), (61, 10), (129, 4), (72, 9), (86, 1), (116, 9), (128, 10), (161, 7), (55, 8), (159, 1), (215, 4), (89, 2), (104, 0), (98, 10), (174, 2), (218, 9)]
107	2	4	2	35	[(184, 2), (38, 5), (16, 3), (52, 6), (115, 5), (119, 3), (199, 0), (244, 0), (21, 8), (18, 3), (190, 4), (41, 0), (169, 7), (65, 6), (68, 6), (240, 10), (207, 1), (96, 1), (212, 1), (131, 7), (238, 3), (64, 1), (209, 6), (90, 1), (152, 8), (30, 3), (237, 0), (216, 10), (84, 1), (62, 1), (161, 4), (140, 7), (89, 3), (245, 0), (182, 0)]
108	2	1	8	30	[(215, 9), (94, 3), (250, 4), (209, 3), (238, 9), (206, 1), (77, 5), (48, 1), (1, 3), (27, 3), (80, 1), (187, 5), (88, 10), (166, 7), (81, 9), (154, 5), (69, 5), (152, 0), (235, 9), (129, 10), (192, 4), (79, 1), (162, 1), (7, 5), (140, 9), (200, 6), (105, 7), (63, 1), (74, 7), (242, 10)]
109	1	1	16	24	[(222, 7), (201, 7), (147, 7), (205, 8), (75, 9), (246, 2), (31, 10), (137, 1), (210, 7), (190, 6), (28, 0), (16, 10), (223, 7), (73, 3), (145, 10), (30, 3), (49, 4), (99, 6), (196, 4), (52, 7), (175, 9), (182, 1), (26, 1), (136, 8)]
110	2	1	8	25	[(170, 0), (175, 4), (14, 1), (74, 10), (54, 0), (92, 8), (127, 7), (250, 8), (167, 9), (203, 9), (1, 1), (186, 3), (244, 5), (199, 1), (29, 4), (18, 7), (208, 3), (20, 5), (32, 1), (96, 1), (11, 1), (76, 1), (240, 1), (202, 5), (73, 0)]
111	1	1	8	20	[(3, 2), (218, 0), (25, 6), (238, 1), (236, 3), (163, 5), (247, 3), (11, 7), (119, 10), (130, 5), (17, 8), (50, 2), (71, 4), (12, 0), (62, 4), (88, 1), (18, 0), (114, 0), (123, 9), (21, 0)]
112	2	1	8	21	[(97, 5), (215, 5), (74, 4), (92, 9), (87, 0), (77, 6), (144, 9), (24, 9), (239, 9), (53, 8), (142, 0), (63, 1), (154, 10), (225, 7), (153, 7), (55, 7), (192, 0), (129, 0), (46, 0), (150, 10), (25, 1)]
113	2	1	8	28	[(215, 1), (191, 7), (2, 8), (124, 0), (3, 9), (123, 1), (54, 7), (141, 9), (195, 1), (76, 7), (32, 9), (171, 0), (225, 7), (185, 1), (80, 9), (218, 3), (52, 5), (244, 10), (19, 4), (197, 6), (34, 9), (122, 4), (135, 7), (133, 2), (40, 0), (39, 10), (83, 6), (245, 2)]
114	1	5	8	29	[(84, 10), (127, 5), (156, 7), (46, 9), (109, 9), (173, 9), (210, 10), (230, 6), (60, 9), (186, 10), (213, 6), (33, 3), (43, 5), (59, 3), (77, 1), (244, 3), (64, 0), (171, 8), (21, 9), (89, 1), (149, 1), (81, 1), (192, 2), (54, 3), (100, 6), (191, 5), (178, 10), (161, 10), (105, 8)]
115	7	1	8	24	[(134, 2), (7, 3), (70, 7), (243, 7), (107, 1), (121, 1), (27, 4), (78, 0), (99, 3), (137, 0), (126, 4), (192, 10), (241, 8), (238, 2), (169, 5), (28, 7), (145, 1), (3, 0), (211, 8), (133, 10), (14, 9), (202, 2), (74, 9), (38, 7)]
116	1	4	8	28	[(16, 10), (6, 5), (103, 3), (3, 5), (44, 2), (36, 2), (132, 3), (52, 3), (203, 6), (137, 2), (114, 8), (49, 9), (50, 3), (23, 9), (209, 6), (75, 6), (174, 3), (185, 6), (22, 8), (65, 7), (81, 3), (101, 9), (235, 2), (96, 1), (57, 0), (31, 0), (218, 4), (107, 10)]
117	1	1	16	23	[(105, 6), (181, 4), (106, 5), (29, 4), (43, 1), (119, 4), (15, 4), (10, 3), (228, 8), (173, 3), (9, 7), (118, 6), (45, 3), (207, 2), (198, 7), (195, 10), (36, 3), (39, 3), (20, 5), (3, 10), (21, 1), (221, 3), (237, 8)]
118	2	1	8	18	[(37, 7), (236, 0), (4, 9), (57, 8), (46, 8), (187, 8), (126, 6), (66, 0), (142, 8), (228, 3), (143, 9), (179, 4), (94, 5), (12, 8), (227, 5), (5, 1), (134, 4), (239, 4)]
119	2	2	1	19	[(47, 9), (165, 0), (77, 0), (180, 2), (26, 9), (87, 6), (73, 1), (19, 0), (219, 10), (109, 10), (236, 10), (62, 4), (239, 6), (110, 5), (188, 5), (151, 8), (102, 3), (226, 1), (68, 3)]
120	1	1	32	23	[(103, 4), (67, 9), (115, 8), (196, 10), (229, 1), (40, 2), (206, 0), (43, 5), (195, 7), (39, 10), (1, 2), (155, 6), (170, 6), (11, 3), (214, 2), (175, 5), (129, 10), (44, 8), (122, 2), (6, 10), (230, 3), (190, 3), (237, 0)]
121	1	1	8	24	[(222, 5), (122, 0), (194, 9), (168, 10), (56, 3), (232, 10), (54, 6), (196, 3), (151, 7), (136, 1), (57, 6), (6, 9), (27, 2), (106, 5), (182, 10), (139, 9), (50, 9), (98, 7), (62, 2), (97, 6), (193, 7), (226, 3), (116, 1), (134, 6)]
122	64	1	2	25	[(134, 10), (137, 1), (126, 7), (51, 4), (243, 0), (44, 3), (82, 0), (85, 5), (175, 9), (223, 5), (207, 10), (69, 9), (19, 1), (124, 6), (121, 4), (120, 8), (118, 3), (228, 1), (68, 1), (107, 8), (37, 7), (90, 8), (100, 2), (200, 2), (61, 9)]
123	2	4	2	28	[(82, 8), (183, 7), (96, 0), (213, 3), (109, 8), (222, 1), (115, 5), (2, 6), (14, 2), (87, 6), (232, 0), (122, 6), (207, 4), (129, 5), (7, 0), (11, 1), (184, 8), (229, 3), (1, 1), (165, 10), (169, 3), (27, 7), (221, 7), (181, 8), (88, 2), (59, 5), (243, 0), (159, 8)]
124	14	6	8	21	[(191, 4), (150, 10), (189, 4), (169, 5), (34, 9), (59, 3), (90, 4), (109, 9), (146, 10), (133, 8), (237, 0), (181, 1), (207, 9), (233, 9), (215, 5), (32, 0), (148, 5), (42, 8), (20, 6), (239, 1), (170, 9)]
125	4	1	8	32	[(40, 0), (41, 6), (105, 10), (18, 5), (65, 9), (69, 5), (149, 2), (43, 5), (138, 5), (39, 0), (62, 8), (10, 10), (241, 6), (202, 7), (93, 1), (157, 3), (113, 8), (3, 6), (28, 5), (243, 1), (71, 6), (55, 7), (205, 6), (120, 3), (197, 3), (164, 8), (67, 3), (226, 5), (206, 8), (12, 4), (212, 5), (108, 4)]
126	2	1	8	23	[(103, 4), (187, 5), (21, 10), (3, 4), (241, 5), (215, 0), (9, 2), (18, 4), (23, 0), (223, 9), (158, 10), (122, 9), (61, 6), (39, 5), (113, 10), (79, 4), (212, 2), (67, 4), (152, 2), (15, 2), (217, 3), (33, 9), (49, 2)]
127	1	3	8	28	[(64, 8), (110, 10), (127, 5), (215, 1), (39, 4), (206, 4), (55, 1), (183, 10), (107, 9), (219, 3), (165, 7), (123, 0), (74, 3), (93, 5), (228, 4), (179, 6), (25, 9), (114, 7), (2, 5), (224, 10), (49, 7), (143, 3), (28, 5), (50, 9), (128, 4), (14, 6), (246, 9), (242, 1)]
128	2	4	8	23	[(150, 1), (134, 3), (5, 7), (95, 8), (115, 2), (118, 4), (83, 1), (196, 0), (143, 5), (220, 6), (222, 2), (12, 4), (173, 2), (166, 4), (38, 3), (218, 1), (74, 4), (237, 8), (63, 3), (191, 1), (188, 2), (161, 0), (168, 4)]
129	3	6	1	20	[(120, 5), (191, 1), (31, 3), (58, 0), (216, 5), (99, 9), (106, 6), (102, 4), (150, 7), (187, 10), (185, 3), (196, 5), (244, 4), (158, 4), (47, 6), (153, 3), (173, 6), (71, 4), (222, 10), (36, 7)]
130	1	1	8	29	[(186, 0), (109, 7), (93, 2), (247, 5), (66, 7), (37, 1), (62, 5), (24, 8), (34, 5), (187, 4), (130, 1), (214, 5), (243, 9), (168, 2), (108, 5), (212, 3), (170, 1), (3, 2), (128, 0), (165, 7), (200, 1), (107, 1), (138, 2), (28, 8), (127, 1), (193, 10), (211, 4), (77, 1), (210, 4)]
131	27	1	8	23	[(57, 1), (3, 0), (79, 3), (91, 6), (164, 7), (169, 5), (4, 7), (185, 1), (134, 7), (67, 0), (17, 2), (71, 5), (153, 8), (229, 10), (204, 4), (158, 1), (21, 7), (242, 10), (168, 9), (63, 7), (81, 3), (61, 8), (13, 6)]
132	23	1	8	23	[(83, 1), (59, 2), (149, 6), (152, 10), (93, 10), (19, 1), (68, 10), (82, 4), (112, 10), (38, 10), (34, 3), (140, 4), (157, 6), (128, 9), (226, 9), (162, 9), (161, 8), (90, 10), (212, 1), (141, 4), (175, 1), (77, 10), (139, 5)]
133	2	2	8	25	[(129, 10), (220, 2), (197, 4), (71, 1), (100, 5), (231, 7), (151, 4), (222, 7), (25, 5), (23, 6), (7, 10), (171, 8), (189, 8), (18, 4), (128, 7), (119, 5), (212, 1), (28, 2), (173, 6), (153, 8), (204, 8), (236, 6), (66, 7), (70, 4), (77, 1)]
134	116	5	2	23	[(70, 1), (55, 1), (62, 2), (20, 9), (131, 7), (76, 8), (106, 4), (133, 1), (132, 10), (149, 0), (95, 3), (173, 4), (116, 10), (187, 9), (245, 10), (105, 7), (145, 7), (39, 3), (171, 3), (86, 4), (158, 3), (35, 2), (140, 5)]
135	3	3	8	28	[(55, 4), (59, 3), (133, 9), (1, 5), (162, 7), (105, 10), (108, 5), (103, 2), (65, 3), (74, 3), (9, 9), (12, 0), (41, 4), (29, 10), (99, 2), (31, 5), (186, 3), (81, 0), (136, 2), (21, 1), (235, 4), (172, 2), (58, 6), (101, 9), (18, 0), (204, 10), (222, 5), (139, 8)]
136	18	1	2	30	[(191, 0), (57, 6), (9, 5), (162, 5), (163, 3), (213, 8), (98, 6), (173, 2), (49, 4), (170, 10), (165, 0), (221, 2), (127, 3), (97, 9), (239, 6), (74, 1), (108, 5), (88, 8), (160, 5), (52, 2), (124, 1), (186, 10), (20, 4), (249, 7), (101, 8), (178, 6), (241, 8), (106, 10), (210, 2), (247, 9)]
137	1	1	3	20	[(208, 6), (96, 4), (57, 3), (177, 3), (195, 8), (39, 2), (186, 4), (214, 5), (64, 4), (199, 5), (107, 9), (15, 8), (58, 6), (226, 1), (63, 3), (234, 6), (209, 5), (133, 2), (105, 5), (100, 2)]
138	9	1	8	33	[(193, 6), (110, 3), (194, 3), (183, 3), (242, 6), (141, 3), (63, 8), (123, 7), (188, 0), (157, 2), (231, 4), (161, 5), (177, 9), (250, 0), (11, 3), (115, 7), (113, 4), (34, 5), (37, 8), (78, 0), (146, 10), (39, 9), (153, 2), (164, 9), (136, 8), (168, 6), (69, 10), (100, 6), (8, 9), (54, 8), (116, 3), (147, 6), (28, 8)]
139	1	3	8	26	[(235, 8), (73, 0), (69, 2), (207, 3), (246, 4), (217, 10), (209, 10), (27, 0), (108, 4), (121, 4), (202, 1), (170, 4), (29, 10), (74, 0), (190, 1), (185, 1), (47, 7), (193, 4), (12, 10), (248, 0), (137, 10), (182, 6), (113, 8), (97, 3), (130, 6), (191, 9)]
140	2	8	8	15	[(34, 8), (19, 6), (135, 8), (238, 1), (45, 9), (10, 6), (163, 2), (206, 2), (64, 8), (199, 10), (71, 8), (67, 9), (165, 2), (132, 7), (21, 6)]
141	1	2	8	27	[(189, 1), (99, 4), (16, 4), (129, 2), (45, 3), (201, 5), (73, 1), (207, 3), (170, 0), (139, 8), (149, 5), (153, 5), (200, 4), (178, 1), (100, 4), (181, 2), (50, 8), (7, 7), (226, 10), (49, 9), (108, 9), (210, 4), (53, 6), (152, 9), (218, 10), (165, 7), (14, 2)]
142	1	1	8	29	[(120, 4), (76, 3), (157, 0), (126, 1), (136, 10), (232, 1), (57, 2), (212, 5), (43, 10), (186, 1), (115, 10), (228, 8), (118, 6), (170, 6), (137, 10), (207, 8), (197, 7), (38, 8), (88, 10), (31, 4), (213, 4), (116, 7), (2, 2), (113, 9), (139, 6), (98, 6), (166, 7), (203, 1), (90, 5)]
143	1	1	16	19	[(154, 2), (32, 0), (81, 7), (105, 4), (171, 1), (112, 3), (145, 3), (59, 3), (76, 6), (150, 4), (17, 6), (9, 4), (219, 1), (5, 7), (53, 5), (123, 10), (48, 8), (111, 8), (19, 2)]
144	1	1	5	28	[(100, 8), (25, 4), (29, 2), (240, 6), (188, 1), (238, 3), (4, 5), (72, 7), (145, 6), (34, 6), (52, 0), (126, 0), (250, 9), (232, 4), (62, 9), (82, 4), (179, 10), (129, 5), (127, 6), (148, 1), (17, 3), (88, 5), (13, 2), (42, 2), (92, 5), (181, 0), (133, 1), (64, 1)]
145	2	3	8	33	[(107, 5), (133, 2), (16, 2), (4, 10), (26, 7), (190, 7), (207, 1), (6, 4), (40, 10), (192, 5), (117, 1), (84, 10), (109, 5), (98, 9), (137, 7), (61, 0), (161, 10), (82, 9), (68, 2), (108, 10), (65, 1), (245, 3), (130, 4), (203, 10), (89, 6), (229, 3), (80, 3), (83, 3), (44, 6), (86, 10), (100, 6), (160, 2), (115, 3)]
146	4	4	2	19	[(105, 2), (119, 0), (110, 9), (71, 2), (109, 4), (76, 10), (231, 8), (113, 0), (228, 4), (93, 7), (151, 2), (42, 6), (164, 8), (127, 6), (240, 9), (165, 7), (3, 2), (146, 8), (95, 10)]
147	2	1	48	20	[(158, 3), (208, 2), (223, 5), (141, 6), (5, 9), (144, 1), (93, 4), (79, 10), (19, 4), (145, 4), (125, 4), (137, 6), (14, 2), (146, 2), (54, 2), (219, 8), (130, 6), (229, 8), (11, 5), (42, 3)]
148	2	1	8	20	[(123, 9), (120, 5), (72, 8), (42, 4), (159, 3), (131, 3), (49, 4), (87, 2), (169, 2), (175, 3), (8, 3), (106, 2), (144, 2), (188, 10), (98, 1), (201, 2), (216, 5), (35, 10), (31, 9), (34, 9)]
149	2	1	8	17	[(163, 9), (82, 5), (234, 8), (112, 9), (62, 10), (122, 0), (221, 8), (137, 1), (167, 8), (143, 1), (33, 1), (194, 2), (69, 5), (104, 9), (136, 5), (107, 1), (119, 2)]
150	2	1	8	34	[(57, 2), (79, 3), (84, 2), (123, 4), (208, 3), (159, 9), (110, 2), (129, 0), (165, 3), (209, 8), (78, 2), (249, 10), (112, 4), (87, 5), (11, 2), (80, 0), (10, 1), (115, 4), (83, 9), (31, 3), (206, 1), (45, 8), (183, 3), (25, 7), (126, 5), (36, 4), (54, 4), (194, 3), (243, 1), (172, 2), (37, 10), (108, 7), (246, 2), (167, 4)]
151	2	6	6	23	[(78, 3), (229, 7), (152, 3), (116, 0), (208, 4), (211, 9), (180, 0), (98, 5), (81, 4), (142, 10), (151, 2), (236, 0), (164, 6), (175, 3), (55, 5), (194, 2), (16, 5), (160, 4), (101, 3), (25, 0), (56, 6), (121, 5), (195, 1)]
152	2	2	8	28	[(20, 9), (182, 0), (15, 9), (57, 3), (35, 10), (87, 10), (149, 7), (196, 1), (175, 8), (55, 10), (163, 8), (230, 8), (225, 9), (131, 3), (142, 2), (144, 8), (42, 5), (164, 10), (133, 8), (180, 3), (162, 6), (106, 4), (48, 6), (90, 0), (242, 2), (64, 9), (86, 8), (46, 3)]
153	1	1	8	19	[(87, 2), (82, 5), (84, 2), (171, 8), (73, 4), (64, 0), (132, 2), (217, 4), (70, 10), (243, 0), (34, 4), (117, 2), (197, 1), (38, 7), (223, 6), (15, 9), (4, 6), (157, 7), (20, 7)]
154	1	1	2	22	[(163, 9), (23, 2), (38, 2), (159, 2), (59, 7), (94, 7), (162, 0), (233, 4), (139, 2), (127, 0), (180, 6), (171, 9), (88, 10), (72, 4), (244, 7), (126, 10), (219, 6), (45, 4), (149, 10), (137, 7), (48, 2), (209, 10)]
155	24	1	7	30	[(148, 3), (29, 3), (83, 3), (241, 8), (86, 1), (219, 8), (20, 0), (43, 4), (184, 4), (14, 0), (110, 1), (146, 6), (229, 2), (236, 4), (84, 1), (248, 8), (121, 4), (165, 3), (239, 4), (242, 7), (3, 3), (68, 0), (246, 7), (135, 2), (6, 5), (176, 10), (206, 2), (82, 0), (132, 8), (66, 6)]
156	1	1	8	17	[(102, 7), (12, 1), (218, 10), (145, 7), (168, 0), (150, 3), (11, 0), (227, 8), (95, 9), (133, 4), (134, 3), (62, 9), (209, 9), (82, 3), (188, 0), (1, 10), (41, 0)]
157	1	2	2	18	[(230, 1), (10, 6), (137, 6), (120, 2), (27, 7), (211, 1), (85, 1), (163, 1), (36, 0), (61, 3), (187, 2), (4, 3), (21, 3), (235, 2), (146, 0), (181, 3), (145, 3), (6, 9)]
158	2	4	8	25	[(42, 0), (70, 3), (159, 7), (83, 0), (38, 2), (116, 5), (124, 6), (203, 8), (223, 10), (161, 7), (73, 2), (202, 5), (207, 10), (246, 2), (107, 0), (59, 8), (127, 9), (103, 6), (187, 5), (226, 10), (80, 7), (225, 2), (197, 2), (140, 9), (23, 8)]
159	3	2	8	23	[(172, 6), (128, 1), (44, 1), (159, 10), (173, 8), (245, 3), (36, 6), (19, 1), (33, 7), (243, 5), (153, 2), (181, 3), (65, 6), (12, 5), (74, 7), (53, 7), (18, 3), (24, 9), (141, 1), (189, 0), (17, 3), (7, 1), (184, 6)]
160	2	1	8	22	[(178, 8), (16, 0), (39, 8), (41, 9), (34, 10), (42, 4), (245, 7), (1, 8), (166, 1), (24, 2), (68, 6), (238, 8), (9, 2), (74, 7), (229, 4), (103, 8), (118, 4), (142, 10), (64, 10), (126, 7), (179, 0), (228, 9)]
161	1	1	8	16	[(231, 0), (211, 0), (230, 0), (79, 8), (129, 4), (221, 8), (147, 8), (240, 7), (123, 10), (135, 8), (199, 9), (121, 10), (36, 3), (157, 8), (222, 8), (159, 8)]
162	2	9	4	33	[(146, 6), (29, 9), (55, 10), (171, 9), (10, 4), (87, 7), (131, 0), (15, 9), (96, 4), (74, 7), (32, 3), (242, 0), (187, 2), (127, 1), (247, 10), (113, 3), (69, 1), (63, 10), (116, 6), (175, 8), (107, 8), (156, 7), (184, 3), (19, 0), (22, 3), (58, 5), (154, 6), (182, 1), (200, 9), (220, 4), (192, 9), (196, 3), (216, 6)]
163	2	1	8	27	[(7, 5), (129, 6), (193, 6), (27, 0), (33, 6), (151, 9), (185, 6), (95, 9), (197, 7), (199, 8), (82, 10), (14, 0), (206, 1), (213, 2), (51, 3), (134, 0), (2, 3), (212, 0), (236, 7), (156, 2), (113, 8), (165, 3), (161, 0), (56, 9), (215, 6), (149, 8), (207, 3)]
164	3	4	8	27	[(100, 1), (209, 8), (170, 10), (143, 0), (144, 9), (246, 4), (175, 4), (34, 10), (138, 4), (8, 3), (132, 1), (188, 0), (124, 4), (231, 6), (42, 0), (171, 9), (1, 7), (96, 4), (129, 8), (169, 0), (134, 10), (120, 0), (167, 2), (61, 1), (219, 2), (119, 4), (228, 0)]
165	1	1	8	25	[(209, 3), (129, 4), (120, 2), (123, 7), (4, 5), (199, 6), (75, 0), (59, 0), (144, 9), (39, 2), (184, 9), (17, 5), (114, 8), (11, 4), (236, 0), (20, 9), (6, 2), (133, 6), (111, 7), (37, 2), (100, 2), (173, 9), (68, 9), (200, 0), (237, 1)]
166	2	2	8	22	[(107, 4), (126, 4), (201, 6), (197, 0), (84, 1), (1, 2), (20, 5), (136, 6), (69, 9), (53, 3), (120, 4), (124, 7), (89, 4), (56, 4), (178, 8), (240, 6), (241, 4), (153, 7), (242, 8), (111, 6), (15, 9), (87, 7)]
167	1	4	1	23	[(16, 9), (149, 4), (22, 5), (38, 9), (169, 6), (177, 0), (107, 8), (235, 3), (80, 2), (57, 1), (62, 5), (66, 3), (56, 0), (163, 4), (247, 0), (194, 5), (93, 0), (160, 9), (94, 7), (26, 4), (51, 10), (37, 5), (176, 8)]
168	9	3	8	24	[(180, 7), (121, 3), (112, 9), (41, 1), (4, 5), (163, 7), (166, 7), (76, 5), (120, 0), (231, 4), (245, 7), (132, 2), (117, 9), (195, 3), (109, 0), (69, 3), (204, 3), (92, 8), (216, 1), (63, 10), (80, 4), (243, 9), (127, 1), (209, 1)]
169	31	1	2	25	[(36, 2), (250, 5), (66, 9), (55, 0), (111, 10), (195, 4), (245, 0), (98, 5), (12, 9), (247, 1), (50, 5), (144, 10), (137, 6), (93, 7), (88, 10), (179, 6), (162, 2), (223, 0), (116, 10), (69, 8), (228, 5), (181, 1), (191, 4), (109, 7), (186, 6)]
170	16	4	8	25	[(80, 7), (84, 8), (112, 1), (144, 9), (25, 3), (91, 9), (196, 7), (138, 0), (197, 7), (26, 1), (171, 0), (181, 7), (179, 6), (111, 1), (232, 4), (159, 8), (66, 2), (64, 1), (9, 9), (60, 2), (182, 5), (105, 1), (157, 6), (201, 10), (169, 8)]
171	2	1	8	20	[(11, 7), (82, 7), (39, 0), (175, 4), (144, 5), (34, 9), (216, 0), (234, 3), (191, 5), (142, 4), (138, 3), (154, 4), (65, 9), (13, 10), (235, 4), (92, 8), (233, 4), (113, 10), (104, 1), (161, 3)]
172	10	1	8	24	[(168, 8), (82, 8), (136, 5), (147, 0), (185, 3), (241, 0), (146, 0), (24, 2), (218, 8), (162, 7), (179, 5), (6, 10), (29, 10), (155, 2), (32, 7), (143, 1), (112, 2), (44, 0), (130, 3), (28, 1), (5, 6), (139, 2), (217, 5), (138, 3)]
173	1	4	8	34	[(204, 8), (246, 9), (18, 9), (6, 7), (64, 0), (177, 5), (35, 0), (245, 4), (141, 2), (197, 0), (55, 0), (119, 1), (151, 5), (118, 0), (72, 7), (226, 1), (114, 0), (92, 5), (100, 2), (94, 2), (165, 2), (143, 7), (156, 10), (15, 8), (75, 2), (17, 4), (172, 9), (2, 8), (19, 0), (205, 5), (188, 10), (161, 5), (54, 5), (179, 7)]
174	1	2	8	23	[(19, 10), (78, 4), (184, 10), (85, 5), (51, 6), (135, 0), (10, 9), (202, 4), (41, 5), (130, 0), (33, 6), (238, 10), (118, 4), (25, 2), (213, 10), (173, 3), (60, 4), (99, 5), (245, 2), (215, 3), (83, 1), (231, 2), (2, 1)]
175	2	1	8	27	[(240, 10), (23, 10), (184, 7), (86, 8), (160, 0), (43, 7), (124, 8), (35, 7), (197, 1), (55, 8), (215, 1), (217, 10), (155, 7), (204, 3), (193, 8), (80, 9), (218, 6), (34, 8), (46, 9), (109, 8), (66, 9), (32, 10), (180, 10), (236, 7), (122, 2), (36, 8), (59, 9)]
176	17	1	8	36	[(11, 5), (62, 0), (167, 1), (7, 5), (42, 4), (217, 2), (209, 6), (152, 3), (161, 6), (170, 6), (87, 8), (70, 5), (192, 5), (28, 6), (141, 3), (35, 1), (200, 8), (5, 7), (134, 7), (102, 10), (166, 2), (151, 7), (246, 8), (93, 10), (184, 1), (197, 2), (101, 4), (230, 7), (4, 2), (37, 8), (6, 6), (238, 7), (73, 4), (17, 0), (250, 3), (127, 9)]
177	2	2	8	24	[(17, 0), (86, 1), (176, 6), (25, 6), (141, 4), (145, 8), (65, 10), (234, 7), (37, 7), (189, 9), (195, 5), (31, 5), (160, 9), (196, 3), (244, 7), (112, 0), (218, 1), (71, 10), (127, 5), (240, 9), (34, 8), (16, 1), (77, 4), (38, 3)]
178	7	1	8	19	[(78, 5), (187, 4), (62, 3), (216, 8), (77, 6), (148, 4), (30, 8), (32, 9), (218, 5), (237, 4), (240, 1), (192, 4), (4, 7), (242, 6), (228, 8), (16, 2), (95, 2), (146, 3), (27, 5)]
179	1	6	8	26	[(131, 9), (234, 9), (175, 5), (64, 5), (238, 2), (114, 1), (60, 7), (22, 10), (105, 4), (96, 5), (217, 5), (46, 3), (67, 9), (219, 10), (92, 3), (225, 3), (143, 10), (74, 8), (161, 8), (83, 8), (25, 10), (77, 9), (109, 3), (201, 4), (99, 8), (245, 9)]
180	1	1	8	19	[(144, 10), (217, 10), (127, 10), (180, 1), (62, 10), (106, 9), (73, 4), (111, 6), (151, 0), (91, 5), (26, 5), (119, 0), (105, 6), (125, 5), (186, 5), (65, 2), (148, 4), (27, 7), (128, 6)]
181	2	4	7	29	[(153, 3), (85, 3), (174, 1), (241, 9), (95, 10), (151, 6), (236, 7), (13, 10), (217, 2), (99, 2), (89, 7), (233, 8), (26, 6), (60, 3), (74, 4), (124, 8), (34, 0), (135, 9), (108, 10), (215, 7), (149, 8), (163, 1), (36, 6), (131, 3), (203, 2), (220, 1), (186, 0), (222, 0), (101, 7)]
182	1	2	8	29	[(51, 6), (190, 9), (208, 10), (101, 0), (220, 8), (119, 3), (41, 10), (49, 5), (81, 1), (34, 5), (240, 7), (44, 10), (28, 3), (72, 7), (4, 0), (47, 5), (178, 8), (249, 6), (66, 1), (142, 8), (23, 9), (147, 6), (148, 7), (155, 7), (146, 9), (198, 6), (11, 4), (205, 1), (207, 0)]
183	3	1	3	24	[(62, 4), (248, 0), (133, 8), (18, 2), (54, 3), (6, 2), (229, 2), (108, 10), (71, 3), (45, 4), (185, 6), (97, 8), (139, 10), (126, 8), (119, 2), (87, 5), (223, 3), (51, 6), (14, 3), (3, 5), (1, 10), (79, 10), (241, 4), (192, 0)]
184	5	2	8	31	[(99, 1), (19, 5), (240, 4), (219, 2), (224, 1), (187, 5), (236, 8), (86, 0), (208, 7), (36, 2), (220, 2), (181, 7), (61, 10), (134, 5), (56, 0), (24, 5), (180, 9), (177, 8), (72, 1), (110, 4), (79, 4), (90, 2), (53, 3), (218, 5), (189, 0), (247, 0), (65, 2), (17, 6), (149, 1), (26, 3), (33, 1)]
185	1	8	8	24	[(246, 6), (152, 7), (181, 7), (83, 7), (144, 0), (247, 0), (80, 3), (148, 5), (236, 4), (118, 9), (1, 3), (110, 8), (210, 6), (204, 1), (24, 0), (240, 1), (103, 4), (76, 2), (87, 1), (55, 4), (132, 3), (56, 3), (237, 4), (178, 3)]
186	2	5	3	26	[(59, 6), (75, 7), (4, 4), (160, 9), (215, 6), (214, 0), (158, 2), (38, 10), (14, 5), (94, 5), (244, 6), (139, 3), (81, 4), (34, 5), (165, 9), (186, 5), (106, 0), (205, 0), (190, 1), (10, 8), (218, 4), (36, 9), (212, 8), (211, 10), (113, 3), (26, 3)]
187	1	6	8	16	[(31, 5), (144, 7), (29, 4), (74, 6), (121, 3), (38, 10), (12, 2), (200, 8), (213, 4), (175, 8), (100, 0), (125, 2), (92, 0), (9, 2), (132, 2), (192, 9)]
188	5	3	16	25	[(23, 1), (113, 6), (216, 3), (178, 3), (34, 2), (75, 8), (162, 5), (163, 5), (29, 6), (153, 9), (196, 4), (57, 9), (152, 6), (175, 4), (164, 10), (44, 7), (191, 5), (20, 9), (7, 7), (115, 5), (54, 7), (80, 7), (165, 7), (230, 4), (12, 4)]
189	2	1	1	21	[(232, 3), (5, 7), (47, 3), (247, 0), (40, 6), (68, 9), (55, 6), (18, 0), (31, 10), (136, 8), (85, 8), (150, 9), (143, 5), (127, 3), (219, 9), (223, 2), (19, 8), (39, 9), (209, 6), (33, 7), (168, 10)]
190	2	1	2	15	[(99, 2), (198, 9), (4, 8), (210, 8), (95, 3), (27, 0), (131, 7), (161, 2), (85, 5), (199, 5), (171, 0), (176, 4), (191, 8), (1, 8), (235, 7)]
191	1	4	8	29	[(36, 7), (107, 4), (38, 9), (158, 6), (181, 5), (162, 2), (133, 2), (226, 7), (92, 0), (219, 10), (87, 0), (104, 7), (139, 7), (98, 6), (22, 9), (238, 1), (81, 4), (30, 9), (42, 6), (159, 6), (132, 9), (164, 7), (46, 2), (28, 8), (215, 8), (166, 5), (97, 6), (49, 6), (177, 5)]
192	1	1	8	21	[(74, 5), (224, 8), (216, 1), (207, 9), (245, 10), (155, 5), (237, 4), (96, 8), (132, 0), (222, 2), (95, 0), (22, 4), (243, 8), (56, 3), (182, 9), (26, 10), (124, 5), (169, 2), (30, 4), (138, 8), (219, 2)]
193	4	4	8	22	[(59, 9), (33, 1), (20, 3), (78, 1), (173, 8), (149, 3), (68, 3), (184, 5), (145, 9), (52, 8), (216, 10), (182, 8), (100, 5), (243, 0), (32, 9), (133, 8), (242, 4), (177, 2), (200, 9), (79, 6), (58, 5), (222, 4)]
194	1	1	8	29	[(149, 8), (132, 1), (20, 7), (250, 4), (225, 10), (28, 2), (245, 5), (141, 5), (58, 5), (188, 9), (13, 0), (165, 4), (243, 8), (233, 2), (32, 5), (236, 10), (163, 5), (120, 8), (219, 10), (181, 6), (93, 5), (189, 0), (103, 3), (4, 9), (112, 8), (110, 6), (17, 6), (161, 10), (12, 5)]
195	1	1	8	25	[(77, 10), (233, 10), (73, 0), (22, 7), (20, 3), (127, 4), (23, 10), (13, 7), (116, 10), (241, 1), (52, 8), (151, 6), (226, 5), (191, 4), (118, 3), (50, 8), (187, 9), (183, 5), (79, 7), (201, 10), (1, 3), (32, 5), (186, 0), (249, 0), (81, 8)]
196	95	2	8	33	[(157, 6), (112, 10), (170, 8), (1, 0), (238, 10), (5, 2), (128, 0), (167, 2), (92, 6), (189, 4), (77, 3), (56, 10), (41, 5), (231, 8), (78, 3), (171, 6), (24, 1), (142, 5), (7, 0), (91, 6), (134, 4), (213, 10), (249, 4), (248, 10), (222, 0), (130, 9), (23, 0), (54, 6), (160, 2), (145, 9), (179, 7), (16, 10), (174, 10)]
197	6	1	8	29	[(223, 6), (233, 5), (26, 4), (112, 9), (70, 5), (225, 1), (235, 7), (76, 10), (229, 0), (131, 10), (204, 4), (19, 9), (186, 7), (106, 7), (240, 1), (83, 9), (38, 0), (117, 4), (129, 3), (169, 4), (15, 2), (198, 8), (27, 7), (168, 2), (199, 5), (207, 3), (175, 7), (69, 1), (48, 2)]
198	7	3	8	25	[(64, 1), (169, 6), (218, 5), (62, 5), (25, 7), (163, 6), (121, 10), (187, 2), (27, 6), (5, 8), (11, 0), (122, 9), (116, 6), (196, 3), (34, 1), (215, 4), (67, 7), (239, 4), (149, 6), (248, 0), (208, 1), (220, 0), (96, 8), (31, 4), (85, 5)]
199	2	1	8	21	[(231, 7), (129, 4), (122, 2), (184, 9), (51, 6), (162, 8), (74, 3), (149, 6), (66, 3), (94, 3), (213, 7), (201, 2), (156, 4), (225, 7), (154, 6), (44, 8), (171, 7), (160, 6), (99, 3), (212, 7), (141, 5)]
200	4	2	8	27	[(192, 0), (223, 1), (218, 1), (204, 1), (57, 7), (53, 9), (9, 7), (6, 7), (90, 1), (242, 1), (42, 0), (238, 4), (12, 4), (16, 3), (20, 0), (178, 5), (145, 4), (151, 10), (135, 3), (207, 8), (109, 6), (1, 5), (156, 9), (34, 6), (140, 4), (115, 9), (60, 4)]
201	12	4	16	26	[(248, 9), (223, 7), (92, 0), (29, 3), (9, 9), (4, 8), (244, 5), (150, 6), (107, 4), (93, 2), (5, 0), (141, 8), (230, 10), (131, 1), (139, 8), (100, 2), (115, 5), (146, 6), (222, 1), (50, 4), (84, 7), (99, 2), (233, 7), (123, 1), (35, 3), (77, 1)]
202	19	3	2	31	[(10, 4), (155, 0), (206, 5), (204, 3), (54, 5), (154, 3), (17, 2), (179, 1), (132, 7), (250, 8), (32, 0), (214, 3), (23, 3), (173, 3), (145, 6), (169, 9), (238, 1), (41, 9), (144, 4), (241, 7), (50, 9), (156, 1), (49, 6), (9, 4), (189, 4), (125, 8), (215, 0), (128, 5), (140, 10), (67, 7), (170, 7)]
203	2	1	8	24	[(182, 9), (134, 6), (245, 5), (167, 3), (112, 10), (218, 8), (91, 1), (172, 0), (214, 3), (238, 3), (110, 3), (12, 0), (170, 7), (48, 5), (8, 9), (192, 0), (100, 10), (26, 4), (56, 3), (137, 9), (7, 9), (216, 4), (173, 10), (76, 6)]
204	1	2	2	32	[(80, 3), (182, 4), (58, 6), (92, 10), (210, 7), (190, 10), (123, 7), (236, 3), (37, 0), (52, 3), (141, 8), (197, 7), (69, 2), (148, 0), (178, 3), (102, 6), (22, 1), (71, 1), (158, 9), (19, 9), (171, 4), (138, 10), (12, 5), (108, 2), (121, 9), (189, 9), (130, 1), (45, 7), (38, 5), (112, 7), (62, 9), (13, 8)]
205	4	6	8	19	[(3, 3), (226, 3), (247, 8), (93, 2), (232, 9), (23, 9), (49, 5), (58, 10), (32, 3), (175, 9), (10, 6), (192, 4), (197, 5), (35, 9), (96, 2), (106, 4), (137, 5), (224, 1), (86, 9)]
206	2	2	2	30	[(153, 10), (174, 8), (176, 6), (101, 0), (220, 10), (217, 3), (54, 3), (68, 6), (122, 5), (11, 6), (244, 6), (88, 7), (114, 6), (62, 2), (82, 4), (5, 4), (78, 5), (16, 1), (156, 7), (186, 6), (231, 5), (61, 6), (13, 6), (227, 3), (9, 10), (2, 10), (60, 2), (48, 3), (226, 9), (90, 1)]
207	2	2	8	31	[(147, 3), (45, 0), (150, 0), (42, 4), (70, 6), (84, 7), (209, 0), (149, 5), (145, 10), (89, 9), (134, 1), (235, 4), (61, 7), (22, 7), (40, 10), (74, 3), (167, 1), (14, 10), (29, 7), (37, 8), (143, 4), (234, 2), (232, 3), (21, 4), (195, 4), (27, 2), (46, 4), (127, 5), (65, 10), (132, 8), (121, 3)]
208	1	1	8	19	[(154, 5), (25, 0), (210, 4), (214, 8), (144, 6), (161, 2), (183, 2), (126, 4), (139, 8), (98, 2), (20, 5), (61, 6), (231, 9), (82, 0), (75, 2), (60, 10), (30, 2), (85, 2), (223, 6)]
209	2	6	8	26	[(230, 0), (32, 10), (205, 6), (78, 1), (206, 4), (164, 7), (54, 2), (110, 3), (109, 3), (137, 8), (247, 10), (39, 4), (68, 10), (239, 10), (86, 3), (181, 4), (172, 0), (91, 9), (199, 8), (143, 4), (156, 1), (170, 3), (76, 7), (195, 6), (102, 7), (38, 2)]
210	1	1	8	22	[(16, 8), (12, 6), (82, 3), (166, 6), (169, 2), (66, 3), (223, 8), (213, 7), (203, 2), (46, 3), (187, 3), (136, 3), (80, 7), (229, 6), (44, 7), (35, 5), (36, 8), (113, 4), (205, 4), (131, 0), (239, 6), (124, 7)]
211	1	3	8	32	[(150, 3), (179, 8), (49, 0), (160, 4), (165, 1), (146, 7), (151, 7), (56, 1), (100, 10), (82, 0), (72, 8), (205, 0), (46, 6), (27, 1), (29, 3), (240, 1), (167, 7), (70, 7), (169, 9), (137, 4), (38, 8), (88, 5), (113, 6), (142, 1), (157, 5), (248, 8), (79, 10), (39, 2), (139, 6), (20, 10), (231, 9), (135, 6)]
212	3	1	1	28	[(205, 0), (210, 1), (76, 0), (112, 8), (170, 10), (214, 1), (68, 6), (79, 10), (35, 8), (193, 7), (225, 3), (84, 7), (148, 7), (116, 6), (220, 4), (12, 3), (60, 2), (177, 6), (181, 6), (32, 7), (192, 1), (47, 3), (40, 8), (27, 5), (237, 9), (219, 3), (165, 5), (121, 4)]
213	2	3	8	35	[(110, 4), (97, 0), (133, 1), (35, 2), (211, 8), (83, 10), (89, 5), (230, 9), (175, 5), (163, 10), (168, 8), (67, 7), (78, 1), (141, 3), (142, 0), (208, 1), (184, 8), (217, 3), (191, 2), (72, 3), (61, 1), (204, 4), (151, 8), (196, 5), (49, 9), (174, 0), (237, 3), (102, 2), (247, 0), (176, 9), (33, 3), (121, 4), (76, 8), (206, 6), (114, 9)]
214	1	1	16	19	[(247, 2), (181, 8), (230, 4), (134, 7), (186, 4), (156, 9), (59, 9), (196, 8), (23, 1), (241, 8), (70, 7), (222, 2), (31, 2), (39, 3), (243, 9), (20, 7), (220, 3), (203, 0), (12, 2)]
215	3	2	8	23	[(148, 5), (201, 2), (9, 0), (125, 3), (69, 5), (2, 3), (209, 9), (207, 10), (179, 8), (90, 6), (214, 4), (26, 2), (164, 7), (240, 5), (184, 0), (27, 1), (162, 5), (15, 8), (74, 5), (39, 5), (105, 8), (130, 5), (206, 6)]
216	2	1	8	22	[(137, 8), (6, 6), (175, 0), (234, 2), (225, 5), (187, 0), (237, 4), (58, 7), (190, 0), (200, 0), (141, 1), (54, 10), (152, 0), (84, 7), (140, 6), (81, 2), (168, 8), (108, 7), (23, 7), (88, 3), (59, 8), (46, 2)]
217	2	2	8	16	[(12, 6), (15, 7), (142, 4), (186, 10), (32, 1), (138, 1), (110, 0), (165, 9), (191, 7), (98, 7), (97, 10), (46, 8), (31, 4), (102, 2), (63, 7), (148, 6)]
218	1	1	8	26	[(48, 2), (83, 0), (176, 1), (233, 10), (20, 2), (250, 0), (35, 9), (165, 5), (218, 1), (72, 10), (38, 5), (178, 3), (15, 0), (224, 0), (142, 2), (188, 1), (64, 7), (154, 4), (66, 0), (203, 1), (96, 3), (10, 1), (190, 0), (91, 10), (74, 3), (126, 9)]
219	1	1	8	28	[(83, 8), (234, 6), (230, 4), (37, 7), (226, 7), (69, 8), (248, 10), (107, 7), (160, 1), (99, 10), (134, 3), (16, 8), (85, 10), (213, 3), (129, 0), (243, 0), (238, 0), (152, 4), (30, 7), (194, 0), (135, 6), (239, 3), (117, 4), (17, 5), (67, 0), (5, 7), (80, 9), (164, 6)]
220	2	3	8	29	[(125, 10), (87, 3), (9, 9), (204, 8), (116, 2), (151, 6), (178, 10), (66, 8), (28, 8), (145, 6), (22, 4), (230, 3), (236, 2), (32, 1), (99, 3), (200, 5), (201, 9), (135, 4), (217, 2), (68, 4), (82, 10), (243, 8), (11, 7), (234, 0), (52, 3), (36, 0), (89, 3), (182, 7), (177, 7)]
221	2	1	2	24	[(135, 10), (9, 8), (158, 5), (198, 8), (47, 1), (238, 7), (194, 8), (122, 3), (81, 3), (211, 8), (188, 8), (87, 7), (10, 1), (170, 1), (92, 4), (189, 7), (243, 6), (185, 6), (228, 8), (50, 5), (62, 5), (40, 6), (22, 2), (107, 3)]
222	3	8	8	26	[(13, 9), (6, 2), (118, 4), (48, 0), (235, 3), (156, 3), (25, 1), (82, 6), (46, 2), (137, 9), (220, 10), (15, 0), (218, 10), (93, 1), (68, 5), (152, 4), (34, 5), (123, 5), (42, 1), (43, 9), (135, 9), (217, 0), (103, 2), (2, 9), (95, 3), (206, 5)]
223	17	1	8	21	[(109, 0), (60, 9), (159, 3), (139, 7), (73, 7), (15, 7), (241, 3), (68, 10), (132, 0), (164, 1), (127, 0), (212, 6), (36, 3), (105, 5), (147, 1), (79, 3), (45, 0), (148, 3), (206, 8), (246, 0), (128, 5)]
224	29	2	4	29	[(144, 8), (247, 5), (197, 5), (90, 0), (141, 9), (95, 1), (143, 7), (216, 3), (186, 8), (133, 10), (248, 4), (195, 4), (128, 2), (219, 3), (45, 5), (203, 3), (199, 0), (168, 2), (192, 2), (129, 1), (97, 4), (39, 2), (121, 8), (96, 4), (160, 1), (190, 2), (229, 3), (189, 2), (146, 7)]
225	4	1	8	24	[(35, 5), (2, 5), (196, 5), (165, 5), (38, 3), (204, 9), (217, 4), (180, 7), (24, 9), (59, 6), (151, 5), (16, 3), (100, 4), (224, 6), (133, 0), (33, 10), (157, 8), (148, 3), (126, 1), (171, 5), (110, 0), (83, 0), (186, 9), (103, 4)]
226	1	2	8	29	[(59, 8), (125, 1), (48, 0), (130, 9), (178, 8), (7, 5), (166, 0), (100, 5), (162, 9), (33, 9), (129, 9), (3, 5), (165, 1), (208, 1), (140, 1), (139, 5), (27, 3), (21, 1), (1, 3), (74, 6), (195, 4), (214, 0), (221, 10), (38, 6), (147, 5), (70, 8), (215, 3), (229, 4), (156, 3)]
227	2	1	8	24	[(120, 5), (109, 8), (82, 8), (76, 10), (211, 9), (143, 5), (141, 10), (220, 2), (36, 5), (164, 4), (85, 5), (124, 4), (81, 0), (42, 5), (200, 6), (28, 8), (16, 5), (12, 0), (150, 2), (136, 8), (126, 0), (2, 4), (235, 2), (25, 5)]
228	1	6	8	22	[(108, 1), (126, 0), (240, 7), (182, 4), (194, 5), (49, 1), (37, 2), (193, 4), (157, 6), (45, 2), (18, 2), (55, 5), (143, 4), (101, 2), (38, 2), (20, 10), (177, 1), (200, 6), (32, 0), (110, 3), (78, 4), (201, 10)]
229	2	1	1	27	[(70, 0), (189, 0), (170, 5), (126, 9), (43, 3), (216, 9), (93, 10), (210, 2), (32, 7), (12, 9), (192, 9), (233, 7), (244, 2), (21, 6), (159, 2), (202, 4), (235, 6), (34, 3), (246, 5), (17, 3), (62, 4), (60, 9), (22, 4), (87, 10), (15, 3), (146, 3), (24, 5)]
230	4	3	8	20	[(111, 1), (245, 7), (237, 8), (248, 3), (17, 6), (42, 2), (101, 6), (3, 9), (113, 1), (216, 1), (121, 3), (191, 3), (181, 10), (147, 0), (127, 7), (174, 6), (201, 9), (134, 1), (156, 3), (139, 3)]
231	2	2	8	18	[(56, 4), (183, 0), (193, 7), (4, 2), (48, 8), (159, 4), (108, 3), (158, 5), (26, 3), (143, 3), (174, 9), (195, 6), (46, 7), (124, 5), (201, 0), (23, 9), (89, 5), (169, 5)]
232	27	1	8	31	[(222, 6), (129, 5), (196, 7), (197, 5), (232, 9), (30, 5), (219, 6), (121, 6), (73, 4), (26, 3), (171, 6), (220, 9), (5, 6), (53, 7), (24, 9), (1, 8), (184, 5), (36, 6), (186, 0), (195, 1), (77, 4), (57, 4), (203, 9), (250, 8), (86, 3), (8, 4), (10, 2), (223, 6), (217, 1), (116, 1), (92, 4)]
233	2	1	8	24	[(222, 9), (170, 5), (143, 2), (217, 9), (50, 7), (57, 2), (193, 0), (119, 3), (132, 4), (215, 0), (104, 10), (221, 1), (65, 9), (158, 0), (49, 4), (223, 6), (86, 3), (88, 9), (198, 8), (15, 8), (8, 2), (124, 9), (234, 0), (135, 6)]
234	1	1	8	24	[(63, 0), (234, 7), (136, 7), (210, 0), (224, 5), (82, 10), (241, 0), (164, 6), (40, 7), (74, 9), (43, 9), (212, 5), (187, 4), (198, 10), (107, 3), (50, 9), (72, 3), (217, 5), (21, 2), (95, 2), (88, 6), (52, 9), (16, 0), (166, 0)]
235	4	1	8	30	[(66, 0), (82, 6), (8, 9), (186, 4), (161, 4), (117, 2), (24, 8), (229, 10), (72, 10), (245, 6), (97, 9), (202, 0), (162, 4), (240, 4), (204, 2), (100, 1), (170, 1), (155, 4), (248, 7), (179, 2), (211, 4), (131, 8), (15, 7), (239, 7), (163, 0), (144, 1), (201, 3), (214, 8), (219, 1), (199, 7)]
236	6	1	2	23	[(118, 5), (246, 6), (221, 8), (97, 5), (125, 8), (178, 8), (105, 3), (119, 4), (102, 5), (203, 9), (146, 10), (231, 9), (92, 4), (227, 9), (23, 1), (6, 1), (168, 10), (202, 3), (194, 7), (245, 6), (112, 0), (103, 1), (90, 9)]
237	4	1	8	29	[(25, 8), (238, 2), (150, 5), (192, 10), (235, 0), (56, 7), (208, 9), (6, 6), (36, 6), (94, 3), (40, 4), (163, 2), (167, 9), (123, 2), (3, 6), (158, 1), (22, 9), (80, 1), (183, 3), (179, 6), (130, 0), (234, 0), (245, 9), (16, 0), (108, 4), (207, 1), (107, 4), (191, 5), (233, 0)]
238	2	1	8	31	[(175, 9), (62, 3), (137, 8), (213, 0), (126, 4), (194, 0), (40, 4), (177, 10), (119, 1), (85, 0), (233, 6), (163, 8), (72, 10), (113, 5), (171, 5), (77, 10), (49, 3), (245, 10), (16, 4), (38, 7), (28, 8), (21, 9), (23, 7), (63, 2), (24, 3), (161, 9), (149, 10), (59, 0), (143, 3), (86, 10), (201, 8)]
239	1	1	8	28	[(217, 9), (144, 2), (49, 7), (123, 1), (237, 4), (58, 8), (225, 4), (201, 3), (109, 5), (213, 1), (27, 7), (223, 4), (69, 9), (14, 2), (156, 8), (152, 8), (219, 2), (87, 4), (16, 8), (89, 7), (133, 10), (176, 9), (22, 2), (175, 4), (135, 8), (140, 7), (185, 9), (29, 1)]
240	2	1	8	23	[(184, 2), (229, 3), (172, 4), (124, 1), (205, 0), (42, 0), (15, 9), (209, 8), (96, 7), (132, 0), (95, 10), (142, 2), (34, 4), (61, 10), (81, 4), (241, 7), (195, 2), (108, 6), (206, 9), (143, 10), (20, 2), (99, 9), (67, 8)]
241	1	1	8	25	[(78, 8), (194, 2), (64, 4), (191, 7), (23, 4), (162, 5), (31, 1), (8, 6), (26, 7), (197, 2), (92, 2), (34, 6), (45, 2), (226, 2), (205, 9), (138, 8), (157, 5), (241, 3), (130, 4), (160, 10), (129, 6), (61, 9), (70, 2), (201, 0), (42, 4)]
242	3	1	1	20	[(204, 2), (21, 9), (129, 4), (108, 0), (135, 6), (250, 5), (107, 10), (49, 4), (83, 9), (191, 9), (217, 9), (77, 8), (157, 10), (180, 4), (156, 7), (249, 1), (139, 9), (208, 3), (17, 0), (14, 0)]
243	5	1	8	22	[(99, 0), (29, 7), (218, 2), (23, 5), (57, 2), (162, 2), (21, 3), (83, 6), (192, 6), (116, 1), (31, 6), (27, 5), (26, 4), (30, 10), (147, 2), (153, 4), (232, 9), (50, 0), (114, 1), (158, 7), (208, 7), (135, 4)]
244	59	6	8	20	[(3, 1), (85, 5), (16, 6), (233, 5), (170, 1), (169, 9), (237, 4), (100, 3), (77, 4), (35, 10), (155, 7), (27, 6), (160, 6), (133, 8), (250, 8), (1, 4), (82, 10), (212, 9), (58, 2), (22, 0)]
245	1	1	8	32	[(45, 5), (61, 5), (137, 1), (166, 5), (80, 3), (114, 10), (216, 8), (121, 4), (86, 6), (181, 10), (127, 7), (44, 10), (20, 9), (6, 7), (34, 9), (148, 8), (3, 6), (70, 3), (171, 6), (73, 5), (195, 10), (78, 9), (72, 6), (106, 0), (143, 3), (209, 6), (200, 9), (92, 6), (134, 5), (17, 2), (117, 7), (164, 7)]
246	2	1	8	27	[(147, 8), (181, 8), (133, 1), (25, 10), (63, 10), (186, 2), (195, 5), (113, 1), (36, 6), (103, 9), (109, 2), (76, 2), (148, 4), (221, 3), (250, 8), (246, 9), (128, 3), (143, 8), (18, 4), (185, 3), (45, 8), (62, 7), (162, 7), (188, 0), (43, 6), (173, 0), (59, 0)]
247	3	1	8	28	[(185, 6), (146, 6), (164, 5), (235, 1), (229, 8), (2, 8), (56, 2), (192, 10), (30, 8), (23, 6), (161, 7), (113, 3), (24, 10), (72, 6), (14, 4), (45, 0), (63, 2), (111, 4), (47, 1), (207, 1), (187, 8), (31, 4), (204, 5), (79, 1), (28, 6), (40, 5), (46, 3), (150, 2)]
248	1	4	8	20	[(237, 0), (24, 4), (101, 10), (212, 3), (85, 10), (64, 7), (223, 7), (125, 0), (243, 8), (45, 3), (135, 4), (155, 5), (120, 7), (41, 4), (9, 6), (217, 7), (124, 2), (188, 3), (123, 7), (133, 2)]
249	2	1	7	22	[(80, 6), (170, 8), (3, 9), (209, 6), (158, 3), (148, 5), (49, 0), (41, 4), (93, 1), (167, 9), (238, 2), (181, 0), (139, 8), (83, 9), (146, 9), (214, 9), (113, 5), (1, 10), (226, 7), (179, 5), (138, 3), (169, 10)]
250	14	2	8	27	[(70, 3), (12, 6), (138, 3), (250, 2), (191, 2), (221, 10), (22, 7), (217, 0), (199, 4), (140, 7), (223, 1), (28, 1), (77, 0), (20, 8), (23, 3), (60, 7), (228, 0), (233, 1), (18, 0), (15, 7), (42, 4), (193, 0), (204, 6), (145, 6), (76, 3), (55, 3), (231, 8)]
