app_id	nb_instances	core	memory	inter_degree	inter_aff
1	4	1	8	14	[(185, 10), (248, 8), (63, 0), (111, 7), (28, 6), (149, 1), (39, 5), (136, 10), (25, 3), (181, 10), (227, 7), (3, 4), (47, 9), (186, 2)]
2	2	2	32	15	[(225, 9), (86, 2), (57, 5), (237, 7), (92, 4), (17, 2), (204, 0), (115, 4), (128, 4), (198, 4), (197, 4), (89, 2), (138, 7), (248, 3), (67, 2)]
3	1	2	8	10	[(182, 3), (125, 7), (112, 9), (226, 4), (137, 5), (30, 3), (160, 5), (239, 8), (195, 0), (91, 0)]
4	2	1	8	15	[(178, 4), (177, 5), (231, 1), (101, 10), (130, 7), (169, 8), (92, 0), (203, 7), (66, 6), (119, 10), (198, 6), (75, 6), (175, 2), (106, 4), (212, 3)]
5	2	1	1	10	[(135, 10), (6, 2), (55, 0), (36, 2), (233, 3), (20, 10), (25, 9), (115, 0), (95, 0), (217, 2)]
6	135	1	8	8	[(224, 3), (21, 3), (197, 8), (52, 2), (184, 6), (216, 6), (242, 9), (159, 5)]
7	8	2	8	12	[(41, 6), (27, 1), (1, 6), (184, 5), (219, 4), (35, 5), (155, 5), (19, 1), (218, 4), (108, 7), (16, 2), (82, 7)]
8	1	2	8	15	[(200, 1), (141, 3), (146, 3), (36, 10), (37, 10), (166, 3), (153, 2), (49, 5), (35, 1), (213, 6), (66, 0), (87, 8), (46, 4), (149, 10), (80, 8)]
9	4	1	8	14	[(22, 5), (41, 0), (204, 3), (20, 5), (165, 2), (153, 7), (195, 7), (103, 7), (219, 9), (180, 0), (92, 10), (49, 1), (54, 5), (86, 1)]
10	2	1	8	14	[(6, 0), (202, 3), (170, 1), (169, 8), (131, 0), (190, 8), (221, 5), (115, 4), (70, 4), (232, 10), (18, 2), (33, 7), (120, 6), (44, 8)]
11	1	1	8	13	[(13, 7), (30, 2), (78, 6), (133, 6), (238, 2), (171, 2), (74, 10), (229, 5), (180, 4), (143, 8), (211, 2), (87, 1), (59, 8)]
12	11	1	8	13	[(43, 6), (220, 2), (64, 1), (19, 8), (72, 7), (116, 2), (221, 1), (41, 9), (131, 2), (81, 4), (141, 4), (8, 0), (76, 9)]
13	39	1	16	15	[(21, 10), (54, 0), (155, 5), (14, 8), (175, 10), (121, 7), (137, 10), (90, 6), (215, 0), (150, 9), (95, 4), (222, 4), (200, 3), (127, 0), (126, 10)]
14	1	3	8	17	[(222, 3), (187, 8), (18, 3), (159, 10), (83, 8), (14, 8), (90, 5), (191, 0), (203, 5), (2, 1), (39, 1), (124, 6), (172, 5), (112, 3), (122, 7), (16, 1), (165, 8)]
15	2	2	16	9	[(193, 10), (229, 10), (240, 4), (18, 0), (120, 2), (219, 6), (114, 2), (143, 4), (21, 0)]
16	130	1	16	9	[(133, 10), (56, 4), (43, 7), (34, 9), (247, 0), (214, 3), (230, 1), (70, 10), (174, 9)]
17	1	1	8	17	[(245, 9), (216, 4), (63, 4), (231, 0), (138, 8), (39, 10), (209, 5), (10, 3), (34, 4), (53, 5), (77, 0), (137, 7), (229, 4), (170, 0), (70, 10), (23, 10), (40, 0)]
18	1	1	8	9	[(26, 3), (86, 10), (50, 5), (196, 8), (101, 9), (197, 0), (92, 7), (128, 1), (124, 9)]
19	3	1	7	18	[(80, 6), (156, 2), (161, 9), (205, 1), (125, 7), (132, 9), (110, 6), (30, 4), (235, 6), (16, 4), (237, 8), (100, 0), (221, 6), (14, 9), (146, 4), (4, 4), (184, 7), (76, 0)]
20	2	1	8	10	[(196, 9), (41, 0), (165, 9), (211, 3), (4, 8), (91, 4), (231, 0), (161, 4), (185, 1), (250, 3)]
21	1	2	8	10	[(134, 0), (131, 0), (23, 1), (61, 3), (142, 5), (133, 10), (216, 1), (241, 3), (50, 6), (207, 8)]
22	16	5	8	10	[(194, 9), (42, 6), (148, 3), (57, 3), (129, 4), (13, 8), (3, 3), (119, 9), (24, 3), (153, 5)]
23	1	1	8	14	[(161, 1), (176, 2), (172, 1), (135, 9), (237, 0), (54, 8), (148, 1), (37, 1), (190, 6), (63, 1), (179, 9), (15, 7), (96, 2), (117, 7)]
24	2	1	2	18	[(227, 10), (96, 1), (193, 5), (184, 0), (125, 4), (117, 1), (120, 0), (118, 2), (146, 8), (71, 0), (19, 9), (63, 5), (84, 0), (178, 7), (164, 3), (55, 4), (229, 8), (83, 9)]
25	2	1	8	12	[(203, 2), (223, 10), (95, 9), (66, 10), (216, 0), (26, 1), (84, 7), (49, 5), (92, 3), (20, 8), (42, 3), (77, 4)]
26	1	1	8	15	[(17, 2), (139, 4), (97, 6), (51, 4), (120, 10), (203, 2), (1, 8), (108, 5), (130, 2), (200, 7), (241, 0), (44, 2), (80, 6), (47, 10), (63, 9)]
27	2	1	8	11	[(154, 6), (99, 0), (133, 0), (33, 0), (213, 7), (103, 10), (124, 3), (168, 0), (184, 4), (109, 8), (79, 9)]
28	1	1	8	14	[(117, 8), (87, 6), (6, 6), (156, 4), (193, 2), (245, 8), (160, 9), (236, 0), (78, 8), (110, 2), (33, 10), (180, 1), (229, 3), (231, 10)]
29	18	2	8	9	[(15, 2), (66, 10), (244, 7), (189, 0), (43, 2), (37, 0), (134, 8), (152, 8), (201, 10)]
30	1	1	8	9	[(161, 2), (152, 1), (29, 3), (188, 7), (151, 2), (119, 3), (208, 8), (2, 1), (245, 6)]
31	139	6	2	14	[(113, 7), (108, 9), (235, 0), (26, 1), (127, 9), (6, 10), (50, 0), (116, 8), (224, 4), (110, 8), (7, 7), (115, 4), (208, 7), (230, 4)]
32	1	1	5	16	[(15, 4), (129, 2), (134, 4), (91, 5), (36, 0), (127, 0), (43, 2), (146, 3), (105, 5), (92, 2), (104, 6), (74, 10), (9, 3), (62, 10), (83, 8), (126, 4)]
33	4	2	16	16	[(71, 8), (36, 2), (229, 1), (24, 3), (155, 6), (123, 0), (47, 5), (41, 7), (94, 9), (152, 9), (248, 10), (199, 2), (92, 6), (38, 5), (161, 5), (241, 5)]
34	2	1	8	13	[(188, 10), (42, 5), (192, 4), (176, 10), (168, 8), (167, 7), (145, 4), (29, 2), (100, 2), (14, 6), (94, 6), (13, 4), (75, 1)]
35	2	1	8	20	[(188, 1), (70, 10), (174, 10), (61, 9), (182, 10), (141, 9), (97, 9), (93, 0), (195, 1), (103, 7), (76, 5), (173, 8), (116, 8), (9, 8), (143, 0), (95, 5), (78, 1), (185, 4), (21, 3), (119, 0)]
36	1	1	8	17	[(65, 3), (150, 9), (91, 1), (153, 6), (24, 0), (218, 5), (21, 5), (199, 3), (18, 3), (206, 3), (121, 6), (1, 1), (139, 5), (88, 6), (50, 10), (192, 8), (116, 1)]
37	104	4	8	14	[(4, 1), (243, 8), (26, 6), (38, 9), (204, 9), (54, 10), (51, 7), (127, 0), (212, 2), (188, 1), (236, 6), (76, 9), (50, 7), (33, 5)]
38	2	1	8	15	[(88, 0), (189, 9), (225, 9), (231, 8), (53, 10), (186, 2), (139, 2), (219, 6), (85, 1), (58, 8), (90, 1), (50, 8), (157, 3), (83, 9), (11, 10)]
39	1	3	8	15	[(249, 10), (136, 1), (92, 3), (155, 1), (172, 3), (170, 9), (147, 1), (220, 10), (151, 10), (111, 2), (231, 6), (72, 3), (149, 3), (69, 1), (167, 5)]
40	1	1	5	15	[(78, 5), (104, 4), (214, 3), (64, 7), (15, 10), (107, 8), (28, 4), (84, 8), (146, 5), (8, 2), (44, 8), (156, 1), (238, 1), (169, 3), (189, 10)]
41	1	1	8	15	[(127, 2), (59, 0), (132, 10), (32, 10), (235, 3), (114, 9), (35, 10), (185, 2), (94, 10), (197, 1), (167, 8), (162, 0), (215, 8), (200, 6), (240, 0)]
42	1	1	8	11	[(88, 0), (40, 1), (54, 7), (6, 9), (68, 3), (230, 8), (150, 4), (246, 7), (188, 5), (31, 5), (161, 0)]
43	3	4	8	13	[(191, 0), (95, 6), (231, 3), (197, 5), (35, 2), (86, 2), (10, 10), (181, 10), (109, 6), (114, 2), (55, 10), (97, 8), (217, 1)]
44	2	1	8	15	[(109, 10), (123, 7), (74, 9), (5, 7), (218, 8), (233, 10), (186, 8), (216, 2), (71, 4), (187, 1), (122, 0), (47, 7), (220, 10), (30, 1), (183, 0)]
45	12	1	3	13	[(118, 1), (232, 4), (128, 2), (225, 3), (230, 2), (117, 2), (138, 0), (100, 9), (67, 4), (143, 4), (245, 4), (160, 0), (75, 4)]
46	1	4	8	10	[(16, 0), (98, 6), (42, 7), (173, 2), (114, 10), (229, 2), (130, 5), (58, 4), (95, 6), (240, 10)]
47	1	1	8	8	[(91, 7), (13, 6), (1, 7), (157, 4), (151, 8), (144, 5), (48, 0), (103, 1)]
48	3	1	8	15	[(49, 6), (215, 3), (194, 9), (83, 8), (44, 1), (65, 0), (209, 4), (228, 10), (22, 2), (10, 3), (48, 6), (119, 5), (182, 3), (199, 7), (13, 7)]
49	7	1	8	9	[(72, 0), (57, 9), (159, 8), (197, 0), (40, 7), (122, 0), (158, 7), (186, 9), (201, 1)]
50	1	1	8	13	[(164, 8), (171, 4), (210, 7), (74, 3), (35, 6), (99, 10), (128, 7), (42, 7), (134, 5), (152, 1), (92, 0), (81, 4), (115, 8)]
51	2	1	8	10	[(142, 1), (229, 6), (226, 3), (219, 5), (101, 5), (84, 5), (125, 9), (29, 0), (111, 3), (174, 1)]
52	5	6	8	10	[(80, 2), (225, 10), (207, 0), (104, 8), (49, 4), (95, 0), (22, 4), (36, 0), (115, 6), (68, 9)]
53	7	2	8	13	[(13, 5), (31, 2), (114, 7), (140, 0), (28, 3), (27, 9), (228, 4), (142, 4), (157, 0), (161, 7), (178, 9), (124, 8), (66, 4)]
54	4	1	8	10	[(180, 3), (165, 5), (82, 1), (16, 0), (91, 1), (170, 8), (23, 9), (36, 3), (92, 7), (157, 7)]
55	12	1	10	12	[(58, 1), (117, 5), (233, 5), (95, 7), (76, 3), (40, 2), (213, 4), (85, 0), (189, 6), (60, 1), (136, 4), (30, 7)]
56	1	1	8	12	[(78, 6), (138, 2), (88, 8), (2, 3), (198, 9), (208, 1), (212, 10), (11, 0), (154, 7), (21, 9), (219, 9), (143, 0)]
57	1	3	8	11	[(68, 4), (130, 2), (126, 9), (61, 3), (215, 8), (49, 8), (92, 3), (203, 5), (230, 9), (138, 2), (9, 8)]
58	1	1	8	13	[(135, 8), (97, 8), (56, 1), (45, 6), (55, 9), (242, 2), (20, 2), (49, 2), (121, 3), (117, 10), (22, 2), (82, 6), (15, 0)]
59	1	1	8	10	[(178, 5), (104, 8), (57, 7), (144, 10), (6, 8), (228, 0), (3, 10), (29, 1), (243, 0), (10, 7)]
60	1	1	8	9	[(181, 8), (102, 1), (186, 0), (210, 6), (118, 5), (192, 6), (88, 2), (165, 1), (2, 9)]
61	4	1	2	11	[(239, 4), (142, 9), (91, 4), (4, 2), (37, 9), (224, 9), (178, 5), (14, 5), (238, 7), (213, 3), (80, 4)]
62	1	1	6	16	[(219, 5), (10, 0), (232, 10), (30, 2), (108, 9), (231, 6), (85, 4), (213, 7), (136, 8), (190, 10), (241, 0), (170, 1), (120, 3), (112, 9), (121, 6), (155, 6)]
63	2	3	8	8	[(178, 5), (241, 8), (19, 8), (153, 9), (175, 4), (2, 0), (181, 1), (198, 5)]
64	3	3	2	13	[(126, 1), (127, 10), (154, 5), (161, 9), (246, 2), (152, 5), (120, 5), (30, 0), (14, 2), (1, 3), (238, 8), (248, 6), (46, 7)]
65	2	6	8	18	[(170, 7), (29, 2), (214, 0), (41, 8), (243, 9), (197, 1), (115, 10), (247, 8), (205, 1), (3, 2), (9, 4), (152, 2), (19, 0), (169, 6), (188, 3), (21, 6), (48, 1), (133, 7)]
66	2	1	1	12	[(144, 5), (169, 3), (8, 6), (159, 6), (117, 9), (20, 8), (177, 4), (191, 7), (30, 9), (212, 6), (243, 2), (60, 3)]
67	7	1	8	13	[(203, 9), (96, 0), (155, 10), (181, 10), (156, 6), (50, 7), (108, 7), (141, 1), (95, 8), (151, 0), (220, 4), (100, 0), (188, 8)]
68	2	4	8	11	[(215, 8), (46, 7), (83, 7), (233, 6), (119, 8), (203, 1), (2, 4), (167, 4), (170, 7), (33, 1), (120, 0)]
69	2	1	8	9	[(129, 6), (215, 5), (178, 2), (120, 7), (3, 2), (211, 4), (161, 0), (130, 6), (191, 10)]
70	3	1	128	6	[(189, 2), (60, 7), (10, 8), (211, 2), (216, 8), (16, 8)]
71	21	1	8	10	[(96, 5), (151, 8), (152, 7), (201, 8), (142, 2), (129, 9), (154, 2), (222, 10), (36, 0), (180, 1)]
72	16	1	8	15	[(101, 7), (225, 8), (1, 3), (174, 3), (209, 4), (25, 0), (159, 4), (95, 0), (224, 5), (214, 4), (140, 6), (31, 10), (218, 4), (3, 1), (28, 5)]
73	2	4	8	13	[(243, 2), (195, 7), (228, 5), (163, 10), (245, 5), (11, 9), (150, 4), (18, 7), (44, 1), (78, 6), (239, 4), (85, 5), (156, 4)]
74	5	1	8	22	[(101, 2), (214, 7), (186, 6), (172, 1), (149, 0), (181, 10), (89, 8), (2, 3), (80, 1), (61, 0), (134, 9), (187, 8), (106, 1), (34, 4), (202, 5), (14, 10), (137, 2), (51, 6), (130, 1), (234, 7), (92, 0), (56, 2)]
75	17	1	8	5	[(228, 2), (188, 8), (148, 9), (64, 7), (156, 10)]
76	9	1	8	10	[(33, 5), (199, 4), (155, 7), (175, 8), (118, 1), (137, 0), (176, 2), (135, 3), (18, 8), (113, 7)]
77	9	1	8	14	[(230, 5), (22, 1), (123, 4), (62, 6), (186, 2), (19, 3), (130, 9), (14, 9), (202, 10), (241, 6), (225, 10), (199, 0), (25, 10), (223, 8)]
78	1	1	2	11	[(103, 5), (95, 4), (99, 0), (214, 5), (205, 10), (240, 7), (64, 6), (82, 10), (207, 6), (84, 4), (236, 0)]
79	2	1	8	10	[(71, 3), (250, 9), (87, 0), (126, 4), (193, 8), (167, 6), (208, 8), (36, 6), (39, 10), (195, 1)]
80	2	2	8	11	[(41, 7), (173, 6), (146, 0), (128, 2), (118, 8), (20, 5), (8, 8), (204, 10), (196, 3), (174, 4), (108, 6)]
81	1	1	8	5	[(55, 8), (244, 3), (4, 0), (194, 4), (166, 9)]
82	18	4	8	9	[(35, 4), (99, 5), (143, 1), (78, 9), (116, 0), (109, 8), (26, 0), (42, 7), (167, 9)]
83	4	3	8	10	[(203, 4), (140, 2), (105, 7), (18, 8), (8, 5), (95, 6), (73, 8), (154, 8), (92, 3), (32, 9)]
84	2	1	2	9	[(249, 2), (174, 7), (58, 2), (96, 9), (210, 10), (233, 9), (143, 9), (194, 2), (177, 5)]
85	2	1	16	13	[(119, 10), (93, 10), (79, 10), (95, 2), (221, 3), (5, 0), (181, 4), (20, 1), (18, 4), (80, 0), (175, 0), (64, 6), (45, 5)]
86	147	6	8	11	[(94, 8), (11, 2), (207, 3), (156, 3), (114, 10), (148, 0), (9, 0), (128, 5), (154, 6), (85, 0), (91, 5)]
87	3	1	8	13	[(45, 10), (97, 1), (2, 2), (57, 6), (228, 0), (162, 3), (149, 7), (203, 10), (102, 9), (214, 6), (9, 2), (72, 5), (66, 2)]
88	1	1	1	17	[(61, 0), (198, 3), (45, 0), (24, 3), (162, 2), (201, 1), (89, 6), (22, 6), (206, 5), (114, 1), (180, 8), (151, 0), (196, 6), (169, 4), (130, 5), (230, 9), (31, 5)]
89	1	6	8	13	[(17, 1), (72, 4), (24, 3), (118, 5), (130, 6), (149, 2), (18, 7), (120, 2), (95, 8), (144, 4), (122, 5), (127, 7), (180, 0)]
90	2	4	8	9	[(26, 9), (119, 9), (188, 10), (178, 0), (28, 7), (73, 4), (236, 1), (186, 10), (27, 10)]
91	3	6	8	13	[(119, 6), (123, 6), (191, 8), (91, 8), (56, 4), (169, 5), (230, 2), (126, 10), (104, 0), (161, 10), (16, 0), (122, 10), (58, 8)]
92	4	1	8	6	[(160, 5), (209, 3), (74, 3), (83, 7), (143, 4), (116, 9)]
93	26	1	8	12	[(94, 10), (97, 2), (24, 2), (241, 9), (202, 8), (180, 2), (15, 2), (35, 4), (41, 1), (14, 7), (201, 10), (210, 8)]
94	10	1	8	14	[(10, 2), (163, 5), (126, 8), (60, 10), (130, 10), (19, 10), (160, 4), (56, 2), (48, 3), (123, 5), (68, 8), (237, 10), (3, 2), (193, 9)]
95	10	2	8	11	[(79, 7), (175, 9), (115, 6), (170, 0), (214, 2), (15, 4), (150, 10), (54, 8), (14, 3), (87, 10), (121, 8)]
96	2	1	8	9	[(196, 2), (66, 0), (154, 6), (199, 9), (107, 7), (157, 7), (146, 7), (55, 10), (126, 6)]
97	1	1	8	10	[(243, 10), (40, 3), (95, 8), (49, 10), (12, 0), (65, 7), (197, 6), (199, 0), (8, 3), (47, 0)]
98	2	1	8	5	[(29, 2), (82, 6), (181, 10), (18, 4), (109, 6)]
99	1	4	8	16	[(72, 10), (187, 10), (47, 0), (184, 6), (39, 3), (169, 0), (28, 2), (56, 2), (150, 2), (139, 9), (16, 8), (218, 6), (11, 0), (125, 0), (35, 10), (122, 7)]
100	12	1	8	22	[(140, 5), (35, 5), (199, 3), (65, 3), (170, 0), (102, 6), (22, 2), (131, 2), (24, 0), (114, 5), (105, 9), (111, 6), (241, 2), (235, 6), (56, 8), (141, 7), (43, 7), (113, 0), (5, 3), (243, 5), (52, 8), (184, 5)]
101	2	2	8	12	[(191, 8), (246, 2), (43, 6), (20, 10), (129, 5), (173, 4), (135, 3), (137, 4), (164, 10), (96, 10), (225, 6), (7, 10)]
102	2	1	8	17	[(37, 7), (7, 9), (109, 5), (61, 3), (56, 3), (153, 8), (167, 9), (93, 7), (159, 7), (205, 4), (31, 0), (94, 2), (5, 6), (26, 0), (215, 10), (101, 6), (230, 9)]
103	1	2	2	16	[(28, 5), (162, 0), (105, 1), (83, 1), (38, 3), (7, 6), (177, 4), (72, 9), (233, 10), (121, 8), (213, 8), (214, 3), (179, 5), (68, 2), (140, 9), (235, 4)]
104	36	1	8	16	[(14, 1), (246, 7), (207, 2), (72, 4), (56, 6), (205, 5), (23, 2), (65, 9), (216, 4), (195, 7), (2, 9), (107, 9), (52, 0), (3, 6), (222, 6), (165, 5)]
105	34	1	16	12	[(57, 9), (67, 2), (244, 0), (90, 5), (27, 3), (105, 8), (52, 3), (240, 8), (171, 0), (117, 5), (229, 8), (242, 10)]
106	8	1	8	14	[(227, 1), (159, 5), (9, 8), (124, 1), (107, 2), (244, 1), (149, 0), (142, 3), (221, 2), (18, 7), (78, 4), (33, 8), (1, 6), (212, 5)]
107	2	4	8	12	[(32, 10), (95, 8), (146, 3), (161, 1), (125, 10), (163, 7), (192, 8), (243, 3), (17, 6), (164, 9), (111, 0), (61, 7)]
108	10	1	8	11	[(120, 7), (122, 10), (235, 4), (230, 4), (13, 6), (174, 8), (32, 1), (6, 9), (10, 0), (102, 10), (126, 10)]
109	1	6	8	15	[(177, 0), (75, 1), (234, 6), (23, 2), (52, 6), (191, 2), (220, 2), (179, 8), (243, 9), (147, 0), (232, 7), (46, 5), (48, 9), (217, 7), (164, 3)]
110	15	1	8	14	[(154, 6), (175, 6), (216, 0), (63, 0), (169, 3), (129, 1), (94, 0), (218, 5), (118, 9), (52, 1), (123, 9), (85, 7), (201, 4), (4, 1)]
111	55	1	2	10	[(134, 4), (158, 3), (176, 7), (171, 2), (164, 9), (237, 4), (227, 7), (100, 8), (208, 6), (92, 10)]
112	2	1	8	14	[(98, 4), (54, 4), (57, 5), (24, 6), (182, 6), (33, 1), (1, 4), (249, 10), (111, 4), (15, 9), (148, 1), (21, 1), (103, 10), (45, 6)]
113	17	2	8	12	[(145, 4), (128, 4), (20, 9), (91, 10), (80, 8), (85, 3), (142, 9), (60, 9), (100, 3), (74, 1), (209, 0), (135, 1)]
114	24	4	8	15	[(12, 5), (183, 2), (1, 8), (221, 3), (32, 0), (7, 9), (205, 5), (240, 6), (97, 9), (91, 10), (196, 1), (125, 0), (63, 3), (247, 4), (105, 9)]
115	1	1	8	15	[(109, 2), (13, 10), (89, 10), (198, 7), (47, 6), (212, 8), (37, 4), (66, 6), (190, 3), (175, 4), (164, 6), (36, 3), (196, 4), (227, 5), (242, 3)]
116	8	4	8	8	[(188, 4), (9, 10), (233, 2), (103, 1), (175, 0), (131, 7), (43, 7), (6, 2)]
117	1	1	8	9	[(37, 7), (187, 3), (62, 3), (193, 10), (132, 0), (176, 2), (14, 6), (10, 7), (35, 5)]
118	3	2	2	14	[(101, 2), (202, 4), (20, 3), (224, 6), (161, 4), (180, 3), (249, 6), (209, 8), (187, 6), (87, 0), (196, 6), (57, 3), (247, 7), (13, 8)]
119	1	4	8	11	[(101, 1), (79, 8), (178, 3), (149, 10), (151, 3), (157, 8), (41, 5), (239, 5), (243, 5), (46, 8), (18, 10)]
120	1	1	1	12	[(209, 4), (49, 4), (226, 8), (172, 2), (208, 10), (70, 3), (26, 3), (48, 10), (114, 1), (125, 3), (216, 8), (101, 4)]
121	4	2	8	12	[(173, 3), (77, 10), (152, 4), (103, 8), (127, 7), (162, 9), (188, 3), (190, 9), (184, 3), (95, 8), (62, 7), (1, 6)]
122	2	6	8	15	[(162, 9), (8, 5), (135, 6), (172, 4), (173, 10), (231, 8), (247, 8), (165, 7), (27, 0), (250, 0), (184, 4), (67, 0), (205, 3), (243, 3), (49, 3)]
123	1	2	8	17	[(23, 9), (37, 10), (101, 6), (85, 8), (163, 7), (87, 9), (15, 2), (242, 3), (79, 7), (235, 7), (43, 10), (172, 3), (223, 1), (250, 4), (31, 4), (41, 2), (210, 0)]
124	2	1	8	8	[(244, 10), (150, 7), (62, 8), (130, 8), (236, 7), (116, 9), (45, 10), (97, 3)]
125	45	2	8	8	[(22, 1), (181, 9), (158, 5), (211, 7), (160, 5), (82, 1), (101, 9), (65, 2)]
126	53	1	16	10	[(246, 7), (57, 1), (151, 7), (128, 6), (176, 3), (148, 8), (163, 1), (227, 1), (72, 8), (218, 1)]
127	3	1	8	11	[(232, 10), (235, 3), (30, 9), (102, 9), (3, 2), (49, 10), (48, 1), (214, 0), (250, 9), (120, 6), (135, 7)]
128	2	1	8	15	[(224, 9), (80, 10), (66, 3), (223, 1), (48, 5), (65, 6), (124, 1), (10, 5), (38, 6), (220, 7), (106, 6), (127, 4), (215, 1), (150, 6), (53, 3)]
129	1	4	8	14	[(239, 2), (250, 9), (190, 2), (1, 8), (189, 6), (249, 8), (155, 6), (168, 3), (156, 10), (99, 4), (180, 8), (182, 4), (247, 8), (80, 0)]
130	4	1	8	11	[(180, 7), (84, 2), (200, 1), (181, 10), (203, 1), (121, 3), (51, 0), (80, 4), (242, 9), (208, 10), (122, 10)]
131	4	1	8	8	[(83, 2), (82, 8), (214, 2), (34, 5), (164, 1), (224, 5), (90, 0), (52, 1)]
132	2	1	8	4	[(33, 5), (144, 2), (14, 10), (101, 10)]
133	3	4	8	15	[(200, 2), (161, 4), (193, 5), (31, 7), (18, 4), (225, 3), (213, 2), (10, 5), (61, 2), (15, 1), (198, 10), (12, 8), (81, 0), (3, 5), (180, 2)]
134	1	4	8	16	[(181, 1), (169, 8), (164, 0), (44, 2), (232, 3), (250, 0), (205, 3), (233, 10), (87, 4), (74, 7), (46, 0), (32, 3), (58, 2), (218, 8), (139, 2), (192, 7)]
135	4	4	16	8	[(121, 8), (66, 8), (91, 8), (130, 8), (122, 3), (110, 6), (43, 1), (136, 2)]
136	1	1	8	9	[(195, 10), (168, 1), (111, 9), (166, 5), (133, 8), (249, 9), (196, 0), (87, 5), (10, 5)]
137	2	1	7	11	[(148, 10), (75, 5), (136, 7), (202, 9), (20, 6), (97, 7), (57, 6), (69, 9), (115, 9), (65, 10), (49, 6)]
138	1	1	8	14	[(203, 5), (220, 6), (108, 5), (31, 9), (226, 1), (153, 6), (79, 5), (138, 2), (115, 8), (118, 8), (58, 10), (66, 9), (214, 1), (238, 1)]
139	9	1	16	10	[(248, 10), (240, 2), (25, 10), (63, 10), (135, 1), (189, 3), (128, 2), (179, 1), (94, 9), (234, 7)]
140	1	4	8	16	[(104, 5), (11, 10), (55, 10), (57, 8), (68, 7), (245, 6), (145, 4), (219, 0), (22, 0), (190, 2), (171, 2), (232, 5), (4, 2), (227, 9), (160, 0), (209, 4)]
141	2	3	8	9	[(179, 4), (180, 9), (88, 1), (216, 6), (122, 1), (135, 6), (80, 7), (183, 4), (190, 9)]
142	1	1	8	10	[(66, 1), (92, 5), (90, 2), (75, 3), (7, 2), (169, 6), (218, 0), (74, 8), (148, 8), (145, 4)]
143	1	6	16	14	[(12, 7), (79, 10), (37, 4), (29, 9), (179, 10), (96, 5), (178, 10), (76, 7), (94, 9), (56, 9), (133, 4), (65, 2), (102, 6), (164, 5)]
144	4	4	8	13	[(207, 5), (233, 1), (108, 0), (13, 9), (136, 1), (175, 6), (3, 9), (201, 4), (225, 9), (237, 10), (38, 7), (138, 7), (5, 10)]
145	1	4	8	14	[(233, 8), (190, 3), (114, 4), (78, 10), (194, 10), (55, 3), (117, 8), (126, 5), (179, 9), (240, 1), (201, 0), (193, 10), (120, 1), (70, 0)]
146	26	12	8	14	[(210, 1), (228, 1), (200, 2), (184, 0), (174, 4), (199, 1), (98, 3), (24, 3), (40, 6), (117, 6), (150, 10), (9, 9), (132, 5), (115, 7)]
147	17	1	1	7	[(176, 7), (123, 5), (191, 2), (103, 0), (177, 10), (155, 10), (64, 0)]
148	6	1	2	15	[(137, 2), (210, 5), (223, 7), (115, 3), (190, 0), (48, 6), (62, 4), (213, 9), (92, 8), (80, 7), (11, 8), (13, 0), (33, 7), (128, 3), (218, 2)]
149	2	1	8	17	[(47, 9), (56, 8), (132, 10), (221, 3), (14, 1), (222, 2), (230, 3), (184, 5), (134, 9), (152, 1), (182, 9), (164, 10), (61, 8), (218, 10), (171, 5), (191, 4), (25, 10)]
150	4	1	8	18	[(116, 9), (155, 3), (91, 2), (244, 5), (227, 7), (34, 3), (9, 8), (56, 10), (114, 8), (237, 0), (164, 9), (138, 1), (147, 0), (168, 2), (74, 6), (88, 4), (48, 8), (172, 3)]
151	3	1	8	20	[(88, 3), (206, 3), (39, 8), (63, 8), (21, 5), (207, 7), (26, 1), (185, 0), (66, 2), (31, 2), (136, 3), (91, 7), (144, 2), (188, 7), (10, 8), (227, 0), (119, 9), (82, 2), (97, 3), (248, 8)]
152	12	1	16	11	[(9, 0), (100, 10), (55, 6), (72, 7), (192, 0), (203, 6), (245, 1), (180, 1), (16, 2), (213, 2), (120, 8)]
153	4	3	16	12	[(44, 2), (10, 0), (133, 4), (203, 9), (19, 5), (11, 10), (5, 8), (147, 5), (109, 4), (122, 3), (180, 2), (191, 3)]
154	3	6	8	17	[(150, 4), (78, 6), (17, 2), (172, 9), (26, 9), (130, 4), (120, 6), (153, 1), (135, 6), (117, 1), (119, 9), (6, 7), (106, 0), (154, 10), (60, 3), (196, 7), (67, 6)]
155	1	2	8	17	[(71, 5), (207, 3), (140, 7), (127, 10), (60, 9), (52, 7), (47, 5), (179, 0), (21, 4), (163, 3), (221, 10), (201, 5), (198, 6), (63, 10), (217, 4), (41, 6), (10, 5)]
156	9	1	6	17	[(62, 7), (104, 5), (114, 5), (198, 10), (218, 5), (184, 9), (42, 3), (226, 5), (76, 3), (33, 0), (163, 10), (68, 4), (165, 6), (109, 4), (14, 10), (111, 1), (231, 1)]
157	1	1	8	8	[(240, 8), (124, 4), (25, 2), (215, 2), (129, 10), (125, 9), (158, 5), (30, 0)]
158	4	1	6	16	[(11, 8), (154, 2), (211, 6), (108, 6), (99, 5), (209, 5), (49, 1), (169, 0), (117, 6), (218, 4), (68, 6), (157, 7), (182, 7), (106, 8), (132, 6), (59, 4)]
159	1	2	8	14	[(192, 3), (18, 2), (1, 9), (134, 0), (28, 1), (33, 5), (169, 9), (164, 3), (115, 4), (156, 2), (235, 3), (139, 2), (152, 0), (85, 8)]
160	1	8	8	10	[(60, 0), (182, 7), (215, 2), (43, 1), (62, 10), (58, 6), (222, 10), (40, 4), (169, 9), (193, 3)]
161	2	1	8	7	[(157, 3), (145, 2), (53, 0), (228, 2), (227, 7), (158, 9), (10, 5)]
162	4	4	8	11	[(216, 3), (239, 5), (116, 10), (8, 1), (58, 3), (7, 2), (60, 10), (87, 10), (80, 1), (150, 7), (126, 4)]
163	1	1	8	12	[(250, 5), (170, 6), (55, 10), (118, 9), (88, 1), (241, 3), (112, 7), (44, 8), (207, 6), (244, 5), (204, 5), (171, 0)]
164	2	1	8	13	[(220, 4), (151, 6), (115, 6), (144, 9), (89, 1), (52, 2), (163, 10), (194, 7), (90, 1), (16, 7), (206, 1), (28, 9), (55, 0)]
165	2	1	7	18	[(112, 3), (222, 0), (203, 7), (101, 3), (110, 10), (33, 3), (118, 8), (228, 9), (210, 10), (174, 5), (245, 2), (23, 7), (34, 5), (15, 1), (108, 9), (139, 3), (1, 3), (117, 5)]
166	1	1	8	15	[(185, 3), (249, 0), (196, 6), (97, 10), (75, 4), (91, 5), (169, 10), (222, 2), (27, 4), (64, 9), (129, 2), (132, 6), (230, 10), (76, 6), (13, 2)]
167	2	2	8	15	[(95, 7), (210, 9), (148, 1), (161, 3), (21, 9), (46, 10), (139, 6), (193, 4), (227, 7), (169, 7), (113, 0), (244, 7), (222, 8), (61, 8), (232, 3)]
168	1	1	8	13	[(39, 8), (139, 3), (179, 4), (14, 5), (46, 10), (64, 10), (84, 4), (71, 2), (245, 3), (130, 4), (122, 10), (213, 5), (24, 10)]
169	2	1	8	7	[(155, 2), (110, 5), (194, 2), (73, 0), (231, 5), (198, 5), (166, 7)]
170	2	2	8	8	[(86, 9), (21, 0), (168, 6), (163, 9), (69, 3), (83, 10), (8, 6), (47, 7)]
171	2	1	8	14	[(239, 4), (243, 0), (246, 8), (11, 7), (203, 2), (54, 2), (144, 4), (133, 0), (250, 10), (43, 3), (116, 5), (92, 2), (238, 6), (129, 9)]
172	2	1	8	11	[(150, 10), (135, 1), (220, 6), (48, 1), (35, 7), (247, 7), (7, 8), (190, 3), (185, 8), (87, 9), (146, 5)]
173	2	2	8	15	[(226, 4), (28, 9), (88, 4), (65, 5), (205, 0), (239, 1), (18, 9), (158, 2), (233, 1), (42, 1), (71, 8), (35, 2), (120, 0), (95, 9), (62, 2)]
174	2	4	8	8	[(119, 4), (71, 4), (93, 9), (205, 5), (24, 2), (82, 10), (172, 6), (18, 9)]
175	2	5	8	9	[(234, 5), (247, 8), (102, 6), (190, 2), (83, 5), (44, 5), (162, 0), (244, 6), (112, 7)]
176	15	1	8	11	[(173, 2), (184, 5), (219, 6), (220, 10), (223, 9), (171, 8), (144, 4), (36, 8), (96, 1), (166, 7), (111, 5)]
177	2	1	3	13	[(8, 1), (64, 5), (146, 2), (126, 4), (127, 0), (137, 10), (72, 3), (147, 10), (190, 9), (220, 5), (154, 5), (3, 4), (164, 3)]
178	2	1	8	10	[(196, 8), (104, 0), (10, 2), (238, 9), (46, 0), (111, 10), (82, 0), (176, 3), (233, 10), (53, 8)]
179	4	2	2	13	[(15, 5), (218, 1), (81, 2), (135, 6), (176, 0), (194, 5), (40, 3), (191, 5), (157, 10), (226, 3), (7, 3), (106, 10), (213, 6)]
180	1	1	8	12	[(194, 2), (151, 6), (182, 5), (32, 4), (58, 8), (223, 3), (93, 3), (113, 1), (1, 4), (192, 6), (115, 1), (94, 6)]
181	2	3	8	14	[(184, 1), (205, 6), (5, 0), (64, 10), (204, 7), (50, 3), (210, 5), (161, 4), (27, 7), (43, 3), (188, 1), (92, 6), (133, 8), (82, 7)]
182	5	1	8	19	[(210, 4), (117, 2), (89, 2), (237, 4), (147, 4), (77, 9), (151, 2), (74, 8), (136, 5), (68, 7), (239, 0), (42, 4), (122, 5), (84, 2), (82, 3), (118, 5), (108, 2), (90, 2), (100, 9)]
183	2	1	8	18	[(240, 1), (133, 6), (148, 8), (223, 8), (83, 10), (12, 10), (220, 1), (138, 3), (85, 9), (167, 3), (131, 9), (163, 0), (161, 0), (155, 10), (106, 4), (164, 7), (189, 5), (33, 3)]
184	2	2	2	16	[(78, 8), (155, 2), (173, 1), (42, 1), (66, 7), (167, 10), (170, 8), (116, 8), (51, 5), (227, 4), (186, 2), (248, 7), (43, 6), (96, 6), (30, 4), (9, 10)]
185	1	1	8	14	[(99, 0), (38, 2), (183, 3), (39, 0), (98, 7), (198, 2), (177, 9), (156, 5), (230, 8), (79, 5), (204, 4), (246, 1), (115, 6), (87, 1)]
186	6	1	1	9	[(87, 5), (55, 9), (5, 4), (64, 0), (84, 3), (130, 10), (195, 7), (194, 8), (95, 10)]
187	2	2	8	15	[(207, 10), (249, 7), (214, 6), (148, 4), (164, 2), (75, 6), (109, 5), (67, 0), (153, 10), (58, 1), (226, 6), (228, 8), (93, 1), (33, 6), (250, 0)]
188	7	5	8	13	[(213, 10), (173, 0), (17, 5), (21, 5), (66, 9), (217, 1), (72, 0), (106, 4), (194, 10), (81, 3), (241, 7), (249, 0), (64, 10)]
189	1	1	8	12	[(67, 1), (122, 4), (97, 9), (109, 8), (96, 6), (192, 7), (199, 10), (233, 0), (163, 8), (174, 4), (241, 9), (222, 10)]
190	3	16	8	16	[(60, 10), (85, 3), (120, 9), (14, 8), (135, 5), (72, 8), (26, 3), (17, 9), (224, 3), (47, 1), (137, 10), (115, 0), (237, 2), (167, 0), (106, 7), (37, 6)]
191	1	9	8	15	[(248, 2), (230, 1), (67, 6), (90, 8), (42, 1), (28, 8), (131, 5), (183, 10), (178, 6), (232, 4), (54, 5), (108, 4), (166, 0), (112, 5), (138, 1)]
192	1	1	8	13	[(226, 9), (221, 5), (194, 5), (33, 10), (141, 4), (92, 8), (8, 1), (156, 8), (187, 7), (80, 6), (10, 0), (158, 0), (126, 3)]
193	2	5	8	11	[(151, 0), (173, 6), (185, 1), (134, 8), (156, 2), (27, 3), (32, 2), (178, 2), (87, 0), (140, 4), (233, 2)]
194	6	1	8	7	[(72, 9), (55, 3), (115, 4), (221, 1), (36, 0), (145, 3), (238, 3)]
195	1	1	8	13	[(151, 7), (109, 4), (35, 4), (146, 4), (166, 4), (200, 8), (202, 5), (11, 0), (197, 3), (164, 9), (212, 0), (133, 9), (196, 8)]
196	10	1	1	18	[(78, 8), (26, 2), (88, 3), (72, 4), (215, 2), (244, 4), (46, 3), (76, 1), (134, 8), (222, 0), (79, 5), (116, 3), (132, 2), (227, 0), (18, 10), (104, 6), (38, 5), (204, 7)]
197	2	1	16	9	[(10, 10), (221, 5), (234, 5), (106, 9), (250, 10), (87, 6), (169, 2), (125, 10), (238, 7)]
198	4	1	8	12	[(113, 6), (12, 8), (115, 3), (34, 9), (192, 4), (129, 4), (160, 8), (183, 9), (50, 10), (171, 4), (200, 10), (10, 3)]
199	2	1	8	8	[(202, 9), (12, 8), (81, 4), (191, 6), (51, 2), (155, 10), (153, 4), (79, 7)]
200	1	2	8	14	[(162, 10), (139, 9), (189, 8), (203, 9), (188, 4), (100, 1), (15, 4), (45, 1), (1, 1), (54, 5), (109, 6), (38, 8), (12, 1), (169, 7)]
201	8	5	8	17	[(236, 10), (190, 9), (4, 4), (52, 8), (70, 3), (131, 2), (188, 6), (35, 7), (36, 4), (167, 0), (240, 9), (244, 6), (76, 8), (164, 6), (46, 0), (28, 0), (132, 5)]
202	12	2	16	17	[(99, 1), (98, 3), (188, 8), (234, 6), (240, 1), (144, 8), (40, 9), (10, 6), (131, 8), (8, 1), (57, 4), (9, 3), (194, 8), (203, 2), (58, 3), (23, 3), (140, 10)]
203	29	2	8	17	[(141, 10), (78, 3), (211, 8), (16, 6), (86, 3), (132, 5), (76, 10), (246, 0), (116, 10), (171, 1), (115, 6), (215, 6), (201, 9), (50, 8), (46, 9), (135, 5), (39, 9)]
204	2	4	8	14	[(91, 7), (173, 3), (181, 1), (94, 3), (101, 3), (109, 3), (96, 1), (23, 7), (7, 10), (175, 9), (11, 1), (199, 10), (1, 9), (14, 10)]
205	1	1	8	16	[(32, 2), (123, 6), (88, 0), (103, 0), (66, 5), (169, 4), (107, 6), (203, 0), (28, 7), (131, 5), (122, 9), (173, 6), (23, 4), (239, 10), (120, 5), (108, 6)]
206	4	2	8	10	[(82, 1), (83, 2), (118, 3), (224, 4), (168, 1), (87, 0), (243, 0), (144, 7), (160, 6), (171, 5)]
207	2	2	8	12	[(218, 1), (1, 4), (53, 8), (137, 0), (155, 5), (23, 0), (132, 7), (9, 0), (156, 1), (226, 4), (37, 9), (48, 0)]
208	2	4	8	12	[(123, 3), (108, 10), (113, 2), (42, 6), (103, 1), (141, 2), (88, 10), (194, 9), (126, 9), (188, 10), (153, 5), (7, 4)]
209	2	3	8	11	[(15, 10), (14, 8), (111, 8), (103, 3), (163, 6), (121, 8), (180, 3), (85, 0), (142, 8), (207, 1), (83, 2)]
210	4	4	2	17	[(52, 4), (145, 1), (40, 7), (44, 10), (95, 8), (32, 6), (5, 5), (37, 10), (236, 5), (62, 3), (188, 2), (134, 1), (31, 3), (126, 0), (122, 4), (6, 9), (243, 8)]
211	1	2	8	11	[(57, 1), (23, 9), (179, 7), (33, 2), (56, 3), (152, 4), (245, 6), (232, 2), (199, 0), (89, 2), (153, 10)]
212	1	1	8	16	[(176, 3), (167, 9), (249, 3), (240, 3), (226, 5), (94, 2), (169, 4), (107, 2), (111, 6), (217, 7), (182, 5), (97, 7), (236, 7), (76, 9), (12, 8), (198, 0)]
213	6	1	8	10	[(139, 5), (16, 7), (247, 1), (67, 3), (194, 5), (77, 2), (233, 6), (113, 2), (81, 9), (86, 1)]
214	9	1	8	10	[(119, 10), (150, 6), (214, 5), (143, 8), (200, 2), (147, 7), (160, 6), (35, 9), (53, 10), (139, 7)]
215	17	1	8	13	[(62, 6), (176, 7), (90, 10), (71, 8), (57, 8), (179, 5), (196, 10), (54, 10), (102, 10), (44, 7), (67, 1), (8, 3), (68, 9)]
216	2	1	8	20	[(30, 0), (18, 4), (77, 0), (125, 6), (165, 2), (180, 0), (94, 8), (20, 2), (229, 3), (114, 2), (242, 8), (195, 9), (65, 10), (103, 0), (140, 4), (68, 8), (135, 8), (93, 8), (87, 6), (6, 3)]
217	2	1	16	15	[(42, 3), (11, 9), (151, 8), (182, 2), (199, 1), (149, 0), (224, 9), (226, 7), (135, 8), (110, 1), (49, 4), (191, 9), (19, 4), (147, 4), (245, 2)]
218	5	1	16	13	[(238, 7), (106, 1), (17, 5), (196, 7), (162, 7), (37, 7), (200, 9), (171, 0), (199, 4), (157, 1), (44, 2), (235, 5), (69, 10)]
219	1	2	8	14	[(119, 9), (33, 7), (150, 1), (24, 3), (46, 2), (221, 7), (118, 7), (218, 2), (155, 2), (123, 10), (162, 7), (110, 2), (187, 3), (71, 8)]
220	15	1	8	15	[(203, 7), (73, 4), (191, 2), (118, 9), (139, 3), (4, 7), (193, 8), (89, 6), (33, 0), (167, 1), (104, 8), (75, 2), (145, 6), (20, 7), (27, 0)]
221	3	1	4	11	[(219, 6), (55, 9), (178, 2), (75, 2), (144, 3), (21, 4), (227, 4), (116, 9), (43, 6), (97, 9), (107, 1)]
222	3	6	8	14	[(71, 2), (168, 1), (236, 6), (43, 8), (134, 1), (133, 8), (143, 4), (58, 5), (121, 3), (82, 4), (48, 1), (20, 7), (123, 5), (129, 7)]
223	2	4	7	14	[(104, 0), (229, 10), (208, 7), (24, 0), (13, 7), (106, 3), (241, 6), (168, 6), (177, 1), (59, 4), (77, 1), (178, 7), (101, 0), (235, 9)]
224	71	1	8	5	[(109, 3), (179, 10), (157, 9), (79, 4), (29, 5)]
225	2	4	2	11	[(146, 2), (48, 0), (205, 2), (155, 0), (216, 9), (38, 2), (53, 9), (45, 3), (235, 0), (250, 8), (193, 4)]
226	85	1	2	14	[(197, 10), (133, 8), (63, 10), (170, 1), (126, 0), (231, 3), (100, 3), (57, 2), (110, 8), (49, 1), (106, 6), (196, 5), (137, 7), (76, 9)]
227	2	1	6	12	[(214, 4), (160, 4), (87, 5), (117, 10), (173, 2), (242, 6), (216, 3), (215, 5), (65, 8), (220, 8), (138, 6), (23, 10)]
228	2	6	8	8	[(239, 6), (98, 2), (92, 0), (129, 8), (224, 6), (246, 1), (29, 2), (77, 0)]
229	1	1	2	15	[(178, 9), (91, 7), (42, 7), (9, 0), (225, 1), (189, 4), (186, 6), (155, 8), (27, 9), (181, 0), (205, 10), (194, 7), (138, 9), (78, 10), (223, 0)]
230	1	1	8	16	[(90, 2), (182, 2), (28, 5), (245, 3), (185, 9), (107, 8), (82, 0), (224, 10), (237, 0), (113, 5), (81, 3), (43, 1), (149, 5), (162, 6), (128, 8), (74, 7)]
231	2	1	1	9	[(68, 4), (30, 8), (3, 6), (51, 3), (61, 9), (89, 0), (229, 1), (10, 10), (228, 4)]
232	2	1	8	16	[(62, 2), (197, 8), (225, 10), (145, 7), (81, 5), (42, 2), (188, 0), (29, 2), (146, 8), (196, 6), (249, 4), (244, 1), (208, 10), (214, 10), (191, 0), (85, 2)]
233	2	1	2	7	[(15, 10), (50, 1), (13, 0), (122, 0), (119, 7), (228, 0), (111, 8)]
234	1	4	8	8	[(210, 6), (113, 3), (48, 7), (189, 9), (9, 7), (201, 7), (178, 9), (204, 4)]
235	1	2	8	9	[(197, 10), (245, 1), (193, 8), (247, 2), (44, 2), (180, 6), (242, 5), (81, 2), (12, 7)]
236	80	1	8	13	[(37, 5), (167, 6), (56, 1), (74, 2), (157, 2), (67, 3), (21, 3), (30, 0), (98, 5), (130, 2), (166, 6), (178, 9), (55, 5)]
237	1	2	3	14	[(237, 9), (85, 7), (74, 10), (166, 6), (239, 10), (233, 4), (201, 2), (23, 8), (6, 1), (7, 4), (60, 9), (183, 8), (95, 8), (227, 10)]
238	2	1	2	20	[(185, 0), (231, 0), (106, 8), (71, 10), (178, 1), (42, 10), (10, 1), (68, 10), (116, 5), (159, 8), (109, 9), (210, 5), (223, 7), (167, 1), (221, 6), (246, 8), (38, 10), (47, 0), (229, 9), (58, 7)]
239	7	1	2	4	[(122, 6), (183, 4), (48, 2), (226, 0)]
240	29	1	8	16	[(192, 7), (211, 1), (112, 5), (106, 9), (65, 1), (161, 9), (191, 10), (234, 10), (128, 4), (138, 6), (70, 4), (4, 6), (133, 9), (190, 1), (48, 10), (171, 5)]
241	1	1	8	12	[(173, 3), (127, 5), (100, 6), (167, 6), (239, 8), (225, 6), (213, 0), (159, 3), (152, 9), (88, 4), (183, 3), (161, 8)]
242	100	1	8	13	[(245, 1), (103, 7), (90, 0), (249, 0), (49, 5), (44, 10), (223, 3), (206, 7), (199, 10), (67, 5), (220, 9), (66, 1), (131, 0)]
243	1	4	8	7	[(52, 5), (184, 2), (60, 7), (63, 9), (24, 9), (62, 10), (9, 1)]
244	1	4	4	10	[(122, 10), (249, 1), (198, 5), (128, 0), (120, 10), (184, 9), (42, 1), (99, 10), (150, 10), (51, 1)]
245	2	1	1	8	[(153, 5), (130, 2), (209, 5), (6, 0), (134, 6), (238, 10), (174, 9), (93, 2)]
246	2	1	8	8	[(60, 8), (164, 5), (248, 7), (142, 7), (227, 8), (221, 0), (22, 10), (244, 1)]
247	1	1	8	15	[(80, 3), (224, 3), (201, 0), (107, 9), (192, 1), (122, 6), (234, 0), (160, 6), (117, 8), (85, 5), (233, 5), (147, 7), (179, 0), (154, 4), (40, 10)]
248	1	4	8	20	[(146, 5), (184, 1), (69, 10), (24, 8), (120, 7), (36, 0), (131, 3), (206, 8), (156, 9), (26, 5), (172, 1), (25, 2), (32, 7), (193, 0), (114, 2), (87, 1), (145, 5), (1, 10), (160, 9), (31, 0)]
249	12	1	2	12	[(161, 7), (210, 6), (22, 6), (226, 8), (167, 3), (33, 7), (75, 3), (101, 1), (230, 1), (141, 4), (135, 5), (149, 0)]
250	1	4	8	8	[(233, 7), (91, 0), (145, 9), (187, 8), (86, 7), (92, 9), (185, 2), (163, 10)]
