app_id	nb_instances	core	memory	inter_degree	inter_aff
1	25	12	8	0	[]
2	1	1	8	0	[]
3	2	2	8	0	[]
4	2	1	8	0	[]
5	1	2	6	0	[]
6	1	6	8	1	[(6, 8)]
7	1	1	8	1	[(7, 3)]
8	4	1	7	0	[]
9	1	2	8	0	[]
10	1	3	8	0	[]
11	55	2	8	0	[]
12	1	1	8	0	[]
13	2	1	3	0	[]
14	2	6	8	0	[]
15	1	1	2	0	[]
16	2	1	8	1	[(16, 10)]
17	11	1	1	0	[]
18	1	4	16	0	[]
19	2	1	8	0	[]
20	1	4	8	0	[]
21	5	1	8	0	[]
22	9	6	8	1	[(22, 8)]
23	1	1	8	1	[(23, 6)]
24	2	6	8	0	[]
25	37	2	8	1	[(25, 2)]
26	2	1	16	1	[(26, 7)]
27	1	1	8	1	[(27, 5)]
28	2	1	8	0	[]
29	27	4	2	1	[(29, 5)]
30	74	1	8	0	[]
31	1	1	2	1	[(31, 4)]
32	2	2	8	1	[(32, 5)]
33	1	1	8	0	[]
34	72	1	8	0	[]
35	12	1	8	0	[]
36	3	1	8	0	[]
37	1	1	8	0	[]
38	2	1	8	0	[]
39	2	1	16	0	[]
40	1	1	8	0	[]
41	16	1	8	0	[]
42	1	1	2	0	[]
43	2	1	5	0	[]
44	3	1	8	1	[(44, 3)]
45	2	2	8	0	[]
46	7	4	6	1	[(46, 5)]
47	10	1	8	0	[]
48	3	6	8	0	[]
49	3	1	8	0	[]
50	1	1	8	0	[]
51	17	12	8	2	[(51, 5), (51, 2)]
52	1	4	8	1	[(52, 7)]
53	11	2	8	1	[(53, 7)]
54	1	4	8	0	[]
55	1	2	8	0	[]
56	123	4	8	0	[]
57	1	6	8	1	[(57, 3)]
58	2	1	8	0	[]
59	2	1	16	0	[]
60	1	1	8	0	[]
61	1	1	16	0	[]
62	1	4	8	0	[]
63	16	1	8	0	[]
64	2	2	16	0	[]
65	6	4	10	0	[]
66	1	3	8	0	[]
67	2	1	1	0	[]
68	1	1	8	0	[]
69	6	6	8	0	[]
70	3	1	8	0	[]
71	1	1	8	0	[]
72	9	1	16	0	[]
73	2	2	6	1	[(73, 1)]
74	22	4	2	0	[]
75	3	4	8	0	[]
76	7	2	8	0	[]
77	2	4	8	0	[]
78	1	1	16	0	[]
79	8	1	8	0	[]
80	4	1	8	2	[(80, 7), (80, 8)]
81	2	2	8	0	[]
82	2	1	8	0	[]
83	25	4	8	0	[]
84	2	1	8	0	[]
85	2	2	8	0	[]
86	2	2	8	0	[]
87	6	1	8	0	[]
88	7	1	2	0	[]
89	12	1	8	0	[]
90	4	1	32	1	[(90, 5)]
91	1	5	8	0	[]
92	7	1	1	0	[]
93	3	1	8	1	[(93, 2)]
94	1	1	8	0	[]
95	1	8	1	0	[]
96	2	1	8	0	[]
97	1	2	8	0	[]
98	7	2	8	0	[]
99	1	1	8	1	[(99, 8)]
100	3	7	8	0	[]
101	27	1	8	0	[]
102	1	4	8	1	[(102, 6)]
103	4	1	8	0	[]
104	2	1	8	0	[]
105	2	2	8	2	[(105, 4), (105, 9)]
106	7	2	8	0	[]
107	1	2	8	0	[]
108	1	1	8	1	[(108, 5)]
109	2	1	8	0	[]
110	12	1	8	0	[]
111	3	1	10	0	[]
112	17	1	8	0	[]
113	2	1	8	1	[(113, 7)]
114	8	3	8	0	[]
115	1	1	2	0	[]
116	1	12	8	1	[(116, 2)]
117	2	1	8	0	[]
118	2	1	8	0	[]
119	2	4	8	0	[]
120	3	6	8	2	[(120, 7), (120, 8)]
121	34	1	8	0	[]
122	1	2	8	0	[]
123	7	1	8	1	[(123, 9)]
124	2	3	2	1	[(124, 2)]
125	5	4	8	1	[(125, 9)]
126	1	1	8	0	[]
127	6	3	8	0	[]
128	5	1	8	0	[]
129	3	1	8	0	[]
130	2	1	5	0	[]
131	1	1	8	0	[]
132	1	1	8	0	[]
133	2	1	48	0	[]
134	14	6	8	0	[]
135	4	2	8	0	[]
136	4	1	8	0	[]
137	1	2	8	0	[]
138	21	1	8	0	[]
139	1	1	2	0	[]
140	2	2	8	1	[(140, 5)]
141	4	4	8	0	[]
142	1	2	16	0	[]
143	1	1	8	1	[(143, 5)]
144	27	1	8	0	[]
145	1	2	8	1	[(145, 4)]
146	2	4	2	0	[]
147	24	1	2	1	[(147, 3)]
148	2	1	8	1	[(148, 3)]
149	4	1	8	0	[]
150	1	1	8	0	[]
151	2	1	8	0	[]
152	2	1	8	1	[(152, 1)]
153	2	1	16	0	[]
154	2	2	8	1	[(154, 1)]
155	5	1	16	0	[]
156	3	1	8	0	[]
157	3	2	24	0	[]
158	1	1	8	0	[]
159	1	4	8	0	[]
160	1	4	8	0	[]
161	1	2	8	1	[(161, 6)]
162	2	1	8	0	[]
163	5	2	16	0	[]
164	7	2	8	0	[]
165	2	1	2	0	[]
166	3	1	1	0	[]
167	1	1	8	0	[]
168	3	1	8	0	[]
169	2	1	8	0	[]
170	3	1	8	0	[]
171	2	1	8	0	[]
172	2	1	8	0	[]
173	3	1	8	0	[]
174	2	2	8	0	[]
175	1	1	8	0	[]
176	33	1	1	0	[]
177	2	1	2	0	[]
178	1	1	4	0	[]
179	5	6	8	0	[]
180	3	1	8	0	[]
181	7	4	2	1	[(181, 3)]
182	2	1	8	0	[]
183	1	1	7	0	[]
184	2	1	8	0	[]
185	3	1	2	0	[]
186	2	1	1	0	[]
187	2	6	16	0	[]
188	2	1	8	0	[]
189	1	1	8	0	[]
190	1	1	8	0	[]
191	2	4	8	1	[(191, 10)]
192	2	1	8	0	[]
193	12	1	8	0	[]
194	12	4	8	0	[]
195	4	1	8	0	[]
196	4	1	8	0	[]
197	1	1	1	0	[]
198	5	1	8	0	[]
199	2	1	8	0	[]
200	3	1	8	0	[]
201	5	1	8	0	[]
202	6	1	8	0	[]
203	5	1	8	0	[]
204	1	1	8	0	[]
205	2	1	16	0	[]
206	1	1	8	0	[]
207	4	1	8	0	[]
208	3	2	1	0	[]
209	3	11	8	0	[]
210	1	4	2	0	[]
211	1	1	8	1	[(211, 9)]
212	3	1	8	0	[]
213	2	1	2	0	[]
214	5	2	8	0	[]
215	2	1	8	0	[]
216	9	1	8	0	[]
217	4	2	4	0	[]
218	1	1	8	0	[]
219	4	1	8	0	[]
220	188	3	8	0	[]
221	2	6	8	0	[]
222	44	1	8	0	[]
223	3	1	8	0	[]
224	10	1	8	0	[]
225	1	4	16	0	[]
226	3	1	8	0	[]
227	8	2	32	0	[]
228	1	11	8	0	[]
229	1	1	16	0	[]
230	2	1	8	0	[]
231	3	1	2	0	[]
232	3	1	8	0	[]
233	10	1	3	1	[(233, 1)]
234	7	4	8	0	[]
235	1	2	8	0	[]
236	1	3	8	0	[]
237	2	1	12	0	[]
238	2	12	8	0	[]
239	2	1	8	1	[(239, 2)]
240	3	1	3	1	[(240, 8)]
241	1	1	8	0	[]
242	1	1	8	0	[]
243	2	1	8	1	[(243, 7)]
244	1	1	5	0	[]
245	3	1	8	0	[]
246	1	1	16	0	[]
247	8	1	8	0	[]
248	3	6	2	0	[]
249	1	1	8	0	[]
250	189	3	8	0	[]
