app_id	nb_instances	core	memory	inter_degree	inter_aff
1	4	2	8	19	[(207, 10), (130, 3), (92, 7), (166, 0), (179, 8), (67, 8), (95, 7), (247, 2), (228, 1), (72, 0), (6, 6), (75, 3), (238, 6), (125, 7), (241, 8), (222, 1), (153, 8), (215, 2), (115, 2)]
2	2	2	8	19	[(193, 7), (227, 10), (28, 10), (55, 5), (213, 4), (179, 1), (201, 1), (226, 6), (185, 8), (29, 7), (87, 1), (77, 4), (191, 8), (176, 10), (202, 0), (233, 4), (221, 5), (21, 9), (124, 7)]
3	2	1	8	25	[(233, 1), (14, 10), (66, 5), (113, 7), (129, 1), (206, 0), (77, 8), (99, 3), (114, 9), (249, 3), (189, 6), (92, 2), (171, 8), (219, 2), (130, 8), (22, 1), (214, 4), (173, 7), (167, 8), (98, 3), (185, 10), (246, 7), (242, 2), (156, 4), (224, 7)]
4	5	1	16	34	[(11, 4), (234, 8), (194, 2), (176, 2), (179, 3), (16, 5), (15, 6), (32, 7), (235, 4), (101, 6), (191, 6), (145, 7), (225, 6), (128, 7), (209, 1), (3, 8), (180, 3), (47, 1), (178, 3), (233, 3), (212, 1), (92, 0), (165, 3), (245, 2), (172, 7), (73, 3), (157, 8), (187, 5), (27, 7), (34, 0), (227, 3), (37, 5), (111, 4), (43, 2)]
5	1	1	8	32	[(111, 10), (57, 7), (124, 2), (179, 2), (24, 0), (45, 7), (103, 4), (222, 7), (99, 4), (186, 1), (139, 8), (39, 9), (46, 10), (105, 8), (42, 0), (22, 10), (223, 6), (144, 8), (89, 7), (83, 1), (212, 0), (205, 9), (121, 2), (93, 2), (113, 6), (194, 2), (221, 1), (248, 5), (28, 7), (80, 3), (51, 10), (29, 7)]
6	5	1	2	28	[(45, 0), (32, 3), (21, 7), (100, 7), (219, 0), (73, 10), (175, 8), (158, 1), (37, 7), (246, 2), (7, 10), (229, 2), (35, 8), (42, 1), (6, 7), (40, 9), (190, 8), (27, 0), (22, 0), (214, 5), (223, 0), (72, 7), (5, 0), (177, 10), (149, 1), (17, 1), (118, 8), (129, 6)]
7	3	1	8	21	[(244, 3), (158, 5), (138, 5), (75, 8), (206, 2), (98, 2), (243, 1), (219, 6), (55, 9), (64, 9), (90, 10), (209, 8), (45, 8), (58, 4), (108, 7), (192, 5), (181, 1), (196, 4), (232, 8), (94, 7), (142, 6)]
8	4	1	8	26	[(111, 5), (97, 0), (79, 2), (191, 6), (220, 3), (173, 8), (74, 8), (167, 0), (126, 4), (31, 9), (110, 3), (177, 6), (128, 2), (155, 0), (152, 8), (183, 7), (52, 7), (159, 0), (104, 2), (29, 3), (11, 0), (136, 0), (146, 9), (27, 9), (83, 10), (206, 7)]
9	6	1	8	24	[(99, 1), (96, 5), (237, 5), (34, 1), (98, 5), (14, 2), (136, 6), (166, 6), (75, 6), (4, 3), (122, 1), (194, 6), (151, 1), (200, 8), (21, 1), (93, 8), (192, 8), (10, 8), (149, 8), (176, 4), (158, 5), (221, 9), (115, 0), (227, 8)]
10	2	1	8	20	[(105, 10), (72, 6), (150, 7), (218, 8), (45, 4), (195, 6), (17, 5), (73, 10), (85, 0), (147, 7), (7, 7), (103, 6), (158, 4), (238, 4), (217, 4), (175, 10), (83, 4), (244, 3), (241, 4), (164, 2)]
11	2	1	8	20	[(109, 5), (176, 10), (87, 5), (105, 9), (210, 10), (141, 3), (122, 4), (39, 8), (83, 6), (57, 4), (246, 5), (102, 9), (226, 10), (113, 4), (162, 0), (154, 2), (20, 9), (110, 1), (37, 2), (163, 8)]
12	2	1	8	30	[(5, 10), (163, 0), (237, 7), (229, 3), (159, 0), (197, 8), (208, 9), (103, 0), (89, 4), (68, 7), (144, 9), (39, 7), (137, 10), (47, 2), (18, 0), (51, 10), (31, 3), (35, 1), (248, 1), (84, 4), (175, 2), (22, 6), (230, 10), (132, 8), (218, 10), (52, 6), (227, 2), (209, 2), (42, 3), (129, 2)]
13	3	4	8	26	[(208, 1), (183, 6), (114, 8), (223, 8), (138, 9), (155, 10), (218, 2), (74, 4), (227, 9), (110, 7), (250, 2), (79, 3), (25, 5), (104, 5), (216, 7), (23, 8), (109, 3), (108, 7), (149, 9), (141, 8), (153, 8), (202, 1), (10, 10), (82, 9), (105, 9), (88, 5)]
14	6	1	7	29	[(170, 3), (86, 1), (122, 9), (126, 1), (240, 5), (149, 10), (27, 2), (219, 6), (98, 4), (61, 9), (215, 5), (74, 0), (233, 10), (111, 10), (43, 4), (218, 0), (143, 0), (65, 3), (18, 9), (138, 4), (54, 7), (189, 3), (206, 9), (82, 7), (155, 9), (238, 8), (165, 6), (184, 6), (28, 9)]
15	5	3	8	30	[(247, 0), (158, 10), (169, 4), (104, 6), (9, 0), (135, 5), (5, 9), (128, 4), (77, 2), (33, 9), (107, 1), (155, 7), (21, 7), (11, 7), (91, 7), (50, 5), (230, 0), (118, 7), (175, 8), (217, 7), (79, 2), (249, 2), (114, 9), (99, 10), (154, 6), (54, 10), (51, 9), (239, 1), (235, 5), (229, 10)]
16	1	1	8	27	[(196, 8), (70, 6), (145, 0), (18, 1), (217, 1), (189, 2), (35, 0), (66, 7), (236, 8), (161, 7), (209, 9), (117, 6), (156, 7), (193, 7), (39, 3), (56, 3), (108, 9), (230, 0), (168, 1), (42, 10), (213, 2), (101, 8), (171, 3), (178, 5), (76, 3), (219, 5), (204, 4)]
17	1	1	8	19	[(246, 5), (71, 5), (190, 1), (117, 0), (176, 9), (149, 9), (66, 8), (19, 2), (18, 6), (214, 2), (237, 8), (109, 9), (212, 8), (94, 2), (248, 4), (222, 9), (32, 2), (1, 9), (158, 8)]
18	3	3	8	24	[(2, 0), (180, 7), (1, 1), (37, 7), (157, 6), (130, 6), (101, 8), (33, 1), (151, 8), (117, 9), (139, 6), (175, 7), (184, 1), (51, 4), (36, 3), (73, 2), (143, 5), (92, 3), (212, 1), (24, 10), (127, 3), (163, 8), (18, 3), (219, 9)]
19	31	1	8	25	[(153, 8), (21, 1), (207, 1), (246, 8), (142, 8), (226, 5), (139, 7), (179, 2), (132, 3), (51, 10), (242, 7), (243, 8), (11, 6), (137, 1), (103, 6), (53, 9), (238, 2), (250, 8), (183, 0), (34, 6), (90, 8), (237, 8), (28, 3), (159, 10), (152, 4)]
20	1	1	8	23	[(127, 7), (144, 6), (102, 4), (155, 3), (200, 1), (18, 1), (209, 4), (134, 8), (232, 2), (190, 9), (195, 10), (41, 6), (208, 3), (38, 6), (79, 7), (162, 6), (45, 2), (47, 10), (42, 5), (34, 7), (161, 5), (248, 0), (163, 8)]
21	2	3	8	22	[(238, 0), (78, 0), (96, 10), (100, 3), (243, 4), (70, 5), (92, 1), (139, 3), (220, 1), (197, 10), (235, 2), (156, 8), (153, 1), (67, 3), (98, 9), (249, 4), (119, 6), (201, 9), (160, 7), (148, 5), (224, 3), (191, 3)]
22	2	1	8	37	[(5, 10), (219, 2), (43, 6), (41, 8), (244, 5), (180, 5), (203, 6), (237, 8), (23, 8), (133, 4), (156, 0), (57, 4), (87, 6), (10, 9), (159, 5), (96, 5), (246, 0), (27, 4), (122, 7), (189, 6), (184, 1), (42, 3), (7, 4), (224, 9), (36, 3), (204, 7), (190, 0), (63, 4), (175, 3), (209, 2), (174, 9), (112, 6), (232, 8), (75, 5), (185, 5), (98, 0), (157, 10)]
23	4	6	8	19	[(237, 3), (23, 9), (146, 9), (56, 3), (9, 5), (208, 7), (82, 8), (3, 4), (116, 2), (197, 8), (39, 3), (168, 5), (214, 10), (6, 2), (227, 2), (126, 0), (138, 3), (224, 1), (218, 2)]
24	3	6	2	24	[(15, 6), (86, 9), (230, 3), (194, 0), (52, 0), (1, 9), (207, 2), (244, 8), (90, 5), (176, 10), (147, 0), (180, 4), (160, 9), (21, 3), (103, 0), (105, 9), (137, 3), (106, 2), (220, 0), (250, 8), (140, 6), (67, 2), (151, 0), (197, 5)]
25	2	1	8	20	[(17, 9), (97, 7), (182, 10), (197, 5), (46, 2), (209, 8), (108, 7), (138, 1), (37, 3), (242, 3), (213, 10), (79, 8), (153, 7), (229, 7), (65, 7), (220, 10), (120, 4), (233, 7), (50, 5), (13, 0)]
26	5	4	8	22	[(157, 10), (207, 5), (222, 8), (247, 6), (23, 4), (146, 3), (183, 0), (45, 6), (98, 4), (53, 0), (52, 10), (15, 5), (75, 9), (191, 1), (129, 7), (144, 7), (7, 3), (107, 6), (174, 3), (106, 5), (205, 8), (196, 5)]
27	1	4	8	26	[(247, 3), (27, 2), (87, 10), (10, 7), (117, 10), (201, 2), (131, 1), (18, 5), (229, 4), (48, 9), (140, 1), (185, 6), (123, 3), (152, 8), (114, 5), (211, 1), (62, 6), (202, 1), (26, 10), (204, 1), (24, 4), (12, 4), (13, 4), (191, 8), (167, 8), (214, 9)]
28	9	1	1	33	[(201, 1), (71, 2), (134, 10), (116, 4), (19, 4), (215, 2), (221, 6), (166, 2), (56, 1), (147, 10), (107, 0), (190, 0), (66, 0), (81, 7), (77, 1), (78, 5), (13, 6), (12, 4), (3, 8), (244, 6), (238, 9), (163, 7), (175, 4), (183, 5), (245, 10), (124, 3), (41, 10), (249, 6), (127, 9), (186, 3), (92, 7), (208, 1), (7, 4)]
29	1	1	8	23	[(1, 6), (104, 7), (22, 9), (158, 6), (136, 10), (106, 1), (164, 4), (36, 5), (156, 0), (168, 10), (183, 8), (152, 3), (242, 2), (157, 6), (102, 2), (200, 3), (186, 10), (61, 3), (71, 3), (199, 5), (42, 5), (33, 7), (99, 0)]
30	1	1	16	23	[(180, 8), (136, 7), (28, 5), (226, 9), (114, 6), (230, 2), (250, 5), (244, 4), (77, 4), (196, 1), (26, 2), (69, 3), (163, 6), (96, 4), (174, 1), (209, 8), (133, 5), (151, 3), (37, 2), (161, 7), (192, 2), (241, 5), (90, 7)]
31	1	2	8	26	[(184, 4), (100, 0), (6, 8), (46, 9), (193, 4), (214, 6), (70, 1), (43, 4), (99, 2), (207, 4), (186, 2), (40, 3), (92, 2), (112, 10), (80, 3), (219, 2), (27, 10), (130, 4), (221, 10), (76, 6), (177, 8), (192, 9), (203, 1), (138, 2), (230, 4), (150, 3)]
32	2	1	8	20	[(135, 7), (203, 0), (73, 4), (236, 2), (164, 3), (230, 10), (149, 8), (150, 8), (28, 8), (6, 4), (244, 5), (17, 6), (91, 8), (148, 4), (174, 3), (183, 5), (75, 8), (231, 3), (109, 8), (114, 4)]
33	1	1	8	26	[(146, 6), (12, 0), (159, 3), (231, 7), (105, 7), (102, 6), (169, 5), (228, 1), (113, 10), (175, 5), (34, 0), (119, 8), (197, 5), (222, 3), (22, 0), (98, 3), (176, 9), (56, 6), (135, 8), (193, 3), (244, 0), (5, 0), (126, 10), (85, 1), (83, 6), (59, 1)]
34	20	4	8	24	[(144, 0), (76, 2), (200, 5), (122, 6), (82, 1), (146, 7), (85, 4), (67, 7), (173, 8), (87, 10), (246, 0), (204, 10), (245, 0), (31, 1), (125, 2), (50, 1), (209, 10), (71, 9), (105, 10), (13, 8), (40, 3), (248, 7), (128, 8), (96, 9)]
35	4	1	5	24	[(73, 3), (214, 10), (140, 10), (17, 4), (36, 3), (15, 0), (100, 9), (49, 5), (217, 5), (218, 7), (29, 1), (133, 10), (1, 10), (43, 1), (98, 9), (16, 5), (9, 10), (245, 0), (195, 5), (221, 3), (125, 7), (123, 3), (67, 9), (50, 5)]
36	2	6	8	23	[(193, 6), (219, 10), (46, 6), (138, 8), (189, 6), (141, 9), (88, 7), (224, 3), (157, 3), (223, 0), (237, 3), (21, 0), (16, 9), (218, 6), (152, 5), (192, 7), (196, 0), (184, 9), (144, 8), (96, 5), (113, 10), (217, 0), (177, 4)]
37	1	1	8	19	[(248, 6), (160, 9), (158, 2), (173, 10), (77, 4), (106, 8), (4, 5), (172, 2), (174, 4), (7, 3), (114, 5), (38, 9), (231, 1), (199, 5), (57, 3), (3, 8), (110, 2), (204, 3), (148, 0)]
38	2	6	8	23	[(89, 1), (137, 9), (227, 10), (3, 7), (59, 8), (175, 5), (157, 5), (181, 7), (218, 9), (66, 4), (150, 0), (217, 10), (118, 6), (43, 3), (229, 1), (145, 7), (108, 0), (221, 5), (230, 3), (210, 5), (140, 9), (70, 3), (16, 3)]
39	1	1	8	23	[(22, 6), (101, 4), (114, 8), (170, 7), (66, 9), (186, 6), (179, 4), (19, 6), (17, 2), (220, 0), (111, 4), (2, 10), (146, 1), (31, 3), (194, 4), (240, 1), (173, 0), (50, 7), (226, 5), (154, 0), (54, 3), (192, 4), (85, 7)]
40	2	4	2	33	[(48, 10), (56, 8), (202, 1), (117, 10), (144, 2), (135, 3), (200, 5), (29, 6), (41, 7), (1, 2), (247, 8), (243, 7), (98, 10), (90, 10), (221, 4), (37, 10), (227, 7), (178, 7), (61, 3), (207, 3), (78, 6), (75, 3), (55, 0), (107, 10), (11, 10), (42, 3), (85, 5), (150, 2), (31, 0), (231, 9), (201, 6), (21, 1), (83, 3)]
41	5	6	3	28	[(117, 10), (147, 7), (218, 7), (174, 9), (159, 5), (158, 6), (151, 7), (104, 4), (125, 7), (82, 1), (230, 4), (79, 1), (35, 8), (227, 8), (217, 5), (220, 4), (200, 0), (250, 8), (38, 8), (45, 8), (128, 10), (18, 0), (121, 6), (187, 0), (26, 4), (102, 0), (64, 2), (131, 5)]
42	8	1	8	24	[(124, 8), (227, 7), (167, 7), (249, 4), (155, 1), (107, 5), (195, 6), (185, 5), (230, 2), (68, 9), (45, 4), (190, 1), (93, 10), (99, 3), (48, 4), (32, 10), (52, 4), (56, 5), (159, 0), (198, 10), (62, 2), (126, 0), (96, 8), (98, 4)]
43	2	1	8	25	[(151, 5), (2, 4), (100, 9), (38, 4), (46, 7), (150, 1), (128, 10), (87, 0), (61, 2), (223, 2), (184, 2), (187, 7), (35, 7), (27, 1), (228, 8), (28, 8), (122, 4), (15, 4), (132, 8), (180, 5), (59, 9), (173, 4), (156, 10), (222, 5), (183, 8)]
44	1	1	8	25	[(250, 6), (66, 3), (32, 5), (248, 6), (146, 1), (191, 10), (134, 7), (161, 8), (142, 9), (111, 4), (215, 4), (33, 0), (171, 9), (162, 4), (112, 8), (240, 8), (113, 7), (137, 9), (50, 7), (180, 4), (188, 0), (208, 10), (124, 10), (175, 6), (204, 6)]
45	2	1	8	26	[(89, 3), (167, 9), (134, 1), (194, 1), (198, 0), (86, 5), (241, 6), (216, 9), (57, 2), (78, 8), (250, 6), (52, 3), (81, 8), (29, 4), (221, 2), (123, 6), (138, 7), (155, 5), (207, 7), (30, 0), (95, 7), (80, 1), (159, 3), (82, 1), (219, 10), (9, 0)]
46	7	1	8	23	[(175, 2), (225, 7), (117, 3), (136, 6), (223, 2), (229, 10), (111, 1), (45, 1), (82, 10), (142, 8), (127, 0), (177, 7), (169, 8), (22, 0), (189, 4), (192, 8), (224, 2), (107, 4), (150, 7), (92, 8), (61, 7), (115, 10), (137, 3)]
47	5	2	8	19	[(193, 8), (117, 2), (250, 2), (208, 3), (153, 5), (230, 2), (73, 5), (96, 5), (182, 8), (137, 3), (94, 4), (178, 0), (129, 5), (223, 7), (209, 4), (216, 5), (247, 7), (69, 10), (29, 10)]
48	3	1	8	21	[(38, 0), (167, 10), (104, 5), (212, 3), (221, 8), (37, 5), (4, 1), (98, 3), (8, 7), (126, 4), (121, 0), (185, 9), (85, 5), (138, 4), (209, 7), (32, 5), (236, 2), (59, 10), (208, 3), (109, 6), (128, 3)]
49	2	1	8	28	[(133, 6), (155, 2), (236, 10), (76, 4), (222, 9), (41, 3), (104, 2), (110, 4), (18, 8), (241, 2), (147, 8), (250, 9), (47, 3), (203, 0), (94, 4), (152, 8), (159, 3), (88, 1), (75, 5), (158, 3), (224, 0), (43, 4), (14, 7), (119, 6), (121, 1), (13, 9), (197, 9), (52, 5)]
50	14	2	8	26	[(239, 9), (4, 0), (171, 8), (76, 9), (45, 2), (55, 9), (106, 8), (245, 2), (39, 3), (231, 4), (25, 5), (151, 7), (166, 0), (5, 1), (152, 9), (92, 8), (210, 9), (26, 4), (50, 7), (212, 8), (133, 7), (180, 1), (153, 10), (182, 2), (230, 6), (105, 9)]
51	1	1	4	26	[(139, 6), (55, 4), (66, 0), (30, 8), (33, 4), (231, 1), (118, 5), (194, 8), (216, 9), (123, 0), (87, 10), (103, 7), (153, 8), (168, 1), (215, 0), (38, 2), (85, 2), (129, 10), (166, 4), (184, 3), (210, 1), (235, 10), (222, 1), (92, 10), (18, 9), (131, 7)]
52	3	1	2	35	[(214, 0), (105, 3), (185, 1), (10, 6), (46, 2), (139, 4), (171, 8), (90, 10), (218, 2), (50, 3), (174, 6), (156, 3), (213, 6), (249, 9), (195, 8), (234, 9), (57, 4), (173, 5), (146, 5), (182, 2), (45, 0), (186, 2), (231, 4), (160, 4), (177, 7), (209, 10), (170, 2), (141, 7), (157, 9), (22, 7), (136, 3), (200, 3), (4, 7), (76, 0), (137, 3)]
53	2	1	8	10	[(193, 1), (228, 1), (138, 8), (137, 7), (244, 7), (135, 8), (31, 2), (69, 9), (121, 3), (60, 9)]
54	6	1	8	31	[(116, 9), (212, 2), (204, 9), (134, 4), (165, 3), (96, 2), (98, 0), (125, 8), (46, 9), (220, 4), (79, 0), (28, 2), (67, 9), (124, 9), (180, 3), (31, 3), (65, 4), (176, 1), (158, 10), (214, 8), (60, 1), (72, 1), (95, 5), (38, 1), (71, 9), (36, 2), (247, 3), (141, 1), (150, 3), (33, 1), (188, 7)]
55	33	1	8	34	[(56, 6), (18, 2), (149, 9), (241, 8), (66, 5), (216, 5), (108, 1), (5, 3), (14, 2), (11, 8), (16, 2), (136, 6), (240, 1), (45, 3), (202, 8), (150, 7), (68, 8), (180, 6), (39, 4), (54, 1), (198, 5), (161, 1), (170, 6), (63, 7), (110, 1), (33, 6), (207, 10), (220, 10), (84, 8), (181, 3), (60, 3), (147, 3), (217, 7), (208, 9)]
56	1	1	8	27	[(236, 4), (171, 9), (100, 2), (55, 7), (169, 3), (149, 10), (47, 4), (168, 7), (49, 5), (135, 8), (248, 8), (140, 5), (127, 9), (96, 1), (133, 5), (115, 6), (26, 5), (155, 7), (2, 4), (217, 10), (203, 2), (162, 10), (215, 5), (77, 5), (129, 8), (37, 8), (51, 5)]
57	2	1	8	25	[(91, 3), (248, 5), (14, 4), (19, 0), (85, 2), (121, 2), (24, 10), (129, 4), (21, 1), (15, 6), (11, 0), (38, 10), (245, 8), (26, 3), (140, 4), (196, 6), (28, 9), (147, 4), (139, 10), (35, 7), (125, 9), (89, 8), (41, 3), (30, 4), (119, 3)]
58	20	3	8	22	[(87, 1), (186, 10), (189, 5), (82, 8), (92, 10), (159, 10), (12, 10), (8, 2), (224, 2), (66, 4), (150, 4), (58, 5), (223, 4), (174, 6), (200, 2), (207, 9), (122, 6), (110, 4), (131, 9), (45, 4), (245, 1), (89, 10)]
59	5	1	8	20	[(145, 9), (185, 2), (224, 2), (85, 7), (28, 6), (193, 4), (108, 6), (180, 1), (54, 0), (171, 9), (36, 8), (25, 10), (41, 8), (123, 2), (95, 3), (206, 9), (51, 10), (135, 10), (192, 0), (20, 6)]
60	1	1	8	25	[(104, 2), (220, 10), (196, 7), (156, 8), (206, 8), (61, 9), (39, 6), (54, 7), (41, 9), (15, 6), (136, 3), (35, 10), (3, 9), (239, 4), (231, 4), (211, 3), (91, 9), (250, 4), (173, 7), (63, 6), (146, 9), (236, 4), (149, 3), (27, 10), (155, 5)]
61	2	1	16	22	[(128, 8), (19, 10), (37, 6), (242, 9), (224, 7), (53, 1), (127, 4), (165, 6), (166, 2), (203, 4), (29, 3), (148, 7), (151, 7), (82, 3), (232, 6), (162, 9), (84, 1), (58, 2), (32, 4), (24, 7), (135, 1), (140, 4)]
62	4	1	8	22	[(150, 2), (24, 0), (48, 9), (30, 0), (243, 0), (64, 5), (204, 2), (235, 0), (164, 9), (232, 8), (149, 7), (205, 2), (109, 1), (69, 4), (176, 9), (61, 0), (187, 5), (4, 2), (140, 4), (200, 3), (173, 9), (211, 8)]
63	1	1	2	24	[(119, 10), (114, 1), (79, 4), (96, 2), (59, 10), (71, 4), (93, 6), (121, 9), (138, 1), (225, 0), (224, 3), (90, 0), (206, 9), (229, 3), (209, 3), (122, 2), (168, 0), (210, 1), (47, 3), (76, 4), (53, 5), (78, 10), (226, 7), (3, 8)]
64	2	1	4	27	[(162, 0), (179, 2), (227, 7), (244, 5), (124, 3), (172, 0), (82, 3), (11, 7), (91, 1), (129, 4), (67, 2), (166, 4), (107, 5), (230, 8), (43, 10), (118, 9), (45, 6), (117, 9), (208, 1), (156, 8), (240, 2), (46, 0), (187, 10), (139, 0), (85, 8), (63, 6), (202, 7)]
65	2	1	8	25	[(21, 8), (142, 6), (16, 2), (168, 0), (157, 2), (10, 2), (77, 3), (17, 7), (192, 2), (137, 1), (123, 5), (199, 10), (162, 7), (20, 3), (226, 5), (112, 1), (209, 9), (9, 10), (2, 7), (134, 4), (45, 9), (122, 3), (244, 6), (237, 10), (68, 1)]
66	3	4	8	25	[(137, 10), (23, 2), (76, 10), (98, 2), (68, 10), (134, 10), (60, 4), (48, 6), (30, 7), (115, 0), (230, 3), (183, 2), (241, 8), (108, 7), (110, 9), (245, 7), (121, 3), (240, 10), (187, 4), (114, 10), (232, 10), (73, 4), (177, 7), (160, 4), (215, 10)]
67	1	12	8	26	[(97, 6), (126, 2), (120, 1), (119, 9), (245, 3), (133, 6), (134, 8), (189, 0), (92, 4), (83, 4), (109, 10), (56, 10), (239, 9), (209, 10), (161, 2), (88, 6), (54, 9), (219, 10), (141, 3), (191, 8), (30, 9), (99, 7), (237, 2), (157, 7), (192, 3), (211, 2)]
68	18	1	8	24	[(62, 8), (189, 3), (227, 5), (34, 2), (241, 3), (76, 7), (195, 3), (142, 6), (146, 2), (39, 1), (248, 7), (165, 9), (49, 3), (203, 5), (133, 0), (112, 7), (36, 4), (125, 8), (40, 2), (132, 10), (243, 5), (7, 10), (160, 4), (174, 7)]
69	1	1	1	30	[(53, 7), (161, 10), (131, 3), (202, 5), (236, 4), (216, 6), (55, 9), (47, 0), (153, 7), (5, 3), (155, 9), (213, 3), (97, 2), (2, 4), (120, 4), (29, 7), (230, 10), (228, 5), (14, 3), (148, 3), (190, 10), (135, 3), (81, 7), (119, 10), (13, 6), (115, 0), (219, 1), (223, 5), (36, 3), (130, 1)]
70	1	1	8	28	[(196, 3), (9, 5), (146, 10), (199, 4), (100, 4), (218, 5), (184, 1), (172, 5), (91, 0), (145, 2), (24, 8), (155, 10), (175, 10), (202, 5), (162, 7), (107, 0), (168, 4), (238, 5), (81, 0), (5, 1), (45, 4), (109, 3), (213, 3), (197, 10), (219, 3), (171, 0), (103, 1), (110, 8)]
71	2	1	16	27	[(46, 10), (111, 2), (141, 7), (135, 6), (202, 10), (24, 5), (170, 3), (109, 9), (35, 7), (123, 0), (69, 4), (193, 4), (154, 7), (203, 1), (88, 3), (44, 0), (97, 6), (227, 3), (237, 5), (108, 5), (146, 7), (29, 9), (13, 3), (159, 2), (197, 6), (3, 8), (173, 10)]
72	17	1	8	19	[(36, 8), (169, 7), (235, 4), (47, 3), (239, 4), (117, 1), (197, 4), (78, 4), (205, 4), (220, 7), (143, 1), (248, 8), (124, 3), (183, 9), (133, 6), (139, 10), (238, 9), (173, 5), (50, 8)]
73	2	1	8	33	[(239, 3), (105, 10), (30, 4), (80, 0), (109, 9), (148, 3), (142, 5), (75, 5), (31, 2), (85, 7), (204, 4), (34, 7), (186, 10), (57, 7), (168, 5), (12, 1), (14, 10), (125, 9), (206, 5), (90, 8), (228, 10), (192, 9), (242, 9), (216, 7), (226, 4), (203, 8), (181, 8), (237, 4), (11, 1), (210, 2), (59, 5), (104, 0), (184, 7)]
74	1	1	8	20	[(43, 3), (210, 1), (8, 8), (193, 4), (108, 1), (38, 7), (132, 1), (64, 0), (248, 3), (151, 5), (222, 4), (152, 0), (236, 1), (183, 3), (41, 7), (46, 3), (154, 4), (48, 1), (225, 10), (141, 5)]
75	2	4	5	27	[(244, 0), (196, 3), (17, 4), (88, 6), (121, 9), (28, 0), (98, 0), (18, 7), (118, 1), (72, 6), (60, 4), (186, 4), (68, 7), (159, 2), (229, 9), (5, 9), (65, 6), (11, 10), (194, 5), (215, 8), (34, 8), (116, 9), (168, 10), (95, 5), (41, 4), (66, 9), (165, 5)]
76	2	6	8	30	[(200, 1), (107, 0), (155, 0), (81, 8), (32, 3), (246, 10), (144, 10), (201, 8), (73, 0), (194, 5), (162, 3), (12, 0), (197, 0), (232, 2), (182, 3), (177, 3), (131, 4), (41, 1), (234, 3), (44, 5), (16, 9), (117, 3), (150, 9), (222, 6), (112, 0), (96, 2), (129, 8), (45, 5), (30, 6), (146, 3)]
77	4	1	8	26	[(28, 3), (121, 9), (48, 8), (205, 10), (11, 4), (219, 4), (88, 7), (223, 4), (12, 5), (45, 9), (136, 3), (90, 7), (53, 2), (13, 0), (39, 2), (94, 10), (35, 8), (40, 3), (16, 2), (98, 7), (242, 10), (201, 5), (228, 2), (21, 4), (159, 9), (147, 8)]
78	1	1	8	22	[(214, 9), (231, 5), (47, 9), (185, 3), (73, 9), (4, 7), (103, 0), (59, 7), (42, 9), (68, 3), (198, 5), (37, 6), (210, 5), (131, 2), (106, 0), (29, 4), (213, 4), (140, 9), (125, 9), (228, 8), (194, 0), (168, 1)]
79	1	1	2	34	[(43, 2), (102, 5), (77, 6), (79, 1), (131, 0), (192, 4), (219, 6), (19, 10), (98, 10), (191, 10), (89, 5), (47, 3), (80, 7), (196, 5), (180, 0), (208, 7), (193, 9), (93, 0), (6, 10), (118, 5), (36, 10), (82, 3), (206, 6), (240, 5), (245, 0), (230, 9), (44, 1), (23, 4), (58, 2), (218, 1), (104, 7), (151, 3), (243, 4), (8, 10)]
80	3	1	8	23	[(4, 1), (5, 6), (188, 5), (216, 5), (75, 0), (100, 7), (163, 5), (171, 9), (195, 2), (227, 8), (130, 8), (19, 5), (68, 6), (101, 8), (151, 8), (56, 0), (83, 6), (228, 7), (187, 3), (155, 7), (246, 5), (192, 5), (182, 10)]
81	1	1	8	26	[(114, 3), (144, 4), (178, 4), (146, 7), (51, 8), (131, 3), (133, 2), (30, 8), (169, 3), (12, 10), (96, 5), (36, 6), (208, 5), (84, 9), (201, 8), (41, 8), (64, 8), (115, 2), (109, 0), (150, 2), (221, 9), (226, 6), (100, 6), (137, 1), (62, 8), (217, 3)]
82	14	1	8	28	[(123, 6), (58, 4), (132, 4), (16, 8), (212, 3), (45, 0), (39, 7), (222, 8), (99, 1), (189, 1), (46, 0), (157, 10), (64, 6), (235, 1), (44, 1), (57, 4), (63, 7), (30, 7), (86, 3), (112, 3), (161, 10), (35, 10), (167, 7), (240, 0), (66, 0), (144, 8), (71, 10), (196, 4)]
83	1	1	1	22	[(4, 0), (229, 0), (249, 3), (114, 5), (170, 2), (146, 8), (10, 0), (247, 4), (248, 4), (109, 0), (184, 10), (124, 0), (137, 5), (90, 9), (232, 4), (236, 2), (200, 3), (15, 1), (138, 6), (186, 1), (46, 1), (139, 9)]
84	2	1	8	18	[(237, 6), (106, 0), (10, 0), (57, 10), (116, 7), (101, 9), (75, 1), (51, 6), (82, 4), (213, 5), (177, 0), (242, 6), (110, 7), (35, 8), (142, 6), (241, 7), (196, 10), (244, 4)]
85	2	1	32	24	[(40, 8), (134, 5), (126, 8), (65, 5), (166, 0), (163, 6), (185, 3), (78, 5), (69, 1), (85, 7), (44, 7), (192, 10), (178, 1), (154, 0), (116, 1), (102, 5), (75, 3), (244, 3), (31, 0), (225, 4), (205, 3), (114, 10), (108, 7), (202, 5)]
86	1	1	6	31	[(77, 3), (147, 7), (63, 3), (154, 2), (7, 3), (94, 3), (240, 4), (223, 10), (176, 3), (242, 0), (105, 6), (79, 3), (197, 1), (61, 5), (229, 2), (213, 9), (246, 4), (168, 2), (78, 6), (106, 8), (249, 1), (143, 5), (43, 2), (55, 5), (221, 0), (16, 4), (90, 6), (95, 9), (100, 9), (239, 10), (32, 3)]
87	4	1	2	30	[(111, 5), (96, 4), (68, 7), (125, 1), (195, 7), (167, 4), (94, 7), (66, 1), (102, 6), (92, 1), (243, 2), (237, 7), (148, 3), (82, 6), (152, 1), (212, 4), (59, 4), (232, 4), (60, 6), (98, 7), (23, 9), (5, 7), (52, 1), (36, 5), (231, 9), (29, 5), (76, 8), (88, 6), (240, 1), (67, 7)]
88	33	1	8	24	[(29, 3), (242, 4), (243, 1), (200, 4), (65, 1), (99, 2), (124, 3), (48, 5), (2, 2), (3, 7), (102, 8), (132, 7), (148, 8), (63, 10), (222, 0), (220, 7), (87, 7), (250, 7), (152, 4), (195, 5), (24, 9), (115, 8), (224, 4), (150, 5)]
89	2	1	2	23	[(16, 8), (152, 7), (36, 10), (106, 2), (44, 3), (189, 10), (148, 0), (57, 0), (1, 2), (210, 0), (33, 9), (209, 5), (164, 4), (69, 2), (20, 7), (202, 9), (176, 2), (177, 4), (157, 4), (218, 7), (126, 7), (130, 6), (224, 9)]
90	11	3	8	27	[(216, 3), (200, 1), (180, 8), (126, 1), (61, 9), (90, 1), (122, 0), (220, 6), (11, 8), (110, 0), (58, 2), (120, 6), (113, 10), (179, 3), (100, 6), (12, 8), (154, 6), (165, 1), (41, 7), (49, 3), (186, 1), (60, 3), (128, 7), (243, 10), (35, 5), (171, 9), (217, 0)]
91	2	2	8	29	[(193, 10), (160, 10), (37, 3), (133, 5), (153, 0), (52, 3), (143, 6), (129, 1), (103, 9), (112, 3), (69, 2), (111, 0), (110, 0), (232, 0), (51, 10), (213, 4), (240, 5), (166, 1), (105, 7), (248, 10), (80, 7), (192, 3), (39, 4), (55, 8), (216, 5), (50, 2), (54, 8), (219, 3), (197, 7)]
92	2	4	8	23	[(173, 1), (11, 8), (231, 1), (160, 9), (205, 10), (187, 7), (46, 8), (189, 7), (36, 6), (78, 0), (1, 10), (76, 8), (26, 0), (157, 4), (6, 2), (245, 2), (109, 6), (23, 7), (42, 9), (65, 8), (239, 3), (198, 2), (195, 1)]
93	2	2	8	26	[(198, 8), (16, 2), (27, 1), (111, 7), (165, 10), (188, 1), (128, 3), (50, 8), (41, 8), (56, 3), (218, 8), (10, 8), (51, 4), (59, 1), (235, 10), (237, 10), (78, 6), (139, 7), (7, 7), (130, 9), (23, 7), (225, 5), (199, 9), (102, 3), (167, 0), (196, 3)]
94	2	4	8	16	[(73, 2), (30, 3), (238, 5), (50, 0), (227, 0), (158, 4), (74, 3), (236, 6), (55, 8), (32, 5), (230, 8), (191, 4), (217, 1), (166, 4), (13, 1), (106, 0)]
95	1	4	2	18	[(18, 7), (114, 5), (110, 9), (201, 2), (38, 0), (89, 9), (59, 7), (3, 7), (142, 1), (36, 2), (160, 9), (100, 0), (122, 2), (37, 9), (222, 8), (33, 5), (29, 8), (128, 0)]
96	2	1	2	27	[(107, 2), (151, 8), (5, 0), (170, 5), (99, 0), (56, 1), (102, 10), (150, 2), (208, 8), (98, 2), (33, 8), (247, 3), (15, 10), (39, 4), (209, 1), (64, 7), (60, 5), (130, 4), (30, 4), (160, 10), (69, 4), (129, 3), (47, 2), (231, 10), (101, 9), (179, 5), (153, 2)]
97	4	1	8	32	[(32, 5), (236, 6), (165, 1), (192, 3), (31, 6), (74, 1), (242, 0), (46, 3), (65, 1), (246, 6), (124, 3), (95, 10), (50, 8), (221, 5), (187, 7), (17, 8), (228, 10), (103, 10), (146, 7), (5, 6), (64, 10), (56, 8), (240, 9), (58, 4), (218, 2), (178, 3), (77, 9), (191, 6), (22, 0), (195, 9), (51, 2), (71, 0)]
98	2	2	1	31	[(129, 1), (99, 7), (112, 9), (7, 6), (6, 7), (248, 5), (110, 10), (79, 7), (181, 6), (122, 8), (27, 8), (164, 10), (236, 9), (106, 0), (156, 6), (115, 7), (194, 7), (132, 6), (54, 6), (165, 5), (232, 1), (240, 1), (120, 7), (3, 8), (20, 6), (189, 7), (200, 8), (100, 4), (128, 7), (52, 1), (102, 2)]
99	3	1	1	31	[(135, 0), (4, 8), (44, 10), (108, 8), (32, 5), (6, 1), (114, 5), (139, 1), (107, 4), (31, 1), (101, 2), (148, 8), (79, 0), (137, 10), (149, 7), (118, 4), (156, 3), (232, 0), (181, 10), (41, 6), (13, 2), (3, 5), (29, 4), (167, 0), (18, 7), (74, 8), (59, 5), (235, 8), (123, 8), (134, 2), (49, 5)]
100	1	1	8	30	[(99, 10), (64, 2), (27, 9), (195, 1), (12, 5), (152, 10), (9, 8), (68, 0), (14, 8), (8, 3), (147, 10), (248, 2), (170, 1), (28, 4), (220, 7), (242, 9), (148, 6), (115, 10), (95, 8), (18, 7), (180, 8), (196, 2), (137, 1), (2, 9), (191, 1), (172, 1), (89, 7), (88, 3), (232, 9), (151, 4)]
101	1	4	8	23	[(229, 1), (113, 9), (190, 7), (56, 6), (18, 4), (3, 0), (124, 2), (242, 1), (114, 6), (32, 2), (209, 3), (79, 1), (163, 5), (106, 7), (2, 1), (45, 8), (223, 3), (225, 3), (142, 0), (67, 5), (17, 2), (244, 2), (43, 3)]
102	2	1	8	21	[(146, 3), (111, 7), (48, 5), (198, 4), (32, 10), (216, 3), (170, 6), (108, 9), (231, 2), (28, 6), (37, 0), (12, 0), (79, 9), (107, 4), (249, 10), (210, 8), (8, 10), (21, 7), (110, 10), (240, 9), (133, 10)]
103	2	1	2	22	[(1, 3), (229, 7), (59, 6), (35, 4), (11, 8), (151, 3), (101, 3), (244, 0), (157, 0), (118, 1), (72, 9), (161, 2), (9, 2), (24, 2), (61, 2), (39, 6), (247, 8), (65, 2), (56, 5), (123, 8), (195, 7), (234, 2)]
104	2	1	8	25	[(169, 3), (43, 3), (92, 3), (70, 1), (136, 4), (88, 4), (240, 8), (193, 7), (143, 1), (202, 2), (156, 9), (1, 4), (163, 3), (167, 9), (130, 7), (35, 1), (59, 0), (21, 4), (91, 3), (217, 4), (25, 6), (98, 9), (159, 2), (178, 2), (166, 8)]
105	2	2	8	26	[(122, 9), (32, 5), (46, 10), (20, 9), (164, 4), (199, 9), (62, 1), (58, 10), (209, 8), (171, 6), (225, 5), (222, 6), (242, 7), (175, 1), (124, 3), (158, 8), (233, 4), (41, 7), (212, 6), (245, 3), (35, 9), (105, 5), (70, 8), (201, 10), (24, 7), (148, 6)]
106	4	1	8	27	[(60, 8), (14, 9), (189, 3), (2, 2), (89, 3), (154, 4), (107, 0), (237, 8), (21, 6), (82, 5), (26, 6), (81, 6), (151, 5), (101, 6), (116, 1), (217, 10), (36, 2), (47, 3), (1, 0), (171, 1), (194, 9), (135, 7), (164, 8), (173, 3), (122, 0), (45, 2), (33, 8)]
107	2	1	8	19	[(199, 3), (138, 10), (165, 0), (8, 6), (40, 8), (107, 7), (121, 6), (188, 0), (191, 5), (84, 5), (59, 5), (229, 9), (35, 5), (225, 10), (27, 7), (50, 4), (95, 6), (177, 5), (2, 1)]
108	9	1	8	22	[(42, 10), (144, 4), (114, 6), (72, 1), (31, 7), (46, 10), (20, 7), (50, 5), (15, 0), (234, 0), (236, 5), (61, 5), (7, 6), (232, 10), (5, 7), (137, 6), (148, 2), (178, 0), (165, 7), (162, 0), (48, 10), (79, 4)]
109	2	1	8	22	[(217, 1), (13, 6), (194, 8), (196, 6), (221, 7), (23, 8), (131, 4), (155, 10), (179, 2), (224, 9), (4, 4), (214, 10), (126, 4), (215, 4), (76, 8), (241, 6), (128, 0), (166, 5), (102, 4), (167, 2), (73, 4), (74, 0)]
110	3	1	8	23	[(118, 3), (167, 1), (154, 8), (21, 5), (70, 9), (200, 0), (131, 10), (36, 2), (34, 0), (115, 9), (134, 1), (202, 6), (30, 5), (64, 1), (243, 3), (12, 10), (87, 3), (174, 7), (98, 6), (133, 0), (203, 2), (244, 5), (23, 9)]
111	2	1	1	26	[(94, 2), (75, 10), (70, 5), (192, 8), (76, 7), (73, 9), (235, 4), (125, 8), (27, 4), (242, 0), (187, 4), (195, 1), (172, 1), (249, 7), (170, 10), (55, 4), (171, 0), (136, 10), (122, 0), (104, 5), (46, 4), (144, 2), (61, 5), (229, 4), (169, 1), (231, 10)]
112	2	1	8	22	[(194, 10), (186, 9), (43, 6), (33, 3), (6, 4), (106, 0), (137, 6), (244, 4), (238, 1), (248, 4), (205, 2), (110, 9), (123, 8), (246, 7), (188, 6), (45, 9), (180, 5), (60, 3), (224, 1), (28, 1), (211, 3), (171, 0)]
113	1	6	8	26	[(21, 1), (14, 6), (50, 7), (196, 7), (127, 6), (203, 2), (179, 3), (119, 0), (250, 10), (182, 1), (136, 9), (186, 1), (231, 1), (131, 0), (168, 7), (170, 7), (145, 0), (167, 9), (207, 5), (62, 8), (2, 4), (95, 1), (108, 0), (52, 9), (73, 8), (192, 2)]
114	1	1	8	25	[(70, 6), (83, 4), (112, 7), (94, 1), (179, 9), (149, 7), (147, 3), (199, 5), (215, 8), (247, 8), (213, 2), (250, 0), (214, 5), (180, 6), (217, 4), (241, 9), (12, 6), (48, 2), (229, 9), (91, 10), (204, 2), (10, 2), (42, 2), (27, 5), (159, 9)]
115	1	1	8	15	[(241, 8), (243, 10), (72, 7), (24, 2), (225, 2), (235, 6), (213, 1), (75, 4), (141, 9), (190, 9), (237, 0), (22, 4), (37, 0), (127, 9), (122, 3)]
116	3	1	8	26	[(94, 8), (147, 0), (16, 0), (240, 2), (85, 2), (112, 5), (208, 10), (119, 10), (226, 2), (172, 2), (158, 6), (49, 4), (19, 1), (167, 4), (163, 4), (31, 9), (132, 2), (46, 6), (133, 6), (71, 2), (227, 1), (150, 6), (207, 7), (195, 3), (194, 4), (217, 0)]
117	1	1	8	22	[(169, 4), (231, 9), (150, 3), (216, 3), (147, 5), (200, 2), (126, 0), (117, 7), (133, 6), (33, 2), (199, 1), (43, 10), (167, 3), (109, 0), (35, 8), (204, 9), (50, 0), (75, 10), (136, 7), (237, 8), (201, 6), (225, 8)]
118	3	1	8	29	[(141, 3), (119, 6), (110, 6), (96, 1), (195, 6), (47, 7), (79, 4), (173, 6), (202, 3), (133, 9), (147, 6), (131, 5), (193, 0), (69, 7), (44, 1), (91, 4), (129, 8), (5, 6), (87, 5), (16, 4), (98, 1), (106, 2), (247, 6), (148, 7), (231, 7), (246, 3), (192, 8), (84, 2), (121, 0)]
119	2	1	8	21	[(87, 7), (47, 2), (104, 1), (15, 0), (58, 9), (54, 4), (185, 6), (103, 10), (173, 5), (216, 1), (179, 2), (74, 9), (191, 7), (202, 4), (31, 10), (16, 3), (232, 5), (114, 9), (172, 10), (42, 8), (225, 2)]
120	33	3	2	18	[(219, 8), (222, 8), (63, 8), (44, 5), (21, 6), (105, 3), (199, 2), (79, 4), (175, 10), (13, 7), (80, 7), (158, 7), (170, 1), (145, 5), (27, 8), (100, 4), (23, 0), (120, 5)]
121	2	1	8	27	[(154, 1), (131, 9), (179, 9), (242, 9), (132, 7), (212, 3), (14, 9), (182, 9), (96, 1), (32, 10), (224, 5), (209, 9), (230, 2), (47, 10), (118, 6), (86, 4), (141, 1), (250, 10), (220, 7), (239, 9), (217, 5), (87, 9), (105, 6), (246, 0), (136, 6), (213, 1), (157, 3)]
122	6	1	8	25	[(40, 10), (211, 2), (117, 5), (137, 10), (82, 7), (75, 6), (23, 7), (242, 3), (105, 10), (85, 10), (43, 2), (129, 1), (178, 0), (61, 1), (57, 6), (165, 3), (222, 4), (107, 9), (60, 0), (14, 9), (193, 6), (152, 5), (52, 1), (186, 9), (54, 5)]
123	2	12	8	26	[(53, 4), (139, 5), (115, 6), (29, 7), (156, 1), (235, 3), (149, 7), (226, 1), (241, 4), (106, 1), (69, 6), (54, 7), (162, 0), (132, 3), (50, 1), (17, 7), (197, 3), (86, 9), (14, 4), (142, 6), (210, 3), (91, 4), (204, 6), (12, 8), (46, 7), (171, 10)]
124	5	4	8	25	[(230, 3), (214, 0), (139, 10), (220, 0), (13, 2), (72, 0), (240, 10), (134, 5), (231, 0), (26, 4), (6, 0), (237, 6), (187, 9), (120, 0), (243, 1), (94, 7), (241, 10), (78, 5), (47, 0), (169, 7), (166, 6), (137, 4), (198, 10), (247, 4), (222, 2)]
125	19	1	8	28	[(3, 5), (4, 1), (151, 10), (79, 10), (110, 3), (131, 2), (20, 1), (213, 7), (158, 1), (14, 9), (52, 2), (29, 4), (219, 9), (32, 4), (73, 2), (78, 4), (162, 8), (186, 9), (230, 6), (148, 0), (91, 2), (197, 1), (137, 1), (41, 3), (121, 5), (159, 7), (193, 7), (111, 6)]
126	6	1	16	28	[(40, 8), (126, 7), (2, 10), (131, 9), (245, 0), (125, 7), (147, 9), (69, 7), (50, 8), (153, 3), (4, 6), (12, 6), (11, 0), (90, 8), (15, 3), (29, 8), (67, 0), (68, 2), (162, 8), (215, 4), (148, 4), (121, 9), (62, 1), (103, 8), (120, 3), (116, 4), (165, 1), (243, 5)]
127	2	2	8	30	[(1, 9), (211, 1), (119, 0), (56, 7), (21, 10), (44, 10), (193, 5), (132, 6), (130, 1), (203, 9), (151, 6), (190, 7), (87, 9), (222, 4), (144, 0), (11, 0), (96, 0), (152, 6), (232, 9), (198, 2), (195, 8), (93, 8), (189, 0), (57, 3), (108, 6), (213, 8), (19, 4), (100, 4), (81, 0), (46, 10)]
128	1	6	8	30	[(157, 5), (248, 10), (179, 5), (24, 9), (58, 3), (243, 10), (224, 1), (164, 2), (184, 2), (154, 3), (165, 6), (141, 4), (75, 2), (82, 10), (86, 1), (233, 3), (39, 1), (29, 8), (5, 7), (111, 9), (49, 8), (218, 8), (202, 7), (119, 9), (61, 0), (57, 4), (221, 7), (98, 4), (38, 3), (190, 10)]
129	1	1	8	30	[(166, 2), (17, 9), (223, 5), (214, 8), (42, 9), (178, 1), (246, 7), (165, 2), (189, 1), (46, 7), (44, 9), (68, 1), (124, 8), (25, 9), (12, 4), (234, 2), (194, 4), (208, 0), (14, 4), (50, 1), (205, 3), (130, 3), (213, 3), (221, 10), (6, 8), (155, 0), (95, 7), (22, 2), (212, 5), (207, 3)]
130	5	1	2	15	[(52, 7), (141, 5), (11, 8), (163, 5), (34, 8), (4, 10), (228, 10), (2, 9), (100, 0), (238, 6), (156, 9), (96, 7), (102, 3), (94, 2), (130, 9)]
131	85	1	2	25	[(203, 2), (99, 3), (202, 1), (165, 6), (124, 9), (23, 10), (19, 7), (103, 5), (48, 2), (5, 6), (205, 4), (92, 5), (118, 4), (13, 7), (69, 7), (80, 8), (9, 1), (131, 9), (30, 4), (108, 10), (31, 1), (46, 3), (232, 7), (116, 8), (195, 0)]
132	3	1	8	33	[(219, 10), (147, 6), (156, 5), (89, 1), (1, 6), (192, 5), (190, 9), (205, 10), (241, 8), (176, 8), (44, 8), (217, 5), (164, 3), (94, 4), (78, 2), (83, 1), (76, 4), (207, 7), (157, 1), (234, 8), (150, 2), (122, 1), (48, 7), (228, 4), (148, 4), (61, 0), (52, 10), (27, 1), (41, 3), (114, 6), (29, 0), (39, 7), (82, 6)]
133	2	1	8	25	[(6, 1), (217, 0), (116, 7), (203, 10), (190, 10), (89, 8), (68, 3), (54, 7), (27, 2), (236, 4), (177, 5), (87, 6), (26, 3), (164, 10), (246, 4), (79, 2), (106, 6), (187, 3), (99, 9), (133, 5), (137, 7), (165, 6), (162, 9), (115, 10), (244, 8)]
134	8	4	8	21	[(16, 6), (113, 3), (151, 5), (171, 9), (116, 3), (15, 0), (121, 3), (165, 8), (239, 9), (153, 5), (100, 7), (36, 10), (158, 3), (60, 2), (69, 8), (26, 0), (118, 9), (48, 3), (200, 6), (230, 10), (219, 0)]
135	2	1	3	28	[(46, 0), (43, 10), (168, 0), (171, 4), (151, 7), (101, 7), (153, 3), (144, 7), (44, 5), (239, 0), (230, 0), (246, 0), (58, 6), (88, 0), (217, 0), (212, 1), (118, 9), (124, 9), (70, 7), (142, 2), (40, 6), (65, 2), (140, 5), (28, 0), (10, 2), (122, 7), (32, 2), (57, 2)]
136	2	1	8	28	[(133, 6), (199, 7), (204, 0), (91, 9), (207, 4), (104, 4), (49, 6), (88, 5), (78, 6), (172, 6), (238, 8), (99, 10), (92, 9), (202, 6), (234, 4), (28, 10), (115, 6), (143, 9), (19, 7), (169, 10), (149, 10), (138, 4), (232, 9), (100, 3), (93, 7), (105, 0), (102, 7), (68, 8)]
137	2	1	2	26	[(226, 8), (152, 0), (98, 1), (207, 3), (209, 5), (177, 3), (172, 2), (205, 2), (212, 8), (5, 5), (112, 3), (52, 4), (50, 9), (21, 4), (196, 2), (203, 6), (192, 2), (45, 4), (20, 0), (161, 8), (87, 4), (242, 10), (244, 4), (218, 2), (55, 3), (74, 9)]
138	38	2	8	29	[(147, 8), (1, 0), (110, 2), (43, 1), (102, 0), (52, 8), (76, 1), (156, 8), (190, 9), (107, 9), (199, 10), (185, 8), (13, 8), (245, 7), (11, 9), (207, 4), (157, 5), (118, 6), (163, 3), (48, 2), (53, 2), (208, 0), (134, 10), (28, 5), (83, 9), (56, 6), (233, 9), (240, 0), (141, 10)]
139	2	1	8	23	[(6, 3), (80, 5), (76, 5), (68, 2), (85, 10), (134, 5), (87, 1), (212, 0), (162, 7), (128, 3), (141, 7), (117, 5), (211, 7), (92, 3), (236, 2), (40, 8), (59, 0), (218, 4), (210, 5), (195, 0), (102, 3), (11, 8), (219, 1)]
140	2	1	8	16	[(192, 9), (60, 10), (100, 1), (88, 9), (68, 7), (43, 4), (200, 8), (214, 8), (94, 2), (115, 8), (98, 2), (144, 9), (147, 7), (57, 8), (186, 1), (170, 9)]
141	1	4	16	21	[(162, 3), (20, 8), (236, 2), (36, 4), (164, 8), (188, 6), (203, 8), (216, 6), (60, 9), (214, 6), (224, 10), (196, 1), (155, 10), (79, 4), (194, 2), (218, 4), (205, 7), (193, 8), (171, 9), (133, 9), (99, 10)]
142	6	3	8	28	[(29, 1), (14, 9), (138, 4), (122, 7), (178, 5), (229, 1), (182, 1), (249, 2), (140, 9), (119, 7), (160, 6), (71, 2), (8, 6), (111, 5), (230, 6), (164, 1), (83, 4), (214, 8), (124, 1), (1, 2), (28, 6), (215, 7), (133, 0), (60, 6), (89, 2), (88, 3), (93, 8), (13, 4)]
143	2	5	16	24	[(31, 0), (105, 3), (188, 10), (238, 0), (120, 0), (170, 9), (243, 9), (142, 2), (179, 0), (16, 8), (155, 2), (127, 3), (174, 10), (176, 8), (212, 6), (231, 1), (26, 3), (48, 5), (240, 0), (203, 10), (34, 2), (64, 6), (199, 6), (108, 10)]
144	2	1	8	23	[(8, 3), (183, 4), (179, 4), (96, 8), (236, 9), (17, 8), (34, 0), (75, 9), (247, 4), (152, 1), (194, 0), (57, 4), (28, 10), (89, 7), (119, 3), (82, 6), (113, 6), (2, 10), (66, 0), (246, 2), (21, 5), (117, 9), (213, 8)]
145	4	1	8	27	[(152, 4), (105, 6), (36, 1), (54, 0), (169, 0), (248, 4), (94, 6), (238, 5), (199, 0), (116, 7), (7, 0), (98, 8), (66, 10), (228, 10), (215, 10), (95, 10), (250, 6), (82, 0), (145, 3), (191, 1), (58, 1), (161, 3), (240, 10), (1, 1), (35, 5), (112, 7), (227, 10)]
146	1	2	8	26	[(131, 3), (201, 7), (55, 3), (14, 4), (108, 2), (249, 5), (116, 9), (114, 4), (78, 6), (143, 1), (187, 3), (156, 7), (171, 5), (64, 9), (146, 4), (159, 9), (41, 4), (174, 9), (91, 8), (147, 9), (27, 4), (232, 10), (145, 3), (194, 3), (28, 8), (101, 0)]
147	2	1	8	24	[(120, 3), (241, 9), (72, 2), (18, 8), (11, 6), (63, 0), (152, 4), (216, 7), (47, 5), (237, 2), (224, 7), (189, 8), (174, 0), (172, 7), (77, 10), (52, 1), (109, 7), (208, 3), (61, 1), (73, 9), (105, 8), (173, 4), (123, 4), (134, 9)]
148	1	1	8	31	[(156, 1), (13, 3), (221, 2), (133, 5), (37, 1), (110, 10), (14, 0), (86, 4), (155, 0), (19, 6), (39, 0), (164, 0), (35, 9), (118, 1), (230, 9), (154, 10), (205, 8), (11, 7), (87, 6), (7, 6), (29, 9), (247, 7), (194, 2), (146, 8), (198, 6), (153, 4), (91, 0), (170, 9), (172, 9), (47, 6), (76, 0)]
149	1	3	8	29	[(70, 7), (185, 10), (209, 5), (194, 3), (198, 0), (226, 2), (232, 5), (24, 10), (244, 10), (147, 9), (46, 2), (6, 0), (14, 6), (112, 4), (31, 8), (58, 3), (223, 9), (192, 1), (248, 7), (139, 1), (103, 7), (10, 3), (8, 2), (216, 4), (183, 5), (230, 5), (95, 3), (55, 4), (160, 7)]
150	6	3	8	20	[(132, 8), (162, 4), (70, 5), (161, 4), (247, 5), (61, 7), (99, 1), (77, 8), (212, 4), (84, 5), (102, 6), (236, 1), (72, 6), (207, 9), (100, 8), (51, 6), (171, 1), (57, 2), (141, 2), (41, 2)]
151	1	1	8	22	[(1, 8), (110, 1), (226, 3), (175, 7), (2, 4), (248, 6), (247, 3), (235, 1), (103, 2), (112, 2), (22, 7), (233, 10), (208, 7), (100, 6), (188, 9), (120, 9), (19, 2), (33, 10), (125, 0), (85, 8), (239, 2), (83, 4)]
152	1	2	16	21	[(87, 1), (176, 5), (162, 4), (5, 0), (188, 8), (1, 5), (93, 10), (225, 9), (135, 8), (19, 7), (198, 0), (66, 4), (117, 3), (165, 8), (153, 9), (79, 6), (71, 6), (31, 4), (151, 9), (235, 4), (33, 2)]
153	8	1	8	16	[(124, 0), (43, 0), (246, 9), (33, 4), (221, 5), (37, 9), (165, 5), (101, 4), (5, 8), (106, 6), (242, 9), (31, 1), (172, 10), (105, 1), (166, 9), (130, 9)]
154	1	2	8	24	[(135, 3), (182, 6), (8, 4), (207, 1), (220, 5), (94, 2), (150, 3), (139, 2), (228, 7), (229, 7), (218, 1), (176, 1), (72, 3), (164, 8), (134, 8), (70, 10), (19, 1), (130, 8), (69, 7), (86, 8), (95, 2), (81, 9), (142, 6), (112, 10)]
155	1	1	8	26	[(91, 9), (21, 0), (95, 6), (96, 6), (31, 1), (1, 1), (113, 4), (161, 1), (164, 5), (51, 2), (210, 4), (165, 1), (225, 10), (48, 8), (222, 3), (138, 6), (119, 3), (195, 10), (37, 7), (157, 8), (170, 6), (206, 5), (20, 0), (47, 10), (77, 1), (61, 8)]
156	2	1	8	30	[(163, 10), (178, 2), (11, 8), (215, 5), (114, 7), (200, 7), (36, 10), (177, 8), (109, 0), (86, 3), (129, 10), (87, 5), (192, 10), (51, 5), (221, 10), (122, 10), (160, 10), (219, 6), (32, 7), (124, 4), (197, 2), (113, 3), (166, 1), (185, 9), (121, 0), (247, 5), (141, 3), (39, 2), (120, 5), (66, 7)]
157	3	1	8	21	[(102, 10), (172, 4), (248, 0), (131, 7), (93, 8), (9, 4), (134, 8), (217, 3), (145, 2), (240, 9), (24, 9), (176, 10), (104, 8), (245, 7), (17, 7), (183, 7), (88, 0), (229, 10), (81, 6), (107, 9), (199, 2)]
158	138	1	16	23	[(95, 9), (174, 4), (73, 5), (114, 8), (192, 1), (93, 2), (118, 5), (27, 7), (34, 2), (169, 5), (17, 3), (240, 10), (76, 4), (218, 2), (159, 3), (193, 4), (30, 0), (178, 8), (112, 3), (123, 9), (31, 7), (242, 7), (225, 5)]
159	3	1	8	30	[(132, 7), (197, 3), (111, 9), (224, 3), (243, 6), (12, 10), (124, 1), (56, 9), (68, 8), (44, 9), (158, 6), (90, 1), (166, 4), (206, 2), (76, 2), (219, 0), (85, 1), (69, 1), (133, 7), (214, 1), (194, 2), (5, 2), (155, 3), (64, 10), (87, 3), (212, 6), (207, 4), (217, 6), (72, 5), (94, 1)]
160	1	2	8	36	[(214, 9), (212, 7), (179, 2), (206, 0), (1, 8), (128, 4), (20, 1), (120, 1), (94, 2), (182, 4), (224, 4), (134, 5), (89, 9), (69, 1), (90, 4), (18, 7), (198, 9), (102, 7), (110, 6), (153, 1), (24, 4), (231, 6), (136, 3), (173, 3), (238, 10), (100, 0), (28, 1), (64, 0), (199, 9), (126, 6), (5, 10), (202, 3), (43, 1), (40, 6), (74, 7), (152, 1)]
161	2	2	6	20	[(152, 4), (160, 6), (219, 10), (96, 8), (180, 5), (136, 3), (106, 1), (194, 4), (179, 4), (183, 6), (19, 9), (97, 1), (117, 6), (73, 8), (59, 8), (140, 5), (91, 6), (41, 1), (149, 9), (88, 1)]
162	67	1	1	25	[(71, 4), (20, 10), (22, 1), (163, 6), (206, 9), (135, 9), (43, 3), (194, 0), (83, 2), (166, 0), (110, 2), (57, 1), (246, 1), (50, 5), (97, 1), (106, 1), (119, 5), (233, 1), (187, 10), (79, 7), (211, 1), (245, 10), (66, 6), (117, 5), (182, 2)]
163	2	1	8	25	[(34, 4), (47, 7), (84, 7), (67, 7), (10, 2), (71, 7), (140, 7), (181, 8), (155, 10), (174, 7), (148, 2), (230, 8), (112, 9), (39, 0), (82, 8), (221, 6), (169, 1), (107, 9), (212, 0), (25, 0), (106, 10), (190, 5), (37, 5), (116, 2), (74, 5)]
164	1	1	8	22	[(121, 2), (46, 7), (63, 5), (52, 6), (127, 3), (167, 0), (125, 9), (200, 7), (37, 3), (192, 1), (137, 9), (26, 7), (150, 1), (44, 4), (178, 7), (163, 3), (56, 3), (28, 4), (6, 4), (104, 8), (96, 5), (112, 1)]
165	4	1	1	21	[(203, 1), (201, 10), (165, 2), (36, 9), (198, 7), (63, 1), (250, 3), (21, 9), (138, 9), (114, 1), (227, 0), (162, 1), (122, 5), (101, 5), (100, 5), (151, 0), (46, 2), (139, 5), (22, 4), (115, 9), (83, 9)]
166	2	1	8	22	[(93, 10), (201, 9), (91, 0), (33, 0), (8, 10), (219, 9), (96, 3), (129, 6), (142, 0), (205, 6), (188, 10), (210, 3), (103, 8), (120, 3), (80, 0), (138, 10), (48, 0), (63, 8), (237, 0), (175, 6), (225, 4), (109, 6)]
167	2	1	2	27	[(240, 9), (247, 2), (24, 0), (202, 8), (238, 2), (167, 8), (33, 3), (244, 6), (106, 9), (157, 0), (190, 7), (200, 7), (248, 6), (111, 6), (137, 6), (97, 2), (224, 0), (215, 7), (213, 2), (219, 7), (14, 7), (145, 3), (235, 5), (75, 9), (50, 2), (192, 2), (86, 9)]
168	12	12	8	28	[(185, 1), (18, 4), (86, 6), (55, 1), (69, 8), (132, 9), (222, 3), (45, 7), (77, 6), (155, 9), (236, 6), (112, 0), (97, 9), (134, 0), (162, 4), (230, 4), (233, 8), (133, 3), (213, 10), (117, 9), (242, 2), (223, 9), (74, 4), (72, 5), (170, 5), (199, 7), (108, 5), (193, 1)]
169	2	1	8	25	[(123, 5), (213, 8), (144, 5), (185, 0), (92, 0), (101, 3), (223, 9), (103, 9), (26, 1), (225, 4), (10, 0), (136, 5), (161, 3), (2, 10), (149, 9), (5, 4), (19, 3), (43, 7), (179, 1), (153, 2), (104, 2), (76, 8), (61, 7), (198, 5), (106, 8)]
170	1	1	1	32	[(242, 4), (8, 9), (217, 4), (60, 9), (197, 8), (177, 8), (180, 6), (10, 8), (33, 1), (157, 1), (240, 3), (57, 6), (34, 2), (182, 7), (125, 6), (210, 4), (45, 0), (113, 6), (212, 7), (187, 10), (49, 7), (80, 8), (14, 9), (144, 6), (233, 2), (203, 2), (104, 5), (100, 2), (17, 0), (73, 3), (135, 9), (115, 8)]
171	108	2	2	25	[(141, 1), (244, 4), (107, 0), (73, 4), (131, 6), (142, 4), (200, 9), (55, 4), (155, 0), (81, 9), (210, 8), (156, 8), (32, 9), (99, 2), (84, 1), (49, 6), (242, 0), (60, 4), (144, 2), (163, 4), (42, 10), (179, 10), (245, 6), (172, 8), (103, 8)]
172	5	1	48	26	[(140, 6), (90, 10), (53, 1), (51, 4), (97, 4), (249, 0), (5, 1), (187, 8), (220, 7), (79, 10), (247, 6), (126, 5), (41, 2), (159, 7), (234, 3), (54, 2), (205, 8), (62, 4), (225, 6), (163, 10), (1, 8), (52, 2), (211, 7), (45, 9), (224, 4), (67, 0)]
173	1	1	8	20	[(190, 3), (58, 2), (80, 1), (139, 6), (171, 8), (14, 2), (176, 10), (113, 9), (152, 7), (239, 9), (24, 7), (116, 9), (20, 3), (17, 4), (183, 1), (121, 4), (177, 1), (236, 7), (124, 1), (117, 1)]
174	15	3	8	22	[(161, 7), (28, 4), (198, 7), (101, 10), (225, 3), (7, 10), (231, 5), (78, 8), (138, 3), (121, 8), (69, 3), (11, 5), (197, 2), (219, 7), (120, 0), (180, 6), (185, 7), (211, 8), (202, 7), (154, 8), (41, 10), (46, 2)]
175	4	1	8	18	[(22, 1), (191, 9), (81, 7), (165, 8), (177, 9), (66, 10), (139, 2), (59, 1), (78, 7), (68, 9), (181, 8), (2, 10), (72, 5), (58, 9), (151, 8), (244, 4), (108, 9), (230, 6)]
176	2	2	8	22	[(102, 2), (90, 8), (170, 7), (175, 3), (202, 9), (36, 8), (165, 1), (247, 9), (191, 1), (189, 2), (236, 4), (139, 3), (153, 5), (238, 0), (25, 7), (37, 9), (162, 2), (185, 7), (245, 10), (126, 6), (94, 9), (114, 10)]
177	1	1	8	31	[(157, 10), (82, 8), (15, 9), (105, 8), (193, 8), (109, 9), (13, 8), (186, 7), (235, 7), (159, 7), (120, 10), (19, 3), (127, 1), (244, 5), (219, 2), (4, 1), (63, 8), (121, 9), (64, 8), (46, 7), (163, 8), (107, 8), (203, 4), (145, 9), (5, 10), (78, 1), (150, 2), (212, 5), (50, 5), (47, 10), (201, 1)]
178	5	1	8	25	[(20, 7), (41, 9), (7, 7), (102, 5), (38, 1), (152, 5), (250, 0), (19, 10), (110, 6), (143, 7), (132, 9), (101, 9), (44, 8), (182, 7), (117, 6), (178, 2), (60, 2), (28, 9), (230, 2), (150, 7), (156, 9), (122, 1), (142, 6), (72, 1), (228, 6)]
179	3	2	8	27	[(201, 10), (77, 4), (15, 0), (192, 9), (46, 8), (157, 8), (51, 5), (112, 8), (63, 10), (177, 1), (249, 6), (8, 0), (225, 7), (164, 10), (178, 5), (184, 4), (76, 3), (16, 1), (162, 1), (79, 5), (187, 2), (30, 7), (152, 6), (156, 7), (237, 5), (129, 6), (19, 7)]
180	3	3	8	25	[(115, 8), (3, 9), (71, 9), (42, 6), (74, 8), (87, 8), (128, 2), (44, 6), (241, 0), (122, 4), (106, 3), (53, 7), (69, 2), (14, 5), (70, 1), (209, 7), (211, 8), (248, 3), (139, 7), (223, 2), (72, 9), (32, 1), (16, 10), (220, 7), (237, 10)]
181	2	1	2	29	[(89, 0), (209, 7), (17, 7), (46, 5), (179, 5), (58, 8), (182, 1), (71, 3), (155, 2), (42, 6), (74, 6), (109, 10), (228, 3), (200, 6), (208, 7), (150, 0), (59, 0), (23, 3), (90, 7), (101, 2), (16, 4), (54, 5), (49, 8), (171, 4), (174, 3), (55, 4), (116, 4), (181, 2), (92, 4)]
182	1	1	8	31	[(183, 10), (238, 4), (57, 4), (47, 6), (170, 8), (225, 10), (66, 0), (11, 8), (16, 8), (128, 5), (27, 0), (110, 10), (99, 9), (56, 8), (88, 7), (173, 2), (15, 3), (205, 1), (164, 3), (83, 10), (247, 4), (121, 10), (46, 0), (155, 8), (149, 1), (187, 10), (101, 10), (35, 4), (109, 3), (72, 9), (10, 10)]
183	1	1	32	29	[(64, 1), (195, 1), (40, 8), (27, 5), (180, 8), (159, 10), (141, 0), (59, 1), (192, 10), (211, 5), (239, 6), (38, 5), (199, 3), (61, 5), (21, 6), (202, 2), (103, 4), (160, 7), (76, 5), (12, 4), (133, 9), (146, 2), (13, 9), (43, 1), (65, 8), (205, 6), (162, 6), (130, 7), (145, 9)]
184	1	4	16	26	[(142, 3), (67, 4), (72, 10), (40, 10), (100, 4), (178, 9), (146, 5), (81, 5), (155, 5), (240, 6), (246, 5), (23, 4), (90, 7), (168, 0), (35, 6), (17, 9), (2, 10), (83, 4), (243, 2), (32, 6), (1, 0), (28, 3), (171, 2), (134, 8), (85, 6), (202, 10)]
185	2	4	2	33	[(219, 8), (152, 1), (225, 2), (24, 1), (163, 10), (137, 2), (85, 2), (25, 8), (161, 8), (133, 10), (110, 7), (221, 7), (195, 8), (31, 1), (117, 0), (77, 8), (102, 7), (67, 10), (124, 10), (144, 10), (248, 9), (142, 5), (38, 1), (153, 2), (28, 0), (27, 8), (233, 9), (30, 9), (70, 2), (108, 8), (203, 0), (157, 9), (134, 2)]
186	1	1	32	26	[(31, 9), (163, 7), (69, 7), (239, 10), (210, 1), (44, 4), (26, 2), (70, 1), (142, 8), (64, 6), (200, 9), (130, 3), (203, 5), (249, 2), (55, 2), (34, 6), (90, 4), (223, 2), (118, 1), (123, 4), (157, 2), (106, 1), (235, 7), (139, 7), (9, 6), (129, 0)]
187	4	1	1	19	[(34, 0), (96, 8), (147, 4), (89, 0), (137, 8), (39, 6), (48, 5), (230, 8), (55, 0), (205, 6), (138, 3), (151, 8), (6, 2), (131, 8), (42, 1), (161, 1), (43, 6), (202, 6), (196, 4)]
188	2	2	8	37	[(171, 9), (176, 0), (42, 4), (173, 5), (186, 10), (133, 5), (75, 10), (158, 9), (51, 10), (81, 4), (110, 4), (3, 4), (115, 5), (72, 2), (100, 1), (226, 4), (18, 10), (191, 6), (104, 1), (196, 3), (200, 3), (55, 3), (123, 5), (59, 7), (120, 8), (148, 0), (211, 6), (180, 8), (223, 5), (82, 9), (130, 5), (84, 1), (184, 5), (88, 7), (21, 9), (199, 1), (179, 10)]
189	1	2	16	28	[(53, 8), (4, 6), (173, 7), (112, 5), (171, 10), (97, 3), (14, 7), (98, 4), (55, 3), (199, 9), (213, 7), (90, 7), (145, 10), (127, 8), (172, 0), (134, 1), (184, 9), (22, 10), (123, 2), (47, 10), (240, 8), (124, 8), (226, 8), (157, 1), (37, 3), (241, 4), (13, 0), (113, 5)]
190	1	4	8	21	[(45, 8), (173, 9), (236, 3), (57, 5), (239, 8), (240, 10), (152, 1), (143, 8), (150, 0), (21, 3), (128, 8), (241, 4), (250, 9), (243, 3), (238, 9), (51, 4), (142, 3), (140, 3), (127, 0), (161, 8), (109, 9)]
191	15	1	8	24	[(142, 0), (205, 1), (161, 9), (136, 6), (110, 6), (224, 0), (39, 8), (174, 10), (23, 4), (80, 6), (177, 1), (211, 2), (151, 8), (114, 2), (97, 6), (73, 1), (112, 7), (58, 9), (109, 4), (187, 8), (100, 9), (77, 3), (92, 6), (118, 3)]
192	2	1	8	27	[(58, 3), (101, 5), (105, 10), (72, 1), (8, 0), (73, 7), (203, 5), (34, 9), (42, 1), (16, 2), (235, 3), (181, 6), (10, 3), (243, 1), (215, 9), (144, 7), (170, 6), (199, 9), (193, 9), (225, 10), (168, 5), (238, 9), (128, 0), (157, 7), (171, 6), (94, 3), (201, 7)]
193	3	1	16	30	[(192, 8), (167, 4), (64, 5), (41, 6), (219, 9), (86, 8), (193, 7), (191, 3), (81, 10), (245, 5), (144, 9), (166, 2), (28, 5), (71, 8), (50, 5), (25, 8), (187, 6), (117, 4), (84, 2), (109, 1), (89, 6), (239, 8), (56, 10), (247, 10), (217, 2), (40, 6), (215, 0), (118, 9), (122, 10), (190, 3)]
194	2	1	6	23	[(82, 0), (248, 3), (64, 5), (169, 8), (128, 2), (47, 3), (197, 8), (72, 5), (98, 5), (65, 10), (145, 7), (18, 3), (191, 3), (213, 8), (62, 1), (6, 5), (116, 7), (201, 0), (84, 8), (46, 6), (171, 7), (174, 6), (93, 3)]
195	1	1	13	18	[(152, 7), (239, 6), (136, 8), (125, 9), (172, 0), (27, 2), (145, 7), (51, 0), (202, 7), (33, 8), (20, 4), (5, 1), (58, 4), (56, 9), (41, 0), (64, 10), (49, 9), (83, 7)]
196	1	1	8	27	[(238, 1), (241, 8), (50, 4), (118, 1), (186, 5), (110, 2), (172, 5), (56, 9), (65, 6), (85, 6), (115, 7), (61, 1), (152, 6), (44, 5), (229, 0), (156, 3), (122, 8), (162, 1), (92, 8), (53, 10), (116, 2), (217, 5), (194, 9), (222, 8), (73, 5), (75, 7), (39, 7)]
197	1	1	2	27	[(204, 8), (168, 5), (203, 8), (8, 7), (96, 5), (92, 10), (15, 6), (110, 8), (222, 7), (185, 1), (157, 4), (17, 10), (67, 4), (200, 5), (190, 9), (108, 1), (7, 9), (104, 10), (84, 9), (39, 2), (225, 4), (1, 3), (98, 4), (165, 7), (53, 2), (32, 3), (57, 4)]
198	1	1	7	22	[(195, 8), (107, 9), (112, 5), (28, 10), (216, 4), (20, 6), (244, 1), (69, 3), (121, 1), (33, 7), (115, 6), (200, 3), (224, 8), (124, 6), (129, 5), (10, 2), (209, 1), (48, 3), (31, 10), (109, 3), (184, 9), (35, 0)]
199	2	11	8	26	[(170, 1), (204, 9), (245, 10), (50, 6), (235, 10), (205, 7), (250, 9), (124, 2), (134, 1), (111, 10), (243, 4), (46, 8), (98, 8), (83, 5), (47, 0), (187, 3), (234, 5), (91, 2), (132, 8), (87, 3), (188, 9), (90, 9), (57, 10), (74, 6), (126, 2), (77, 3)]
200	3	1	8	30	[(62, 2), (18, 6), (88, 7), (119, 8), (116, 1), (208, 9), (95, 2), (49, 6), (136, 1), (219, 4), (180, 10), (25, 1), (225, 4), (129, 7), (37, 4), (74, 1), (7, 7), (5, 2), (174, 1), (70, 10), (227, 2), (34, 8), (30, 3), (231, 3), (35, 8), (142, 1), (171, 9), (93, 2), (189, 10), (44, 0)]
201	1	2	8	26	[(94, 1), (195, 7), (225, 1), (73, 0), (192, 10), (45, 10), (72, 9), (126, 0), (232, 3), (136, 7), (67, 2), (169, 9), (129, 4), (197, 4), (167, 4), (58, 0), (198, 5), (149, 1), (78, 9), (106, 10), (8, 9), (69, 4), (4, 3), (43, 6), (175, 8), (134, 1)]
202	5	5	8	35	[(99, 10), (116, 4), (23, 1), (185, 10), (248, 6), (18, 5), (90, 8), (195, 1), (250, 9), (55, 3), (151, 5), (147, 8), (142, 2), (58, 9), (36, 7), (15, 9), (227, 3), (231, 5), (105, 0), (140, 0), (22, 0), (56, 9), (81, 7), (112, 6), (115, 10), (205, 5), (154, 8), (76, 3), (176, 5), (199, 1), (48, 4), (52, 5), (28, 2), (204, 0), (177, 9)]
203	3	1	8	23	[(123, 4), (35, 2), (222, 0), (186, 4), (158, 5), (117, 2), (29, 6), (112, 5), (7, 2), (60, 3), (88, 10), (131, 9), (136, 1), (213, 8), (209, 1), (4, 4), (228, 9), (5, 5), (150, 7), (121, 6), (80, 10), (127, 10), (119, 8)]
204	3	6	8	31	[(211, 6), (42, 4), (89, 3), (124, 2), (63, 7), (96, 2), (234, 4), (81, 8), (233, 3), (118, 4), (62, 10), (104, 6), (28, 5), (231, 4), (170, 8), (201, 5), (113, 1), (40, 3), (66, 1), (72, 6), (70, 6), (86, 3), (206, 9), (230, 8), (65, 5), (115, 9), (51, 1), (49, 6), (126, 8), (142, 9), (10, 2)]
205	1	1	8	18	[(46, 4), (5, 10), (87, 2), (236, 10), (44, 10), (203, 0), (77, 7), (227, 2), (116, 5), (151, 5), (179, 7), (230, 9), (218, 1), (192, 10), (217, 10), (219, 5), (144, 8), (229, 0)]
206	2	1	1	20	[(159, 10), (46, 8), (168, 1), (16, 3), (118, 4), (91, 3), (186, 4), (80, 9), (79, 8), (208, 4), (166, 2), (242, 8), (241, 7), (22, 3), (115, 9), (230, 8), (103, 1), (181, 10), (55, 7), (116, 7)]
207	1	1	8	28	[(201, 6), (63, 9), (86, 8), (110, 1), (169, 5), (218, 7), (72, 2), (104, 7), (189, 3), (180, 5), (2, 2), (171, 5), (89, 8), (32, 1), (161, 6), (107, 10), (190, 0), (227, 0), (59, 3), (126, 9), (26, 3), (81, 0), (131, 6), (109, 10), (116, 3), (200, 6), (93, 6), (18, 6)]
208	5	1	8	18	[(203, 2), (199, 9), (126, 6), (210, 9), (64, 5), (146, 10), (104, 10), (144, 0), (212, 6), (132, 0), (221, 6), (114, 4), (182, 0), (137, 5), (79, 10), (49, 10), (65, 1), (48, 7)]
209	3	4	8	31	[(115, 4), (41, 2), (114, 6), (166, 7), (105, 4), (98, 0), (11, 9), (161, 7), (66, 9), (136, 9), (223, 3), (123, 9), (55, 7), (33, 9), (19, 1), (95, 7), (126, 4), (174, 7), (179, 0), (167, 6), (36, 10), (163, 3), (234, 6), (178, 7), (68, 7), (112, 6), (226, 0), (57, 7), (120, 10), (70, 2), (128, 4)]
210	2	1	8	26	[(49, 10), (110, 2), (231, 6), (91, 7), (10, 9), (133, 4), (7, 10), (50, 1), (138, 3), (4, 9), (37, 7), (8, 1), (198, 3), (177, 3), (76, 3), (48, 8), (38, 2), (215, 1), (172, 2), (118, 2), (205, 2), (220, 0), (12, 3), (139, 5), (169, 8), (32, 8)]
211	3	4	8	26	[(209, 0), (162, 9), (20, 7), (2, 1), (193, 3), (237, 5), (93, 0), (215, 8), (58, 0), (214, 9), (35, 4), (56, 5), (201, 2), (60, 5), (204, 0), (30, 8), (34, 9), (142, 5), (230, 9), (49, 9), (45, 1), (6, 9), (241, 6), (9, 9), (173, 10), (16, 3)]
212	1	1	8	27	[(89, 9), (87, 9), (28, 7), (35, 9), (81, 4), (133, 1), (30, 2), (194, 2), (177, 3), (5, 3), (107, 2), (146, 1), (116, 8), (170, 0), (123, 6), (227, 5), (238, 1), (220, 8), (27, 4), (184, 6), (46, 4), (100, 7), (213, 10), (221, 4), (233, 7), (234, 2), (10, 7)]
213	1	1	7	26	[(206, 10), (147, 7), (237, 1), (118, 10), (21, 9), (87, 0), (106, 7), (59, 8), (99, 0), (241, 6), (68, 4), (52, 6), (174, 6), (104, 7), (192, 8), (78, 6), (108, 3), (75, 4), (238, 5), (171, 7), (40, 6), (219, 3), (125, 4), (61, 1), (228, 6), (170, 4)]
214	4	1	8	26	[(168, 8), (239, 5), (85, 5), (93, 10), (110, 6), (244, 1), (243, 5), (120, 9), (116, 8), (55, 6), (49, 9), (16, 10), (188, 2), (106, 0), (43, 5), (45, 7), (122, 0), (21, 7), (220, 4), (152, 4), (87, 5), (68, 9), (172, 4), (1, 1), (29, 0), (199, 6)]
215	1	4	2	26	[(62, 10), (109, 5), (84, 0), (152, 0), (38, 0), (104, 3), (73, 5), (47, 1), (160, 6), (23, 8), (242, 10), (224, 0), (29, 7), (26, 1), (43, 8), (20, 2), (203, 5), (156, 4), (9, 10), (59, 5), (114, 9), (13, 5), (65, 9), (145, 0), (116, 8), (233, 3)]
216	13	1	8	26	[(101, 9), (196, 8), (165, 6), (25, 9), (150, 2), (90, 6), (161, 1), (175, 8), (202, 5), (17, 9), (55, 4), (80, 6), (91, 3), (93, 4), (211, 6), (119, 6), (213, 9), (164, 2), (54, 4), (238, 9), (75, 5), (139, 1), (79, 10), (244, 10), (222, 10), (215, 3)]
217	1	1	8	25	[(54, 10), (122, 7), (79, 5), (240, 6), (89, 1), (84, 8), (9, 6), (113, 10), (183, 9), (163, 5), (61, 2), (33, 4), (124, 1), (68, 7), (41, 2), (132, 10), (201, 8), (90, 6), (127, 3), (203, 7), (143, 6), (178, 10), (216, 7), (207, 2), (224, 1)]
218	2	1	8	32	[(235, 5), (36, 10), (129, 0), (41, 7), (221, 2), (102, 4), (173, 7), (141, 10), (53, 1), (12, 6), (63, 9), (198, 6), (29, 1), (126, 3), (167, 6), (27, 5), (189, 6), (21, 9), (17, 3), (215, 1), (211, 1), (38, 8), (87, 5), (31, 7), (194, 5), (186, 6), (121, 6), (229, 8), (203, 9), (213, 8), (155, 8), (204, 2)]
219	2	1	60	24	[(12, 2), (111, 7), (173, 3), (84, 3), (65, 8), (88, 6), (193, 9), (2, 3), (215, 10), (242, 4), (171, 8), (18, 4), (58, 8), (59, 5), (105, 4), (145, 5), (154, 6), (179, 8), (227, 4), (125, 0), (235, 7), (148, 1), (135, 1), (102, 5)]
220	6	1	16	24	[(241, 5), (248, 8), (122, 6), (84, 10), (160, 2), (166, 1), (48, 4), (170, 8), (4, 9), (112, 6), (55, 8), (21, 10), (156, 0), (246, 2), (1, 3), (210, 5), (10, 3), (18, 0), (117, 8), (167, 1), (65, 7), (75, 4), (78, 1), (238, 2)]
221	1	1	4	23	[(53, 0), (205, 0), (210, 6), (125, 4), (60, 1), (117, 9), (195, 6), (238, 6), (199, 1), (58, 6), (224, 5), (231, 1), (63, 6), (90, 8), (183, 7), (225, 1), (9, 1), (171, 8), (21, 3), (147, 5), (135, 5), (17, 5), (153, 9)]
222	21	1	8	19	[(130, 7), (238, 10), (27, 5), (38, 9), (97, 8), (155, 3), (190, 3), (119, 8), (54, 1), (98, 3), (79, 6), (93, 6), (231, 4), (242, 4), (174, 0), (199, 1), (5, 4), (12, 0), (207, 8)]
223	2	4	8	20	[(177, 6), (1, 5), (244, 6), (201, 9), (203, 1), (190, 3), (121, 2), (240, 10), (182, 6), (242, 4), (144, 8), (120, 6), (106, 4), (178, 7), (78, 2), (14, 4), (90, 7), (225, 4), (72, 4), (93, 0)]
224	3	4	3	31	[(201, 10), (249, 1), (3, 6), (128, 5), (219, 6), (210, 5), (173, 9), (40, 9), (112, 3), (175, 10), (156, 5), (197, 3), (199, 7), (131, 0), (221, 10), (184, 3), (233, 2), (245, 3), (14, 6), (59, 4), (133, 9), (163, 8), (231, 1), (117, 6), (78, 10), (152, 4), (15, 6), (169, 3), (96, 0), (164, 3), (92, 6)]
225	22	1	8	18	[(109, 8), (152, 8), (180, 1), (50, 2), (72, 6), (25, 7), (60, 0), (171, 0), (86, 0), (27, 7), (151, 9), (235, 5), (218, 10), (135, 7), (201, 1), (107, 2), (18, 6), (223, 9)]
226	4	1	32	24	[(28, 1), (240, 10), (192, 10), (173, 10), (81, 8), (27, 9), (94, 0), (24, 0), (62, 10), (2, 9), (242, 1), (221, 7), (45, 8), (49, 4), (17, 8), (234, 2), (99, 8), (188, 4), (216, 1), (11, 2), (204, 2), (157, 2), (40, 8), (148, 1)]
227	2	1	8	22	[(13, 0), (185, 3), (54, 5), (95, 4), (12, 7), (53, 2), (202, 9), (166, 1), (240, 5), (70, 4), (167, 3), (99, 8), (160, 8), (161, 5), (75, 7), (222, 9), (126, 2), (246, 6), (50, 5), (137, 0), (79, 9), (56, 0)]
228	2	4	8	20	[(106, 5), (208, 3), (141, 5), (166, 0), (105, 6), (73, 2), (57, 7), (77, 0), (7, 6), (243, 3), (79, 5), (138, 2), (137, 10), (249, 2), (67, 0), (143, 5), (110, 3), (204, 1), (236, 5), (109, 9)]
229	1	2	8	24	[(231, 2), (91, 9), (13, 4), (153, 1), (50, 5), (148, 9), (93, 1), (57, 10), (203, 0), (167, 4), (223, 4), (155, 2), (246, 10), (66, 7), (212, 6), (112, 3), (129, 10), (36, 3), (200, 0), (22, 8), (245, 1), (237, 10), (232, 6), (195, 0)]
230	6	2	8	24	[(159, 5), (56, 10), (139, 4), (247, 3), (17, 3), (180, 8), (137, 3), (107, 0), (24, 8), (19, 3), (199, 10), (57, 7), (189, 3), (145, 0), (85, 4), (166, 6), (213, 3), (215, 5), (150, 9), (236, 4), (66, 3), (18, 4), (104, 4), (178, 3)]
231	1	1	8	30	[(171, 5), (162, 0), (35, 8), (63, 10), (190, 5), (240, 4), (234, 9), (221, 6), (92, 10), (168, 5), (11, 1), (202, 9), (80, 7), (112, 8), (102, 6), (209, 4), (117, 4), (246, 2), (216, 8), (139, 0), (122, 10), (192, 2), (93, 3), (90, 1), (185, 0), (157, 3), (178, 9), (177, 4), (232, 2), (64, 4)]
232	1	1	8	24	[(154, 5), (130, 9), (226, 0), (90, 7), (41, 5), (74, 0), (162, 0), (107, 0), (170, 6), (104, 9), (48, 10), (35, 10), (177, 1), (171, 2), (43, 1), (142, 10), (240, 6), (248, 9), (13, 5), (174, 3), (195, 9), (30, 5), (141, 10), (121, 1)]
233	13	3	1	27	[(10, 1), (219, 1), (168, 2), (181, 2), (106, 10), (199, 0), (8, 7), (158, 8), (71, 9), (83, 4), (62, 6), (205, 8), (4, 5), (177, 8), (209, 10), (49, 10), (161, 10), (51, 6), (132, 5), (122, 10), (190, 3), (186, 9), (201, 8), (147, 7), (130, 4), (216, 3), (28, 9)]
234	12	1	8	17	[(146, 6), (234, 6), (158, 10), (130, 9), (248, 6), (121, 5), (26, 9), (85, 5), (242, 8), (139, 0), (17, 4), (165, 0), (196, 8), (225, 9), (142, 7), (244, 2), (19, 1)]
235	16	5	8	25	[(34, 0), (56, 0), (230, 9), (99, 0), (222, 1), (97, 9), (9, 10), (116, 4), (35, 4), (170, 7), (26, 4), (69, 5), (203, 2), (4, 6), (249, 2), (149, 10), (32, 7), (37, 3), (179, 1), (80, 8), (90, 5), (141, 3), (108, 7), (87, 9), (16, 0)]
236	1	1	7	24	[(120, 1), (186, 10), (49, 4), (183, 6), (31, 5), (143, 8), (125, 4), (105, 4), (177, 9), (176, 4), (148, 3), (213, 8), (79, 10), (109, 6), (242, 4), (115, 7), (160, 4), (87, 0), (174, 8), (37, 9), (34, 5), (172, 5), (163, 6), (241, 8)]
237	2	1	1	29	[(219, 9), (137, 3), (105, 2), (93, 4), (99, 7), (72, 0), (214, 6), (66, 5), (178, 5), (129, 6), (140, 0), (179, 8), (182, 3), (80, 5), (244, 10), (236, 8), (3, 4), (142, 2), (54, 3), (153, 3), (132, 5), (242, 7), (190, 6), (108, 9), (194, 2), (79, 9), (131, 0), (199, 8), (55, 3)]
238	12	1	8	34	[(225, 9), (60, 9), (206, 5), (215, 4), (106, 1), (119, 6), (222, 5), (218, 2), (99, 2), (120, 3), (90, 10), (56, 3), (19, 10), (162, 5), (12, 5), (69, 0), (179, 8), (155, 0), (205, 6), (84, 10), (144, 2), (166, 9), (62, 8), (196, 7), (67, 4), (241, 3), (164, 1), (46, 5), (132, 8), (182, 8), (33, 4), (233, 0), (141, 5), (52, 3)]
239	4	1	8	23	[(26, 10), (186, 7), (241, 8), (36, 10), (203, 10), (115, 2), (42, 2), (174, 5), (34, 9), (145, 8), (147, 6), (70, 5), (104, 9), (184, 6), (29, 7), (53, 2), (221, 10), (82, 10), (222, 7), (111, 7), (39, 6), (193, 3), (76, 2)]
240	4	1	8	19	[(244, 5), (138, 5), (96, 2), (134, 8), (150, 6), (118, 3), (145, 2), (98, 5), (18, 9), (149, 10), (94, 10), (152, 4), (224, 7), (76, 4), (45, 0), (108, 6), (72, 10), (38, 1), (39, 9)]
241	52	1	8	21	[(100, 2), (233, 8), (152, 3), (145, 9), (111, 7), (170, 8), (31, 10), (142, 1), (154, 2), (107, 7), (150, 9), (57, 7), (50, 0), (29, 8), (199, 6), (164, 9), (92, 3), (131, 1), (17, 10), (22, 2), (175, 10)]
242	4	4	2	21	[(55, 1), (117, 0), (25, 3), (96, 0), (12, 5), (57, 5), (185, 8), (15, 9), (191, 10), (166, 4), (124, 3), (100, 9), (27, 0), (73, 2), (222, 1), (3, 8), (192, 6), (157, 6), (65, 9), (148, 10), (247, 9)]
243	2	1	8	27	[(236, 7), (215, 2), (132, 7), (34, 7), (179, 0), (202, 8), (153, 4), (115, 10), (197, 0), (211, 1), (64, 0), (244, 8), (230, 7), (175, 3), (11, 5), (184, 7), (216, 8), (102, 1), (130, 5), (52, 3), (183, 3), (203, 10), (25, 1), (148, 3), (141, 1), (72, 5), (149, 10)]
244	2	3	13	21	[(32, 2), (29, 9), (68, 0), (150, 8), (100, 1), (230, 5), (27, 4), (228, 0), (175, 7), (11, 0), (102, 3), (45, 2), (244, 3), (103, 6), (59, 2), (243, 7), (221, 7), (46, 9), (239, 5), (107, 3), (159, 0)]
245	2	1	8	26	[(239, 8), (123, 3), (42, 2), (214, 1), (113, 2), (147, 9), (232, 2), (68, 4), (160, 3), (152, 8), (106, 1), (39, 3), (249, 6), (115, 0), (13, 3), (163, 5), (140, 10), (187, 5), (162, 5), (102, 7), (188, 10), (144, 0), (49, 4), (52, 7), (59, 5), (11, 3)]
246	2	24	16	23	[(203, 0), (185, 5), (18, 5), (73, 0), (150, 0), (97, 9), (42, 7), (47, 9), (71, 4), (78, 8), (94, 10), (53, 8), (35, 9), (195, 8), (246, 6), (89, 10), (247, 0), (134, 1), (168, 10), (10, 5), (68, 10), (51, 6), (217, 9)]
247	1	1	8	26	[(153, 2), (143, 5), (248, 10), (163, 6), (240, 10), (6, 10), (185, 1), (51, 10), (114, 3), (174, 8), (42, 10), (118, 0), (162, 3), (213, 1), (219, 2), (46, 2), (124, 2), (212, 2), (31, 3), (58, 4), (149, 1), (223, 7), (59, 2), (105, 9), (5, 7), (75, 1)]
248	1	1	2	15	[(34, 5), (88, 3), (35, 8), (157, 10), (18, 9), (163, 8), (26, 9), (69, 0), (170, 7), (94, 6), (201, 6), (230, 10), (192, 3), (122, 6), (133, 6)]
249	32	4	8	29	[(12, 9), (157, 8), (156, 8), (46, 9), (58, 5), (6, 9), (149, 0), (59, 9), (89, 9), (248, 8), (41, 6), (106, 8), (17, 6), (166, 6), (219, 3), (18, 10), (78, 0), (185, 4), (22, 3), (249, 9), (188, 9), (239, 9), (53, 9), (81, 8), (183, 3), (136, 0), (222, 4), (98, 8), (30, 8)]
250	2	1	8	24	[(202, 7), (94, 10), (147, 2), (155, 0), (150, 10), (120, 6), (227, 7), (180, 7), (233, 4), (223, 9), (236, 6), (64, 6), (20, 8), (10, 4), (195, 2), (7, 0), (164, 10), (48, 3), (88, 7), (75, 6), (139, 0), (125, 0), (157, 10), (109, 1)]
