app_id	nb_instances	core	memory	inter_degree	inter_aff
1	2	1	8	9	[(28, 10), (62, 2), (209, 5), (115, 8), (243, 8), (177, 0), (163, 4), (214, 1), (218, 8)]
2	1	6	8	12	[(71, 5), (97, 3), (72, 4), (152, 5), (221, 2), (239, 2), (16, 10), (244, 8), (101, 9), (117, 4), (168, 8), (75, 8)]
3	2	1	8	14	[(201, 10), (161, 0), (50, 6), (190, 6), (24, 2), (109, 10), (167, 6), (98, 0), (116, 1), (202, 4), (87, 10), (151, 5), (193, 1), (179, 1)]
4	2	1	8	15	[(162, 0), (128, 2), (33, 4), (61, 2), (28, 5), (71, 9), (112, 6), (178, 10), (82, 2), (231, 3), (13, 1), (88, 2), (192, 0), (161, 4), (60, 9)]
5	1	1	8	11	[(10, 1), (17, 8), (205, 7), (109, 10), (189, 3), (217, 7), (35, 6), (3, 0), (52, 0), (61, 7), (135, 4)]
6	1	1	2	11	[(244, 8), (179, 2), (150, 10), (112, 1), (4, 3), (213, 5), (227, 1), (1, 2), (175, 3), (164, 2), (80, 1)]
7	3	8	8	10	[(48, 10), (112, 1), (30, 5), (47, 0), (92, 1), (25, 2), (73, 8), (66, 8), (3, 9), (220, 7)]
8	2	1	8	12	[(43, 6), (92, 9), (110, 1), (8, 8), (130, 3), (63, 1), (66, 6), (175, 8), (154, 0), (86, 10), (123, 0), (13, 9)]
9	1	4	8	11	[(230, 5), (145, 3), (235, 1), (160, 0), (233, 2), (209, 3), (80, 0), (46, 3), (88, 7), (57, 6), (12, 7)]
10	3	4	8	14	[(161, 7), (188, 10), (109, 2), (207, 5), (10, 3), (181, 0), (148, 1), (17, 5), (64, 5), (124, 8), (90, 9), (38, 4), (56, 9), (81, 3)]
11	2	1	8	14	[(201, 6), (85, 8), (180, 9), (10, 10), (119, 9), (31, 0), (126, 0), (138, 4), (54, 4), (89, 6), (22, 7), (182, 2), (218, 6), (26, 10)]
12	6	1	8	14	[(183, 2), (64, 9), (34, 0), (5, 6), (93, 9), (147, 10), (113, 7), (110, 10), (194, 4), (137, 2), (17, 1), (220, 2), (120, 2), (85, 0)]
13	1	1	2	11	[(250, 8), (145, 6), (111, 8), (148, 6), (20, 3), (198, 10), (95, 2), (212, 0), (15, 6), (210, 1), (167, 7)]
14	2	1	8	13	[(10, 1), (244, 3), (53, 0), (161, 6), (208, 8), (113, 3), (28, 10), (63, 0), (180, 0), (126, 3), (91, 4), (223, 1), (42, 5)]
15	2	2	7	20	[(160, 6), (58, 7), (196, 2), (82, 10), (200, 1), (189, 5), (234, 2), (103, 6), (76, 10), (133, 4), (132, 10), (62, 2), (128, 0), (29, 9), (10, 9), (19, 7), (81, 3), (194, 10), (67, 2), (91, 9)]
16	2	1	8	10	[(19, 2), (219, 6), (197, 6), (160, 10), (240, 7), (180, 7), (2, 10), (39, 5), (53, 4), (82, 10)]
17	42	4	4	17	[(115, 9), (67, 1), (80, 7), (158, 4), (35, 9), (142, 8), (135, 4), (8, 3), (26, 0), (40, 5), (41, 2), (60, 0), (170, 9), (203, 2), (143, 4), (70, 10), (20, 6)]
18	1	1	8	12	[(82, 0), (88, 0), (120, 8), (192, 8), (30, 4), (215, 6), (217, 7), (11, 3), (162, 1), (223, 5), (242, 6), (233, 8)]
19	1	1	8	12	[(240, 4), (141, 7), (144, 1), (127, 6), (102, 2), (29, 1), (160, 10), (138, 3), (132, 6), (26, 5), (65, 8), (244, 9)]
20	7	1	8	8	[(9, 7), (56, 8), (59, 0), (247, 4), (47, 4), (106, 8), (78, 4), (27, 5)]
21	5	1	8	10	[(147, 3), (94, 2), (6, 0), (223, 5), (83, 0), (195, 10), (170, 6), (189, 1), (111, 1), (240, 2)]
22	1	1	8	14	[(198, 2), (32, 10), (46, 2), (61, 6), (135, 4), (179, 9), (136, 5), (173, 10), (236, 4), (29, 7), (106, 5), (217, 9), (225, 9), (231, 4)]
23	1	1	2	9	[(20, 1), (207, 5), (170, 7), (40, 10), (36, 10), (56, 0), (92, 1), (128, 9), (152, 2)]
24	2	1	8	13	[(225, 10), (34, 0), (156, 3), (102, 7), (121, 6), (157, 5), (202, 7), (200, 10), (114, 5), (201, 7), (88, 10), (208, 7), (90, 6)]
25	2	3	8	15	[(68, 4), (174, 1), (77, 6), (206, 0), (86, 3), (130, 1), (129, 4), (100, 6), (160, 0), (19, 8), (110, 6), (201, 3), (30, 2), (236, 2), (154, 1)]
26	2	1	8	11	[(230, 4), (104, 7), (221, 4), (12, 0), (152, 2), (68, 1), (243, 7), (54, 8), (116, 6), (47, 10), (2, 5)]
27	2	1	8	16	[(25, 5), (167, 10), (97, 2), (30, 10), (245, 3), (103, 2), (201, 3), (192, 10), (212, 1), (175, 1), (135, 0), (16, 5), (217, 2), (99, 5), (204, 10), (207, 9)]
28	17	4	8	13	[(30, 1), (29, 10), (174, 6), (23, 3), (159, 7), (236, 8), (234, 2), (228, 5), (21, 2), (164, 7), (205, 10), (229, 9), (165, 6)]
29	1	1	8	20	[(241, 4), (191, 0), (124, 7), (94, 5), (185, 4), (133, 4), (67, 7), (136, 9), (48, 4), (127, 9), (220, 5), (12, 0), (5, 2), (178, 5), (70, 10), (143, 3), (82, 1), (184, 10), (223, 3), (115, 8)]
30	2	1	1	8	[(211, 8), (82, 0), (53, 7), (246, 10), (198, 0), (144, 5), (157, 7), (24, 3)]
31	1	6	16	15	[(221, 6), (106, 7), (41, 10), (222, 9), (170, 0), (78, 5), (205, 9), (246, 9), (71, 0), (216, 4), (239, 8), (114, 0), (46, 7), (95, 7), (89, 10)]
32	2	4	1	14	[(28, 2), (72, 4), (117, 2), (165, 3), (195, 9), (209, 1), (35, 3), (112, 1), (52, 10), (54, 10), (183, 2), (37, 8), (144, 10), (11, 0)]
33	2	1	48	15	[(143, 10), (224, 9), (168, 7), (138, 1), (128, 7), (4, 2), (211, 6), (160, 3), (87, 9), (164, 2), (88, 7), (136, 3), (94, 7), (129, 4), (225, 2)]
34	2	1	8	17	[(213, 0), (209, 3), (141, 0), (245, 10), (79, 9), (247, 8), (230, 9), (69, 2), (186, 1), (11, 6), (188, 0), (147, 5), (157, 0), (66, 2), (222, 2), (5, 1), (145, 0)]
35	2	2	8	10	[(179, 5), (119, 8), (237, 2), (150, 1), (88, 8), (243, 1), (250, 2), (46, 7), (29, 2), (64, 0)]
36	2	1	16	13	[(168, 9), (93, 6), (184, 0), (91, 0), (224, 8), (3, 1), (227, 9), (180, 10), (109, 2), (2, 6), (169, 2), (133, 1), (156, 3)]
37	6	2	8	17	[(30, 10), (35, 9), (65, 2), (87, 5), (36, 5), (124, 0), (21, 10), (91, 5), (224, 7), (238, 2), (190, 0), (198, 2), (66, 2), (64, 10), (193, 4), (4, 10), (233, 3)]
38	4	1	8	13	[(147, 7), (184, 7), (82, 2), (181, 9), (75, 7), (244, 7), (198, 1), (99, 8), (56, 7), (193, 9), (175, 7), (237, 6), (136, 10)]
39	2	1	8	12	[(242, 4), (12, 10), (145, 1), (206, 2), (122, 9), (159, 0), (166, 1), (147, 10), (211, 1), (150, 2), (89, 5), (176, 9)]
40	1	4	1	10	[(150, 2), (59, 9), (103, 6), (181, 2), (216, 1), (130, 9), (19, 0), (131, 7), (107, 4), (211, 0)]
41	6	1	8	5	[(122, 9), (67, 1), (16, 8), (149, 0), (94, 8)]
42	2	4	1	10	[(163, 2), (110, 9), (57, 0), (159, 1), (39, 5), (234, 1), (12, 5), (96, 2), (208, 3), (119, 1)]
43	3	3	1	17	[(202, 10), (198, 6), (214, 2), (17, 5), (42, 0), (228, 10), (11, 8), (119, 5), (103, 6), (163, 4), (249, 3), (3, 9), (115, 4), (160, 0), (16, 10), (99, 4), (154, 0)]
44	3	1	8	11	[(169, 8), (170, 9), (220, 4), (236, 9), (227, 1), (47, 7), (202, 9), (209, 9), (163, 5), (148, 2), (113, 2)]
45	4	8	2	16	[(215, 4), (109, 8), (44, 6), (237, 10), (187, 3), (199, 10), (242, 10), (142, 1), (118, 2), (91, 0), (174, 6), (166, 9), (169, 6), (104, 10), (195, 10), (84, 7)]
46	1	6	8	11	[(14, 10), (231, 6), (152, 6), (138, 9), (65, 9), (146, 0), (187, 7), (74, 0), (29, 1), (90, 10), (156, 10)]
47	4	1	8	16	[(174, 4), (240, 9), (101, 4), (230, 9), (8, 0), (167, 7), (95, 2), (66, 2), (137, 4), (40, 1), (193, 9), (190, 0), (24, 3), (90, 8), (200, 9), (30, 9)]
48	2	1	8	12	[(141, 5), (117, 3), (209, 3), (195, 10), (36, 4), (228, 1), (160, 7), (176, 4), (206, 8), (66, 4), (137, 8), (65, 9)]
49	1	12	7	16	[(150, 5), (102, 7), (197, 6), (82, 8), (244, 1), (204, 0), (30, 5), (249, 8), (126, 9), (165, 0), (177, 2), (233, 5), (60, 2), (37, 1), (20, 0), (117, 1)]
50	2	1	8	18	[(210, 3), (231, 8), (33, 5), (81, 7), (236, 10), (247, 2), (45, 8), (71, 0), (132, 1), (26, 8), (182, 10), (196, 4), (126, 6), (167, 5), (250, 4), (142, 1), (189, 5), (6, 10)]
51	1	1	8	16	[(137, 7), (72, 7), (152, 5), (124, 5), (244, 1), (119, 5), (191, 1), (133, 0), (250, 5), (243, 1), (121, 2), (217, 4), (7, 6), (186, 2), (207, 5), (135, 7)]
52	4	6	3	15	[(164, 6), (86, 9), (193, 3), (36, 3), (64, 5), (139, 7), (88, 7), (127, 1), (57, 4), (53, 3), (203, 8), (95, 3), (80, 4), (163, 5), (129, 6)]
53	2	1	8	9	[(129, 4), (232, 2), (122, 6), (186, 0), (212, 8), (104, 5), (250, 7), (75, 4), (110, 8)]
54	2	4	8	13	[(232, 1), (139, 8), (85, 2), (228, 8), (242, 7), (38, 7), (234, 3), (231, 2), (106, 10), (65, 4), (127, 7), (27, 1), (16, 1)]
55	11	1	8	17	[(236, 0), (130, 0), (231, 6), (137, 10), (52, 2), (59, 8), (154, 9), (81, 8), (213, 2), (179, 10), (177, 4), (69, 10), (44, 9), (105, 4), (60, 1), (19, 10), (153, 6)]
56	6	1	8	10	[(33, 9), (68, 3), (188, 8), (29, 6), (37, 1), (139, 9), (202, 10), (210, 0), (180, 10), (11, 9)]
57	4	3	8	5	[(117, 9), (13, 10), (176, 6), (223, 1), (39, 1)]
58	7	1	8	13	[(53, 10), (152, 7), (105, 5), (202, 0), (119, 7), (102, 9), (150, 3), (3, 9), (160, 10), (103, 7), (54, 5), (84, 5), (237, 5)]
59	5	1	15	7	[(137, 2), (109, 8), (242, 7), (118, 9), (110, 4), (197, 4), (141, 1)]
60	2	1	2	11	[(206, 1), (229, 2), (247, 4), (141, 9), (216, 8), (58, 9), (89, 8), (25, 3), (224, 2), (135, 6), (4, 7)]
61	2	4	8	9	[(67, 6), (200, 6), (97, 6), (225, 2), (193, 0), (35, 0), (50, 0), (98, 2), (231, 9)]
62	9	8	16	12	[(150, 5), (223, 2), (44, 8), (167, 10), (99, 4), (118, 7), (222, 2), (74, 2), (149, 5), (228, 10), (75, 5), (95, 6)]
63	1	1	8	17	[(112, 9), (143, 9), (7, 3), (248, 5), (148, 5), (78, 10), (2, 0), (162, 3), (234, 9), (51, 7), (141, 1), (16, 9), (200, 9), (242, 5), (237, 0), (140, 0), (26, 0)]
64	5	2	8	11	[(191, 1), (169, 8), (161, 5), (127, 8), (1, 0), (163, 10), (221, 9), (144, 5), (182, 3), (148, 5), (19, 9)]
65	3	1	2	10	[(13, 3), (60, 9), (183, 5), (184, 1), (77, 8), (9, 10), (157, 4), (206, 5), (86, 5), (95, 10)]
66	2	1	8	9	[(218, 7), (196, 7), (89, 2), (227, 8), (235, 7), (191, 0), (220, 0), (29, 3), (75, 8)]
67	2	1	2	14	[(178, 5), (217, 2), (81, 2), (208, 0), (4, 4), (67, 2), (198, 8), (233, 6), (53, 4), (69, 4), (121, 1), (235, 0), (213, 1), (42, 9)]
68	4	6	8	5	[(122, 0), (103, 4), (240, 10), (4, 7), (176, 1)]
69	7	1	8	21	[(82, 1), (165, 8), (202, 5), (128, 7), (241, 2), (40, 7), (201, 6), (129, 1), (52, 8), (116, 4), (88, 7), (58, 2), (139, 6), (240, 1), (156, 6), (210, 6), (216, 2), (131, 2), (6, 0), (126, 8), (147, 7)]
70	8	1	8	9	[(232, 10), (128, 0), (78, 9), (233, 4), (22, 3), (168, 3), (175, 9), (93, 9), (199, 7)]
71	2	4	1	12	[(24, 10), (59, 6), (144, 9), (209, 7), (241, 8), (186, 0), (61, 2), (131, 0), (99, 9), (43, 9), (250, 7), (216, 4)]
72	14	2	8	12	[(189, 0), (214, 10), (34, 7), (192, 0), (206, 5), (43, 5), (173, 0), (145, 3), (65, 4), (124, 4), (118, 2), (16, 0)]
73	4	1	8	14	[(99, 3), (110, 4), (92, 8), (190, 9), (249, 5), (185, 4), (29, 7), (71, 5), (225, 6), (4, 2), (220, 6), (246, 3), (223, 2), (230, 6)]
74	3	8	8	15	[(174, 2), (46, 0), (68, 3), (230, 3), (184, 5), (171, 6), (249, 6), (5, 5), (155, 0), (71, 4), (193, 3), (250, 10), (126, 1), (181, 6), (62, 9)]
75	2	1	8	6	[(218, 5), (27, 9), (215, 4), (81, 6), (184, 0), (107, 5)]
76	1	1	8	13	[(194, 6), (146, 3), (51, 0), (84, 6), (112, 6), (175, 5), (46, 1), (50, 9), (187, 1), (248, 0), (217, 5), (37, 3), (97, 0)]
77	10	1	8	11	[(40, 5), (143, 8), (245, 4), (145, 2), (219, 9), (99, 10), (92, 8), (151, 9), (201, 1), (20, 5), (16, 0)]
78	1	5	8	14	[(132, 6), (185, 10), (213, 5), (101, 2), (109, 8), (203, 3), (32, 2), (11, 7), (210, 4), (104, 7), (245, 3), (15, 9), (137, 4), (19, 8)]
79	18	1	8	14	[(137, 7), (245, 9), (236, 4), (171, 6), (78, 2), (223, 10), (177, 7), (102, 7), (189, 8), (120, 7), (111, 6), (206, 0), (126, 4), (56, 2)]
80	10	1	8	14	[(138, 8), (237, 7), (103, 4), (179, 5), (130, 5), (114, 1), (106, 5), (69, 4), (223, 2), (215, 6), (232, 0), (92, 1), (102, 2), (112, 0)]
81	2	1	8	8	[(7, 10), (125, 6), (22, 7), (158, 6), (121, 3), (138, 4), (168, 1), (27, 2)]
82	1	1	8	11	[(33, 4), (200, 0), (32, 3), (156, 5), (120, 9), (39, 9), (237, 3), (99, 4), (49, 7), (64, 4), (211, 5)]
83	1	1	8	22	[(235, 7), (203, 3), (238, 7), (12, 2), (129, 10), (206, 6), (102, 0), (33, 8), (6, 4), (74, 6), (82, 10), (47, 0), (77, 2), (24, 1), (138, 6), (118, 7), (191, 4), (154, 4), (3, 6), (28, 1), (99, 8), (201, 8)]
84	7	1	8	18	[(169, 8), (183, 7), (37, 4), (101, 8), (205, 4), (204, 6), (133, 8), (48, 7), (24, 0), (217, 10), (11, 0), (173, 9), (16, 7), (80, 7), (74, 2), (66, 2), (8, 2), (233, 1)]
85	3	1	16	10	[(74, 7), (84, 5), (68, 6), (209, 1), (55, 2), (88, 4), (188, 1), (232, 2), (119, 9), (67, 8)]
86	9	4	8	16	[(93, 10), (32, 5), (28, 10), (249, 2), (54, 1), (200, 5), (97, 10), (235, 2), (16, 9), (44, 1), (104, 0), (129, 6), (55, 9), (45, 3), (245, 7), (83, 5)]
87	5	1	2	11	[(29, 1), (112, 7), (201, 4), (94, 1), (188, 4), (59, 3), (117, 3), (155, 0), (8, 5), (184, 5), (77, 4)]
88	1	8	8	10	[(138, 3), (218, 2), (162, 8), (164, 10), (25, 0), (113, 8), (227, 4), (6, 9), (250, 1), (165, 4)]
89	1	1	8	13	[(243, 8), (12, 5), (130, 0), (199, 10), (109, 1), (247, 6), (77, 0), (120, 7), (61, 1), (62, 4), (142, 2), (226, 8), (4, 9)]
90	3	12	8	19	[(140, 3), (129, 2), (182, 0), (88, 1), (29, 3), (32, 6), (91, 9), (127, 0), (10, 5), (33, 2), (185, 9), (180, 3), (30, 6), (98, 4), (200, 5), (142, 4), (59, 10), (131, 10), (22, 4)]
91	1	1	8	10	[(27, 10), (85, 7), (95, 5), (128, 6), (131, 7), (145, 4), (96, 0), (176, 10), (127, 3), (22, 10)]
92	2	1	8	14	[(204, 1), (132, 6), (121, 2), (71, 2), (96, 5), (190, 4), (46, 3), (4, 10), (54, 3), (169, 9), (24, 8), (178, 2), (145, 7), (91, 3)]
93	35	6	2	9	[(28, 10), (133, 0), (129, 10), (5, 8), (205, 6), (168, 0), (91, 1), (165, 1), (44, 6)]
94	1	12	1	14	[(94, 8), (160, 8), (20, 1), (63, 4), (66, 6), (59, 1), (245, 8), (6, 10), (196, 9), (34, 9), (33, 1), (186, 0), (22, 3), (71, 10)]
95	1	3	2	9	[(93, 8), (231, 1), (12, 7), (55, 4), (6, 4), (70, 1), (39, 4), (22, 1), (139, 9)]
96	12	4	8	12	[(94, 6), (50, 6), (32, 5), (132, 10), (190, 2), (6, 7), (151, 10), (124, 5), (141, 2), (188, 3), (33, 2), (243, 0)]
97	1	1	8	17	[(123, 4), (214, 8), (126, 7), (27, 5), (218, 7), (152, 9), (187, 3), (156, 8), (210, 3), (186, 8), (159, 1), (137, 8), (241, 2), (14, 8), (247, 2), (168, 6), (70, 8)]
98	2	1	2	17	[(112, 1), (219, 7), (117, 8), (207, 0), (146, 0), (205, 5), (177, 2), (145, 5), (90, 5), (64, 3), (33, 5), (209, 3), (223, 7), (118, 5), (187, 7), (115, 10), (75, 8)]
99	12	2	8	14	[(5, 6), (83, 3), (137, 6), (82, 6), (33, 8), (103, 0), (101, 6), (142, 8), (128, 6), (181, 4), (109, 2), (53, 3), (160, 1), (209, 4)]
100	1	2	8	10	[(7, 5), (210, 3), (47, 9), (176, 7), (137, 6), (150, 4), (194, 10), (161, 3), (111, 3), (67, 7)]
101	1	2	8	7	[(62, 3), (193, 9), (56, 2), (41, 10), (151, 1), (101, 7), (159, 0)]
102	22	1	8	11	[(157, 7), (133, 5), (210, 0), (18, 7), (250, 7), (95, 8), (49, 8), (181, 5), (168, 10), (223, 0), (204, 8)]
103	2	1	8	8	[(66, 9), (171, 1), (190, 3), (72, 2), (78, 10), (140, 3), (239, 1), (221, 3)]
104	6	2	8	11	[(50, 10), (191, 8), (218, 7), (123, 7), (172, 0), (22, 1), (169, 9), (2, 7), (3, 8), (77, 1), (113, 9)]
105	1	4	1	14	[(239, 2), (241, 6), (33, 1), (160, 1), (119, 9), (157, 2), (9, 7), (128, 4), (105, 6), (234, 0), (80, 5), (61, 5), (240, 0), (58, 10)]
106	15	4	8	14	[(220, 5), (122, 2), (11, 1), (217, 7), (238, 2), (49, 6), (89, 0), (247, 0), (232, 7), (179, 2), (233, 7), (221, 7), (146, 10), (63, 0)]
107	2	12	1	13	[(34, 4), (12, 7), (181, 5), (226, 6), (222, 9), (107, 9), (45, 1), (23, 0), (180, 6), (245, 5), (236, 3), (233, 5), (138, 0)]
108	6	1	8	13	[(31, 8), (182, 10), (12, 4), (135, 10), (78, 3), (84, 4), (166, 9), (49, 3), (101, 10), (7, 9), (169, 7), (97, 8), (70, 8)]
109	1	4	8	16	[(71, 5), (122, 3), (19, 10), (231, 10), (219, 2), (107, 9), (214, 10), (151, 6), (32, 7), (3, 5), (218, 7), (230, 10), (137, 8), (217, 1), (82, 3), (225, 10)]
110	2	1	8	11	[(204, 9), (28, 0), (205, 6), (192, 8), (138, 3), (200, 7), (20, 1), (240, 9), (210, 1), (225, 8), (160, 7)]
111	1	4	8	15	[(81, 3), (243, 9), (131, 8), (180, 9), (163, 10), (204, 5), (184, 6), (84, 2), (238, 0), (34, 1), (65, 8), (202, 2), (13, 5), (171, 7), (206, 6)]
112	1	1	8	10	[(87, 4), (103, 9), (59, 1), (193, 5), (54, 5), (57, 6), (64, 5), (69, 8), (152, 1), (180, 1)]
113	1	1	2	10	[(149, 7), (203, 9), (158, 1), (208, 8), (20, 0), (8, 7), (107, 10), (95, 5), (80, 10), (244, 3)]
114	17	12	8	10	[(221, 3), (176, 10), (109, 8), (14, 8), (231, 6), (182, 10), (3, 6), (218, 2), (191, 4), (163, 3)]
115	1	1	2	11	[(39, 3), (224, 8), (175, 8), (6, 8), (197, 4), (180, 5), (64, 2), (110, 4), (58, 5), (90, 3), (246, 2)]
116	1	1	2	18	[(243, 1), (128, 1), (15, 10), (148, 8), (25, 3), (167, 5), (117, 8), (23, 1), (39, 8), (109, 0), (179, 3), (160, 6), (139, 3), (62, 5), (132, 3), (214, 9), (200, 4), (168, 10)]
117	26	1	8	13	[(170, 1), (96, 9), (94, 10), (60, 7), (131, 5), (212, 5), (54, 6), (192, 8), (34, 8), (146, 4), (28, 6), (222, 10), (191, 3)]
118	1	2	8	16	[(72, 8), (79, 0), (184, 4), (201, 7), (49, 9), (238, 1), (142, 5), (136, 5), (104, 6), (87, 3), (67, 6), (86, 6), (70, 5), (89, 9), (7, 9), (140, 3)]
119	9	6	8	11	[(194, 2), (9, 5), (110, 0), (24, 0), (131, 10), (20, 4), (244, 6), (41, 4), (6, 6), (199, 7), (180, 7)]
120	1	1	1	9	[(127, 8), (116, 10), (137, 0), (162, 10), (58, 7), (174, 1), (75, 9), (6, 3), (185, 7)]
121	4	1	8	12	[(40, 2), (154, 4), (218, 1), (44, 9), (65, 1), (206, 4), (82, 2), (41, 4), (191, 3), (230, 9), (163, 10), (169, 7)]
122	1	4	2	6	[(39, 0), (238, 7), (197, 1), (55, 0), (188, 7), (80, 3)]
123	2	4	8	12	[(171, 2), (119, 0), (131, 9), (41, 2), (15, 3), (236, 9), (222, 6), (241, 2), (14, 9), (248, 7), (203, 0), (100, 6)]
124	1	2	16	16	[(111, 8), (247, 7), (240, 8), (218, 1), (90, 8), (127, 4), (18, 10), (45, 4), (220, 6), (210, 8), (200, 7), (116, 9), (92, 3), (1, 10), (206, 0), (107, 6)]
125	1	3	8	8	[(102, 0), (170, 7), (205, 0), (198, 1), (12, 8), (121, 0), (11, 9), (77, 0)]
126	2	6	8	14	[(47, 6), (131, 7), (149, 4), (199, 2), (33, 1), (229, 10), (156, 2), (72, 9), (84, 4), (13, 3), (175, 8), (216, 2), (101, 9), (104, 8)]
127	5	2	8	18	[(233, 3), (190, 3), (129, 1), (150, 9), (21, 3), (123, 3), (84, 9), (103, 9), (161, 5), (188, 4), (68, 2), (226, 2), (167, 3), (222, 3), (192, 5), (180, 1), (186, 5), (175, 10)]
128	2	3	8	17	[(47, 2), (127, 4), (148, 3), (100, 7), (33, 0), (133, 10), (209, 10), (185, 6), (62, 6), (27, 7), (238, 2), (162, 9), (145, 9), (163, 9), (200, 9), (99, 1), (92, 8)]
129	1	1	2	17	[(1, 7), (210, 10), (227, 4), (52, 3), (29, 10), (121, 3), (21, 5), (170, 8), (104, 7), (49, 9), (160, 10), (245, 9), (145, 6), (184, 9), (62, 8), (219, 10), (163, 4)]
130	5	2	8	13	[(60, 8), (175, 3), (226, 0), (247, 10), (104, 8), (56, 8), (4, 3), (105, 10), (36, 8), (238, 4), (152, 6), (177, 4), (242, 2)]
131	2	6	8	13	[(155, 7), (183, 6), (204, 10), (114, 10), (133, 6), (73, 10), (72, 2), (33, 1), (39, 8), (171, 6), (104, 7), (237, 6), (159, 1)]
132	3	1	8	5	[(150, 8), (161, 6), (89, 1), (77, 5), (24, 0)]
133	4	1	3	13	[(28, 10), (173, 8), (244, 9), (104, 10), (121, 5), (100, 8), (156, 7), (250, 2), (83, 8), (98, 3), (50, 5), (172, 7), (123, 4)]
134	2	6	8	18	[(248, 9), (50, 5), (33, 4), (110, 0), (228, 6), (142, 5), (81, 3), (105, 3), (82, 1), (140, 3), (245, 4), (191, 10), (128, 3), (211, 9), (171, 1), (30, 10), (133, 2), (196, 9)]
135	2	1	8	15	[(188, 4), (24, 9), (246, 5), (19, 2), (65, 4), (134, 1), (224, 7), (12, 9), (17, 0), (175, 9), (75, 5), (235, 3), (84, 5), (245, 1), (174, 2)]
136	2	6	8	14	[(84, 5), (110, 6), (113, 7), (195, 10), (72, 2), (78, 4), (66, 10), (4, 3), (50, 8), (93, 10), (114, 5), (206, 8), (143, 3), (160, 7)]
137	2	1	16	17	[(14, 10), (215, 5), (86, 4), (100, 0), (113, 10), (6, 1), (118, 4), (167, 7), (191, 10), (245, 1), (30, 5), (236, 3), (187, 7), (69, 8), (5, 7), (91, 1), (199, 0)]
138	2	1	2	15	[(27, 8), (227, 4), (56, 1), (116, 7), (101, 1), (46, 5), (25, 6), (132, 3), (41, 10), (234, 9), (92, 5), (175, 2), (107, 9), (100, 6), (177, 5)]
139	153	1	8	13	[(146, 1), (238, 1), (73, 0), (96, 3), (190, 5), (166, 2), (66, 5), (126, 1), (123, 6), (165, 5), (226, 7), (98, 7), (153, 7)]
140	19	1	8	11	[(145, 4), (239, 6), (72, 1), (193, 8), (143, 8), (172, 3), (25, 8), (16, 3), (132, 9), (219, 1), (243, 6)]
141	9	1	8	9	[(188, 7), (181, 2), (9, 6), (75, 8), (237, 7), (142, 2), (219, 6), (239, 6), (33, 7)]
142	2	1	8	16	[(23, 8), (95, 4), (187, 9), (8, 2), (13, 9), (148, 1), (246, 8), (30, 0), (49, 2), (84, 3), (109, 3), (4, 1), (227, 2), (45, 4), (202, 10), (220, 0)]
143	7	1	8	13	[(8, 0), (16, 9), (195, 10), (25, 2), (20, 8), (52, 10), (18, 3), (205, 0), (30, 0), (75, 6), (185, 6), (92, 2), (168, 1)]
144	2	5	8	11	[(175, 0), (245, 2), (48, 10), (126, 8), (5, 3), (6, 9), (37, 5), (241, 8), (47, 6), (226, 9), (110, 8)]
145	13	1	8	20	[(134, 4), (172, 0), (224, 8), (212, 10), (21, 5), (248, 7), (13, 9), (148, 5), (17, 10), (112, 0), (250, 5), (79, 1), (90, 10), (139, 8), (152, 8), (16, 9), (9, 10), (81, 0), (137, 4), (209, 6)]
146	32	1	8	4	[(10, 4), (179, 9), (32, 6), (136, 9)]
147	1	1	2	16	[(192, 2), (220, 0), (19, 4), (157, 10), (226, 10), (178, 3), (160, 9), (4, 1), (115, 8), (137, 4), (207, 10), (1, 9), (116, 7), (5, 9), (95, 0), (235, 2)]
148	12	6	2	14	[(100, 2), (6, 3), (107, 6), (148, 5), (175, 1), (77, 2), (114, 0), (155, 4), (1, 9), (245, 7), (170, 4), (42, 5), (44, 6), (3, 7)]
149	9	1	2	11	[(100, 8), (9, 10), (105, 1), (129, 6), (148, 4), (174, 3), (84, 10), (143, 6), (6, 4), (202, 4), (191, 10)]
150	2	1	8	12	[(226, 0), (69, 0), (53, 8), (68, 10), (64, 6), (95, 8), (80, 3), (111, 10), (125, 6), (230, 9), (161, 4), (235, 4)]
151	19	1	2	18	[(34, 5), (9, 3), (168, 3), (71, 6), (226, 5), (129, 4), (209, 8), (128, 5), (136, 5), (60, 0), (149, 9), (164, 6), (1, 8), (126, 0), (175, 4), (190, 5), (245, 0), (74, 1)]
152	2	1	8	9	[(14, 5), (222, 8), (232, 10), (216, 4), (132, 1), (177, 0), (51, 4), (76, 9), (137, 7)]
153	2	1	8	13	[(202, 9), (74, 3), (158, 2), (55, 7), (226, 9), (132, 6), (182, 4), (227, 10), (186, 5), (23, 5), (106, 3), (3, 10), (11, 5)]
154	2	3	32	12	[(37, 9), (190, 1), (214, 5), (97, 8), (242, 0), (123, 9), (101, 10), (166, 10), (231, 8), (202, 1), (72, 9), (82, 3)]
155	3	1	1	8	[(151, 6), (243, 1), (70, 7), (33, 9), (216, 4), (179, 9), (63, 9), (205, 9)]
156	1	1	8	12	[(153, 6), (69, 2), (111, 10), (240, 9), (124, 3), (230, 6), (81, 5), (49, 7), (125, 2), (226, 4), (74, 4), (229, 9)]
157	2	1	8	13	[(125, 3), (175, 6), (19, 3), (20, 8), (167, 4), (72, 1), (13, 0), (171, 3), (216, 7), (122, 4), (38, 10), (50, 4), (23, 1)]
158	2	12	8	12	[(137, 4), (2, 4), (10, 8), (237, 1), (228, 7), (198, 7), (75, 6), (12, 2), (139, 2), (246, 8), (160, 3), (249, 3)]
159	2	6	8	12	[(141, 2), (117, 3), (173, 5), (159, 10), (199, 10), (84, 6), (169, 3), (35, 8), (68, 3), (137, 6), (118, 6), (23, 6)]
160	51	1	2	19	[(86, 7), (184, 8), (222, 3), (66, 1), (225, 2), (53, 0), (8, 7), (232, 3), (4, 4), (39, 5), (11, 7), (97, 10), (239, 2), (60, 5), (23, 8), (113, 6), (42, 2), (125, 7), (5, 7)]
161	4	6	8	7	[(124, 9), (200, 8), (214, 1), (4, 5), (182, 2), (198, 2), (202, 6)]
162	4	4	2	16	[(3, 5), (164, 6), (182, 2), (122, 1), (90, 9), (119, 0), (193, 2), (73, 5), (135, 4), (39, 9), (248, 4), (2, 4), (49, 2), (68, 10), (116, 6), (208, 6)]
163	2	4	8	7	[(151, 4), (20, 1), (235, 8), (68, 10), (2, 8), (243, 6), (117, 0)]
164	6	2	16	14	[(211, 0), (28, 9), (93, 3), (31, 6), (179, 5), (144, 10), (76, 6), (238, 7), (130, 0), (80, 2), (104, 8), (44, 5), (232, 0), (114, 3)]
165	8	1	8	8	[(224, 7), (104, 1), (170, 8), (42, 6), (84, 1), (234, 4), (164, 5), (239, 4)]
166	4	1	1	10	[(101, 3), (50, 10), (124, 9), (84, 0), (220, 3), (186, 1), (20, 4), (250, 9), (192, 10), (163, 5)]
167	2	1	2	12	[(32, 10), (129, 10), (103, 9), (98, 7), (78, 8), (76, 2), (169, 9), (227, 5), (74, 8), (52, 2), (95, 6), (154, 6)]
168	24	2	2	15	[(243, 8), (132, 4), (29, 6), (124, 1), (4, 7), (83, 7), (233, 8), (123, 1), (204, 4), (221, 0), (119, 7), (65, 9), (240, 3), (128, 0), (193, 4)]
169	1	2	8	16	[(55, 2), (75, 10), (176, 2), (225, 1), (215, 4), (157, 8), (237, 8), (130, 2), (164, 6), (139, 7), (74, 3), (36, 8), (9, 1), (207, 1), (93, 10), (136, 1)]
170	5	3	2	21	[(42, 6), (208, 8), (57, 3), (242, 2), (118, 8), (175, 3), (4, 10), (102, 0), (226, 5), (165, 3), (80, 6), (179, 3), (172, 0), (158, 5), (44, 7), (73, 5), (185, 9), (136, 10), (166, 4), (117, 4), (195, 4)]
171	4	4	8	14	[(21, 10), (96, 3), (110, 2), (145, 7), (49, 7), (56, 8), (192, 0), (68, 0), (31, 9), (11, 0), (12, 0), (102, 7), (69, 8), (229, 6)]
172	4	1	8	13	[(81, 1), (151, 4), (36, 2), (64, 6), (236, 4), (180, 8), (32, 3), (208, 7), (218, 2), (230, 5), (115, 4), (248, 8), (134, 1)]
173	7	1	1	6	[(99, 7), (243, 3), (228, 7), (229, 3), (39, 6), (208, 0)]
174	1	1	3	8	[(35, 2), (210, 10), (145, 7), (7, 5), (165, 1), (95, 10), (192, 2), (141, 1)]
175	2	1	8	12	[(151, 3), (174, 0), (37, 9), (247, 4), (46, 4), (243, 9), (211, 10), (104, 2), (47, 10), (101, 4), (213, 4), (40, 7)]
176	7	1	2	12	[(76, 9), (89, 2), (75, 10), (104, 3), (93, 10), (72, 9), (233, 0), (161, 2), (98, 0), (41, 0), (50, 6), (239, 2)]
177	2	2	8	16	[(244, 6), (71, 3), (81, 10), (68, 1), (31, 7), (110, 7), (147, 7), (105, 8), (5, 6), (121, 2), (204, 4), (189, 3), (30, 8), (125, 2), (246, 2), (213, 9)]
178	1	2	8	9	[(92, 0), (26, 5), (189, 8), (244, 6), (93, 4), (233, 9), (140, 10), (149, 7), (54, 0)]
179	1	2	8	9	[(240, 10), (11, 5), (5, 4), (163, 2), (114, 4), (105, 2), (230, 9), (184, 6), (19, 6)]
180	3	4	10	11	[(143, 3), (55, 4), (242, 6), (135, 9), (109, 2), (85, 2), (189, 7), (170, 4), (166, 7), (102, 6), (198, 8)]
181	4	1	8	12	[(12, 6), (144, 7), (119, 3), (44, 9), (235, 2), (182, 3), (215, 9), (220, 7), (117, 6), (104, 9), (228, 9), (123, 7)]
182	2	1	2	12	[(111, 7), (157, 6), (16, 0), (241, 8), (22, 3), (83, 6), (31, 9), (19, 10), (239, 3), (23, 4), (68, 3), (2, 2)]
183	1	1	8	11	[(201, 2), (232, 7), (159, 10), (129, 10), (123, 10), (88, 5), (64, 5), (240, 6), (160, 2), (114, 4), (43, 8)]
184	4	1	8	7	[(154, 2), (58, 4), (127, 6), (191, 4), (44, 5), (136, 1), (231, 2)]
185	5	2	8	8	[(130, 4), (197, 2), (141, 8), (223, 2), (241, 5), (222, 7), (220, 4), (146, 3)]
186	3	1	8	15	[(209, 5), (150, 7), (203, 0), (20, 2), (79, 7), (214, 9), (197, 4), (36, 7), (1, 9), (62, 1), (215, 2), (193, 7), (72, 2), (177, 7), (98, 1)]
187	2	1	8	14	[(108, 7), (102, 5), (130, 5), (23, 3), (49, 0), (22, 7), (144, 9), (27, 0), (84, 6), (250, 0), (9, 2), (26, 4), (229, 3), (222, 2)]
188	2	1	8	6	[(182, 10), (169, 4), (35, 7), (43, 4), (110, 10), (136, 9)]
189	224	3	8	16	[(102, 6), (29, 1), (32, 3), (244, 0), (8, 7), (111, 4), (120, 3), (63, 8), (217, 5), (157, 3), (86, 5), (39, 2), (209, 7), (57, 1), (160, 5), (114, 7)]
190	2	1	8	15	[(67, 0), (125, 6), (35, 4), (204, 7), (133, 8), (132, 3), (129, 3), (228, 3), (49, 3), (139, 0), (207, 8), (199, 1), (10, 10), (126, 6), (95, 9)]
191	1	1	1	12	[(78, 5), (84, 7), (117, 7), (180, 2), (229, 7), (100, 8), (114, 8), (182, 10), (22, 8), (29, 10), (146, 6), (27, 9)]
192	2	1	8	12	[(72, 5), (119, 4), (100, 10), (46, 10), (91, 1), (16, 2), (153, 5), (185, 10), (108, 9), (51, 8), (73, 8), (59, 10)]
193	4	1	8	12	[(101, 0), (156, 7), (231, 6), (187, 9), (163, 10), (203, 4), (235, 8), (159, 10), (107, 6), (221, 0), (4, 4), (243, 2)]
194	2	1	2	14	[(172, 8), (82, 6), (98, 5), (93, 8), (7, 10), (20, 6), (23, 4), (166, 6), (164, 2), (96, 9), (15, 9), (86, 8), (100, 6), (243, 5)]
195	1	2	8	21	[(118, 7), (129, 0), (245, 10), (97, 3), (158, 1), (87, 3), (244, 10), (184, 0), (131, 5), (70, 1), (104, 3), (55, 9), (145, 6), (10, 3), (182, 8), (192, 9), (227, 6), (40, 7), (92, 10), (67, 3), (185, 2)]
196	1	4	8	8	[(224, 0), (88, 9), (211, 4), (78, 2), (84, 10), (51, 1), (12, 3), (227, 4)]
197	155	1	8	10	[(74, 5), (166, 1), (245, 8), (18, 3), (57, 2), (94, 1), (104, 1), (118, 5), (63, 4), (216, 5)]
198	2	1	2	18	[(246, 1), (100, 7), (66, 4), (111, 8), (68, 1), (163, 6), (220, 3), (101, 2), (114, 6), (82, 10), (4, 7), (21, 2), (198, 5), (156, 1), (210, 4), (104, 5), (99, 5), (44, 8)]
199	5	1	8	17	[(72, 8), (57, 1), (62, 0), (80, 1), (31, 0), (241, 8), (102, 3), (99, 6), (237, 4), (216, 8), (97, 7), (87, 8), (96, 0), (81, 8), (38, 4), (147, 0), (156, 7)]
200	2	1	8	11	[(83, 7), (59, 8), (46, 9), (119, 0), (64, 2), (174, 0), (218, 4), (244, 3), (206, 10), (47, 3), (87, 7)]
201	1	1	12	12	[(179, 3), (59, 0), (173, 5), (82, 7), (138, 2), (153, 0), (155, 3), (169, 10), (107, 6), (32, 0), (46, 7), (166, 0)]
202	4	1	8	10	[(229, 7), (110, 5), (16, 3), (107, 2), (198, 0), (58, 2), (158, 9), (200, 4), (134, 7), (175, 9)]
203	3	1	8	13	[(133, 5), (111, 9), (170, 0), (181, 8), (39, 3), (9, 6), (25, 10), (18, 2), (91, 8), (92, 6), (159, 10), (12, 7), (226, 2)]
204	3	1	8	14	[(155, 4), (194, 2), (148, 3), (207, 4), (54, 8), (224, 1), (160, 3), (250, 0), (135, 0), (233, 1), (169, 4), (99, 7), (196, 5), (17, 4)]
205	7	1	8	6	[(234, 10), (243, 7), (41, 2), (181, 7), (211, 9), (175, 0)]
206	1	1	8	9	[(6, 2), (46, 7), (150, 3), (155, 7), (158, 0), (86, 2), (131, 10), (16, 6), (169, 6)]
207	20	12	8	11	[(141, 2), (236, 2), (165, 6), (212, 4), (33, 7), (95, 5), (224, 5), (200, 8), (49, 1), (54, 2), (78, 1)]
208	5	1	8	14	[(73, 10), (187, 8), (148, 6), (247, 5), (111, 5), (104, 1), (208, 7), (93, 6), (120, 0), (166, 2), (197, 4), (113, 6), (201, 7), (6, 4)]
209	1	1	8	13	[(145, 3), (169, 6), (242, 0), (24, 5), (19, 7), (50, 1), (165, 8), (248, 3), (171, 8), (29, 1), (207, 9), (54, 2), (99, 1)]
210	4	2	2	7	[(234, 3), (126, 8), (51, 9), (5, 8), (180, 10), (130, 8), (58, 5)]
211	9	1	8	12	[(217, 2), (77, 2), (181, 9), (60, 3), (69, 9), (125, 1), (66, 0), (31, 10), (223, 8), (133, 6), (154, 3), (240, 8)]
212	2	1	8	11	[(108, 6), (130, 8), (22, 6), (88, 6), (38, 4), (25, 6), (98, 10), (151, 3), (148, 6), (141, 3), (11, 6)]
213	5	1	8	14	[(238, 1), (59, 3), (50, 10), (121, 3), (54, 10), (179, 2), (135, 2), (241, 3), (197, 2), (95, 8), (14, 7), (190, 0), (30, 7), (171, 5)]
214	3	1	8	8	[(168, 6), (183, 9), (181, 8), (128, 7), (49, 1), (192, 9), (33, 5), (239, 10)]
215	2	1	2	13	[(22, 5), (43, 8), (149, 4), (193, 4), (212, 0), (209, 0), (21, 10), (73, 6), (197, 4), (103, 1), (220, 3), (16, 1), (5, 9)]
216	3	2	8	9	[(147, 0), (214, 3), (109, 7), (154, 2), (229, 6), (242, 7), (20, 5), (186, 8), (82, 1)]
217	1	2	8	15	[(236, 6), (77, 4), (140, 5), (50, 1), (60, 9), (122, 9), (142, 4), (44, 9), (103, 4), (230, 1), (39, 6), (178, 5), (250, 1), (134, 8), (163, 5)]
218	23	2	8	13	[(74, 7), (156, 10), (166, 5), (114, 1), (39, 4), (150, 7), (229, 5), (29, 9), (109, 4), (133, 0), (217, 5), (56, 0), (143, 9)]
219	4	1	8	19	[(160, 7), (187, 10), (164, 4), (144, 8), (166, 2), (224, 2), (39, 1), (127, 4), (230, 1), (185, 10), (2, 3), (156, 3), (91, 5), (104, 5), (95, 5), (106, 8), (223, 4), (43, 3), (163, 3)]
220	2	1	18	12	[(100, 1), (94, 0), (46, 10), (155, 2), (1, 9), (209, 10), (129, 9), (223, 3), (83, 9), (121, 1), (16, 7), (139, 0)]
221	6	1	8	10	[(215, 2), (107, 7), (244, 10), (185, 10), (223, 9), (114, 3), (83, 7), (235, 3), (135, 4), (36, 6)]
222	4	1	8	19	[(170, 9), (140, 0), (106, 6), (158, 5), (39, 9), (123, 1), (234, 2), (193, 8), (164, 5), (196, 10), (14, 9), (37, 4), (85, 1), (213, 2), (154, 9), (80, 2), (142, 1), (89, 1), (124, 9)]
223	2	1	8	12	[(240, 6), (142, 0), (182, 3), (17, 4), (131, 4), (61, 10), (233, 10), (4, 2), (44, 9), (207, 5), (119, 9), (238, 3)]
224	6	1	8	14	[(45, 0), (156, 5), (14, 10), (58, 6), (9, 4), (34, 8), (181, 1), (82, 8), (60, 10), (245, 4), (122, 5), (204, 1), (215, 3), (99, 4)]
225	2	1	8	15	[(104, 2), (49, 1), (123, 5), (73, 7), (169, 4), (79, 1), (213, 0), (115, 6), (6, 1), (141, 7), (161, 0), (146, 4), (31, 0), (21, 8), (44, 4)]
226	3	1	8	7	[(40, 1), (113, 7), (183, 4), (147, 9), (6, 4), (142, 1), (155, 10)]
227	3	2	8	8	[(56, 2), (34, 0), (222, 4), (227, 1), (17, 2), (59, 6), (244, 0), (179, 5)]
228	1	1	8	17	[(31, 9), (163, 8), (150, 8), (8, 7), (244, 3), (104, 8), (202, 9), (63, 1), (139, 4), (97, 5), (195, 2), (24, 0), (80, 0), (203, 7), (68, 2), (60, 10), (88, 1)]
229	2	1	8	12	[(74, 4), (2, 4), (54, 10), (164, 4), (70, 9), (154, 3), (4, 5), (125, 9), (7, 10), (172, 6), (141, 10), (189, 6)]
230	3	2	8	17	[(83, 9), (14, 10), (2, 8), (167, 7), (161, 6), (151, 6), (160, 0), (87, 9), (71, 2), (173, 3), (131, 10), (58, 4), (6, 0), (144, 4), (38, 3), (166, 2), (230, 6)]
231	122	5	4	10	[(199, 2), (44, 8), (156, 6), (234, 2), (69, 8), (197, 10), (205, 9), (227, 1), (45, 4), (42, 9)]
232	3	3	8	14	[(236, 3), (240, 3), (106, 9), (153, 7), (158, 2), (52, 9), (32, 7), (239, 6), (242, 3), (151, 1), (183, 8), (150, 7), (16, 1), (225, 6)]
233	2	5	7	11	[(161, 0), (41, 6), (241, 10), (63, 3), (1, 5), (120, 4), (119, 4), (38, 7), (28, 10), (237, 3), (184, 7)]
234	2	6	8	9	[(211, 7), (118, 7), (170, 5), (112, 4), (227, 4), (39, 1), (197, 1), (30, 5), (18, 1)]
235	3	4	2	9	[(111, 2), (13, 9), (32, 2), (88, 3), (128, 1), (94, 10), (49, 2), (5, 6), (218, 0)]
236	1	1	8	12	[(222, 7), (137, 3), (104, 7), (165, 4), (120, 5), (229, 4), (204, 8), (19, 3), (214, 0), (189, 2), (154, 8), (148, 4)]
237	2	1	32	14	[(200, 10), (104, 6), (25, 8), (136, 1), (237, 7), (90, 7), (108, 7), (12, 9), (202, 1), (206, 0), (117, 4), (1, 2), (87, 3), (110, 2)]
238	10	1	8	15	[(108, 7), (2, 7), (216, 7), (173, 2), (53, 1), (40, 6), (28, 6), (144, 4), (147, 10), (148, 0), (157, 5), (204, 6), (91, 10), (167, 5), (96, 6)]
239	6	1	8	15	[(170, 3), (217, 3), (174, 1), (239, 5), (100, 0), (242, 8), (157, 10), (230, 6), (110, 7), (193, 7), (168, 10), (213, 6), (59, 1), (122, 4), (14, 10)]
240	2	2	8	12	[(9, 7), (105, 4), (97, 0), (183, 9), (171, 6), (52, 7), (208, 7), (68, 1), (222, 7), (163, 0), (65, 0), (142, 5)]
241	1	2	8	8	[(226, 3), (40, 8), (241, 5), (223, 4), (150, 3), (180, 9), (225, 2), (190, 0)]
242	2	3	8	5	[(68, 9), (208, 7), (63, 0), (25, 5), (206, 6)]
243	1	3	8	11	[(217, 8), (44, 5), (119, 3), (154, 2), (60, 0), (195, 10), (146, 7), (192, 5), (191, 4), (173, 8), (27, 2)]
244	1	1	8	15	[(195, 9), (12, 0), (115, 0), (218, 6), (159, 4), (137, 7), (92, 9), (5, 3), (32, 1), (168, 7), (50, 7), (111, 9), (233, 5), (6, 0), (164, 3)]
245	3	1	16	18	[(92, 10), (55, 2), (156, 9), (62, 3), (105, 3), (137, 3), (195, 2), (206, 8), (66, 2), (1, 9), (3, 8), (89, 5), (250, 2), (56, 8), (113, 1), (72, 9), (246, 2), (80, 1)]
246	1	1	8	11	[(96, 2), (173, 8), (16, 2), (181, 10), (177, 0), (33, 9), (82, 6), (230, 3), (143, 4), (4, 2), (46, 5)]
247	13	2	4	14	[(77, 9), (195, 1), (131, 2), (153, 6), (154, 2), (37, 10), (192, 0), (66, 0), (15, 7), (160, 7), (93, 4), (155, 0), (50, 8), (197, 6)]
248	1	6	8	7	[(22, 2), (91, 2), (66, 4), (138, 9), (115, 8), (43, 5), (193, 0)]
249	7	5	16	15	[(47, 2), (225, 5), (179, 1), (11, 3), (210, 6), (60, 9), (181, 4), (132, 7), (46, 8), (87, 7), (7, 0), (172, 6), (121, 9), (86, 0), (198, 7)]
250	4	1	2	16	[(149, 5), (215, 6), (38, 3), (51, 9), (159, 5), (77, 7), (50, 10), (195, 6), (104, 9), (127, 5), (133, 10), (197, 6), (93, 9), (223, 7), (24, 0), (198, 4)]
