app_id	nb_instances	core	memory	inter_degree	inter_aff
1	1	1	16	32	[(212, 0), (59, 9), (134, 0), (120, 1), (125, 0), (213, 8), (107, 10), (233, 9), (29, 9), (8, 2), (115, 0), (244, 0), (73, 4), (67, 8), (17, 8), (230, 2), (232, 4), (207, 4), (159, 5), (138, 8), (102, 2), (75, 2), (54, 10), (192, 1), (172, 5), (168, 5), (169, 9), (227, 8), (143, 4), (56, 0), (217, 0), (195, 6)]
2	24	2	8	26	[(150, 4), (175, 0), (98, 6), (130, 10), (60, 7), (202, 9), (8, 9), (29, 8), (39, 7), (25, 8), (121, 2), (207, 8), (145, 5), (190, 4), (226, 6), (69, 8), (61, 9), (236, 1), (109, 5), (63, 10), (192, 3), (155, 8), (33, 8), (44, 7), (140, 9), (6, 9)]
3	2	1	8	24	[(124, 5), (177, 6), (168, 6), (161, 6), (206, 8), (181, 3), (183, 2), (233, 0), (81, 0), (56, 6), (243, 9), (76, 9), (98, 10), (49, 2), (173, 6), (229, 6), (45, 4), (87, 0), (200, 6), (180, 6), (139, 2), (9, 0), (47, 4), (182, 5)]
4	143	1	8	17	[(43, 1), (202, 10), (229, 2), (9, 9), (102, 10), (122, 5), (238, 3), (134, 3), (232, 2), (64, 8), (94, 3), (83, 4), (62, 1), (235, 3), (123, 9), (99, 10), (203, 9)]
5	1	1	8	33	[(180, 2), (248, 9), (135, 7), (25, 0), (114, 5), (90, 1), (47, 2), (216, 9), (236, 2), (78, 6), (92, 0), (199, 7), (182, 10), (214, 5), (131, 5), (12, 0), (14, 1), (162, 9), (4, 1), (173, 10), (75, 8), (89, 6), (76, 6), (50, 3), (82, 1), (120, 7), (181, 0), (40, 7), (176, 4), (36, 10), (205, 3), (119, 6), (30, 9)]
6	2	1	8	29	[(177, 5), (206, 6), (14, 7), (29, 1), (157, 8), (148, 9), (202, 3), (191, 8), (87, 3), (139, 7), (218, 4), (203, 7), (225, 7), (47, 10), (70, 8), (208, 9), (66, 4), (211, 5), (233, 2), (28, 1), (111, 1), (241, 3), (24, 3), (234, 3), (93, 2), (219, 5), (113, 0), (147, 1), (110, 0)]
7	2	1	8	26	[(118, 7), (75, 4), (45, 4), (185, 4), (220, 6), (187, 6), (88, 3), (240, 0), (96, 3), (17, 6), (138, 8), (85, 10), (90, 9), (57, 4), (6, 6), (114, 8), (18, 7), (217, 7), (95, 7), (161, 9), (149, 0), (148, 7), (231, 4), (170, 0), (5, 5), (235, 0)]
8	5	1	4	16	[(100, 1), (58, 8), (71, 4), (63, 5), (202, 2), (128, 0), (234, 1), (150, 3), (136, 4), (74, 3), (84, 4), (124, 4), (173, 2), (99, 7), (148, 7), (157, 9)]
9	2	2	8	24	[(240, 1), (37, 6), (212, 8), (89, 2), (40, 9), (87, 3), (82, 9), (133, 3), (176, 6), (5, 10), (81, 5), (21, 5), (105, 1), (225, 5), (78, 5), (68, 0), (162, 2), (9, 4), (158, 4), (173, 5), (228, 8), (65, 6), (104, 3), (145, 3)]
10	1	1	16	19	[(104, 1), (214, 10), (137, 7), (235, 4), (198, 3), (236, 9), (182, 7), (92, 4), (230, 0), (90, 9), (53, 3), (81, 3), (94, 4), (134, 5), (187, 3), (194, 0), (23, 3), (169, 3), (239, 9)]
11	3	1	8	20	[(134, 0), (52, 9), (245, 6), (9, 3), (42, 6), (90, 3), (50, 9), (100, 4), (25, 6), (140, 6), (129, 0), (190, 7), (213, 9), (45, 2), (218, 2), (192, 9), (113, 10), (73, 2), (39, 5), (5, 9)]
12	2	1	8	17	[(191, 9), (119, 6), (176, 9), (222, 10), (200, 8), (26, 1), (143, 5), (52, 8), (64, 3), (229, 5), (199, 5), (27, 5), (48, 8), (224, 8), (146, 6), (57, 6), (196, 7)]
13	1	1	8	27	[(35, 9), (141, 7), (160, 5), (84, 9), (150, 10), (240, 8), (225, 1), (250, 1), (140, 8), (72, 8), (170, 7), (11, 6), (118, 9), (46, 8), (51, 3), (209, 2), (190, 8), (166, 9), (212, 3), (188, 7), (128, 1), (75, 9), (199, 1), (143, 8), (210, 6), (10, 10), (32, 10)]
14	2	1	8	22	[(119, 0), (100, 8), (97, 7), (14, 8), (175, 5), (160, 10), (30, 2), (165, 8), (207, 7), (125, 0), (153, 7), (13, 0), (87, 0), (98, 10), (132, 4), (73, 4), (76, 4), (163, 3), (114, 7), (112, 5), (33, 9), (75, 3)]
15	1	1	8	30	[(87, 8), (93, 1), (76, 4), (24, 6), (89, 5), (160, 10), (115, 0), (96, 2), (162, 10), (197, 6), (175, 6), (193, 5), (17, 7), (36, 6), (167, 8), (202, 3), (60, 0), (140, 8), (173, 8), (199, 2), (250, 9), (245, 7), (129, 1), (239, 2), (22, 5), (90, 5), (132, 9), (170, 1), (120, 3), (212, 8)]
16	2	5	8	26	[(169, 4), (31, 4), (247, 1), (138, 2), (33, 3), (202, 2), (156, 3), (176, 7), (162, 10), (239, 5), (149, 4), (84, 5), (65, 10), (177, 2), (208, 0), (40, 0), (57, 10), (46, 7), (50, 9), (6, 3), (190, 5), (170, 4), (203, 4), (201, 9), (197, 5), (172, 2)]
17	24	2	8	22	[(37, 2), (232, 10), (100, 4), (129, 3), (85, 4), (4, 10), (188, 2), (189, 2), (207, 0), (223, 5), (12, 5), (182, 3), (225, 6), (245, 5), (93, 1), (212, 9), (69, 2), (250, 0), (185, 5), (155, 9), (117, 1), (90, 7)]
18	1	1	8	17	[(108, 6), (83, 3), (215, 7), (169, 7), (74, 5), (141, 1), (60, 7), (111, 2), (199, 7), (162, 5), (118, 6), (17, 4), (226, 2), (197, 4), (79, 4), (176, 8), (135, 9)]
19	1	1	8	32	[(95, 4), (227, 3), (61, 9), (44, 9), (116, 6), (235, 8), (79, 5), (81, 2), (117, 2), (189, 7), (48, 6), (22, 8), (104, 3), (13, 5), (197, 4), (231, 1), (25, 0), (49, 7), (93, 3), (19, 3), (190, 9), (87, 2), (37, 1), (60, 6), (101, 8), (28, 5), (162, 9), (91, 7), (131, 6), (8, 1), (23, 1), (164, 9)]
20	1	1	3	17	[(165, 8), (91, 0), (125, 3), (224, 3), (63, 1), (34, 5), (177, 1), (110, 5), (35, 10), (105, 6), (120, 1), (241, 3), (36, 8), (202, 2), (94, 8), (62, 6), (78, 7)]
21	2	1	8	18	[(27, 9), (199, 1), (203, 10), (31, 7), (19, 8), (99, 6), (124, 6), (231, 8), (118, 6), (129, 9), (90, 4), (201, 7), (25, 6), (117, 9), (200, 1), (249, 10), (195, 4), (191, 1)]
22	4	1	8	28	[(229, 1), (70, 6), (81, 9), (34, 1), (238, 9), (40, 5), (86, 1), (237, 9), (35, 8), (223, 6), (211, 9), (202, 0), (217, 2), (135, 10), (205, 6), (84, 10), (139, 2), (41, 0), (107, 3), (110, 9), (216, 2), (1, 1), (82, 10), (173, 10), (170, 1), (117, 0), (198, 4), (164, 0)]
23	1	1	8	19	[(230, 3), (80, 2), (155, 2), (106, 5), (83, 10), (154, 1), (100, 9), (222, 1), (79, 2), (120, 3), (76, 9), (232, 1), (66, 7), (121, 4), (141, 10), (226, 6), (108, 4), (46, 0), (57, 0)]
24	1	1	8	33	[(247, 0), (13, 6), (31, 3), (93, 5), (146, 1), (103, 7), (49, 1), (142, 7), (165, 5), (218, 1), (239, 7), (79, 1), (95, 5), (207, 3), (4, 5), (72, 3), (62, 5), (223, 0), (65, 8), (58, 0), (115, 0), (113, 9), (51, 9), (5, 9), (109, 4), (202, 6), (82, 8), (97, 1), (155, 6), (175, 1), (66, 1), (180, 6), (233, 2)]
25	4	1	8	32	[(53, 0), (101, 6), (172, 2), (138, 3), (212, 6), (198, 1), (20, 7), (14, 1), (35, 0), (199, 0), (27, 5), (51, 9), (86, 6), (234, 2), (146, 0), (159, 8), (237, 10), (193, 3), (81, 10), (191, 5), (186, 4), (190, 1), (58, 5), (25, 1), (108, 5), (77, 0), (192, 3), (33, 2), (144, 10), (122, 10), (49, 9), (125, 6)]
26	2	1	8	26	[(21, 8), (96, 0), (127, 5), (170, 8), (191, 8), (93, 4), (161, 9), (10, 7), (241, 3), (28, 1), (58, 3), (67, 3), (73, 2), (205, 7), (174, 5), (106, 1), (31, 7), (227, 0), (12, 3), (114, 10), (99, 5), (27, 1), (247, 0), (44, 8), (11, 10), (4, 1)]
27	4	1	8	19	[(221, 1), (23, 0), (227, 3), (39, 9), (20, 9), (77, 3), (245, 8), (81, 6), (126, 3), (218, 8), (61, 6), (231, 9), (84, 8), (197, 8), (3, 7), (78, 1), (65, 2), (147, 8), (209, 5)]
28	3	1	8	28	[(148, 3), (191, 2), (81, 3), (229, 2), (7, 2), (188, 3), (58, 9), (65, 9), (241, 2), (162, 4), (12, 2), (73, 1), (220, 7), (54, 5), (240, 7), (77, 7), (198, 5), (150, 2), (101, 2), (22, 5), (142, 5), (250, 9), (97, 9), (189, 4), (95, 10), (168, 8), (156, 4), (139, 6)]
29	2	1	8	24	[(145, 9), (218, 10), (233, 10), (142, 0), (9, 3), (245, 2), (27, 2), (155, 8), (105, 2), (139, 8), (98, 10), (137, 9), (93, 0), (241, 4), (150, 10), (30, 6), (199, 5), (54, 3), (42, 10), (236, 5), (143, 10), (232, 0), (208, 6), (29, 8)]
30	2	6	8	25	[(238, 2), (195, 5), (15, 5), (223, 7), (174, 2), (90, 5), (179, 2), (44, 3), (187, 2), (94, 4), (107, 4), (101, 10), (85, 10), (153, 4), (113, 2), (49, 5), (242, 10), (36, 2), (60, 5), (229, 1), (184, 4), (181, 2), (40, 2), (56, 2), (148, 9)]
31	3	1	8	21	[(84, 7), (167, 9), (166, 5), (119, 3), (134, 3), (217, 3), (164, 5), (72, 6), (71, 8), (200, 10), (3, 6), (237, 0), (223, 7), (185, 0), (17, 7), (210, 0), (242, 2), (219, 2), (131, 6), (121, 1), (186, 3)]
32	2	2	8	31	[(111, 4), (116, 7), (241, 2), (73, 9), (234, 2), (7, 6), (149, 8), (62, 5), (69, 3), (107, 4), (163, 9), (68, 4), (113, 8), (219, 7), (174, 2), (196, 5), (222, 9), (100, 2), (38, 8), (140, 3), (138, 5), (207, 2), (127, 6), (250, 2), (201, 1), (205, 3), (197, 8), (155, 9), (175, 7), (29, 8), (103, 7)]
33	1	1	5	17	[(35, 8), (158, 9), (209, 2), (247, 3), (18, 1), (223, 3), (50, 7), (78, 7), (171, 10), (31, 7), (25, 5), (42, 6), (218, 9), (244, 0), (102, 2), (16, 10), (93, 9)]
34	1	1	8	31	[(248, 2), (194, 10), (32, 1), (113, 6), (123, 6), (11, 2), (58, 5), (106, 7), (179, 0), (108, 4), (242, 6), (112, 8), (114, 10), (241, 9), (80, 5), (132, 5), (116, 6), (126, 0), (137, 1), (60, 6), (88, 5), (172, 9), (65, 7), (205, 4), (247, 5), (215, 0), (150, 1), (28, 4), (14, 3), (120, 9), (218, 2)]
35	1	6	8	18	[(240, 6), (45, 5), (229, 7), (119, 5), (197, 10), (100, 4), (188, 8), (117, 2), (85, 3), (3, 0), (113, 10), (214, 8), (191, 1), (79, 2), (104, 6), (88, 5), (199, 8), (103, 3)]
36	36	1	8	27	[(87, 10), (39, 6), (180, 10), (79, 6), (18, 0), (203, 7), (45, 9), (100, 5), (85, 1), (11, 1), (128, 0), (96, 5), (37, 8), (223, 6), (32, 8), (139, 10), (209, 5), (99, 3), (4, 2), (219, 3), (122, 0), (107, 8), (23, 6), (74, 7), (234, 4), (40, 7), (21, 4)]
37	6	1	8	18	[(15, 6), (125, 1), (127, 8), (224, 5), (40, 6), (205, 9), (145, 0), (57, 3), (155, 0), (124, 5), (32, 3), (212, 7), (246, 10), (232, 9), (47, 7), (219, 4), (102, 5), (76, 7)]
38	2	2	8	25	[(1, 5), (122, 1), (95, 6), (38, 10), (68, 5), (63, 0), (53, 1), (80, 9), (126, 10), (132, 6), (147, 1), (74, 1), (5, 3), (43, 7), (196, 6), (183, 10), (240, 10), (239, 0), (40, 3), (145, 10), (22, 7), (201, 2), (112, 5), (150, 8), (209, 0)]
39	8	1	2	25	[(202, 5), (45, 3), (2, 8), (70, 0), (91, 0), (130, 2), (184, 10), (134, 1), (116, 9), (87, 7), (158, 10), (59, 10), (110, 8), (183, 4), (107, 8), (102, 4), (5, 4), (150, 7), (32, 0), (92, 9), (7, 2), (208, 8), (105, 6), (30, 1), (147, 0)]
40	7	5	8	24	[(122, 6), (234, 3), (238, 1), (10, 4), (156, 5), (52, 5), (192, 10), (112, 10), (29, 9), (188, 2), (75, 2), (89, 1), (185, 0), (84, 3), (16, 7), (101, 0), (24, 8), (131, 5), (248, 9), (201, 7), (199, 10), (76, 9), (193, 3), (233, 8)]
41	3	6	8	17	[(23, 1), (182, 9), (224, 8), (174, 2), (187, 4), (11, 8), (241, 0), (22, 6), (108, 7), (209, 2), (45, 7), (218, 0), (76, 6), (30, 1), (92, 6), (66, 1), (144, 9)]
42	23	1	8	35	[(165, 6), (75, 8), (101, 1), (177, 5), (245, 0), (114, 9), (205, 5), (147, 7), (134, 0), (88, 1), (180, 2), (216, 8), (183, 0), (56, 10), (117, 3), (241, 10), (173, 7), (200, 0), (148, 9), (133, 3), (66, 8), (98, 2), (237, 2), (80, 1), (89, 7), (144, 5), (69, 1), (236, 2), (61, 2), (239, 7), (149, 3), (169, 3), (20, 0), (57, 4), (235, 0)]
43	2	2	8	28	[(189, 2), (107, 7), (206, 4), (142, 2), (235, 7), (33, 9), (112, 1), (96, 10), (248, 6), (212, 8), (66, 6), (72, 3), (239, 7), (88, 4), (45, 4), (249, 10), (126, 7), (246, 8), (75, 10), (78, 0), (134, 3), (114, 0), (141, 8), (93, 2), (86, 3), (14, 5), (167, 7), (129, 3)]
44	3	1	2	16	[(97, 5), (191, 1), (78, 5), (10, 1), (222, 0), (218, 4), (48, 0), (217, 7), (4, 6), (211, 7), (67, 6), (27, 0), (7, 4), (154, 10), (84, 7), (147, 3)]
45	4	8	8	31	[(197, 1), (210, 5), (170, 7), (173, 5), (106, 9), (187, 10), (134, 6), (167, 10), (123, 0), (138, 3), (149, 1), (118, 1), (79, 9), (161, 7), (194, 7), (203, 5), (177, 6), (206, 6), (111, 1), (166, 2), (226, 9), (44, 8), (7, 9), (10, 9), (58, 0), (140, 6), (137, 4), (221, 9), (216, 8), (178, 3), (195, 8)]
46	1	1	8	23	[(133, 1), (46, 4), (205, 5), (215, 6), (63, 6), (122, 5), (234, 4), (225, 7), (182, 6), (39, 5), (130, 9), (186, 4), (27, 0), (90, 10), (9, 3), (72, 4), (126, 2), (179, 1), (137, 8), (187, 3), (16, 4), (48, 10), (73, 9)]
47	39	1	8	25	[(160, 3), (250, 10), (105, 5), (59, 0), (83, 8), (207, 2), (29, 9), (2, 3), (228, 10), (71, 5), (230, 1), (203, 8), (91, 1), (215, 3), (166, 1), (99, 7), (109, 3), (108, 1), (103, 8), (17, 5), (243, 2), (120, 3), (31, 3), (63, 6), (185, 6)]
48	10	4	32	28	[(233, 5), (49, 5), (199, 6), (234, 5), (34, 1), (65, 9), (241, 4), (122, 10), (230, 0), (250, 6), (141, 4), (91, 6), (26, 4), (101, 8), (172, 5), (166, 4), (183, 6), (189, 5), (89, 3), (50, 4), (15, 0), (48, 4), (111, 8), (217, 5), (82, 6), (243, 4), (145, 3), (186, 5)]
49	4	1	2	19	[(235, 0), (4, 1), (33, 10), (229, 0), (118, 7), (120, 3), (199, 10), (153, 8), (76, 2), (194, 7), (212, 0), (100, 4), (26, 7), (71, 4), (188, 1), (10, 10), (155, 8), (123, 5), (59, 9)]
50	2	1	8	33	[(120, 9), (184, 0), (16, 2), (156, 3), (17, 9), (75, 6), (126, 7), (104, 10), (247, 2), (49, 3), (81, 3), (179, 6), (89, 3), (48, 5), (90, 8), (107, 6), (14, 0), (119, 10), (181, 1), (76, 0), (236, 9), (158, 3), (175, 4), (154, 9), (36, 1), (117, 2), (113, 9), (231, 10), (191, 10), (248, 9), (93, 7), (244, 2), (224, 7)]
51	7	1	8	25	[(99, 0), (231, 4), (212, 5), (18, 8), (53, 0), (131, 1), (155, 3), (138, 1), (247, 3), (106, 9), (193, 0), (241, 0), (242, 5), (48, 0), (36, 7), (57, 9), (164, 2), (92, 7), (121, 3), (229, 0), (60, 2), (62, 1), (8, 4), (146, 5), (127, 4)]
52	2	1	8	23	[(33, 5), (234, 9), (198, 10), (25, 7), (187, 9), (9, 8), (44, 7), (214, 7), (223, 8), (104, 5), (62, 5), (159, 7), (141, 3), (154, 0), (123, 4), (1, 5), (15, 5), (241, 4), (55, 3), (232, 4), (131, 9), (202, 8), (114, 3)]
53	1	1	6	26	[(24, 2), (210, 8), (206, 10), (1, 3), (8, 1), (248, 7), (90, 8), (191, 2), (167, 4), (66, 2), (12, 9), (119, 6), (197, 3), (202, 0), (164, 8), (194, 4), (157, 5), (37, 10), (225, 0), (129, 6), (107, 5), (184, 0), (233, 6), (53, 7), (57, 6), (14, 8)]
54	20	1	8	28	[(209, 5), (186, 6), (55, 10), (41, 10), (176, 9), (220, 9), (200, 10), (248, 0), (204, 6), (168, 0), (49, 3), (27, 3), (18, 8), (40, 2), (228, 9), (218, 1), (134, 0), (142, 7), (190, 7), (181, 5), (224, 7), (172, 8), (58, 6), (192, 8), (90, 9), (23, 6), (213, 6), (206, 6)]
55	6	1	8	31	[(172, 6), (73, 3), (230, 7), (60, 5), (22, 10), (78, 4), (199, 4), (93, 10), (120, 8), (171, 8), (173, 0), (144, 4), (30, 9), (145, 9), (43, 1), (139, 0), (11, 9), (164, 3), (244, 9), (16, 4), (69, 0), (131, 5), (246, 5), (68, 0), (237, 0), (87, 5), (214, 10), (40, 3), (57, 10), (67, 0), (9, 4)]
56	2	3	8	28	[(140, 1), (174, 6), (175, 4), (19, 2), (145, 0), (205, 3), (112, 4), (15, 0), (11, 9), (120, 9), (90, 0), (61, 2), (222, 2), (5, 4), (233, 6), (250, 7), (40, 5), (144, 10), (62, 6), (72, 7), (186, 3), (68, 9), (211, 10), (104, 9), (241, 0), (156, 1), (161, 10), (172, 7)]
57	1	1	2	34	[(5, 9), (118, 6), (48, 2), (211, 8), (144, 6), (21, 2), (129, 1), (237, 7), (104, 10), (225, 8), (245, 6), (113, 9), (22, 5), (90, 7), (203, 10), (119, 10), (165, 10), (176, 6), (135, 0), (67, 0), (83, 8), (243, 3), (89, 8), (36, 9), (145, 3), (162, 3), (13, 0), (100, 10), (91, 0), (228, 0), (97, 5), (177, 2), (92, 9), (34, 0)]
58	1	1	8	25	[(102, 4), (38, 9), (200, 0), (63, 8), (27, 7), (56, 1), (237, 0), (205, 5), (185, 1), (209, 4), (168, 9), (62, 2), (137, 0), (184, 8), (219, 8), (22, 9), (222, 10), (218, 10), (173, 9), (177, 10), (10, 9), (78, 6), (90, 9), (229, 1), (166, 3)]
59	3	1	8	21	[(60, 3), (4, 3), (14, 7), (98, 9), (115, 5), (170, 0), (18, 0), (153, 3), (132, 0), (202, 2), (137, 8), (61, 5), (33, 2), (231, 1), (79, 1), (123, 0), (85, 2), (9, 10), (74, 1), (171, 8), (57, 7)]
60	2	3	8	30	[(86, 9), (61, 3), (118, 9), (144, 0), (102, 7), (242, 0), (36, 8), (2, 2), (245, 2), (172, 2), (179, 4), (239, 6), (180, 0), (127, 0), (130, 3), (78, 7), (200, 0), (116, 4), (209, 1), (71, 9), (15, 0), (153, 1), (100, 7), (9, 3), (205, 5), (124, 10), (222, 5), (65, 4), (223, 1), (126, 8)]
61	2	1	8	20	[(189, 1), (17, 5), (210, 10), (103, 4), (225, 4), (59, 2), (37, 2), (104, 6), (198, 9), (79, 0), (109, 10), (99, 8), (91, 6), (100, 6), (7, 3), (8, 3), (122, 7), (13, 1), (176, 7), (110, 10)]
62	3	1	8	22	[(95, 6), (214, 2), (125, 4), (186, 10), (167, 0), (203, 1), (220, 2), (87, 3), (147, 2), (189, 8), (228, 1), (20, 9), (136, 4), (146, 2), (24, 10), (115, 8), (187, 4), (142, 10), (57, 10), (234, 6), (174, 1), (124, 4)]
63	3	1	2	36	[(75, 5), (112, 0), (78, 8), (149, 2), (226, 5), (178, 7), (156, 9), (200, 6), (15, 2), (113, 2), (159, 10), (79, 8), (31, 8), (89, 2), (142, 7), (50, 5), (39, 7), (68, 0), (136, 5), (161, 9), (164, 4), (135, 7), (40, 8), (241, 3), (108, 4), (98, 5), (57, 0), (148, 3), (184, 4), (48, 8), (95, 8), (36, 8), (198, 7), (134, 7), (137, 7), (199, 8)]
64	1	1	8	20	[(78, 10), (217, 9), (20, 0), (182, 5), (170, 7), (43, 7), (102, 3), (109, 7), (19, 10), (239, 10), (76, 8), (232, 2), (181, 5), (69, 0), (154, 0), (248, 4), (249, 1), (82, 2), (107, 5), (172, 6)]
65	3	1	4	29	[(23, 7), (33, 3), (166, 4), (14, 5), (48, 8), (18, 7), (106, 6), (85, 7), (140, 5), (50, 3), (128, 4), (42, 10), (197, 10), (196, 10), (230, 1), (219, 0), (77, 5), (179, 7), (245, 6), (55, 5), (170, 8), (22, 6), (175, 2), (47, 1), (101, 7), (91, 10), (25, 2), (217, 5), (157, 3)]
66	6	1	8	27	[(23, 1), (228, 7), (202, 0), (33, 2), (122, 10), (229, 7), (222, 1), (105, 10), (232, 1), (62, 6), (109, 2), (26, 2), (87, 4), (98, 10), (63, 1), (57, 9), (15, 0), (164, 5), (17, 9), (217, 3), (48, 4), (151, 3), (102, 0), (20, 7), (74, 4), (141, 5), (192, 10)]
67	2	2	8	27	[(88, 4), (139, 4), (196, 1), (117, 8), (18, 4), (223, 9), (226, 5), (28, 9), (101, 1), (189, 10), (53, 4), (243, 5), (98, 3), (159, 1), (205, 5), (106, 7), (40, 5), (250, 1), (108, 1), (82, 1), (80, 7), (103, 2), (197, 2), (180, 8), (156, 1), (192, 2), (163, 7)]
68	87	1	1	19	[(14, 6), (195, 5), (133, 0), (73, 8), (146, 8), (215, 9), (93, 10), (18, 0), (27, 10), (48, 6), (68, 7), (113, 6), (6, 6), (163, 6), (145, 10), (34, 6), (155, 2), (77, 8), (174, 0)]
69	4	1	8	20	[(3, 0), (249, 3), (120, 4), (62, 7), (57, 2), (35, 6), (130, 6), (50, 5), (5, 5), (87, 0), (151, 5), (116, 9), (34, 0), (164, 3), (236, 9), (173, 0), (43, 0), (141, 0), (119, 1), (75, 0)]
70	2	1	1	26	[(82, 5), (176, 7), (204, 10), (203, 7), (150, 7), (232, 3), (87, 2), (12, 6), (51, 2), (41, 6), (183, 4), (221, 10), (42, 4), (72, 5), (35, 0), (158, 0), (247, 5), (230, 7), (102, 9), (90, 2), (133, 4), (210, 8), (17, 4), (34, 0), (13, 3), (100, 9)]
71	6	2	2	20	[(3, 7), (209, 2), (28, 7), (85, 8), (47, 9), (91, 8), (124, 7), (100, 8), (13, 1), (220, 0), (224, 4), (136, 8), (93, 8), (170, 4), (142, 3), (95, 4), (24, 1), (164, 2), (119, 8), (108, 6)]
72	1	2	8	29	[(167, 10), (153, 3), (65, 6), (54, 0), (30, 9), (208, 5), (192, 1), (245, 9), (36, 6), (188, 5), (5, 3), (194, 5), (20, 0), (220, 0), (191, 10), (114, 0), (60, 5), (124, 4), (246, 2), (12, 10), (178, 2), (6, 5), (132, 10), (230, 10), (201, 3), (151, 9), (171, 6), (107, 7), (24, 1)]
73	2	1	8	21	[(228, 3), (67, 6), (242, 2), (102, 9), (212, 8), (240, 8), (108, 0), (6, 4), (127, 2), (23, 7), (186, 4), (109, 6), (197, 10), (54, 4), (92, 6), (243, 1), (20, 1), (118, 1), (248, 0), (97, 9), (162, 4)]
74	4	1	8	20	[(131, 9), (29, 4), (84, 4), (46, 7), (40, 0), (73, 3), (126, 4), (207, 5), (19, 1), (172, 8), (185, 6), (12, 10), (21, 9), (62, 7), (91, 3), (30, 7), (25, 8), (246, 8), (14, 0), (200, 0)]
75	3	2	8	20	[(75, 10), (150, 2), (243, 0), (50, 3), (178, 1), (126, 7), (195, 0), (86, 7), (140, 3), (107, 9), (36, 6), (119, 7), (212, 5), (12, 1), (37, 3), (123, 4), (248, 5), (71, 5), (236, 8), (103, 4)]
76	2	1	80	20	[(216, 0), (38, 6), (198, 1), (14, 7), (142, 10), (21, 9), (20, 5), (96, 1), (152, 10), (220, 4), (70, 2), (123, 9), (201, 4), (126, 4), (72, 9), (155, 10), (140, 7), (68, 4), (247, 3), (227, 4)]
77	1	4	8	27	[(22, 3), (68, 0), (241, 7), (242, 7), (19, 9), (223, 0), (239, 7), (130, 2), (140, 6), (227, 7), (21, 2), (154, 4), (125, 1), (209, 10), (75, 3), (228, 5), (38, 5), (232, 2), (142, 0), (86, 10), (129, 9), (42, 1), (85, 5), (43, 7), (1, 2), (139, 1), (69, 2)]
78	1	6	8	31	[(59, 4), (97, 5), (136, 2), (57, 2), (164, 1), (28, 2), (242, 3), (123, 9), (112, 3), (166, 9), (209, 10), (157, 6), (45, 0), (41, 3), (91, 1), (218, 4), (72, 1), (103, 4), (23, 8), (13, 10), (22, 7), (140, 8), (231, 7), (245, 3), (79, 6), (172, 10), (224, 8), (161, 3), (187, 6), (98, 0), (51, 6)]
79	74	1	8	20	[(110, 2), (165, 10), (161, 4), (7, 2), (213, 1), (193, 7), (118, 7), (218, 3), (34, 6), (194, 5), (227, 1), (15, 5), (171, 10), (132, 10), (209, 7), (182, 9), (241, 7), (50, 4), (70, 8), (236, 3)]
80	1	4	30	26	[(65, 0), (221, 10), (242, 2), (104, 6), (1, 3), (180, 4), (36, 1), (170, 6), (69, 7), (218, 9), (158, 7), (123, 9), (127, 3), (219, 3), (8, 10), (17, 10), (122, 8), (67, 7), (192, 2), (176, 7), (235, 2), (171, 8), (157, 3), (95, 5), (240, 4), (61, 7)]
81	4	1	8	36	[(69, 0), (80, 10), (170, 0), (61, 3), (135, 7), (14, 2), (186, 7), (174, 3), (242, 6), (204, 1), (89, 6), (190, 7), (82, 4), (41, 7), (108, 8), (32, 10), (127, 0), (109, 2), (219, 9), (217, 3), (77, 1), (207, 5), (83, 2), (95, 2), (23, 2), (134, 7), (211, 1), (140, 6), (43, 2), (202, 6), (166, 0), (195, 1), (222, 2), (199, 10), (191, 4), (17, 2)]
82	2	1	8	21	[(243, 5), (202, 5), (197, 0), (124, 2), (145, 6), (157, 0), (25, 7), (70, 7), (27, 4), (177, 6), (113, 1), (117, 0), (130, 3), (62, 1), (20, 7), (179, 5), (46, 9), (139, 5), (148, 10), (216, 10), (86, 5)]
83	1	2	8	20	[(85, 9), (69, 1), (249, 0), (194, 1), (170, 8), (169, 7), (201, 8), (127, 10), (161, 10), (186, 0), (96, 8), (160, 0), (28, 6), (94, 3), (177, 3), (24, 9), (86, 6), (31, 2), (220, 1), (153, 4)]
84	1	1	8	23	[(132, 4), (39, 1), (116, 1), (11, 7), (64, 3), (119, 9), (66, 6), (40, 3), (203, 1), (114, 1), (124, 5), (112, 5), (229, 10), (74, 7), (230, 8), (155, 8), (237, 3), (44, 2), (101, 5), (16, 8), (33, 0), (41, 3), (150, 0)]
85	7	1	8	23	[(148, 8), (129, 4), (61, 9), (84, 5), (133, 1), (63, 5), (3, 0), (149, 2), (173, 3), (104, 0), (185, 0), (210, 6), (102, 2), (2, 1), (180, 7), (250, 0), (168, 9), (183, 10), (159, 0), (22, 3), (245, 10), (230, 4), (79, 2)]
86	4	4	8	26	[(109, 2), (212, 5), (16, 7), (90, 7), (105, 8), (99, 9), (96, 7), (24, 0), (129, 3), (28, 0), (158, 10), (196, 2), (74, 3), (100, 7), (76, 0), (157, 7), (43, 0), (143, 8), (244, 1), (35, 9), (104, 5), (190, 5), (153, 10), (2, 10), (42, 4), (31, 5)]
87	1	1	8	25	[(220, 4), (128, 6), (71, 4), (213, 7), (234, 5), (96, 7), (140, 7), (107, 2), (13, 3), (183, 1), (16, 2), (93, 2), (121, 10), (51, 7), (21, 9), (109, 3), (9, 8), (11, 7), (36, 9), (173, 7), (80, 1), (63, 1), (159, 10), (77, 4), (153, 0)]
88	4	1	2	28	[(28, 10), (228, 4), (140, 9), (215, 2), (118, 7), (19, 0), (173, 1), (148, 1), (196, 3), (49, 2), (12, 7), (199, 0), (214, 9), (66, 10), (128, 7), (52, 1), (98, 3), (185, 2), (100, 0), (114, 5), (64, 3), (127, 8), (43, 0), (202, 6), (53, 9), (113, 3), (112, 6), (134, 1)]
89	2	2	8	24	[(227, 1), (125, 10), (101, 9), (238, 0), (177, 10), (159, 2), (115, 7), (186, 5), (164, 9), (97, 9), (200, 9), (53, 9), (108, 6), (93, 9), (50, 7), (133, 9), (44, 0), (143, 5), (207, 9), (225, 1), (89, 6), (158, 10), (45, 5), (231, 3)]
90	2	1	1	29	[(43, 6), (90, 10), (1, 9), (22, 5), (133, 0), (138, 5), (231, 8), (40, 7), (125, 0), (20, 5), (45, 2), (154, 8), (211, 0), (73, 9), (240, 4), (84, 0), (200, 0), (228, 2), (93, 8), (116, 2), (244, 1), (62, 7), (177, 4), (4, 9), (119, 9), (44, 2), (81, 3), (52, 5), (165, 4)]
91	1	2	4	21	[(90, 4), (44, 7), (236, 7), (241, 5), (202, 0), (172, 3), (161, 6), (162, 7), (50, 2), (249, 10), (175, 5), (191, 1), (150, 0), (196, 10), (225, 0), (98, 1), (82, 10), (20, 0), (61, 3), (170, 5), (189, 1)]
92	10	1	8	27	[(209, 3), (42, 8), (154, 8), (102, 7), (158, 1), (126, 7), (239, 5), (167, 6), (231, 6), (95, 0), (146, 2), (75, 5), (156, 8), (108, 1), (189, 1), (225, 8), (26, 9), (206, 5), (242, 0), (97, 6), (1, 6), (98, 7), (240, 4), (234, 6), (145, 1), (175, 3), (34, 8)]
93	5	2	8	24	[(56, 4), (111, 0), (132, 9), (182, 5), (242, 0), (136, 10), (76, 5), (21, 5), (175, 10), (147, 8), (198, 3), (43, 8), (92, 3), (130, 3), (179, 2), (209, 9), (192, 5), (249, 0), (134, 4), (153, 10), (33, 7), (206, 2), (142, 9), (126, 1)]
94	1	2	8	34	[(111, 4), (81, 3), (249, 4), (59, 1), (127, 4), (83, 5), (208, 6), (212, 7), (186, 2), (192, 0), (35, 0), (229, 1), (70, 9), (22, 10), (175, 1), (185, 2), (117, 2), (168, 0), (133, 5), (61, 6), (116, 9), (217, 9), (72, 10), (216, 10), (176, 4), (18, 4), (49, 10), (10, 7), (112, 9), (99, 9), (38, 4), (13, 7), (237, 7), (64, 0)]
95	1	1	8	22	[(206, 2), (100, 8), (203, 2), (94, 2), (179, 5), (247, 6), (166, 10), (23, 1), (139, 7), (50, 10), (70, 8), (95, 8), (173, 4), (92, 9), (109, 6), (199, 9), (64, 7), (234, 10), (122, 9), (128, 10), (215, 7), (161, 4)]
96	2	1	8	14	[(19, 1), (132, 8), (94, 2), (122, 1), (15, 8), (44, 6), (18, 10), (204, 0), (5, 1), (33, 7), (146, 0), (217, 6), (87, 2), (106, 0)]
97	4	2	8	25	[(228, 9), (65, 10), (30, 3), (233, 3), (50, 7), (138, 5), (112, 0), (244, 0), (210, 0), (105, 7), (139, 7), (129, 9), (37, 7), (245, 8), (61, 3), (215, 7), (115, 6), (56, 7), (91, 1), (68, 4), (170, 7), (140, 0), (59, 0), (124, 3), (212, 0)]
98	2	1	8	15	[(197, 3), (89, 0), (94, 9), (174, 1), (10, 5), (73, 9), (28, 5), (236, 8), (121, 1), (198, 8), (22, 5), (11, 10), (143, 7), (202, 5), (38, 8)]
99	1	2	8	29	[(98, 3), (218, 8), (211, 0), (36, 7), (155, 3), (116, 0), (239, 5), (123, 8), (159, 7), (28, 10), (112, 3), (24, 2), (156, 6), (152, 1), (117, 7), (97, 0), (90, 7), (6, 1), (240, 3), (103, 9), (227, 8), (232, 3), (108, 7), (106, 6), (4, 5), (91, 5), (22, 3), (216, 5), (9, 2)]
100	3	1	8	25	[(3, 2), (211, 2), (177, 6), (37, 0), (43, 8), (8, 4), (50, 7), (49, 9), (22, 1), (64, 0), (107, 4), (142, 0), (171, 9), (98, 8), (69, 0), (136, 6), (249, 2), (11, 5), (205, 1), (24, 2), (182, 1), (204, 9), (6, 1), (88, 4), (85, 5)]
101	3	5	8	17	[(121, 8), (106, 9), (74, 10), (158, 10), (80, 8), (112, 3), (16, 6), (185, 10), (26, 2), (77, 9), (62, 1), (172, 7), (193, 9), (111, 4), (14, 10), (86, 2), (42, 8)]
102	1	4	8	33	[(171, 5), (168, 7), (19, 1), (64, 9), (52, 0), (74, 8), (191, 6), (173, 10), (78, 9), (29, 7), (197, 5), (217, 4), (128, 2), (185, 3), (139, 1), (36, 2), (126, 7), (34, 0), (57, 4), (120, 1), (214, 4), (122, 7), (17, 0), (5, 6), (106, 1), (22, 6), (220, 8), (177, 4), (192, 10), (109, 6), (3, 2), (183, 0), (233, 0)]
103	2	2	8	27	[(146, 9), (233, 8), (202, 5), (94, 10), (71, 10), (105, 9), (26, 4), (179, 5), (249, 2), (97, 0), (234, 2), (92, 8), (248, 7), (100, 0), (57, 4), (245, 9), (61, 6), (144, 8), (1, 5), (4, 9), (114, 1), (86, 10), (143, 1), (207, 4), (111, 10), (167, 0), (198, 2)]
104	1	2	8	22	[(166, 2), (151, 3), (125, 10), (230, 4), (165, 1), (64, 6), (132, 9), (16, 5), (18, 7), (8, 5), (209, 4), (47, 5), (205, 0), (188, 2), (149, 10), (236, 10), (224, 0), (31, 9), (59, 3), (214, 2), (28, 0), (98, 10)]
105	4	1	8	29	[(219, 9), (225, 6), (137, 3), (150, 4), (100, 9), (51, 1), (157, 9), (95, 6), (57, 0), (156, 10), (124, 1), (64, 1), (40, 4), (98, 5), (60, 7), (173, 4), (166, 7), (74, 1), (212, 8), (71, 1), (215, 6), (178, 3), (238, 3), (31, 2), (36, 3), (223, 0), (52, 7), (108, 3), (46, 8)]
106	2	1	8	26	[(194, 0), (221, 3), (15, 7), (107, 2), (248, 3), (235, 10), (170, 9), (120, 6), (162, 0), (130, 10), (231, 10), (67, 3), (117, 0), (233, 4), (94, 7), (229, 7), (133, 10), (90, 8), (177, 0), (148, 4), (56, 1), (203, 8), (200, 3), (165, 1), (38, 4), (52, 10)]
107	4	1	8	19	[(5, 4), (21, 5), (19, 3), (57, 3), (115, 1), (68, 3), (93, 9), (85, 5), (174, 5), (65, 9), (114, 6), (170, 3), (211, 4), (175, 6), (216, 2), (122, 6), (90, 3), (20, 3), (111, 3)]
108	4	4	8	30	[(226, 5), (145, 4), (141, 9), (242, 4), (142, 8), (96, 10), (50, 4), (85, 2), (191, 1), (69, 2), (220, 8), (55, 2), (174, 7), (46, 10), (194, 7), (104, 5), (71, 2), (185, 5), (38, 8), (170, 2), (81, 6), (192, 7), (149, 3), (171, 0), (184, 5), (216, 0), (207, 4), (186, 8), (123, 7), (88, 2)]
109	1	2	8	22	[(229, 9), (176, 5), (137, 1), (12, 6), (102, 10), (88, 6), (139, 4), (24, 8), (38, 0), (56, 3), (89, 1), (116, 4), (165, 4), (226, 8), (209, 5), (32, 8), (16, 8), (120, 8), (231, 5), (160, 6), (15, 10), (150, 3)]
110	3	4	8	26	[(218, 0), (67, 6), (224, 10), (27, 6), (80, 5), (177, 3), (132, 2), (106, 9), (100, 5), (46, 8), (109, 3), (60, 10), (185, 4), (50, 6), (1, 4), (125, 2), (241, 7), (36, 7), (174, 8), (113, 4), (41, 7), (112, 10), (153, 7), (74, 3), (165, 5), (90, 10)]
111	1	1	2	29	[(173, 0), (92, 6), (239, 3), (21, 9), (35, 8), (225, 2), (53, 4), (124, 4), (99, 1), (23, 1), (146, 4), (217, 7), (162, 1), (212, 0), (58, 5), (51, 9), (211, 6), (202, 3), (243, 8), (241, 6), (56, 5), (61, 7), (238, 9), (154, 5), (78, 0), (159, 10), (89, 9), (105, 7), (147, 8)]
112	2	1	8	20	[(5, 5), (55, 10), (162, 5), (66, 0), (163, 6), (56, 8), (95, 5), (232, 8), (60, 10), (96, 4), (43, 0), (85, 0), (121, 8), (158, 8), (70, 4), (92, 6), (69, 8), (80, 9), (40, 7), (150, 3)]
113	1	1	8	23	[(136, 9), (16, 4), (22, 9), (119, 4), (236, 7), (126, 5), (26, 6), (165, 9), (60, 10), (194, 7), (130, 2), (191, 10), (63, 8), (72, 3), (159, 9), (133, 5), (87, 6), (243, 4), (41, 4), (212, 1), (155, 8), (174, 2), (145, 6)]
114	2	1	5	28	[(236, 2), (135, 1), (239, 0), (70, 6), (30, 3), (145, 5), (183, 9), (169, 3), (59, 2), (107, 2), (166, 1), (209, 10), (92, 1), (48, 7), (211, 0), (155, 10), (223, 9), (208, 10), (114, 4), (137, 10), (244, 6), (123, 10), (96, 0), (43, 2), (174, 10), (58, 5), (87, 10), (141, 10)]
115	1	4	2	29	[(188, 9), (205, 2), (239, 10), (33, 4), (53, 8), (91, 0), (189, 8), (95, 0), (111, 5), (10, 6), (245, 9), (42, 3), (140, 6), (82, 4), (225, 5), (103, 2), (94, 1), (224, 6), (12, 8), (32, 6), (62, 2), (51, 3), (167, 1), (202, 9), (39, 1), (120, 6), (190, 4), (244, 8), (28, 7)]
116	33	1	8	17	[(66, 9), (192, 8), (38, 5), (12, 1), (22, 0), (191, 1), (243, 1), (90, 10), (249, 0), (219, 9), (184, 10), (42, 6), (201, 2), (76, 8), (163, 10), (11, 6), (217, 2)]
117	2	1	8	23	[(212, 3), (65, 6), (35, 7), (82, 8), (193, 7), (206, 6), (15, 6), (70, 0), (136, 8), (177, 2), (17, 4), (201, 7), (101, 1), (219, 7), (202, 2), (13, 2), (184, 7), (179, 0), (231, 6), (220, 1), (75, 10), (216, 9), (187, 8)]
118	2	1	8	31	[(34, 4), (124, 10), (121, 1), (93, 5), (60, 3), (234, 1), (27, 3), (149, 10), (62, 3), (49, 0), (25, 10), (159, 1), (151, 1), (76, 9), (88, 0), (239, 10), (3, 9), (69, 10), (212, 8), (134, 9), (117, 6), (171, 5), (90, 1), (14, 5), (249, 2), (158, 8), (203, 1), (156, 2), (100, 0), (71, 8), (72, 4)]
119	2	5	8	26	[(177, 6), (77, 5), (205, 3), (139, 0), (208, 9), (59, 8), (106, 7), (111, 7), (2, 3), (134, 3), (230, 7), (197, 2), (113, 1), (63, 2), (247, 5), (58, 5), (100, 2), (11, 5), (190, 2), (17, 1), (116, 2), (200, 3), (146, 2), (172, 3), (110, 8), (102, 9)]
120	11	4	8	33	[(129, 8), (209, 8), (122, 2), (208, 10), (156, 2), (232, 1), (94, 8), (27, 2), (85, 7), (195, 2), (72, 5), (78, 10), (189, 7), (144, 3), (196, 0), (249, 6), (230, 6), (84, 4), (180, 2), (194, 7), (155, 3), (46, 10), (234, 1), (134, 4), (126, 4), (246, 10), (89, 4), (116, 2), (181, 8), (70, 9), (154, 6), (90, 1), (77, 1)]
121	6	3	1	21	[(130, 2), (147, 10), (77, 5), (25, 1), (26, 2), (51, 10), (7, 3), (5, 0), (112, 8), (213, 4), (49, 8), (34, 8), (221, 3), (175, 4), (23, 5), (240, 1), (58, 6), (32, 4), (50, 3), (45, 6), (187, 9)]
122	5	1	16	34	[(176, 5), (212, 8), (85, 6), (78, 8), (237, 7), (57, 6), (147, 1), (144, 2), (24, 10), (87, 5), (69, 4), (72, 10), (164, 10), (34, 6), (114, 7), (152, 2), (37, 8), (20, 10), (86, 8), (145, 9), (215, 5), (197, 10), (156, 0), (7, 9), (33, 3), (98, 4), (122, 3), (54, 6), (48, 9), (210, 7), (151, 5), (179, 2), (50, 2), (88, 2)]
123	6	2	8	23	[(8, 4), (103, 6), (125, 9), (134, 4), (234, 4), (41, 9), (61, 10), (71, 0), (202, 0), (77, 10), (132, 7), (135, 3), (230, 10), (62, 0), (195, 7), (142, 8), (37, 1), (164, 6), (89, 7), (187, 2), (5, 8), (211, 10), (91, 2)]
124	15	1	8	27	[(36, 5), (171, 3), (63, 6), (121, 2), (30, 9), (18, 5), (146, 4), (185, 4), (142, 0), (34, 10), (209, 2), (161, 3), (98, 5), (40, 3), (72, 0), (178, 1), (97, 3), (176, 8), (89, 9), (102, 7), (218, 5), (122, 9), (48, 6), (57, 8), (93, 2), (170, 8), (179, 4)]
125	1	1	8	30	[(133, 7), (143, 8), (154, 3), (37, 7), (83, 3), (199, 0), (215, 0), (112, 7), (192, 10), (217, 10), (30, 5), (42, 6), (24, 2), (178, 3), (66, 7), (230, 2), (28, 2), (25, 9), (225, 5), (157, 4), (224, 7), (56, 7), (212, 0), (78, 0), (15, 5), (62, 7), (38, 3), (237, 4), (140, 8), (198, 6)]
126	2	2	8	34	[(201, 9), (99, 0), (204, 8), (203, 2), (224, 3), (235, 1), (191, 5), (217, 3), (200, 2), (189, 7), (190, 8), (236, 0), (45, 10), (2, 7), (159, 2), (8, 2), (27, 7), (177, 10), (114, 7), (74, 6), (142, 7), (245, 9), (62, 1), (76, 4), (40, 10), (144, 9), (20, 5), (53, 4), (218, 10), (123, 9), (241, 3), (187, 10), (100, 3), (202, 7)]
127	1	1	8	32	[(221, 2), (228, 4), (25, 7), (64, 8), (143, 2), (231, 7), (244, 7), (234, 3), (118, 6), (72, 6), (242, 1), (206, 3), (175, 4), (35, 5), (27, 9), (243, 3), (236, 1), (136, 1), (90, 10), (111, 6), (144, 2), (24, 6), (42, 6), (41, 6), (150, 3), (235, 9), (2, 0), (26, 3), (220, 0), (160, 9), (7, 0), (173, 1)]
128	3	1	8	21	[(112, 3), (247, 5), (120, 4), (33, 8), (18, 1), (190, 1), (191, 5), (67, 4), (92, 9), (70, 6), (156, 5), (179, 1), (29, 9), (16, 2), (115, 3), (165, 1), (159, 4), (208, 9), (27, 7), (139, 4), (69, 9)]
129	3	4	2	29	[(43, 7), (136, 0), (106, 1), (198, 10), (184, 10), (186, 4), (243, 2), (120, 7), (133, 8), (200, 1), (76, 7), (241, 3), (14, 6), (108, 3), (152, 9), (236, 9), (55, 1), (31, 2), (83, 0), (3, 10), (11, 4), (132, 3), (19, 5), (171, 3), (92, 1), (105, 0), (87, 1), (95, 1), (82, 10)]
130	1	16	8	21	[(145, 2), (12, 1), (202, 3), (157, 8), (237, 1), (161, 6), (147, 7), (206, 6), (9, 4), (187, 5), (89, 3), (219, 4), (82, 10), (4, 10), (86, 5), (85, 9), (16, 5), (68, 0), (181, 5), (200, 3), (62, 10)]
131	1	1	8	24	[(212, 8), (221, 5), (175, 4), (147, 0), (115, 3), (41, 5), (148, 6), (20, 7), (104, 1), (91, 10), (101, 3), (230, 8), (55, 8), (126, 5), (46, 3), (48, 10), (210, 1), (203, 10), (92, 3), (7, 1), (239, 5), (177, 2), (215, 7), (137, 2)]
132	1	1	8	24	[(67, 2), (131, 3), (249, 10), (38, 7), (219, 5), (25, 0), (209, 8), (99, 8), (5, 4), (197, 6), (64, 4), (222, 3), (81, 2), (90, 6), (195, 6), (135, 9), (172, 8), (28, 6), (193, 5), (18, 8), (187, 9), (208, 7), (200, 5), (171, 9)]
133	13	1	8	27	[(90, 5), (124, 3), (236, 4), (215, 2), (24, 7), (115, 1), (97, 1), (110, 5), (188, 4), (7, 0), (218, 10), (127, 8), (10, 8), (206, 6), (50, 7), (128, 7), (111, 9), (20, 9), (60, 5), (210, 1), (162, 4), (203, 9), (151, 7), (190, 10), (154, 3), (123, 2), (181, 3)]
134	1	1	8	30	[(132, 1), (160, 10), (249, 4), (184, 2), (234, 4), (195, 1), (72, 5), (136, 0), (151, 6), (220, 0), (159, 3), (61, 10), (130, 3), (248, 6), (55, 10), (247, 1), (27, 9), (150, 7), (186, 2), (250, 8), (144, 5), (147, 8), (215, 6), (118, 7), (207, 1), (2, 1), (157, 10), (54, 10), (32, 6), (17, 1)]
135	9	1	8	24	[(26, 6), (153, 0), (170, 5), (240, 10), (63, 3), (133, 0), (68, 7), (242, 0), (164, 1), (214, 4), (190, 5), (140, 8), (183, 7), (101, 6), (88, 7), (21, 1), (1, 5), (171, 4), (196, 10), (117, 10), (33, 6), (244, 7), (129, 2), (108, 9)]
136	1	2	8	35	[(109, 2), (185, 6), (230, 2), (241, 4), (8, 4), (195, 9), (2, 3), (239, 8), (196, 10), (176, 7), (125, 0), (102, 1), (4, 2), (235, 8), (15, 3), (188, 9), (211, 8), (43, 10), (209, 8), (7, 7), (143, 9), (158, 5), (220, 8), (199, 6), (190, 7), (9, 5), (189, 5), (186, 1), (57, 1), (216, 3), (249, 1), (127, 7), (215, 4), (77, 8), (144, 0)]
137	2	1	1	27	[(8, 6), (79, 5), (95, 4), (204, 2), (216, 0), (146, 2), (173, 6), (181, 9), (205, 8), (142, 7), (78, 4), (43, 8), (35, 4), (150, 10), (192, 0), (161, 10), (232, 9), (240, 0), (102, 6), (54, 1), (211, 7), (235, 1), (65, 6), (100, 10), (33, 4), (191, 6), (110, 0)]
138	1	4	3	19	[(138, 10), (31, 4), (132, 8), (125, 1), (155, 10), (243, 10), (118, 3), (207, 1), (190, 3), (25, 0), (202, 6), (88, 3), (223, 8), (200, 6), (225, 4), (167, 1), (221, 3), (196, 9), (13, 10)]
139	15	5	8	30	[(52, 6), (60, 6), (165, 4), (223, 2), (136, 4), (126, 8), (173, 0), (71, 10), (239, 6), (138, 4), (166, 7), (106, 0), (102, 0), (175, 9), (56, 3), (236, 4), (190, 3), (108, 6), (196, 8), (231, 10), (38, 6), (150, 8), (213, 4), (109, 3), (162, 2), (53, 5), (133, 7), (13, 0), (168, 3), (219, 7)]
140	2	1	8	19	[(10, 9), (63, 6), (108, 8), (124, 3), (95, 6), (162, 4), (90, 4), (29, 9), (142, 5), (165, 6), (237, 7), (12, 8), (127, 10), (89, 10), (212, 9), (119, 5), (227, 1), (123, 1), (188, 9)]
141	4	4	8	27	[(194, 0), (40, 10), (177, 0), (68, 3), (35, 7), (42, 7), (187, 2), (175, 4), (138, 3), (83, 9), (238, 7), (103, 8), (183, 1), (205, 6), (38, 5), (250, 10), (199, 4), (99, 7), (131, 1), (179, 5), (213, 6), (31, 9), (189, 6), (63, 3), (151, 2), (62, 9), (217, 5)]
142	3	1	8	23	[(210, 3), (207, 5), (239, 1), (217, 0), (226, 0), (216, 9), (81, 9), (23, 10), (140, 9), (248, 6), (87, 4), (35, 10), (141, 1), (30, 9), (144, 7), (96, 2), (203, 3), (227, 9), (166, 2), (157, 9), (167, 7), (27, 5), (14, 6)]
143	28	6	8	32	[(170, 7), (32, 0), (219, 3), (25, 7), (82, 4), (79, 8), (233, 5), (240, 10), (197, 8), (4, 8), (157, 0), (177, 5), (37, 10), (105, 1), (114, 7), (16, 10), (234, 3), (104, 9), (38, 2), (223, 10), (30, 9), (111, 0), (54, 8), (175, 6), (218, 9), (112, 7), (178, 4), (13, 1), (160, 6), (206, 4), (141, 8), (74, 1)]
144	2	4	8	25	[(73, 8), (35, 9), (5, 0), (248, 8), (142, 3), (180, 0), (154, 3), (231, 6), (197, 7), (104, 6), (190, 3), (97, 6), (110, 1), (126, 10), (81, 8), (85, 4), (143, 7), (240, 9), (26, 9), (233, 9), (55, 9), (157, 1), (153, 2), (205, 6), (217, 8)]
145	2	16	1	27	[(164, 5), (38, 3), (107, 6), (232, 7), (139, 3), (109, 1), (219, 6), (94, 8), (149, 2), (209, 2), (245, 0), (185, 9), (88, 9), (206, 5), (123, 1), (36, 3), (250, 0), (201, 6), (240, 0), (152, 2), (136, 4), (58, 7), (199, 9), (142, 7), (173, 8), (120, 2), (198, 4)]
146	1	3	8	28	[(210, 6), (177, 9), (154, 0), (9, 9), (117, 0), (213, 2), (178, 8), (81, 7), (158, 3), (75, 10), (84, 1), (35, 7), (37, 1), (16, 10), (160, 10), (45, 1), (185, 9), (194, 7), (5, 6), (49, 7), (221, 2), (27, 3), (174, 5), (62, 2), (180, 6), (92, 7), (133, 7), (114, 10)]
147	3	1	8	20	[(77, 8), (169, 0), (237, 6), (26, 8), (45, 9), (119, 3), (85, 8), (124, 8), (66, 7), (98, 2), (204, 5), (199, 1), (118, 7), (120, 4), (112, 6), (181, 6), (160, 0), (211, 5), (248, 2), (3, 1)]
148	4	1	8	27	[(224, 5), (61, 2), (17, 10), (5, 7), (80, 3), (1, 8), (60, 7), (116, 5), (173, 10), (152, 1), (41, 4), (12, 4), (145, 8), (242, 3), (43, 9), (34, 10), (181, 10), (174, 3), (156, 5), (226, 0), (131, 8), (250, 9), (8, 7), (30, 8), (71, 9), (56, 4), (159, 9)]
149	2	1	8	26	[(4, 5), (84, 0), (41, 9), (169, 3), (196, 10), (50, 7), (7, 1), (161, 2), (230, 10), (77, 1), (80, 9), (47, 9), (26, 9), (54, 7), (229, 5), (76, 8), (88, 0), (143, 5), (167, 10), (94, 2), (97, 10), (132, 9), (111, 8), (44, 5), (222, 5), (62, 4)]
150	4	1	8	28	[(243, 8), (158, 2), (104, 1), (102, 2), (215, 3), (142, 1), (127, 2), (216, 9), (60, 3), (70, 5), (168, 10), (203, 0), (126, 7), (7, 8), (167, 9), (106, 2), (50, 4), (84, 1), (174, 8), (52, 7), (141, 4), (27, 5), (194, 10), (132, 2), (54, 0), (74, 1), (16, 9), (172, 2)]
151	2	2	8	22	[(64, 7), (35, 7), (74, 5), (61, 2), (202, 6), (51, 5), (78, 8), (3, 2), (218, 7), (32, 8), (147, 5), (176, 1), (72, 2), (85, 8), (55, 6), (104, 6), (125, 5), (77, 6), (248, 8), (207, 4), (91, 2), (242, 2)]
152	1	1	8	26	[(80, 6), (162, 1), (219, 10), (48, 3), (178, 1), (150, 3), (98, 9), (171, 3), (114, 2), (216, 0), (102, 6), (132, 4), (56, 5), (228, 0), (191, 4), (167, 8), (33, 7), (16, 4), (28, 0), (1, 4), (149, 7), (222, 6), (185, 6), (43, 5), (45, 6), (173, 9)]
153	1	2	2	32	[(98, 7), (9, 4), (24, 9), (181, 1), (237, 3), (167, 4), (92, 0), (235, 7), (196, 4), (85, 8), (2, 4), (174, 6), (230, 3), (197, 9), (117, 9), (57, 7), (113, 9), (115, 9), (72, 1), (19, 4), (156, 1), (45, 3), (143, 1), (187, 7), (120, 7), (146, 10), (30, 9), (37, 8), (173, 5), (242, 2), (249, 8), (220, 4)]
154	7	3	8	20	[(172, 8), (111, 1), (210, 8), (156, 9), (157, 8), (243, 0), (69, 0), (124, 9), (119, 0), (1, 2), (214, 0), (8, 4), (170, 9), (143, 4), (106, 10), (186, 9), (208, 9), (139, 7), (97, 7), (42, 4)]
155	2	1	8	33	[(76, 6), (172, 5), (68, 8), (189, 4), (58, 8), (133, 10), (205, 1), (16, 10), (26, 4), (25, 0), (116, 5), (223, 3), (169, 4), (69, 7), (244, 5), (164, 6), (90, 9), (46, 0), (95, 1), (231, 8), (165, 4), (206, 1), (57, 0), (124, 2), (17, 8), (52, 8), (129, 4), (167, 4), (187, 4), (203, 0), (234, 2), (10, 1), (141, 9)]
156	13	1	8	15	[(81, 1), (186, 2), (228, 8), (10, 9), (202, 10), (39, 3), (158, 2), (201, 3), (169, 2), (6, 6), (101, 4), (235, 2), (155, 7), (124, 5), (207, 6)]
157	84	1	8	18	[(211, 6), (218, 7), (85, 6), (165, 1), (66, 2), (94, 4), (168, 0), (60, 8), (228, 4), (108, 5), (248, 6), (161, 9), (2, 9), (182, 2), (195, 9), (38, 0), (58, 10), (96, 8)]
158	17	1	8	23	[(13, 4), (30, 1), (23, 6), (63, 3), (217, 1), (71, 2), (31, 4), (75, 9), (99, 4), (230, 9), (50, 2), (84, 9), (56, 1), (164, 4), (119, 2), (182, 3), (112, 2), (239, 0), (238, 7), (10, 10), (153, 9), (100, 4), (221, 1)]
159	4	2	2	21	[(218, 2), (215, 1), (183, 1), (151, 0), (220, 2), (136, 7), (18, 0), (56, 1), (164, 7), (153, 1), (12, 5), (205, 3), (232, 1), (242, 2), (87, 3), (139, 8), (116, 10), (101, 5), (54, 3), (32, 0), (94, 5)]
160	2	3	8	26	[(57, 10), (83, 7), (246, 8), (107, 0), (165, 4), (212, 3), (76, 9), (158, 2), (75, 6), (222, 6), (111, 3), (96, 7), (220, 2), (133, 7), (99, 4), (66, 10), (5, 5), (170, 5), (157, 8), (67, 0), (179, 8), (79, 9), (183, 4), (60, 4), (154, 0), (82, 5)]
161	1	12	2	24	[(87, 10), (18, 1), (234, 10), (39, 6), (11, 3), (32, 0), (131, 2), (16, 7), (78, 0), (9, 5), (56, 0), (155, 7), (54, 9), (25, 1), (163, 6), (43, 4), (27, 1), (77, 10), (128, 3), (226, 4), (38, 9), (217, 1), (200, 0), (26, 10)]
162	2	1	8	28	[(11, 5), (105, 4), (159, 2), (32, 8), (154, 8), (31, 6), (126, 9), (33, 2), (35, 9), (234, 10), (189, 1), (207, 0), (101, 6), (74, 0), (231, 3), (21, 1), (167, 7), (137, 5), (22, 1), (109, 6), (13, 2), (99, 3), (242, 3), (10, 8), (169, 8), (92, 3), (14, 0), (155, 5)]
163	5	1	8	21	[(134, 9), (234, 0), (192, 1), (124, 1), (9, 0), (87, 0), (244, 8), (127, 3), (56, 1), (204, 7), (28, 8), (65, 3), (228, 4), (182, 0), (138, 7), (26, 4), (132, 7), (90, 1), (233, 3), (166, 5), (178, 8)]
164	2	1	8	21	[(231, 5), (162, 2), (89, 10), (152, 0), (105, 1), (223, 8), (141, 9), (61, 5), (24, 0), (129, 10), (245, 10), (142, 3), (199, 10), (185, 7), (79, 4), (150, 0), (157, 1), (143, 7), (139, 0), (77, 9), (30, 0)]
165	1	4	8	24	[(74, 10), (22, 7), (208, 1), (114, 4), (156, 6), (228, 5), (165, 9), (85, 9), (170, 8), (38, 4), (18, 10), (218, 1), (35, 8), (105, 4), (127, 4), (182, 10), (15, 6), (184, 4), (192, 5), (59, 8), (179, 9), (123, 7), (207, 5), (128, 4)]
166	24	1	8	24	[(105, 9), (66, 4), (94, 3), (178, 4), (242, 9), (31, 6), (119, 8), (43, 4), (117, 2), (197, 2), (13, 5), (51, 10), (104, 7), (50, 3), (29, 8), (86, 4), (248, 4), (40, 1), (246, 10), (136, 10), (207, 1), (39, 7), (96, 0), (138, 1)]
167	10	6	8	21	[(36, 4), (92, 5), (224, 6), (33, 8), (173, 10), (53, 6), (38, 5), (250, 5), (137, 1), (82, 3), (227, 7), (186, 8), (236, 1), (26, 2), (238, 7), (31, 8), (122, 3), (65, 6), (52, 4), (216, 6), (167, 8)]
168	1	2	8	21	[(187, 1), (132, 5), (48, 3), (26, 6), (199, 1), (3, 10), (174, 9), (197, 9), (46, 3), (44, 2), (175, 4), (33, 4), (147, 9), (117, 2), (159, 2), (86, 10), (91, 7), (87, 7), (213, 2), (143, 2), (6, 1)]
169	2	5	8	26	[(221, 0), (65, 8), (175, 9), (35, 4), (159, 6), (247, 5), (147, 4), (186, 1), (97, 5), (149, 1), (43, 8), (29, 9), (166, 3), (87, 6), (121, 4), (42, 7), (67, 7), (101, 0), (98, 10), (167, 5), (123, 8), (146, 3), (72, 10), (142, 2), (201, 1), (60, 4)]
170	2	4	8	26	[(16, 7), (89, 6), (42, 6), (58, 1), (221, 2), (236, 7), (182, 0), (124, 9), (97, 8), (29, 8), (183, 6), (165, 2), (223, 8), (167, 6), (169, 6), (96, 10), (146, 9), (166, 4), (174, 0), (122, 2), (219, 4), (55, 10), (64, 0), (203, 4), (107, 1), (240, 10)]
171	2	1	2	26	[(5, 2), (182, 6), (136, 6), (76, 7), (175, 1), (20, 1), (78, 6), (14, 10), (125, 2), (129, 2), (224, 0), (7, 2), (196, 5), (90, 3), (4, 1), (47, 10), (193, 1), (151, 10), (54, 6), (152, 0), (119, 2), (183, 1), (107, 5), (158, 4), (25, 1), (127, 10)]
172	27	1	8	21	[(32, 6), (245, 5), (116, 8), (7, 5), (148, 4), (202, 0), (211, 3), (80, 7), (129, 4), (82, 2), (138, 10), (134, 3), (17, 1), (149, 6), (79, 2), (178, 10), (235, 7), (39, 8), (162, 9), (133, 6), (187, 5)]
173	2	1	8	32	[(193, 8), (167, 8), (112, 5), (25, 3), (219, 1), (121, 8), (222, 10), (84, 4), (226, 9), (55, 1), (238, 5), (178, 8), (9, 6), (165, 7), (62, 9), (102, 7), (107, 5), (7, 4), (40, 5), (207, 6), (60, 4), (122, 10), (211, 3), (26, 7), (101, 5), (105, 10), (154, 7), (171, 5), (111, 7), (235, 4), (96, 1), (247, 6)]
174	3	1	8	28	[(101, 10), (125, 1), (223, 4), (149, 5), (110, 7), (167, 0), (239, 9), (165, 1), (85, 0), (217, 10), (201, 4), (152, 7), (221, 10), (138, 1), (224, 2), (45, 10), (129, 4), (211, 9), (185, 7), (190, 2), (213, 1), (44, 3), (209, 0), (136, 9), (127, 6), (34, 4), (177, 8), (196, 9)]
175	1	6	8	27	[(73, 4), (177, 10), (148, 2), (155, 5), (195, 2), (232, 9), (101, 3), (40, 5), (3, 10), (72, 6), (242, 2), (91, 9), (191, 8), (145, 6), (53, 9), (60, 8), (99, 8), (193, 3), (128, 9), (225, 6), (133, 2), (74, 10), (169, 3), (136, 3), (65, 3), (209, 10), (212, 2)]
176	29	12	4	31	[(244, 10), (18, 7), (37, 2), (175, 1), (25, 2), (17, 6), (232, 7), (162, 8), (194, 4), (135, 4), (188, 3), (127, 3), (137, 2), (57, 1), (80, 7), (34, 1), (231, 7), (138, 6), (248, 5), (214, 4), (87, 10), (111, 10), (52, 5), (94, 6), (51, 8), (19, 3), (83, 2), (32, 5), (150, 3), (145, 10), (144, 5)]
177	2	1	96	19	[(32, 7), (30, 8), (16, 6), (233, 8), (235, 7), (141, 6), (86, 3), (21, 4), (179, 0), (84, 7), (42, 6), (45, 0), (197, 4), (104, 9), (78, 1), (129, 1), (229, 4), (195, 6), (170, 6)]
178	3	1	16	22	[(120, 1), (136, 10), (121, 9), (176, 2), (171, 10), (195, 5), (191, 5), (43, 7), (143, 0), (168, 3), (187, 1), (237, 1), (243, 0), (110, 3), (38, 4), (241, 6), (190, 2), (14, 2), (29, 1), (188, 9), (164, 1), (80, 9)]
179	10	1	2	23	[(114, 3), (240, 8), (66, 9), (183, 10), (63, 10), (7, 5), (242, 5), (122, 9), (166, 3), (15, 7), (141, 7), (243, 6), (85, 4), (226, 10), (223, 5), (95, 2), (197, 8), (239, 9), (198, 4), (12, 0), (208, 2), (150, 9), (93, 4)]
180	1	12	16	20	[(100, 7), (131, 1), (104, 3), (136, 1), (64, 6), (43, 2), (36, 10), (51, 9), (245, 5), (91, 2), (152, 6), (32, 5), (5, 10), (155, 6), (170, 4), (145, 4), (208, 5), (26, 4), (33, 9), (25, 6)]
181	2	1	8	28	[(59, 1), (197, 5), (17, 8), (128, 5), (126, 3), (231, 10), (116, 0), (145, 3), (167, 2), (125, 4), (188, 10), (48, 3), (189, 1), (164, 5), (191, 4), (96, 4), (79, 6), (105, 3), (2, 1), (132, 2), (23, 9), (147, 6), (247, 10), (161, 10), (53, 5), (159, 2), (173, 5), (193, 4)]
182	2	3	12	23	[(227, 0), (196, 8), (72, 5), (201, 6), (103, 0), (217, 3), (204, 0), (90, 0), (132, 8), (166, 5), (17, 3), (107, 7), (186, 3), (174, 5), (149, 0), (44, 8), (128, 7), (30, 0), (15, 4), (63, 7), (244, 5), (180, 2), (140, 9)]
183	3	1	8	27	[(155, 6), (58, 9), (107, 3), (22, 10), (86, 4), (82, 8), (39, 9), (240, 3), (180, 3), (238, 8), (92, 5), (200, 0), (187, 4), (8, 5), (57, 1), (37, 0), (149, 5), (97, 9), (156, 10), (75, 7), (201, 9), (133, 7), (81, 2), (151, 8), (21, 1), (222, 2), (84, 1)]
184	2	1	8	27	[(238, 3), (143, 5), (243, 5), (126, 3), (161, 8), (11, 6), (52, 9), (151, 10), (220, 1), (98, 3), (150, 3), (6, 7), (18, 2), (153, 2), (157, 1), (20, 8), (100, 8), (53, 10), (202, 9), (245, 0), (199, 6), (196, 4), (106, 7), (222, 4), (194, 10), (230, 4), (51, 0)]
185	2	1	8	30	[(13, 5), (166, 9), (159, 6), (205, 8), (24, 2), (61, 5), (44, 6), (91, 9), (54, 9), (140, 3), (105, 1), (56, 5), (110, 3), (177, 10), (173, 10), (112, 4), (203, 8), (83, 0), (242, 1), (116, 10), (41, 4), (49, 1), (60, 0), (86, 5), (196, 10), (186, 3), (67, 7), (35, 6), (220, 0), (167, 3)]
186	2	10	8	23	[(179, 8), (162, 5), (199, 4), (102, 9), (161, 9), (6, 9), (109, 6), (51, 8), (104, 4), (177, 10), (202, 6), (62, 4), (220, 5), (3, 0), (186, 10), (248, 5), (55, 0), (101, 7), (115, 7), (106, 9), (228, 0), (183, 7), (17, 6)]
187	2	2	1	23	[(68, 0), (193, 6), (56, 3), (170, 6), (132, 4), (77, 10), (67, 4), (198, 2), (79, 2), (204, 7), (124, 0), (108, 6), (34, 6), (242, 4), (179, 2), (65, 1), (158, 1), (88, 4), (153, 8), (155, 3), (201, 4), (230, 10), (212, 1)]
188	2	1	32	18	[(62, 9), (186, 4), (14, 1), (71, 2), (24, 2), (249, 3), (109, 10), (234, 3), (92, 0), (68, 7), (187, 7), (75, 10), (168, 10), (2, 6), (240, 2), (167, 4), (48, 8), (189, 8)]
189	14	1	3	23	[(5, 3), (181, 7), (29, 4), (9, 6), (216, 0), (165, 8), (83, 5), (122, 8), (42, 1), (23, 4), (147, 6), (7, 6), (148, 6), (219, 6), (84, 8), (55, 8), (1, 3), (209, 6), (151, 0), (93, 10), (188, 5), (144, 10), (248, 1)]
190	2	2	8	28	[(78, 0), (167, 10), (73, 2), (51, 7), (117, 7), (70, 6), (245, 7), (136, 8), (182, 2), (33, 9), (141, 4), (63, 4), (170, 8), (209, 0), (16, 9), (106, 5), (13, 5), (130, 4), (165, 0), (135, 2), (179, 1), (50, 4), (188, 7), (248, 0), (108, 9), (150, 3), (171, 5), (153, 0)]
191	1	1	16	19	[(76, 2), (168, 9), (115, 1), (10, 5), (216, 9), (207, 9), (231, 3), (170, 6), (203, 0), (52, 0), (15, 8), (225, 3), (50, 0), (151, 2), (155, 0), (200, 9), (95, 1), (2, 5), (55, 5)]
192	3	2	8	22	[(47, 8), (180, 0), (35, 1), (57, 7), (174, 0), (59, 9), (63, 8), (139, 10), (244, 7), (58, 5), (214, 10), (198, 7), (177, 4), (145, 2), (181, 7), (103, 9), (83, 10), (148, 0), (17, 3), (72, 8), (75, 9), (109, 4)]
193	2	2	8	13	[(41, 5), (89, 2), (58, 0), (6, 3), (16, 2), (246, 10), (27, 3), (123, 3), (69, 1), (108, 3), (169, 1), (66, 6), (235, 6)]
194	2	1	8	25	[(71, 1), (6, 10), (12, 0), (32, 0), (160, 6), (158, 0), (46, 0), (41, 5), (42, 6), (162, 8), (121, 4), (187, 0), (100, 9), (246, 9), (221, 10), (249, 0), (226, 4), (161, 9), (25, 2), (231, 4), (138, 10), (108, 6), (219, 8), (198, 1), (84, 7)]
195	1	1	8	33	[(72, 2), (105, 5), (96, 10), (242, 7), (187, 5), (166, 1), (136, 5), (16, 9), (250, 4), (225, 4), (4, 2), (238, 9), (239, 8), (77, 3), (53, 7), (243, 9), (87, 1), (124, 9), (223, 10), (194, 8), (35, 8), (142, 4), (146, 10), (59, 5), (173, 2), (135, 8), (56, 9), (84, 5), (172, 8), (38, 4), (12, 9), (111, 1), (55, 2)]
196	28	4	8	22	[(11, 10), (240, 4), (160, 0), (132, 1), (215, 4), (116, 0), (246, 0), (83, 9), (25, 8), (17, 2), (137, 2), (124, 8), (1, 3), (47, 5), (194, 4), (69, 2), (22, 1), (127, 5), (30, 6), (110, 0), (245, 0), (14, 1)]
197	1	1	8	33	[(139, 3), (138, 6), (168, 4), (75, 4), (203, 10), (119, 0), (219, 6), (209, 6), (45, 1), (105, 3), (96, 3), (78, 1), (44, 0), (226, 7), (196, 8), (5, 5), (66, 9), (41, 3), (42, 5), (200, 0), (103, 0), (18, 5), (212, 1), (171, 7), (167, 0), (36, 2), (40, 9), (131, 4), (67, 0), (154, 5), (248, 7), (8, 1), (114, 8)]
198	3	1	32	31	[(133, 7), (239, 6), (187, 10), (112, 10), (156, 0), (189, 1), (40, 4), (96, 3), (248, 4), (193, 9), (249, 7), (101, 4), (132, 6), (155, 9), (172, 6), (110, 4), (168, 6), (49, 9), (213, 1), (157, 9), (222, 3), (109, 5), (167, 3), (154, 5), (215, 3), (219, 3), (81, 7), (206, 10), (208, 1), (98, 1), (107, 6)]
199	5	1	8	25	[(15, 4), (70, 9), (131, 2), (99, 5), (198, 5), (249, 5), (151, 6), (78, 3), (60, 1), (118, 3), (185, 4), (85, 6), (50, 5), (188, 6), (215, 6), (230, 7), (63, 3), (154, 6), (2, 5), (88, 0), (67, 9), (17, 10), (246, 1), (152, 3), (170, 5)]
200	4	6	8	22	[(23, 2), (201, 9), (131, 4), (72, 0), (236, 0), (71, 6), (209, 8), (13, 8), (105, 5), (149, 0), (181, 1), (191, 7), (78, 4), (93, 10), (228, 1), (104, 0), (153, 9), (135, 3), (197, 5), (242, 8), (80, 9), (229, 4)]
201	2	4	48	31	[(167, 6), (126, 3), (104, 5), (155, 7), (11, 8), (64, 1), (186, 0), (111, 4), (200, 2), (145, 1), (130, 10), (113, 5), (88, 0), (34, 7), (81, 8), (58, 4), (117, 2), (147, 7), (242, 5), (189, 5), (165, 7), (135, 5), (21, 9), (240, 6), (127, 0), (82, 4), (95, 1), (157, 6), (142, 5), (194, 3), (36, 8)]
202	1	1	8	28	[(173, 3), (241, 5), (242, 10), (189, 0), (20, 8), (219, 7), (188, 4), (248, 5), (14, 10), (186, 1), (93, 5), (231, 3), (234, 1), (230, 2), (33, 7), (118, 7), (225, 2), (112, 0), (114, 0), (102, 1), (3, 4), (148, 8), (60, 0), (206, 7), (31, 10), (48, 5), (122, 4), (51, 8)]
203	3	1	8	21	[(201, 2), (43, 4), (210, 10), (131, 1), (117, 2), (26, 5), (94, 6), (188, 0), (239, 0), (225, 9), (241, 4), (121, 6), (144, 8), (52, 7), (238, 7), (110, 1), (29, 0), (214, 2), (211, 10), (245, 10), (119, 9)]
204	4	1	2	37	[(22, 4), (190, 4), (249, 0), (242, 7), (107, 1), (165, 7), (35, 2), (220, 6), (129, 8), (13, 9), (20, 3), (209, 8), (19, 1), (147, 4), (234, 8), (68, 6), (216, 9), (155, 7), (72, 2), (179, 2), (247, 9), (157, 6), (151, 3), (159, 3), (222, 7), (228, 6), (186, 9), (56, 3), (64, 9), (177, 3), (197, 8), (215, 5), (178, 8), (122, 0), (32, 8), (51, 3), (63, 8)]
205	1	1	1	27	[(14, 5), (198, 4), (55, 5), (45, 5), (176, 5), (61, 3), (188, 3), (68, 7), (18, 3), (47, 10), (23, 4), (138, 6), (43, 8), (118, 5), (24, 6), (20, 6), (239, 5), (34, 9), (189, 8), (165, 2), (19, 1), (158, 9), (186, 9), (72, 3), (105, 3), (58, 9), (246, 8)]
206	2	4	8	19	[(197, 7), (68, 5), (168, 3), (114, 4), (29, 7), (201, 9), (153, 9), (46, 3), (44, 8), (192, 1), (126, 5), (104, 9), (3, 10), (100, 2), (133, 0), (227, 3), (34, 8), (188, 9), (86, 4)]
207	2	1	8	22	[(141, 9), (203, 9), (62, 1), (101, 9), (18, 2), (74, 4), (40, 7), (196, 4), (113, 4), (59, 5), (66, 5), (174, 0), (72, 2), (149, 8), (204, 3), (178, 9), (85, 6), (237, 5), (249, 3), (93, 8), (236, 10), (232, 7)]
208	2	1	16	20	[(87, 1), (153, 6), (168, 6), (114, 3), (80, 6), (68, 3), (13, 10), (61, 9), (108, 7), (119, 9), (7, 6), (16, 3), (240, 6), (15, 9), (47, 0), (219, 0), (14, 4), (24, 3), (10, 5), (230, 4)]
209	1	1	8	24	[(201, 4), (96, 10), (224, 7), (128, 5), (12, 8), (219, 1), (92, 2), (158, 4), (84, 3), (65, 0), (14, 4), (17, 2), (19, 8), (78, 5), (172, 0), (56, 1), (124, 5), (22, 3), (94, 2), (197, 1), (241, 7), (21, 4), (204, 7), (220, 3)]
210	3	6	8	30	[(28, 8), (127, 8), (48, 10), (214, 2), (212, 0), (55, 3), (24, 6), (227, 8), (87, 4), (175, 3), (11, 7), (46, 6), (129, 7), (33, 3), (126, 5), (207, 7), (230, 8), (12, 8), (179, 4), (49, 4), (8, 3), (89, 2), (80, 5), (26, 9), (92, 9), (248, 5), (168, 2), (63, 6), (183, 6), (32, 7)]
211	2	1	2	20	[(100, 9), (75, 8), (3, 4), (202, 7), (158, 1), (11, 8), (232, 0), (237, 7), (101, 3), (212, 6), (115, 1), (45, 3), (196, 9), (65, 3), (201, 9), (34, 2), (64, 7), (177, 4), (91, 0), (23, 3)]
212	3	1	16	19	[(177, 0), (4, 2), (117, 4), (200, 7), (94, 9), (128, 10), (119, 9), (201, 5), (104, 2), (66, 2), (50, 4), (98, 8), (129, 10), (99, 9), (228, 0), (2, 5), (198, 8), (116, 1), (172, 5)]
213	1	1	8	20	[(122, 4), (127, 5), (119, 6), (194, 4), (93, 2), (113, 9), (89, 3), (121, 2), (110, 8), (49, 9), (106, 5), (221, 2), (231, 3), (157, 5), (222, 2), (90, 3), (158, 6), (173, 3), (1, 10), (70, 10)]
214	4	1	8	25	[(93, 10), (86, 10), (79, 3), (200, 9), (21, 0), (131, 5), (217, 10), (70, 4), (247, 1), (27, 6), (162, 1), (96, 8), (64, 9), (42, 6), (133, 0), (215, 1), (105, 5), (171, 1), (180, 7), (242, 1), (160, 9), (141, 5), (205, 5), (151, 9), (137, 7)]
215	20	4	16	31	[(97, 8), (226, 6), (246, 7), (12, 0), (132, 2), (102, 2), (193, 2), (51, 2), (22, 6), (197, 5), (80, 4), (216, 4), (77, 4), (41, 5), (18, 1), (44, 0), (138, 4), (4, 3), (109, 9), (76, 2), (54, 4), (83, 0), (13, 10), (167, 5), (190, 9), (245, 0), (114, 5), (224, 8), (103, 1), (218, 0), (233, 10)]
216	1	1	2	35	[(231, 0), (249, 8), (96, 9), (9, 9), (250, 7), (172, 6), (207, 2), (8, 7), (129, 5), (213, 9), (82, 2), (58, 0), (161, 1), (69, 5), (166, 8), (38, 0), (88, 6), (118, 5), (80, 5), (12, 4), (199, 3), (182, 1), (116, 6), (50, 1), (183, 2), (72, 1), (33, 4), (156, 10), (202, 10), (54, 5), (141, 5), (13, 2), (28, 0), (24, 5), (55, 3)]
217	1	2	16	39	[(75, 5), (181, 9), (108, 4), (31, 6), (43, 0), (82, 2), (48, 9), (114, 9), (217, 10), (40, 8), (182, 4), (154, 5), (189, 1), (24, 3), (5, 6), (215, 4), (192, 7), (143, 1), (51, 0), (145, 5), (7, 6), (9, 0), (77, 4), (46, 8), (6, 5), (79, 8), (250, 5), (211, 0), (235, 4), (249, 1), (144, 7), (66, 10), (227, 9), (207, 6), (131, 5), (23, 6), (151, 8), (199, 2), (42, 10)]
218	2	1	8	24	[(12, 3), (56, 4), (222, 5), (160, 6), (247, 7), (66, 3), (176, 3), (145, 2), (13, 1), (241, 1), (197, 5), (8, 2), (201, 3), (126, 1), (133, 7), (203, 0), (185, 7), (162, 7), (192, 4), (67, 9), (121, 0), (161, 4), (69, 7), (158, 3)]
219	4	2	8	25	[(21, 6), (212, 10), (56, 0), (6, 2), (31, 1), (204, 4), (148, 9), (57, 9), (75, 1), (53, 7), (177, 7), (51, 8), (143, 2), (76, 4), (185, 3), (154, 8), (11, 5), (132, 9), (165, 9), (121, 0), (86, 8), (186, 7), (104, 5), (235, 8), (229, 5)]
220	2	1	8	24	[(173, 7), (225, 7), (234, 9), (98, 9), (45, 5), (149, 3), (235, 5), (115, 5), (76, 1), (32, 1), (210, 4), (62, 3), (79, 10), (194, 8), (181, 1), (94, 2), (59, 9), (97, 5), (117, 6), (130, 10), (63, 10), (24, 4), (48, 7), (90, 8)]
221	2	1	2	22	[(196, 9), (135, 0), (191, 3), (182, 7), (224, 4), (28, 10), (204, 6), (157, 10), (161, 0), (249, 7), (130, 4), (163, 3), (27, 7), (17, 2), (185, 9), (71, 6), (68, 4), (169, 3), (44, 10), (37, 1), (211, 6), (9, 5)]
222	5	1	8	19	[(99, 4), (206, 0), (155, 3), (22, 6), (93, 9), (239, 5), (117, 4), (162, 10), (188, 6), (128, 7), (245, 2), (158, 10), (29, 6), (174, 5), (212, 5), (132, 0), (64, 9), (115, 4), (190, 3)]
223	1	3	2	18	[(241, 4), (43, 6), (201, 1), (100, 8), (107, 3), (122, 9), (16, 1), (37, 4), (178, 10), (132, 7), (156, 5), (121, 9), (81, 8), (189, 1), (13, 9), (154, 5), (1, 2), (3, 1)]
224	1	2	16	29	[(154, 6), (245, 4), (160, 6), (131, 1), (195, 7), (239, 10), (198, 2), (65, 3), (176, 6), (27, 3), (28, 1), (86, 0), (89, 9), (95, 2), (209, 3), (31, 3), (207, 3), (221, 7), (64, 0), (132, 8), (202, 8), (14, 0), (250, 4), (179, 3), (87, 1), (174, 8), (4, 7), (45, 9), (129, 1)]
225	1	3	8	20	[(177, 3), (48, 10), (166, 1), (49, 4), (161, 9), (60, 3), (215, 5), (73, 1), (185, 1), (214, 1), (93, 2), (126, 3), (81, 3), (102, 0), (10, 10), (115, 9), (230, 9), (92, 9), (98, 0), (209, 10)]
226	3	1	1	31	[(160, 2), (158, 3), (131, 5), (229, 8), (201, 7), (207, 10), (37, 1), (138, 10), (108, 1), (21, 7), (194, 5), (10, 8), (96, 3), (65, 0), (180, 7), (200, 5), (98, 9), (125, 0), (15, 10), (80, 0), (237, 9), (233, 2), (120, 0), (41, 4), (64, 4), (244, 4), (39, 5), (175, 3), (32, 7), (81, 5), (188, 2)]
227	4	1	8	25	[(146, 0), (217, 8), (115, 9), (230, 0), (125, 0), (19, 10), (49, 4), (90, 8), (214, 7), (219, 1), (236, 2), (245, 3), (81, 2), (150, 0), (174, 10), (101, 2), (181, 2), (104, 5), (240, 8), (160, 9), (24, 6), (119, 9), (91, 9), (52, 7), (170, 10)]
228	43	1	8	22	[(146, 0), (66, 7), (108, 3), (235, 0), (205, 1), (65, 4), (59, 10), (55, 5), (128, 1), (3, 0), (244, 6), (204, 9), (61, 5), (34, 7), (184, 0), (62, 3), (17, 5), (132, 8), (109, 1), (90, 1), (117, 6), (60, 2)]
229	1	1	16	18	[(210, 3), (143, 7), (146, 8), (31, 1), (223, 8), (69, 9), (84, 9), (103, 10), (88, 7), (226, 4), (38, 7), (99, 5), (42, 5), (95, 5), (153, 6), (107, 10), (105, 9), (237, 8)]
230	4	4	2	30	[(241, 3), (143, 9), (51, 6), (187, 3), (126, 6), (164, 9), (183, 10), (232, 8), (198, 3), (15, 10), (84, 6), (27, 9), (139, 3), (147, 6), (208, 7), (45, 7), (109, 4), (170, 8), (157, 4), (134, 10), (94, 8), (156, 2), (209, 2), (176, 4), (1, 5), (90, 8), (123, 5), (52, 0), (212, 2), (60, 5)]
231	1	1	4	21	[(240, 4), (212, 8), (24, 9), (148, 2), (123, 8), (52, 3), (125, 10), (58, 2), (114, 4), (53, 10), (156, 1), (68, 7), (23, 1), (14, 6), (60, 10), (150, 8), (200, 6), (162, 3), (79, 4), (149, 5), (33, 8)]
232	1	3	8	26	[(132, 9), (22, 2), (108, 1), (245, 10), (120, 9), (134, 10), (228, 1), (183, 3), (225, 2), (194, 10), (232, 6), (23, 6), (57, 10), (215, 2), (154, 7), (203, 5), (187, 7), (131, 5), (58, 6), (69, 4), (102, 5), (136, 0), (59, 0), (155, 8), (141, 6), (126, 3)]
233	2	2	8	22	[(155, 5), (89, 10), (117, 0), (242, 5), (115, 7), (24, 5), (235, 5), (189, 2), (23, 10), (108, 6), (35, 0), (180, 2), (193, 2), (147, 1), (212, 1), (188, 4), (10, 5), (173, 10), (58, 7), (204, 7), (123, 0), (216, 0)]
234	2	3	8	35	[(15, 7), (142, 4), (193, 5), (90, 2), (114, 7), (113, 8), (180, 9), (206, 1), (109, 0), (46, 6), (74, 0), (184, 1), (177, 6), (137, 6), (65, 2), (68, 5), (217, 9), (88, 8), (77, 8), (40, 5), (117, 4), (23, 10), (245, 5), (102, 3), (197, 0), (201, 3), (248, 10), (243, 0), (32, 2), (19, 3), (155, 3), (241, 2), (156, 1), (134, 9), (161, 0)]
235	1	1	2	26	[(174, 5), (34, 8), (241, 1), (189, 4), (155, 4), (237, 1), (93, 8), (106, 8), (14, 7), (61, 4), (113, 9), (87, 7), (176, 9), (127, 8), (101, 6), (9, 4), (26, 5), (146, 6), (60, 10), (236, 4), (45, 9), (44, 10), (46, 7), (217, 1), (142, 9), (59, 0)]
236	1	2	8	29	[(11, 2), (40, 7), (23, 10), (246, 0), (22, 9), (56, 5), (101, 2), (218, 9), (5, 4), (185, 0), (233, 2), (222, 10), (65, 9), (178, 8), (128, 5), (194, 4), (122, 2), (156, 4), (132, 5), (113, 10), (229, 9), (173, 7), (12, 1), (220, 0), (230, 1), (34, 9), (83, 7), (180, 10), (223, 7)]
237	9	1	8	26	[(114, 6), (250, 7), (141, 2), (33, 3), (234, 3), (94, 0), (168, 8), (146, 2), (72, 8), (31, 3), (107, 7), (92, 1), (181, 0), (133, 2), (170, 8), (5, 9), (221, 0), (186, 0), (44, 10), (239, 3), (26, 8), (54, 8), (53, 0), (189, 3), (160, 4), (230, 0)]
238	1	3	16	27	[(142, 3), (111, 4), (185, 3), (37, 9), (3, 0), (136, 8), (181, 7), (224, 8), (214, 2), (198, 0), (249, 9), (117, 3), (8, 6), (148, 7), (47, 2), (200, 4), (247, 2), (16, 2), (192, 7), (173, 4), (31, 3), (230, 2), (115, 8), (131, 10), (211, 0), (218, 0), (121, 2)]
239	2	1	8	26	[(221, 6), (127, 1), (174, 3), (159, 7), (119, 1), (188, 2), (47, 0), (150, 9), (229, 4), (70, 1), (143, 6), (149, 2), (93, 1), (218, 3), (45, 2), (233, 7), (225, 1), (14, 10), (38, 0), (146, 10), (196, 6), (162, 5), (71, 6), (40, 10), (53, 4), (131, 1)]
240	2	1	8	25	[(149, 6), (40, 4), (230, 4), (151, 10), (28, 2), (23, 9), (48, 10), (107, 5), (6, 10), (247, 3), (1, 8), (141, 10), (33, 9), (86, 10), (157, 6), (68, 7), (105, 3), (135, 10), (227, 5), (177, 1), (119, 5), (50, 6), (19, 9), (218, 7), (20, 7)]
241	4	2	8	26	[(155, 8), (147, 9), (205, 3), (70, 5), (112, 6), (127, 4), (57, 6), (154, 4), (224, 0), (26, 8), (64, 1), (18, 1), (21, 3), (3, 8), (215, 2), (193, 5), (186, 9), (219, 10), (10, 0), (129, 4), (88, 5), (130, 4), (77, 0), (144, 5), (68, 10), (6, 9)]
242	1	1	8	25	[(101, 5), (210, 8), (70, 0), (121, 7), (222, 4), (125, 6), (5, 9), (95, 9), (184, 2), (144, 7), (81, 4), (201, 6), (89, 6), (151, 2), (102, 8), (242, 3), (74, 9), (189, 3), (221, 6), (212, 9), (55, 10), (91, 0), (30, 9), (50, 8), (203, 4)]
243	4	1	8	23	[(196, 3), (13, 4), (63, 4), (142, 9), (51, 2), (18, 9), (185, 7), (89, 7), (120, 8), (243, 7), (148, 4), (225, 9), (245, 1), (202, 0), (100, 1), (201, 8), (53, 3), (241, 2), (37, 0), (193, 0), (65, 4), (192, 3), (68, 8)]
244	1	2	8	21	[(138, 5), (11, 9), (60, 7), (33, 10), (195, 8), (139, 2), (127, 9), (89, 4), (187, 8), (115, 7), (31, 7), (132, 4), (116, 6), (214, 5), (117, 4), (87, 6), (244, 1), (233, 7), (28, 3), (70, 0), (50, 5)]
245	16	1	8	21	[(46, 9), (16, 1), (42, 0), (240, 1), (198, 7), (196, 4), (69, 3), (20, 1), (207, 5), (215, 2), (119, 3), (191, 3), (170, 5), (203, 10), (10, 3), (188, 6), (93, 0), (201, 2), (18, 3), (109, 6), (132, 4)]
246	1	1	8	26	[(33, 2), (239, 10), (39, 2), (187, 1), (135, 5), (10, 1), (32, 10), (27, 6), (83, 3), (160, 0), (25, 1), (3, 5), (212, 1), (151, 1), (49, 1), (129, 8), (85, 0), (178, 6), (176, 9), (218, 6), (67, 10), (144, 5), (16, 8), (2, 2), (62, 2), (220, 10)]
247	1	1	8	34	[(88, 4), (201, 10), (184, 1), (247, 7), (155, 3), (47, 4), (234, 3), (56, 5), (29, 4), (209, 0), (149, 4), (183, 3), (119, 5), (105, 3), (106, 0), (175, 10), (57, 1), (169, 9), (44, 5), (223, 8), (14, 4), (117, 7), (63, 2), (108, 5), (62, 0), (72, 3), (101, 8), (203, 10), (4, 2), (18, 8), (215, 6), (182, 2), (76, 4), (217, 10)]
248	1	1	7	26	[(142, 6), (71, 7), (224, 3), (245, 4), (156, 8), (108, 8), (213, 6), (43, 1), (5, 8), (120, 7), (123, 3), (191, 2), (193, 8), (249, 7), (158, 1), (90, 10), (157, 3), (66, 3), (67, 10), (3, 6), (234, 8), (221, 10), (79, 5), (118, 2), (145, 4), (42, 1)]
249	1	1	2	24	[(250, 1), (245, 0), (59, 5), (90, 9), (222, 2), (27, 8), (73, 5), (218, 6), (86, 2), (247, 10), (81, 1), (237, 3), (179, 7), (176, 5), (158, 10), (145, 10), (211, 8), (37, 2), (39, 8), (170, 9), (226, 2), (35, 2), (197, 7), (33, 0)]
250	64	1	7	24	[(171, 5), (227, 0), (34, 4), (220, 2), (206, 10), (181, 7), (71, 8), (184, 9), (11, 9), (163, 5), (51, 8), (244, 1), (214, 7), (18, 0), (102, 10), (246, 1), (156, 3), (30, 7), (223, 1), (66, 9), (250, 9), (20, 8), (152, 10), (122, 1)]
