app_id	nb_instances	core	memory	inter_degree	inter_aff
1	6	4	8	3	[(328, 2), (73, 6), (330, 9)]
2	8	1	8	3	[(222, 0), (380, 10), (144, 2)]
3	2	1	1	2	[(98, 4), (131, 7)]
4	2	1	8	2	[(76, 5), (375, 10)]
5	1	1	8	8	[(249, 7), (449, 5), (63, 10), (433, 9), (105, 6), (168, 4), (18, 2), (383, 5)]
6	27	4	3	7	[(162, 6), (182, 7), (462, 8), (292, 7), (180, 1), (440, 0), (197, 1)]
7	5	2	8	5	[(211, 0), (26, 1), (98, 5), (206, 10), (260, 5)]
8	22	1	8	2	[(222, 10), (40, 5)]
9	2	1	8	3	[(218, 1), (233, 4), (416, 7)]
10	1	1	8	8	[(32, 10), (364, 5), (115, 7), (47, 9), (116, 5), (74, 1), (66, 2), (305, 8)]
11	4	12	8	7	[(32, 9), (30, 2), (166, 7), (309, 4), (308, 4), (188, 5), (463, 6)]
12	2	2	8	5	[(358, 4), (398, 9), (433, 10), (8, 7), (441, 9)]
13	1	1	1	6	[(496, 5), (70, 2), (439, 0), (279, 9), (134, 9), (378, 5)]
14	2	1	8	4	[(23, 0), (7, 4), (241, 7), (435, 2)]
15	2	1	8	2	[(376, 3), (138, 0)]
16	71	2	8	7	[(86, 0), (69, 7), (38, 7), (120, 1), (493, 5), (172, 6), (228, 6)]
17	1	1	1	5	[(273, 4), (1, 3), (450, 7), (464, 3), (378, 7)]
18	1	1	16	5	[(342, 2), (277, 2), (167, 3), (230, 9), (457, 0)]
19	2	1	8	3	[(451, 8), (495, 4), (26, 8)]
20	1	2	8	3	[(315, 0), (293, 0), (273, 3)]
21	1	1	6	3	[(470, 0), (238, 0), (306, 10)]
22	2	1	8	8	[(247, 3), (101, 0), (438, 3), (211, 9), (331, 3), (444, 8), (10, 5), (343, 8)]
23	1	1	8	6	[(99, 2), (445, 4), (222, 7), (9, 0), (50, 3), (460, 4)]
24	1	1	8	6	[(480, 3), (426, 3), (459, 7), (163, 7), (352, 4), (7, 2)]
25	3	4	8	2	[(82, 4), (251, 0)]
26	18	1	8	7	[(53, 0), (89, 0), (17, 9), (84, 8), (107, 6), (323, 8), (334, 4)]
27	1	6	8	4	[(469, 4), (28, 4), (76, 4), (327, 9)]
28	7	3	8	5	[(326, 9), (63, 1), (12, 5), (62, 3), (383, 6)]
29	2	1	2	5	[(424, 6), (227, 5), (407, 6), (420, 6), (484, 9)]
30	19	1	8	4	[(494, 4), (161, 0), (366, 0), (380, 7)]
31	2	5	8	5	[(150, 5), (23, 0), (295, 1), (368, 10), (457, 10)]
32	25	1	16	4	[(235, 5), (146, 2), (322, 6), (371, 6)]
33	2	1	8	6	[(158, 6), (138, 4), (64, 7), (477, 0), (472, 5), (129, 7)]
34	6	1	8	2	[(20, 8), (25, 8)]
35	2	5	8	7	[(494, 0), (70, 9), (323, 7), (464, 1), (192, 2), (272, 3), (186, 10)]
36	6	1	8	7	[(250, 10), (218, 7), (496, 5), (141, 2), (199, 5), (66, 3), (409, 1)]
37	2	2	2	1	[(415, 8)]
38	3	1	2	9	[(133, 10), (315, 5), (218, 0), (263, 10), (51, 2), (158, 1), (89, 3), (204, 2), (284, 1)]
39	2	1	8	8	[(394, 4), (266, 4), (368, 1), (437, 9), (451, 10), (85, 0), (288, 7), (25, 0)]
40	1	1	8	0	[]
41	1	1	1	8	[(177, 5), (468, 10), (100, 4), (495, 3), (256, 10), (54, 7), (24, 7), (345, 2)]
42	1	3	8	9	[(214, 0), (356, 0), (206, 0), (85, 9), (465, 7), (59, 3), (154, 0), (6, 3), (302, 9)]
43	2	1	8	6	[(169, 9), (116, 2), (300, 3), (291, 9), (303, 7), (172, 4)]
44	9	1	2	4	[(418, 7), (299, 3), (175, 4), (84, 1)]
45	1	1	8	3	[(47, 5), (303, 8), (208, 7)]
46	69	2	24	6	[(317, 2), (441, 2), (285, 7), (160, 5), (23, 8), (465, 6)]
47	1	1	8	7	[(249, 5), (110, 7), (318, 7), (337, 1), (433, 7), (300, 1), (108, 2)]
48	77	5	8	6	[(89, 10), (292, 0), (26, 5), (157, 7), (469, 5), (420, 9)]
49	1	6	8	5	[(247, 3), (212, 10), (85, 9), (180, 7), (334, 0)]
50	2	5	8	5	[(141, 9), (154, 3), (149, 7), (412, 5), (18, 6)]
51	1	1	8	5	[(353, 3), (132, 4), (473, 9), (271, 1), (474, 1)]
52	2	1	8	3	[(267, 2), (168, 3), (398, 9)]
53	2	1	9	4	[(480, 1), (314, 7), (345, 0), (361, 2)]
54	50	1	8	7	[(30, 5), (107, 10), (284, 0), (333, 8), (228, 2), (240, 5), (429, 3)]
55	3	1	8	5	[(277, 7), (76, 1), (485, 5), (416, 0), (347, 8)]
56	4	7	8	4	[(439, 8), (105, 0), (219, 7), (273, 5)]
57	2	1	8	9	[(237, 7), (89, 4), (259, 1), (248, 5), (315, 8), (46, 10), (436, 5), (64, 2), (241, 7)]
58	1	1	16	2	[(41, 10), (382, 7)]
59	11	4	8	6	[(402, 1), (15, 3), (365, 10), (393, 6), (102, 6), (38, 1)]
60	2	1	8	8	[(496, 5), (463, 1), (359, 5), (82, 10), (236, 2), (409, 1), (447, 10), (430, 1)]
61	99	1	8	4	[(353, 6), (253, 1), (83, 7), (149, 5)]
62	1	6	3	7	[(139, 3), (314, 2), (461, 5), (472, 4), (214, 6), (341, 3), (421, 0)]
63	4	1	8	5	[(337, 8), (278, 7), (215, 1), (1, 10), (382, 5)]
64	6	6	16	5	[(227, 9), (183, 5), (441, 6), (84, 3), (500, 10)]
65	2	1	2	4	[(366, 9), (405, 0), (198, 10), (60, 6)]
66	3	1	2	10	[(212, 5), (95, 10), (47, 10), (283, 6), (180, 0), (30, 2), (492, 8), (477, 3), (255, 5), (485, 7)]
67	2	1	8	2	[(305, 3), (270, 10)]
68	1	6	8	9	[(156, 1), (110, 8), (378, 4), (281, 9), (494, 9), (255, 2), (358, 3), (155, 10), (224, 0)]
69	6	2	8	4	[(333, 9), (456, 8), (426, 3), (358, 9)]
70	7	2	8	2	[(425, 5), (370, 5)]
71	2	1	8	5	[(66, 7), (123, 7), (139, 6), (4, 6), (310, 9)]
72	6	1	7	5	[(224, 10), (52, 9), (99, 3), (345, 8), (39, 0)]
73	2	1	8	5	[(304, 0), (64, 8), (218, 9), (418, 5), (490, 5)]
74	1	1	16	4	[(135, 10), (177, 4), (380, 2), (334, 1)]
75	2	1	2	9	[(463, 0), (203, 10), (283, 1), (124, 2), (230, 2), (415, 4), (93, 2), (212, 9), (259, 2)]
76	1	1	8	4	[(364, 3), (5, 8), (128, 5), (71, 5)]
77	55	1	8	7	[(36, 3), (427, 1), (110, 2), (349, 6), (182, 2), (69, 8), (60, 6)]
78	12	1	8	7	[(234, 3), (53, 4), (484, 5), (7, 8), (190, 6), (324, 6), (28, 6)]
79	4	1	2	5	[(367, 4), (294, 3), (391, 9), (134, 5), (137, 8)]
80	6	3	8	11	[(453, 6), (209, 4), (309, 0), (118, 10), (160, 5), (288, 7), (281, 2), (326, 1), (117, 4), (61, 10), (228, 6)]
81	1	1	8	5	[(290, 0), (443, 9), (55, 0), (186, 4), (33, 7)]
82	2	1	2	6	[(350, 2), (90, 8), (128, 1), (221, 7), (477, 7), (427, 3)]
83	9	1	8	2	[(128, 8), (325, 9)]
84	2	1	8	4	[(74, 1), (103, 4), (271, 1), (184, 2)]
85	2	5	8	8	[(109, 4), (474, 7), (382, 7), (444, 6), (407, 1), (204, 8), (177, 10), (156, 5)]
86	3	2	8	2	[(112, 3), (194, 6)]
87	25	1	8	7	[(135, 2), (344, 0), (125, 4), (403, 2), (495, 0), (467, 10), (43, 5)]
88	1	3	2	7	[(120, 4), (383, 6), (98, 3), (88, 4), (276, 3), (413, 2), (58, 9)]
89	1	1	8	2	[(483, 6), (484, 8)]
90	4	1	8	8	[(372, 7), (209, 2), (425, 3), (273, 10), (468, 8), (101, 6), (417, 8), (453, 7)]
91	1	32	8	7	[(3, 10), (408, 10), (100, 6), (434, 5), (313, 3), (175, 3), (460, 0)]
92	1	1	4	6	[(7, 10), (291, 2), (320, 6), (446, 0), (465, 5), (353, 10)]
93	14	1	8	4	[(166, 2), (294, 1), (173, 9), (58, 9)]
94	2	8	8	8	[(184, 8), (182, 2), (354, 9), (459, 1), (154, 4), (325, 5), (216, 8), (72, 7)]
95	13	3	8	7	[(334, 2), (324, 0), (331, 1), (38, 5), (398, 0), (404, 7), (137, 2)]
96	7	1	8	3	[(132, 0), (25, 7), (217, 9)]
97	1	1	8	8	[(132, 0), (148, 6), (299, 4), (259, 8), (203, 6), (147, 10), (176, 8), (320, 9)]
98	1	1	8	6	[(28, 4), (7, 3), (330, 3), (387, 7), (240, 3), (354, 9)]
99	3	1	8	4	[(85, 5), (177, 5), (297, 9), (224, 10)]
100	1	4	8	4	[(235, 8), (216, 7), (484, 2), (69, 7)]
101	2	1	8	3	[(266, 5), (195, 5), (119, 4)]
102	2	1	2	2	[(176, 5), (368, 7)]
103	2	1	8	5	[(119, 1), (223, 9), (464, 8), (338, 6), (437, 1)]
104	4	2	8	8	[(142, 5), (331, 8), (75, 9), (122, 4), (434, 5), (341, 1), (252, 2), (471, 10)]
105	2	1	8	3	[(443, 7), (109, 1), (125, 5)]
106	1	1	8	7	[(247, 8), (161, 8), (156, 1), (413, 2), (144, 9), (212, 9), (97, 5)]
107	8	1	2	1	[(490, 5)]
108	3	1	8	3	[(351, 7), (44, 5), (286, 6)]
109	2	23	8	7	[(339, 9), (444, 9), (454, 8), (123, 5), (210, 9), (327, 0), (361, 7)]
110	1	1	8	3	[(383, 4), (84, 4), (374, 7)]
111	2	1	8	5	[(209, 1), (317, 10), (212, 10), (357, 9), (374, 8)]
112	1	1	8	2	[(228, 1), (335, 4)]
113	1	2	8	1	[(372, 5)]
114	3	6	5	9	[(322, 2), (463, 4), (291, 0), (82, 7), (340, 0), (44, 8), (326, 4), (408, 6), (427, 6)]
115	1	1	8	5	[(82, 5), (412, 0), (65, 5), (193, 1), (44, 2)]
116	1	4	8	4	[(271, 2), (366, 1), (283, 10), (63, 2)]
117	1	1	8	3	[(491, 7), (372, 5), (241, 8)]
118	2	1	8	5	[(413, 1), (81, 5), (439, 0), (453, 4), (450, 6)]
119	22	1	8	4	[(12, 9), (179, 6), (319, 0), (59, 8)]
120	2	1	8	4	[(327, 3), (163, 3), (419, 2), (105, 8)]
121	3	1	8	10	[(63, 0), (59, 2), (124, 4), (270, 5), (165, 2), (291, 6), (1, 0), (193, 10), (46, 3), (468, 9)]
122	44	6	2	7	[(470, 10), (30, 1), (198, 1), (412, 6), (497, 5), (134, 2), (413, 3)]
123	6	1	8	3	[(274, 5), (350, 9), (84, 0)]
124	10	4	8	4	[(382, 0), (483, 10), (351, 6), (262, 2)]
125	2	2	8	7	[(104, 9), (262, 0), (141, 4), (40, 5), (23, 3), (485, 6), (405, 4)]
126	1	2	8	6	[(465, 0), (169, 6), (444, 3), (179, 7), (398, 0), (71, 10)]
127	4	1	3	9	[(163, 10), (149, 2), (445, 3), (39, 9), (61, 1), (439, 8), (154, 5), (120, 0), (372, 6)]
128	3	1	8	5	[(431, 0), (95, 5), (230, 5), (471, 3), (489, 8)]
129	3	1	5	5	[(328, 2), (463, 9), (16, 7), (308, 9), (138, 3)]
130	5	2	8	4	[(373, 0), (156, 2), (219, 5), (397, 6)]
131	1	1	8	3	[(471, 8), (480, 8), (5, 10)]
132	3	1	8	8	[(180, 3), (229, 3), (464, 9), (483, 4), (275, 1), (195, 9), (107, 6), (262, 4)]
133	15	1	1	8	[(413, 1), (255, 9), (476, 2), (491, 6), (362, 0), (400, 6), (338, 5), (302, 10)]
134	6	1	8	4	[(468, 10), (222, 6), (227, 2), (230, 7)]
135	1	5	16	4	[(65, 10), (185, 0), (50, 4), (377, 6)]
136	5	1	8	5	[(350, 3), (174, 8), (387, 5), (94, 7), (113, 9)]
137	1	1	8	1	[(216, 4)]
138	2	3	8	5	[(394, 0), (256, 3), (292, 6), (488, 4), (65, 5)]
139	154	1	8	3	[(348, 1), (184, 9), (138, 5)]
140	1	4	16	3	[(57, 2), (167, 4), (234, 7)]
141	1	1	8	5	[(136, 2), (493, 6), (401, 4), (396, 7), (6, 10)]
142	1	1	8	6	[(385, 3), (498, 5), (204, 2), (291, 0), (3, 7), (23, 7)]
143	2	4	8	4	[(101, 3), (149, 7), (330, 7), (221, 5)]
144	2	1	8	5	[(451, 10), (270, 2), (159, 1), (100, 0), (25, 0)]
145	3	1	8	5	[(98, 1), (284, 0), (417, 5), (289, 7), (105, 5)]
146	2	1	8	1	[(259, 0)]
147	1	1	8	2	[(230, 0), (433, 7)]
148	1	4	8	3	[(298, 2), (326, 1), (159, 8)]
149	3	1	8	5	[(71, 2), (405, 7), (205, 10), (456, 6), (63, 5)]
150	11	1	8	5	[(170, 4), (125, 9), (347, 6), (39, 7), (140, 1)]
151	2	1	8	6	[(203, 1), (252, 6), (420, 5), (123, 5), (460, 7), (115, 5)]
152	2	1	8	7	[(468, 1), (85, 4), (198, 2), (69, 5), (36, 0), (340, 3), (438, 2)]
153	2	1	8	3	[(28, 3), (368, 3), (95, 9)]
154	1	1	8	4	[(365, 7), (74, 0), (461, 9), (214, 6)]
155	1	1	8	6	[(430, 0), (415, 0), (271, 0), (123, 7), (47, 10), (451, 9)]
156	1	1	8	3	[(363, 8), (311, 6), (53, 4)]
157	1	1	8	5	[(361, 4), (314, 2), (371, 1), (429, 4), (208, 4)]
158	2	1	37	5	[(132, 9), (116, 6), (24, 4), (90, 10), (85, 8)]
159	6	1	12	5	[(253, 10), (70, 4), (415, 2), (366, 4), (244, 6)]
160	1	1	8	4	[(157, 3), (457, 3), (344, 4), (128, 9)]
161	1	5	8	3	[(217, 2), (3, 2), (96, 8)]
162	1	8	8	6	[(346, 4), (360, 7), (72, 8), (263, 4), (489, 8), (277, 8)]
163	1	1	8	6	[(380, 6), (131, 5), (241, 7), (82, 9), (290, 6), (171, 0)]
164	2	3	8	8	[(95, 4), (78, 1), (170, 2), (99, 6), (474, 0), (478, 8), (278, 1), (465, 3)]
165	5	6	8	4	[(291, 1), (15, 1), (33, 8), (205, 4)]
166	2	1	8	4	[(149, 9), (77, 7), (42, 7), (183, 10)]
167	8	2	96	7	[(446, 5), (285, 2), (483, 8), (241, 1), (249, 7), (215, 8), (445, 6)]
168	2	1	8	2	[(449, 7), (74, 1)]
169	2	1	8	6	[(204, 9), (195, 7), (280, 0), (250, 1), (386, 7), (30, 4)]
170	1	1	8	6	[(469, 3), (326, 4), (367, 3), (242, 10), (234, 6), (405, 6)]
171	4	1	8	4	[(311, 8), (491, 2), (218, 7), (437, 4)]
172	2	2	8	1	[(117, 6)]
173	3	1	8	6	[(408, 6), (388, 9), (478, 10), (345, 3), (273, 6), (33, 3)]
174	2	6	8	4	[(225, 10), (375, 7), (10, 8), (182, 3)]
175	5	1	8	6	[(324, 0), (287, 6), (160, 8), (115, 9), (352, 7), (36, 0)]
176	1	1	8	6	[(45, 4), (84, 4), (439, 6), (344, 9), (152, 6), (393, 6)]
177	1	3	8	4	[(30, 8), (489, 3), (9, 2), (168, 9)]
178	1	1	2	1	[(428, 5)]
179	1	1	8	5	[(391, 0), (46, 0), (289, 2), (458, 8), (173, 6)]
180	31	2	8	3	[(209, 8), (467, 1), (491, 0)]
181	1	1	8	4	[(361, 0), (446, 5), (390, 2), (216, 9)]
182	44	1	8	5	[(255, 8), (378, 2), (46, 2), (42, 6), (466, 9)]
183	1	1	8	7	[(161, 10), (393, 5), (30, 7), (337, 9), (67, 5), (273, 7), (181, 6)]
184	5	1	4	7	[(103, 6), (287, 7), (189, 8), (188, 1), (177, 7), (489, 1), (420, 7)]
185	3	1	16	2	[(380, 7), (316, 9)]
186	25	1	8	3	[(86, 3), (151, 3), (316, 0)]
187	4	12	8	4	[(256, 7), (61, 0), (17, 8), (167, 0)]
188	5	10	8	5	[(358, 7), (429, 5), (304, 1), (236, 9), (427, 4)]
189	1	4	8	4	[(231, 3), (418, 6), (378, 0), (370, 0)]
190	3	1	8	6	[(447, 7), (485, 10), (7, 3), (180, 4), (201, 7), (247, 8)]
191	4	3	7	4	[(244, 4), (46, 8), (276, 3), (51, 6)]
192	2	2	2	8	[(77, 1), (285, 3), (165, 3), (312, 5), (106, 8), (296, 5), (72, 3), (288, 8)]
193	1	4	2	5	[(278, 9), (353, 8), (64, 5), (254, 6), (304, 3)]
194	2	4	2	5	[(487, 8), (222, 2), (300, 7), (175, 7), (275, 2)]
195	17	4	8	4	[(163, 8), (361, 3), (459, 10), (455, 0)]
196	16	1	8	2	[(174, 5), (281, 4)]
197	1	1	8	4	[(6, 2), (152, 0), (489, 8), (157, 3)]
198	5	1	8	8	[(205, 0), (289, 9), (69, 7), (462, 10), (246, 6), (80, 8), (383, 8), (323, 5)]
199	1	3	8	5	[(110, 0), (140, 2), (337, 10), (412, 8), (478, 6)]
200	3	1	8	7	[(222, 6), (92, 2), (196, 8), (66, 6), (30, 10), (343, 10), (413, 1)]
201	2	6	8	3	[(308, 5), (47, 8), (376, 3)]
202	4	1	8	10	[(226, 10), (155, 1), (63, 2), (37, 5), (270, 8), (431, 6), (122, 9), (62, 10), (410, 9), (429, 9)]
203	1	2	8	4	[(282, 6), (27, 10), (309, 9), (469, 1)]
204	2	1	8	3	[(198, 7), (251, 1), (491, 4)]
205	2	1	8	5	[(330, 1), (438, 3), (7, 8), (82, 8), (184, 3)]
206	3	1	8	9	[(40, 4), (373, 0), (351, 10), (54, 1), (153, 5), (150, 6), (482, 10), (174, 0), (70, 6)]
207	4	1	8	2	[(434, 1), (245, 4)]
208	2	1	8	6	[(15, 0), (446, 9), (294, 10), (163, 2), (334, 5), (201, 1)]
209	85	1	2	3	[(474, 5), (330, 8), (285, 9)]
210	2	1	8	3	[(463, 1), (325, 5), (62, 8)]
211	4	2	2	2	[(218, 7), (470, 10)]
212	6	1	2	8	[(335, 2), (248, 0), (395, 4), (98, 2), (85, 3), (440, 9), (278, 10), (358, 9)]
213	1	1	96	5	[(488, 0), (492, 3), (374, 5), (37, 8), (128, 8)]
214	44	6	8	8	[(218, 3), (38, 2), (281, 6), (204, 9), (493, 5), (304, 10), (97, 1), (95, 4)]
215	17	1	8	6	[(102, 10), (100, 5), (452, 9), (124, 8), (245, 1), (177, 2)]
216	3	1	8	3	[(247, 6), (130, 0), (245, 7)]
217	5	1	8	4	[(379, 4), (300, 6), (186, 5), (443, 8)]
218	1	4	8	7	[(383, 2), (396, 4), (467, 5), (51, 7), (452, 6), (25, 0), (374, 10)]
219	58	1	8	2	[(364, 4), (271, 7)]
220	2	3	8	4	[(117, 6), (226, 5), (315, 7), (161, 9)]
221	1	4	8	8	[(173, 3), (425, 6), (463, 9), (447, 9), (60, 2), (460, 3), (2, 1), (64, 4)]
222	2	1	7	1	[(371, 6)]
223	27	1	8	5	[(455, 8), (127, 10), (19, 9), (273, 10), (44, 1)]
224	2	1	8	2	[(143, 1), (66, 8)]
225	1	3	8	9	[(23, 6), (397, 6), (26, 1), (475, 6), (191, 9), (269, 6), (430, 4), (141, 9), (142, 8)]
226	1	1	8	3	[(132, 3), (454, 3), (133, 2)]
227	1	4	8	10	[(429, 1), (314, 9), (16, 8), (236, 1), (219, 1), (250, 0), (154, 3), (179, 3), (395, 4), (226, 1)]
228	2	2	16	8	[(346, 3), (396, 4), (368, 3), (40, 5), (231, 4), (68, 6), (251, 4), (411, 5)]
229	1	1	2	6	[(370, 7), (431, 1), (353, 1), (155, 10), (455, 2), (432, 3)]
230	8	1	8	7	[(291, 5), (489, 4), (318, 10), (492, 2), (496, 0), (325, 10), (242, 5)]
231	4	1	8	3	[(362, 4), (406, 9), (153, 0)]
232	4	1	8	6	[(306, 2), (497, 10), (227, 9), (134, 3), (40, 2), (413, 7)]
233	1	1	8	9	[(354, 8), (66, 8), (119, 1), (86, 7), (51, 8), (375, 9), (311, 4), (220, 5), (480, 4)]
234	2	1	8	6	[(177, 6), (270, 9), (263, 10), (227, 4), (153, 6), (257, 7)]
235	2	1	8	3	[(245, 2), (150, 4), (492, 7)]
236	1	2	2	5	[(431, 7), (427, 5), (107, 4), (303, 3), (354, 1)]
237	2	1	8	2	[(368, 6), (17, 2)]
238	1	1	2	3	[(338, 1), (226, 3), (26, 4)]
239	6	1	16	4	[(200, 6), (332, 4), (264, 7), (305, 2)]
240	23	2	8	7	[(243, 7), (273, 6), (387, 2), (472, 10), (212, 0), (274, 10), (422, 7)]
241	3	1	8	4	[(240, 10), (480, 6), (436, 9), (234, 5)]
242	1	2	8	5	[(85, 8), (98, 5), (393, 4), (359, 3), (23, 7)]
243	1	1	8	3	[(194, 5), (346, 9), (195, 6)]
244	1	1	8	5	[(488, 6), (427, 4), (172, 3), (29, 8), (162, 0)]
245	1	2	8	5	[(36, 8), (367, 1), (73, 7), (435, 5), (229, 3)]
246	2	1	8	2	[(490, 6), (393, 4)]
247	2	4	8	6	[(215, 7), (154, 1), (499, 8), (199, 3), (458, 9), (496, 10)]
248	2	6	8	3	[(314, 9), (20, 0), (429, 8)]
249	1	1	8	8	[(162, 6), (31, 10), (396, 0), (88, 3), (362, 2), (381, 9), (67, 0), (255, 3)]
250	155	2	8	4	[(316, 5), (244, 9), (271, 0), (357, 3)]
251	8	1	8	4	[(192, 3), (448, 1), (395, 4), (71, 7)]
252	1	1	8	7	[(444, 0), (169, 2), (268, 4), (27, 0), (341, 2), (348, 10), (168, 10)]
253	3	1	8	7	[(481, 2), (95, 10), (455, 4), (356, 6), (8, 3), (188, 6), (106, 9)]
254	1	1	8	4	[(419, 1), (142, 5), (32, 6), (25, 3)]
255	2	1	8	4	[(255, 3), (292, 6), (37, 3), (402, 6)]
256	3	1	3	6	[(82, 0), (371, 1), (436, 6), (51, 3), (73, 4), (112, 2)]
257	2	1	8	3	[(82, 9), (334, 7), (141, 9)]
258	1	1	8	8	[(441, 10), (334, 2), (200, 10), (337, 4), (430, 5), (66, 0), (110, 1), (223, 0)]
259	1	1	2	5	[(435, 3), (462, 9), (89, 0), (280, 9), (205, 0)]
260	5	4	8	4	[(23, 4), (217, 1), (144, 10), (369, 8)]
261	2	1	1	5	[(60, 10), (206, 10), (432, 0), (187, 7), (315, 4)]
262	2	1	2	5	[(269, 2), (391, 1), (204, 0), (400, 5), (181, 2)]
263	2	1	8	3	[(75, 0), (184, 9), (429, 10)]
264	2	1	8	5	[(303, 0), (85, 3), (414, 0), (447, 10), (279, 0)]
265	2	1	8	8	[(238, 2), (81, 2), (108, 8), (77, 7), (264, 3), (145, 5), (8, 0), (490, 7)]
266	2	6	8	3	[(4, 1), (474, 4), (24, 4)]
267	2	1	7	7	[(470, 1), (227, 0), (86, 1), (364, 5), (67, 2), (456, 0), (22, 6)]
268	2	1	8	4	[(73, 7), (192, 6), (221, 5), (259, 1)]
269	1	1	8	6	[(278, 4), (344, 7), (288, 5), (65, 0), (160, 3), (191, 1)]
270	2	1	8	8	[(349, 2), (223, 6), (466, 2), (491, 4), (61, 10), (264, 6), (73, 1), (355, 3)]
271	4	2	2	9	[(161, 1), (427, 4), (456, 6), (438, 0), (71, 10), (107, 10), (144, 3), (177, 1), (100, 1)]
272	7	3	8	4	[(232, 1), (315, 2), (189, 6), (157, 4)]
273	8	1	16	3	[(275, 5), (69, 3), (216, 3)]
274	2	6	32	2	[(115, 8), (251, 1)]
275	2	1	8	5	[(388, 4), (29, 10), (78, 4), (207, 4), (353, 9)]
276	1	1	2	3	[(290, 0), (94, 4), (48, 4)]
277	4	6	2	7	[(449, 3), (290, 9), (113, 3), (473, 10), (369, 1), (194, 1), (307, 3)]
278	4	1	8	5	[(317, 10), (186, 9), (232, 7), (84, 2), (118, 4)]
279	19	4	16	3	[(323, 5), (275, 10), (342, 2)]
280	1	1	8	8	[(495, 5), (325, 9), (282, 5), (485, 6), (26, 6), (269, 8), (361, 2), (456, 10)]
281	2	1	2	8	[(132, 0), (430, 7), (443, 5), (357, 10), (401, 2), (231, 6), (195, 7), (117, 1)]
282	5	1	8	7	[(371, 9), (189, 9), (227, 6), (237, 0), (196, 3), (204, 5), (167, 1)]
283	2	1	8	2	[(184, 4), (243, 1)]
284	212	4	1	7	[(284, 3), (202, 10), (92, 3), (313, 3), (86, 7), (200, 7), (140, 7)]
285	5	1	8	6	[(64, 9), (254, 3), (225, 4), (108, 0), (191, 9), (160, 0)]
286	52	1	2	1	[(430, 9)]
287	5	6	8	6	[(174, 10), (23, 4), (180, 1), (320, 0), (186, 0), (405, 10)]
288	8	6	8	8	[(409, 8), (288, 5), (304, 9), (495, 5), (350, 6), (187, 6), (163, 10), (35, 5)]
289	1	1	2	5	[(338, 9), (426, 4), (91, 4), (364, 5), (108, 4)]
290	2	1	8	3	[(389, 10), (336, 5), (396, 8)]
291	3	5	8	4	[(161, 4), (345, 10), (246, 1), (131, 4)]
292	7	1	8	4	[(355, 9), (116, 5), (247, 3), (134, 8)]
293	2	1	8	2	[(499, 0), (290, 1)]
294	1	1	8	4	[(489, 9), (235, 5), (195, 2), (54, 4)]
295	13	4	7	3	[(51, 6), (262, 8), (435, 4)]
296	16	1	8	6	[(182, 10), (459, 4), (289, 8), (196, 1), (232, 1), (214, 6)]
297	4	2	8	4	[(27, 6), (489, 4), (448, 0), (424, 7)]
298	5	1	8	4	[(107, 9), (309, 6), (499, 1), (315, 9)]
299	7	1	16	4	[(461, 6), (203, 6), (225, 5), (345, 5)]
300	29	1	2	9	[(58, 4), (201, 8), (364, 10), (67, 5), (236, 8), (113, 5), (266, 0), (107, 8), (330, 4)]
301	25	1	8	4	[(261, 9), (167, 2), (169, 5), (366, 6)]
302	2	2	8	3	[(398, 0), (252, 4), (336, 8)]
303	5	1	8	5	[(377, 0), (298, 6), (400, 6), (239, 6), (19, 7)]
304	22	1	8	7	[(88, 5), (180, 0), (266, 1), (303, 9), (495, 1), (94, 5), (480, 2)]
305	9	2	8	9	[(444, 5), (479, 4), (487, 10), (392, 10), (249, 4), (301, 8), (134, 9), (217, 8), (164, 8)]
306	1	1	2	5	[(56, 4), (279, 1), (315, 4), (463, 4), (77, 5)]
307	2	2	8	4	[(264, 2), (91, 6), (111, 7), (72, 1)]
308	23	1	8	6	[(460, 0), (149, 2), (291, 6), (136, 3), (490, 5), (439, 1)]
309	2	6	8	8	[(432, 0), (387, 6), (47, 7), (90, 2), (203, 3), (1, 8), (202, 3), (35, 3)]
310	1	1	16	6	[(59, 2), (470, 7), (162, 8), (125, 9), (454, 6), (108, 3)]
311	2	1	8	10	[(241, 3), (361, 9), (212, 3), (292, 10), (64, 1), (331, 1), (57, 1), (140, 4), (456, 8), (179, 5)]
312	3	1	8	2	[(35, 8), (347, 0)]
313	24	1	8	6	[(427, 5), (186, 6), (94, 2), (274, 10), (415, 8), (135, 1)]
314	1	4	8	6	[(381, 10), (3, 5), (264, 1), (241, 4), (458, 4), (266, 1)]
315	2	4	8	7	[(145, 8), (241, 2), (421, 0), (17, 6), (289, 10), (148, 7), (444, 2)]
316	6	1	8	3	[(44, 8), (59, 10), (462, 7)]
317	2	1	8	5	[(104, 3), (41, 2), (284, 7), (334, 6), (145, 9)]
318	2	3	8	5	[(216, 8), (5, 2), (344, 5), (223, 2), (500, 5)]
319	3	1	8	5	[(66, 2), (362, 7), (474, 1), (388, 9), (234, 7)]
320	1	5	8	4	[(329, 0), (179, 0), (478, 6), (465, 0)]
321	3	4	8	2	[(263, 0), (181, 8)]
322	17	1	4	5	[(68, 5), (64, 2), (69, 10), (128, 3), (38, 8)]
323	1	3	8	10	[(274, 7), (283, 8), (41, 2), (407, 6), (59, 10), (257, 4), (292, 7), (307, 8), (25, 5), (309, 2)]
324	2	1	8	6	[(74, 1), (472, 5), (12, 7), (33, 4), (496, 9), (168, 8)]
325	2	1	8	5	[(191, 1), (346, 4), (165, 9), (366, 7), (481, 7)]
326	2	4	8	2	[(230, 5), (482, 2)]
327	6	1	16	6	[(159, 9), (488, 10), (464, 1), (291, 3), (190, 7), (92, 9)]
328	54	6	8	1	[(32, 7)]
329	2	3	8	2	[(1, 6), (256, 3)]
330	4	1	8	8	[(291, 1), (455, 8), (247, 0), (45, 6), (252, 8), (289, 0), (372, 1), (287, 5)]
331	46	2	8	6	[(467, 3), (487, 10), (343, 3), (168, 1), (95, 9), (157, 3)]
332	16	3	8	6	[(93, 3), (4, 3), (194, 4), (280, 9), (255, 5), (285, 10)]
333	2	3	8	8	[(461, 9), (127, 9), (120, 8), (5, 5), (136, 6), (16, 6), (381, 3), (217, 10)]
334	5	1	8	4	[(240, 8), (27, 2), (33, 2), (150, 3)]
335	1	4	8	6	[(339, 0), (53, 5), (304, 4), (198, 2), (19, 3), (473, 2)]
336	2	1	32	3	[(261, 6), (371, 0), (93, 7)]
337	4	1	8	5	[(310, 7), (438, 5), (178, 8), (345, 6), (7, 7)]
338	34	1	1	4	[(131, 8), (381, 0), (101, 2), (242, 5)]
339	2	1	8	4	[(74, 3), (313, 1), (300, 9), (457, 4)]
340	1	2	8	4	[(97, 8), (396, 0), (267, 4), (262, 0)]
341	1	6	8	5	[(139, 10), (124, 7), (43, 7), (396, 3), (75, 8)]
342	2	1	8	7	[(45, 1), (312, 0), (202, 1), (101, 9), (329, 8), (271, 8), (250, 5)]
343	5	1	8	4	[(30, 8), (288, 2), (455, 5), (262, 10)]
344	2	2	8	8	[(212, 8), (342, 2), (123, 8), (325, 3), (336, 9), (160, 9), (296, 3), (307, 5)]
345	2	1	2	4	[(142, 6), (465, 8), (342, 9), (34, 1)]
346	1	1	8	6	[(68, 5), (231, 2), (223, 10), (254, 0), (103, 3), (384, 0)]
347	2	1	8	5	[(41, 6), (223, 2), (401, 8), (59, 3), (65, 1)]
348	10	1	8	1	[(38, 5)]
349	2	4	2	7	[(217, 3), (104, 2), (378, 7), (176, 3), (133, 0), (358, 6), (192, 9)]
350	4	1	8	5	[(8, 7), (139, 9), (358, 8), (273, 3), (354, 0)]
351	2	1	8	5	[(203, 8), (367, 0), (496, 9), (50, 0), (314, 7)]
352	1	1	8	4	[(448, 8), (354, 9), (196, 9), (89, 4)]
353	1	1	8	8	[(331, 4), (9, 10), (300, 8), (47, 7), (485, 9), (358, 6), (308, 3), (121, 5)]
354	12	1	8	4	[(369, 9), (137, 4), (410, 5), (406, 6)]
355	4	1	8	1	[(180, 4)]
356	4	1	8	6	[(407, 0), (155, 6), (377, 10), (316, 6), (467, 1), (50, 1)]
357	1	2	8	5	[(184, 10), (231, 4), (459, 0), (233, 0), (388, 3)]
358	7	1	8	7	[(425, 3), (360, 6), (282, 1), (5, 3), (445, 3), (105, 4), (287, 2)]
359	2	4	2	4	[(451, 6), (457, 6), (168, 1), (373, 7)]
360	2	1	8	10	[(406, 9), (465, 0), (30, 9), (380, 6), (254, 3), (485, 7), (106, 4), (316, 8), (82, 1), (432, 0)]
361	2	1	6	7	[(419, 10), (230, 9), (489, 6), (471, 0), (213, 8), (82, 2), (426, 3)]
362	6	1	8	3	[(445, 3), (160, 6), (460, 9)]
363	1	1	8	9	[(248, 4), (234, 10), (233, 3), (238, 9), (163, 1), (206, 0), (256, 10), (297, 0), (474, 10)]
364	9	1	8	5	[(36, 1), (269, 7), (79, 0), (328, 8), (71, 7)]
365	4	1	8	8	[(493, 1), (301, 2), (25, 3), (192, 7), (367, 5), (269, 2), (445, 3), (387, 8)]
366	4	3	8	5	[(136, 2), (458, 1), (315, 2), (207, 0), (112, 8)]
367	2	4	8	5	[(321, 3), (242, 2), (281, 3), (282, 5), (405, 3)]
368	3	1	8	3	[(198, 2), (492, 10), (465, 5)]
369	7	1	8	6	[(266, 8), (33, 2), (252, 0), (84, 0), (195, 2), (267, 2)]
370	20	1	8	3	[(67, 4), (418, 0), (93, 5)]
371	3	1	8	7	[(473, 10), (457, 4), (449, 1), (346, 2), (367, 10), (190, 6), (377, 2)]
372	11	1	8	2	[(286, 7), (162, 6)]
373	2	1	8	7	[(13, 10), (363, 5), (86, 0), (41, 3), (346, 9), (174, 8), (61, 0)]
374	1	1	8	6	[(50, 4), (194, 7), (206, 0), (109, 0), (438, 0), (123, 6)]
375	1	1	1	7	[(204, 1), (156, 4), (222, 6), (304, 10), (228, 5), (312, 1), (104, 10)]
376	52	1	16	4	[(131, 3), (220, 7), (107, 4), (113, 9)]
377	13	6	8	4	[(410, 8), (339, 7), (159, 0), (160, 1)]
378	3	1	8	5	[(284, 9), (383, 4), (365, 2), (232, 3), (328, 10)]
379	2	6	8	2	[(175, 1), (236, 8)]
380	3	1	8	6	[(345, 10), (392, 9), (358, 3), (91, 8), (444, 10), (229, 1)]
381	1	1	8	6	[(116, 0), (237, 0), (419, 2), (435, 7), (205, 9), (372, 4)]
382	2	4	8	4	[(186, 4), (5, 2), (474, 1), (89, 8)]
383	5	1	8	5	[(262, 3), (139, 6), (284, 1), (298, 7), (133, 2)]
384	16	1	8	4	[(63, 3), (396, 10), (391, 1), (286, 6)]
385	9	1	16	6	[(277, 9), (214, 4), (373, 7), (403, 8), (496, 8), (414, 3)]
386	2	1	8	5	[(259, 10), (445, 3), (211, 6), (275, 1), (91, 5)]
387	3	1	8	5	[(262, 8), (288, 8), (105, 9), (4, 9), (402, 2)]
388	2	1	8	4	[(439, 9), (118, 1), (258, 10), (85, 9)]
389	3	1	8	4	[(188, 7), (267, 8), (291, 7), (95, 5)]
390	1	1	4	6	[(433, 7), (53, 6), (474, 10), (134, 9), (174, 2), (207, 2)]
391	17	4	1	8	[(404, 5), (479, 3), (50, 4), (94, 6), (340, 6), (203, 10), (324, 10), (183, 10)]
392	4	2	8	5	[(327, 7), (251, 2), (248, 0), (290, 4), (395, 1)]
393	1	1	6	4	[(242, 10), (50, 10), (472, 10), (465, 6)]
394	4	1	2	5	[(23, 4), (475, 7), (34, 3), (468, 5), (209, 5)]
395	2	8	2	2	[(334, 9), (42, 9)]
396	2	2	7	5	[(453, 8), (110, 8), (44, 5), (342, 2), (256, 4)]
397	1	2	5	9	[(198, 5), (249, 6), (120, 8), (448, 1), (437, 0), (118, 10), (363, 5), (476, 8), (46, 7)]
398	9	6	2	4	[(82, 5), (102, 5), (122, 0), (157, 8)]
399	2	1	8	0	[]
400	1	4	8	4	[(378, 1), (150, 9), (435, 1), (254, 2)]
401	21	2	8	6	[(279, 10), (224, 9), (244, 10), (387, 4), (188, 9), (390, 7)]
402	1	6	8	10	[(232, 3), (299, 5), (165, 10), (76, 6), (333, 4), (390, 3), (324, 10), (444, 5), (392, 7), (174, 7)]
403	13	1	8	5	[(456, 9), (377, 10), (191, 8), (452, 2), (297, 0)]
404	20	1	8	3	[(373, 5), (338, 2), (127, 10)]
405	1	12	6	2	[(483, 1), (184, 9)]
406	2	1	8	6	[(358, 10), (256, 10), (406, 8), (480, 6), (266, 9), (185, 5)]
407	3	1	2	6	[(353, 5), (152, 7), (479, 6), (258, 1), (118, 9), (336, 4)]
408	1	1	8	4	[(118, 0), (380, 5), (13, 8), (271, 8)]
409	1	2	8	4	[(82, 4), (479, 6), (499, 5), (371, 6)]
410	15	1	8	10	[(326, 1), (237, 1), (160, 9), (126, 8), (236, 4), (50, 0), (493, 0), (394, 5), (448, 6), (108, 8)]
411	4	1	8	5	[(91, 9), (31, 6), (119, 0), (236, 5), (74, 9)]
412	1	3	1	6	[(195, 0), (404, 8), (20, 0), (241, 7), (231, 4), (46, 6)]
413	2	1	8	4	[(396, 6), (207, 3), (404, 5), (499, 0)]
414	6	1	8	2	[(480, 7), (6, 0)]
415	2	1	16	3	[(433, 3), (360, 8), (325, 8)]
416	2	3	8	6	[(432, 3), (405, 10), (390, 3), (9, 7), (436, 1), (494, 8)]
417	1	1	8	5	[(369, 4), (147, 6), (165, 5), (426, 6), (124, 5)]
418	1	1	8	6	[(478, 1), (499, 6), (101, 8), (112, 10), (64, 2), (282, 9)]
419	1	2	8	3	[(456, 8), (199, 5), (196, 2)]
420	1	2	2	2	[(202, 6), (422, 0)]
421	5	1	8	0	[]
422	2	1	8	8	[(129, 1), (161, 3), (290, 2), (104, 9), (217, 8), (239, 4), (193, 9), (437, 10)]
423	2	1	8	8	[(478, 10), (361, 2), (212, 9), (249, 2), (25, 3), (331, 5), (202, 0), (404, 7)]
424	2	2	8	5	[(268, 6), (70, 5), (274, 1), (477, 2), (405, 7)]
425	6	3	8	5	[(19, 10), (354, 6), (287, 1), (104, 8), (267, 4)]
426	8	1	8	4	[(208, 2), (321, 0), (33, 5), (418, 0)]
427	3	6	8	4	[(212, 0), (25, 10), (233, 5), (291, 2)]
428	1	1	2	2	[(252, 10), (389, 3)]
429	2	1	8	2	[(397, 3), (327, 6)]
430	2	1	8	3	[(30, 2), (398, 4), (6, 10)]
431	43	1	8	4	[(194, 1), (152, 8), (328, 10), (389, 1)]
432	1	1	8	5	[(377, 5), (244, 3), (101, 5), (122, 6), (304, 7)]
433	2	1	8	9	[(497, 4), (63, 2), (480, 10), (426, 9), (7, 9), (404, 10), (239, 7), (32, 4), (340, 10)]
434	2	6	8	8	[(4, 4), (209, 0), (187, 4), (24, 0), (233, 5), (436, 6), (260, 5), (486, 9)]
435	1	1	8	2	[(186, 0), (184, 6)]
436	2	1	8	3	[(88, 3), (414, 2), (252, 2)]
437	1	2	8	6	[(188, 2), (147, 5), (446, 9), (207, 8), (360, 9), (30, 3)]
438	2	1	8	7	[(474, 0), (159, 7), (254, 4), (299, 1), (211, 6), (70, 6), (373, 8)]
439	1	1	2	3	[(169, 0), (149, 0), (301, 0)]
440	1	6	1	4	[(131, 7), (368, 10), (295, 10), (222, 1)]
441	1	4	8	8	[(382, 3), (124, 1), (218, 8), (261, 8), (446, 3), (430, 2), (431, 1), (490, 9)]
442	2	2	8	9	[(498, 3), (495, 8), (487, 10), (428, 10), (150, 6), (143, 3), (440, 6), (267, 8), (471, 10)]
443	3	1	8	5	[(300, 6), (136, 0), (227, 8), (36, 2), (348, 10)]
444	4	1	8	5	[(112, 5), (333, 1), (384, 5), (113, 7), (439, 4)]
445	6	1	8	2	[(139, 3), (100, 6)]
446	5	1	8	0	[]
447	2	3	8	11	[(218, 2), (478, 7), (489, 2), (72, 6), (242, 4), (274, 9), (198, 0), (492, 7), (324, 4), (460, 8), (289, 1)]
448	4	1	16	7	[(281, 6), (51, 8), (236, 10), (269, 3), (482, 6), (364, 5), (16, 7)]
449	2	1	8	7	[(142, 7), (133, 5), (197, 4), (484, 10), (340, 0), (449, 5), (394, 3)]
450	18	1	1	3	[(278, 5), (251, 3), (311, 7)]
451	69	1	7	2	[(159, 1), (69, 4)]
452	2	1	8	1	[(214, 2)]
453	4	1	8	1	[(398, 1)]
454	15	1	8	3	[(215, 5), (80, 2), (269, 10)]
455	2	1	8	5	[(361, 8), (66, 1), (317, 1), (314, 0), (39, 5)]
456	1	1	8	5	[(256, 6), (162, 1), (397, 5), (401, 4), (307, 0)]
457	2	1	8	5	[(356, 7), (417, 6), (226, 4), (183, 9), (253, 10)]
458	60	1	8	13	[(264, 6), (332, 10), (55, 0), (198, 2), (286, 10), (70, 2), (43, 5), (282, 2), (366, 8), (75, 3), (235, 5), (239, 6), (223, 5)]
459	1	4	8	2	[(252, 2), (250, 7)]
460	1	1	8	6	[(274, 7), (244, 10), (170, 1), (286, 2), (312, 6), (460, 2)]
461	2	1	8	6	[(256, 4), (175, 0), (273, 6), (487, 7), (279, 9), (182, 4)]
462	5	1	8	6	[(115, 9), (249, 1), (31, 4), (175, 3), (19, 8), (475, 2)]
463	2	8	8	1	[(480, 0)]
464	8	1	8	5	[(283, 4), (447, 1), (366, 10), (406, 7), (100, 7)]
465	2	4	16	8	[(209, 9), (378, 5), (486, 9), (98, 9), (333, 9), (476, 7), (73, 5), (75, 1)]
466	3	1	8	3	[(216, 10), (136, 4), (150, 9)]
467	2	1	32	2	[(442, 7), (449, 10)]
468	2	1	8	4	[(470, 3), (301, 4), (308, 1), (191, 2)]
469	8	6	8	3	[(157, 8), (304, 9), (249, 5)]
470	1	2	8	8	[(277, 9), (221, 8), (213, 8), (103, 5), (203, 10), (451, 10), (171, 7), (261, 6)]
471	3	1	8	6	[(215, 4), (358, 7), (228, 9), (18, 2), (208, 2), (370, 8)]
472	6	1	8	4	[(255, 4), (84, 8), (231, 5), (196, 9)]
473	1	2	8	8	[(215, 0), (486, 6), (406, 7), (70, 1), (250, 2), (392, 8), (356, 10), (67, 0)]
474	2	1	1	5	[(78, 10), (130, 8), (489, 0), (383, 10), (332, 7)]
475	2	4	8	9	[(460, 4), (430, 5), (279, 2), (112, 6), (493, 6), (295, 1), (79, 4), (212, 4), (163, 2)]
476	60	1	8	7	[(273, 3), (223, 1), (204, 2), (257, 0), (109, 10), (491, 9), (448, 1)]
477	2	1	8	7	[(134, 9), (499, 4), (189, 4), (54, 2), (354, 6), (405, 6), (295, 3)]
478	2	1	8	3	[(422, 4), (293, 5), (184, 9)]
479	1	1	8	6	[(367, 0), (481, 4), (389, 8), (154, 3), (45, 1), (427, 0)]
480	1	1	8	3	[(143, 4), (104, 7), (361, 4)]
481	2	2	8	4	[(388, 7), (3, 9), (138, 0), (331, 7)]
482	1	1	8	8	[(194, 6), (258, 2), (81, 1), (201, 0), (162, 6), (282, 4), (193, 6), (36, 4)]
483	1	1	6	8	[(243, 7), (248, 6), (361, 8), (41, 10), (46, 10), (170, 2), (368, 4), (318, 4)]
484	1	1	8	5	[(414, 2), (436, 6), (423, 6), (446, 10), (476, 0)]
485	5	1	8	3	[(295, 7), (41, 2), (398, 6)]
486	2	4	8	7	[(344, 7), (432, 2), (105, 6), (373, 3), (21, 7), (404, 2), (6, 4)]
487	5	1	8	8	[(267, 8), (359, 2), (366, 10), (72, 7), (179, 8), (368, 5), (145, 3), (17, 5)]
488	1	4	8	3	[(69, 0), (18, 2), (356, 3)]
489	2	1	8	4	[(191, 0), (212, 7), (126, 9), (435, 7)]
490	4	1	8	7	[(478, 2), (484, 10), (325, 10), (133, 4), (360, 3), (182, 3), (369, 0)]
491	41	1	32	2	[(151, 4), (111, 7)]
492	2	1	8	4	[(359, 8), (349, 0), (277, 0), (380, 3)]
493	2	2	8	5	[(212, 0), (314, 1), (281, 7), (351, 7), (11, 10)]
494	16	1	8	1	[(442, 9)]
495	25	1	4	6	[(163, 5), (468, 3), (72, 2), (144, 3), (218, 4), (484, 3)]
496	6	4	8	8	[(37, 1), (371, 1), (365, 8), (485, 4), (324, 6), (271, 7), (438, 9), (470, 9)]
497	2	4	8	6	[(199, 2), (25, 9), (221, 3), (358, 9), (334, 10), (315, 7)]
498	3	1	8	4	[(291, 6), (447, 6), (125, 9), (457, 0)]
499	24	1	8	6	[(188, 6), (11, 4), (254, 4), (385, 1), (132, 1), (299, 2)]
500	1	4	8	3	[(264, 7), (365, 0), (49, 1)]
