app_id	nb_instances	core	memory	inter_degree	inter_aff
1	4	1	8	2	[(275, 4), (30, 4)]
2	5	1	8	6	[(318, 0), (95, 1), (434, 5), (427, 3), (48, 8), (152, 10)]
3	2	1	8	4	[(266, 2), (192, 10), (67, 7), (388, 4)]
4	1	3	2	7	[(346, 4), (386, 9), (390, 5), (246, 1), (298, 9), (232, 0), (253, 4)]
5	2	1	7	6	[(423, 8), (114, 8), (338, 6), (262, 6), (242, 2), (238, 1)]
6	2	1	8	12	[(481, 3), (393, 9), (90, 6), (191, 8), (315, 6), (385, 2), (139, 3), (61, 8), (423, 2), (248, 7), (298, 7), (358, 0)]
7	3	5	8	5	[(287, 9), (24, 0), (199, 4), (284, 4), (329, 5)]
8	1	1	8	4	[(432, 4), (270, 8), (80, 6), (78, 0)]
9	1	2	8	3	[(73, 4), (479, 6), (33, 10)]
10	1	1	16	5	[(384, 7), (385, 5), (458, 3), (257, 10), (452, 4)]
11	2	1	8	2	[(35, 5), (361, 10)]
12	16	3	8	4	[(94, 2), (170, 4), (291, 10), (290, 0)]
13	1	1	8	4	[(345, 0), (419, 3), (370, 5), (103, 0)]
14	2	3	8	6	[(9, 7), (46, 5), (247, 1), (381, 7), (287, 4), (72, 8)]
15	1	1	8	4	[(322, 0), (65, 5), (89, 1), (407, 4)]
16	1	1	8	2	[(405, 1), (476, 9)]
17	2	1	8	5	[(56, 1), (15, 3), (404, 0), (46, 4), (253, 1)]
18	2	2	8	2	[(132, 4), (485, 5)]
19	35	1	8	7	[(55, 8), (320, 0), (282, 10), (25, 9), (167, 6), (289, 0), (413, 0)]
20	1	6	8	9	[(141, 8), (393, 4), (176, 10), (10, 10), (317, 3), (216, 9), (344, 9), (293, 6), (312, 10)]
21	2	1	8	3	[(463, 3), (125, 4), (300, 5)]
22	1	1	8	8	[(61, 7), (456, 2), (100, 2), (282, 10), (390, 5), (179, 0), (463, 4), (46, 7)]
23	1	1	2	3	[(344, 1), (393, 4), (433, 10)]
24	1	1	16	4	[(146, 9), (11, 0), (54, 1), (28, 9)]
25	3	2	8	10	[(484, 4), (239, 1), (244, 5), (418, 8), (214, 6), (177, 6), (445, 6), (99, 10), (108, 5), (37, 2)]
26	5	1	8	7	[(94, 6), (263, 10), (36, 5), (487, 7), (238, 7), (111, 10), (173, 2)]
27	2	1	4	6	[(223, 4), (174, 6), (141, 9), (160, 4), (335, 7), (366, 2)]
28	2	6	8	2	[(448, 8), (118, 5)]
29	2	1	8	5	[(477, 9), (222, 6), (340, 5), (262, 3), (252, 9)]
30	7	2	8	5	[(416, 5), (143, 0), (360, 0), (100, 4), (230, 4)]
31	57	1	32	5	[(302, 9), (174, 1), (470, 5), (178, 2), (269, 9)]
32	1	4	8	7	[(263, 10), (279, 6), (179, 9), (79, 9), (162, 2), (485, 7), (421, 0)]
33	1	4	2	5	[(52, 2), (479, 10), (384, 10), (428, 3), (335, 5)]
34	6	1	8	6	[(95, 7), (465, 8), (233, 5), (323, 8), (370, 0), (220, 5)]
35	4	1	8	5	[(306, 2), (191, 6), (351, 4), (453, 10), (338, 6)]
36	11	1	16	9	[(1, 0), (438, 1), (213, 10), (473, 7), (355, 5), (463, 2), (4, 3), (66, 8), (441, 0)]
37	1	2	8	5	[(399, 1), (336, 10), (405, 4), (488, 2), (372, 3)]
38	1	1	8	2	[(308, 9), (128, 7)]
39	1	1	2	2	[(43, 10), (214, 7)]
40	3	2	8	4	[(429, 9), (259, 8), (420, 3), (319, 8)]
41	1	2	8	4	[(496, 7), (426, 3), (139, 3), (402, 8)]
42	1	1	8	1	[(382, 0)]
43	2	1	8	7	[(370, 1), (326, 5), (344, 2), (86, 5), (203, 6), (15, 0), (153, 2)]
44	2	2	8	5	[(398, 7), (282, 4), (138, 6), (117, 0), (431, 4)]
45	1	2	8	5	[(335, 10), (343, 4), (222, 1), (27, 4), (360, 1)]
46	2	2	8	6	[(312, 9), (82, 1), (476, 7), (50, 10), (72, 8), (273, 10)]
47	3	1	2	4	[(222, 4), (314, 0), (165, 8), (303, 9)]
48	3	4	8	4	[(150, 3), (234, 9), (327, 8), (16, 9)]
49	5	1	8	2	[(305, 2), (214, 6)]
50	2	1	4	4	[(276, 3), (160, 10), (273, 6), (446, 8)]
51	1	1	2	10	[(40, 7), (344, 3), (307, 1), (328, 9), (154, 8), (232, 2), (500, 1), (137, 4), (472, 6), (174, 3)]
52	2	6	16	7	[(245, 0), (420, 1), (487, 2), (358, 2), (442, 2), (389, 9), (162, 6)]
53	4	3	8	7	[(433, 7), (369, 6), (294, 5), (152, 5), (422, 8), (278, 2), (183, 2)]
54	1	4	8	3	[(88, 0), (486, 2), (38, 1)]
55	3	2	8	6	[(141, 0), (163, 7), (382, 10), (358, 4), (110, 10), (496, 9)]
56	1	1	8	4	[(387, 6), (397, 3), (216, 9), (354, 6)]
57	2	2	16	3	[(464, 1), (477, 6), (275, 9)]
58	4	1	8	5	[(195, 4), (345, 6), (432, 2), (129, 10), (245, 3)]
59	2	1	8	3	[(95, 9), (227, 1), (485, 3)]
60	4	4	8	6	[(40, 4), (456, 6), (113, 5), (438, 4), (367, 3), (441, 4)]
61	2	2	8	7	[(385, 8), (159, 8), (135, 6), (418, 3), (158, 3), (111, 10), (251, 6)]
62	2	2	8	1	[(454, 3)]
63	67	1	16	5	[(153, 0), (5, 6), (419, 1), (227, 7), (32, 1)]
64	1	1	2	8	[(297, 3), (384, 9), (175, 8), (393, 6), (89, 3), (306, 5), (377, 1), (340, 4)]
65	100	2	16	6	[(417, 6), (481, 2), (33, 8), (358, 2), (87, 8), (390, 4)]
66	1	36	8	3	[(439, 2), (488, 5), (391, 5)]
67	2	1	1	5	[(176, 8), (454, 0), (1, 6), (430, 6), (457, 7)]
68	2	1	8	9	[(422, 10), (474, 10), (305, 2), (238, 3), (468, 3), (392, 10), (42, 2), (333, 4), (384, 2)]
69	2	3	1	5	[(218, 2), (222, 7), (459, 7), (448, 0), (482, 6)]
70	1	1	8	2	[(166, 7), (103, 1)]
71	1	2	8	7	[(315, 3), (196, 4), (92, 1), (401, 5), (143, 3), (477, 0), (278, 2)]
72	1	1	8	4	[(259, 9), (325, 7), (300, 4), (326, 9)]
73	38	1	16	6	[(58, 5), (83, 9), (418, 1), (476, 1), (107, 2), (44, 2)]
74	14	2	16	9	[(297, 6), (336, 3), (269, 3), (164, 7), (368, 0), (214, 4), (104, 10), (279, 9), (256, 4)]
75	6	2	8	4	[(336, 8), (182, 8), (285, 5), (433, 9)]
76	62	2	8	6	[(267, 9), (396, 10), (109, 7), (170, 9), (406, 2), (145, 8)]
77	4	1	8	8	[(60, 5), (250, 5), (223, 3), (454, 5), (417, 1), (167, 10), (174, 3), (476, 9)]
78	2	1	8	6	[(317, 2), (187, 7), (352, 2), (149, 4), (5, 3), (302, 6)]
79	5	3	8	2	[(405, 4), (142, 10)]
80	5	1	8	7	[(105, 6), (415, 1), (97, 6), (274, 9), (487, 3), (199, 9), (310, 2)]
81	3	1	8	4	[(102, 2), (181, 10), (435, 5), (304, 3)]
82	2	1	8	7	[(59, 10), (339, 9), (10, 5), (499, 5), (470, 6), (475, 10), (57, 2)]
83	5	2	7	7	[(349, 8), (442, 0), (69, 2), (497, 2), (493, 2), (295, 10), (490, 10)]
84	1	1	8	3	[(148, 8), (399, 1), (46, 8)]
85	1	1	8	3	[(91, 3), (54, 5), (293, 7)]
86	2	1	8	11	[(127, 5), (10, 0), (443, 8), (473, 7), (196, 1), (163, 3), (397, 10), (366, 1), (303, 3), (333, 6), (296, 2)]
87	1	1	8	1	[(429, 3)]
88	2	1	16	2	[(367, 0), (236, 5)]
89	1	4	8	13	[(66, 10), (279, 1), (330, 1), (122, 9), (47, 5), (231, 7), (298, 5), (443, 3), (394, 7), (334, 5), (437, 7), (387, 6), (438, 2)]
90	10	9	8	2	[(376, 4), (400, 6)]
91	11	1	8	6	[(55, 10), (384, 1), (474, 0), (101, 10), (188, 1), (60, 5)]
92	33	1	8	6	[(317, 9), (89, 8), (374, 1), (245, 1), (11, 10), (410, 4)]
93	1	1	8	7	[(32, 9), (61, 5), (362, 0), (23, 0), (403, 0), (465, 2), (4, 6)]
94	2	1	8	5	[(93, 9), (172, 8), (68, 1), (256, 5), (346, 2)]
95	2	1	8	7	[(60, 7), (113, 1), (334, 8), (149, 5), (151, 5), (96, 8), (436, 6)]
96	3	1	8	3	[(491, 5), (223, 4), (49, 0)]
97	4	2	8	3	[(326, 1), (31, 5), (443, 0)]
98	8	1	8	3	[(194, 7), (438, 1), (15, 9)]
99	4	1	8	8	[(438, 8), (256, 6), (289, 8), (130, 10), (170, 6), (378, 1), (318, 4), (413, 1)]
100	1	1	8	2	[(443, 8), (231, 9)]
101	1	2	8	3	[(168, 9), (272, 10), (365, 1)]
102	54	1	8	7	[(193, 8), (110, 6), (96, 6), (307, 0), (411, 6), (298, 6), (377, 2)]
103	2	3	8	5	[(303, 9), (410, 0), (485, 3), (171, 2), (419, 10)]
104	2	3	2	3	[(397, 8), (448, 8), (311, 6)]
105	2	1	8	8	[(122, 1), (280, 2), (470, 7), (419, 10), (120, 0), (246, 7), (136, 0), (296, 1)]
106	78	1	8	4	[(257, 0), (355, 6), (301, 5), (484, 9)]
107	1	1	8	5	[(33, 9), (31, 0), (415, 3), (113, 10), (138, 0)]
108	1	1	8	2	[(56, 2), (375, 6)]
109	1	2	8	6	[(382, 9), (405, 10), (265, 9), (203, 0), (274, 2), (487, 10)]
110	1	1	8	3	[(110, 7), (373, 6), (425, 4)]
111	2	1	2	6	[(384, 3), (188, 8), (106, 0), (201, 7), (218, 7), (195, 4)]
112	3	1	1	2	[(131, 3), (236, 10)]
113	1	4	8	11	[(276, 7), (432, 0), (366, 2), (206, 7), (447, 4), (204, 1), (362, 10), (500, 9), (81, 2), (230, 5), (224, 5)]
114	20	1	8	3	[(323, 6), (286, 0), (422, 10)]
115	2	4	8	3	[(471, 4), (33, 7), (221, 0)]
116	2	1	8	1	[(471, 4)]
117	10	1	2	5	[(341, 1), (316, 1), (194, 6), (243, 8), (343, 8)]
118	4	2	16	5	[(299, 10), (370, 6), (369, 1), (445, 4), (343, 7)]
119	1	5	16	0	[]
120	6	9	8	4	[(279, 7), (319, 1), (278, 6), (219, 8)]
121	5	3	8	8	[(293, 5), (300, 3), (294, 1), (224, 5), (389, 6), (230, 4), (6, 3), (159, 10)]
122	2	2	8	6	[(395, 0), (312, 8), (97, 3), (226, 7), (157, 8), (110, 6)]
123	2	1	8	3	[(134, 1), (115, 1), (221, 0)]
124	3	1	8	2	[(131, 8), (400, 6)]
125	32	1	8	5	[(377, 10), (494, 7), (179, 8), (391, 10), (280, 8)]
126	2	1	8	2	[(8, 4), (488, 0)]
127	6	1	5	4	[(64, 3), (411, 5), (446, 0), (356, 6)]
128	3	1	8	8	[(150, 1), (283, 9), (67, 0), (64, 2), (300, 0), (362, 6), (154, 10), (446, 5)]
129	1	1	16	4	[(471, 6), (10, 10), (36, 3), (338, 6)]
130	3	4	8	4	[(226, 7), (320, 9), (318, 6), (495, 3)]
131	1	1	8	8	[(103, 1), (170, 2), (61, 1), (302, 2), (308, 5), (316, 1), (281, 6), (323, 1)]
132	2	2	8	6	[(4, 0), (245, 7), (230, 7), (19, 3), (439, 6), (54, 3)]
133	2	1	8	5	[(119, 10), (294, 1), (79, 7), (253, 9), (22, 10)]
134	1	1	8	7	[(44, 1), (136, 1), (416, 10), (298, 10), (344, 8), (191, 7), (156, 9)]
135	10	1	8	5	[(127, 2), (459, 0), (244, 8), (3, 0), (358, 1)]
136	2	1	10	2	[(468, 10), (8, 6)]
137	1	3	30	4	[(38, 2), (368, 8), (61, 5), (148, 7)]
138	1	1	1	2	[(103, 5), (398, 10)]
139	2	1	2	13	[(395, 5), (238, 8), (59, 8), (191, 0), (285, 5), (40, 3), (115, 4), (455, 10), (38, 0), (489, 3), (347, 1), (356, 2), (499, 4)]
140	9	1	2	6	[(386, 2), (470, 9), (74, 7), (154, 9), (494, 6), (324, 7)]
141	1	1	8	7	[(176, 3), (254, 0), (234, 8), (82, 3), (432, 0), (301, 6), (221, 0)]
142	8	1	8	5	[(58, 6), (441, 1), (454, 6), (403, 2), (452, 4)]
143	1	1	8	3	[(416, 1), (143, 7), (84, 7)]
144	2	5	8	10	[(473, 3), (271, 5), (353, 10), (350, 4), (215, 10), (294, 3), (438, 6), (494, 7), (104, 7), (366, 2)]
145	13	4	8	5	[(184, 8), (338, 10), (175, 8), (366, 5), (298, 3)]
146	2	1	8	1	[(47, 2)]
147	7	3	8	5	[(475, 3), (388, 0), (185, 5), (76, 2), (270, 8)]
148	2	1	16	5	[(412, 7), (287, 9), (185, 5), (315, 10), (261, 5)]
149	2	1	8	6	[(423, 5), (442, 7), (488, 4), (380, 3), (200, 9), (468, 8)]
150	2	1	8	6	[(4, 6), (151, 2), (401, 9), (256, 0), (6, 7), (398, 9)]
151	2	34	8	5	[(9, 10), (482, 5), (204, 9), (27, 5), (134, 2)]
152	1	2	8	6	[(283, 0), (77, 8), (457, 2), (340, 2), (466, 2), (415, 4)]
153	5	1	8	6	[(241, 4), (103, 2), (384, 0), (345, 3), (189, 9), (452, 0)]
154	2	2	8	5	[(144, 5), (16, 0), (105, 9), (447, 3), (125, 4)]
155	1	1	8	2	[(238, 6), (219, 0)]
156	2	1	8	4	[(450, 5), (64, 2), (190, 4), (226, 4)]
157	3	1	16	3	[(147, 8), (428, 1), (472, 9)]
158	2	1	8	6	[(233, 2), (203, 3), (291, 6), (226, 10), (126, 5), (431, 2)]
159	2	1	8	3	[(467, 2), (453, 10), (56, 9)]
160	1	1	8	9	[(133, 6), (10, 10), (434, 2), (417, 8), (86, 5), (461, 9), (240, 6), (4, 1), (380, 1)]
161	1	5	8	3	[(475, 7), (278, 1), (457, 9)]
162	2	1	8	4	[(459, 0), (314, 8), (81, 4), (227, 8)]
163	2	4	8	6	[(85, 9), (269, 8), (363, 0), (205, 8), (326, 1), (147, 10)]
164	1	1	8	4	[(375, 2), (124, 2), (472, 2), (58, 7)]
165	2	3	8	5	[(375, 9), (348, 3), (486, 3), (105, 10), (298, 4)]
166	23	2	16	4	[(12, 0), (230, 5), (351, 4), (260, 7)]
167	3	1	8	2	[(243, 5), (123, 0)]
168	3	1	8	2	[(362, 7), (463, 7)]
169	1	1	8	3	[(378, 7), (84, 6), (204, 2)]
170	1	2	8	2	[(486, 4), (330, 9)]
171	1	4	8	4	[(34, 5), (47, 5), (485, 8), (152, 8)]
172	1	1	8	8	[(91, 2), (477, 9), (426, 2), (73, 4), (299, 0), (104, 0), (434, 5), (36, 9)]
173	1	1	8	4	[(460, 4), (356, 6), (141, 5), (377, 8)]
174	99	1	8	9	[(280, 3), (314, 4), (56, 8), (243, 3), (261, 7), (155, 10), (454, 3), (378, 9), (126, 10)]
175	21	4	8	3	[(416, 3), (353, 10), (282, 4)]
176	2	1	16	3	[(16, 1), (102, 0), (24, 6)]
177	4	1	8	7	[(474, 9), (6, 0), (399, 4), (7, 3), (485, 8), (291, 4), (325, 4)]
178	4	4	8	5	[(438, 7), (306, 0), (319, 5), (41, 7), (271, 2)]
179	2	4	8	7	[(8, 2), (343, 10), (232, 7), (237, 0), (197, 5), (65, 7), (135, 3)]
180	2	1	3	8	[(61, 6), (140, 0), (307, 7), (485, 4), (280, 6), (222, 10), (228, 8), (329, 4)]
181	1	1	8	8	[(16, 10), (385, 9), (468, 1), (209, 0), (471, 0), (185, 0), (386, 5), (453, 1)]
182	67	1	8	4	[(290, 8), (96, 1), (289, 8), (211, 7)]
183	24	1	48	4	[(129, 10), (262, 2), (335, 8), (411, 7)]
184	1	1	8	4	[(40, 4), (59, 9), (300, 7), (34, 4)]
185	2	1	8	8	[(326, 3), (401, 3), (396, 10), (214, 6), (460, 5), (142, 0), (382, 5), (273, 10)]
186	3	1	8	3	[(378, 3), (242, 0), (74, 4)]
187	1	6	8	5	[(318, 2), (89, 5), (167, 7), (354, 7), (445, 8)]
188	1	6	8	6	[(180, 4), (244, 10), (477, 8), (162, 5), (97, 4), (104, 2)]
189	3	1	8	7	[(397, 6), (447, 10), (96, 2), (105, 7), (208, 6), (80, 9), (380, 4)]
190	15	6	8	6	[(149, 2), (294, 1), (217, 2), (52, 7), (128, 8), (198, 7)]
191	1	6	8	4	[(229, 2), (75, 3), (239, 4), (300, 1)]
192	1	2	16	3	[(238, 1), (196, 3), (443, 9)]
193	3	1	8	2	[(28, 9), (207, 4)]
194	9	3	8	6	[(354, 1), (399, 0), (14, 1), (31, 6), (406, 2), (151, 0)]
195	2	1	1	5	[(426, 7), (343, 8), (262, 2), (440, 6), (58, 2)]
196	4	1	2	7	[(90, 2), (268, 9), (59, 7), (441, 2), (352, 0), (73, 4), (442, 10)]
197	3	1	8	6	[(368, 3), (262, 6), (341, 9), (184, 1), (56, 1), (425, 0)]
198	5	1	8	7	[(180, 0), (138, 4), (301, 5), (388, 10), (353, 7), (12, 3), (46, 8)]
199	2	2	1	6	[(175, 4), (60, 9), (482, 10), (499, 3), (132, 6), (251, 9)]
200	1	2	16	1	[(112, 7)]
201	2	1	8	10	[(193, 1), (263, 5), (49, 4), (150, 0), (194, 7), (215, 8), (116, 3), (21, 7), (397, 9), (99, 10)]
202	4	4	4	6	[(100, 9), (3, 8), (458, 9), (383, 8), (273, 4), (372, 1)]
203	74	4	8	4	[(156, 8), (429, 4), (195, 4), (98, 4)]
204	16	2	8	1	[(232, 9)]
205	7	1	8	4	[(71, 4), (168, 1), (493, 5), (293, 10)]
206	2	1	8	4	[(64, 9), (230, 8), (22, 3), (345, 6)]
207	1	1	8	5	[(373, 8), (42, 1), (423, 1), (364, 8), (102, 6)]
208	10	2	8	8	[(115, 5), (376, 1), (330, 0), (479, 4), (164, 6), (56, 4), (294, 2), (486, 4)]
209	19	1	8	5	[(347, 8), (86, 10), (288, 4), (330, 8), (53, 1)]
210	4	1	8	5	[(74, 7), (462, 4), (388, 3), (268, 8), (18, 0)]
211	3	3	2	5	[(450, 8), (15, 7), (77, 1), (187, 9), (203, 3)]
212	6	1	8	5	[(167, 7), (127, 2), (93, 3), (9, 7), (356, 0)]
213	2	2	8	3	[(253, 7), (274, 3), (451, 0)]
214	2	2	3	4	[(304, 4), (321, 4), (19, 8), (161, 0)]
215	1	1	5	2	[(59, 7), (364, 6)]
216	3	6	32	6	[(128, 6), (226, 8), (433, 4), (78, 3), (96, 9), (488, 3)]
217	10	1	8	10	[(284, 5), (396, 8), (321, 4), (62, 2), (399, 6), (75, 1), (134, 7), (397, 8), (234, 10), (468, 2)]
218	2	1	1	7	[(435, 0), (47, 9), (1, 7), (215, 2), (248, 0), (128, 3), (258, 5)]
219	12	1	8	4	[(230, 4), (462, 4), (25, 6), (485, 9)]
220	1	4	8	2	[(80, 6), (498, 9)]
221	3	2	8	2	[(362, 0), (116, 5)]
222	1	6	8	4	[(99, 7), (70, 3), (471, 3), (403, 8)]
223	4	1	8	5	[(385, 5), (200, 10), (257, 5), (261, 8), (359, 7)]
224	2	1	8	3	[(299, 10), (96, 6), (381, 9)]
225	2	1	6	5	[(375, 2), (198, 6), (21, 10), (15, 1), (53, 4)]
226	3	1	1	4	[(308, 1), (258, 0), (66, 7), (62, 4)]
227	5	3	8	2	[(423, 0), (74, 3)]
228	1	1	8	5	[(279, 3), (33, 10), (328, 8), (477, 8), (415, 9)]
229	1	1	8	6	[(27, 7), (4, 2), (410, 0), (13, 1), (140, 1), (481, 9)]
230	2	1	8	9	[(308, 6), (498, 3), (70, 4), (487, 2), (349, 2), (160, 8), (25, 2), (425, 7), (426, 10)]
231	1	1	8	4	[(176, 0), (8, 3), (409, 7), (106, 2)]
232	30	4	8	9	[(449, 7), (222, 7), (456, 0), (450, 10), (80, 8), (35, 3), (116, 3), (206, 1), (428, 0)]
233	15	4	16	4	[(313, 8), (206, 1), (271, 9), (151, 8)]
234	4	1	8	6	[(390, 8), (232, 3), (404, 4), (430, 10), (76, 10), (54, 9)]
235	7	1	8	3	[(476, 1), (485, 8), (387, 5)]
236	1	1	8	6	[(378, 6), (353, 1), (332, 7), (65, 8), (492, 7), (170, 8)]
237	2	1	8	4	[(65, 4), (229, 9), (315, 4), (140, 1)]
238	3	2	8	3	[(296, 0), (35, 10), (279, 1)]
239	9	4	8	2	[(121, 2), (288, 5)]
240	10	1	8	4	[(308, 3), (449, 1), (446, 4), (215, 8)]
241	1	1	8	8	[(73, 6), (322, 10), (228, 2), (18, 10), (205, 1), (381, 2), (354, 7), (371, 10)]
242	6	2	1	9	[(61, 0), (96, 0), (135, 7), (350, 9), (382, 4), (138, 3), (72, 3), (325, 0), (481, 7)]
243	2	1	16	2	[(175, 10), (306, 8)]
244	2	1	8	5	[(232, 1), (213, 2), (404, 2), (290, 0), (221, 8)]
245	25	4	8	2	[(252, 0), (106, 3)]
246	2	1	8	6	[(417, 0), (84, 7), (339, 3), (145, 10), (280, 1), (251, 0)]
247	1	1	8	3	[(51, 0), (398, 5), (137, 9)]
248	2	1	8	2	[(2, 8), (136, 2)]
249	2	1	8	2	[(134, 9), (194, 7)]
250	2	1	8	6	[(351, 7), (387, 5), (454, 1), (9, 9), (392, 0), (399, 5)]
251	11	3	16	3	[(52, 9), (196, 8), (27, 0)]
252	5	1	8	3	[(72, 4), (262, 5), (160, 1)]
253	4	1	8	9	[(143, 0), (206, 9), (114, 5), (228, 1), (219, 10), (86, 3), (156, 6), (198, 8), (387, 9)]
254	2	2	8	0	[]
255	21	2	8	4	[(78, 1), (128, 7), (101, 10), (222, 9)]
256	1	24	8	4	[(115, 6), (428, 5), (121, 4), (184, 9)]
257	5	1	6	3	[(218, 8), (485, 0), (228, 3)]
258	1	1	2	3	[(160, 2), (54, 0), (76, 1)]
259	1	1	8	2	[(225, 5), (496, 1)]
260	1	4	8	3	[(40, 6), (113, 5), (171, 3)]
261	5	1	8	7	[(55, 5), (355, 3), (197, 5), (249, 0), (51, 3), (246, 3), (140, 1)]
262	3	2	8	3	[(350, 2), (16, 1), (377, 2)]
263	3	4	8	9	[(52, 1), (301, 7), (216, 10), (455, 4), (194, 1), (395, 4), (470, 3), (434, 7), (333, 0)]
264	2	1	16	5	[(65, 5), (116, 5), (260, 3), (445, 4), (481, 0)]
265	6	1	8	6	[(242, 4), (488, 1), (487, 10), (78, 8), (138, 9), (62, 7)]
266	1	1	8	8	[(413, 7), (455, 0), (284, 2), (232, 9), (400, 6), (81, 2), (364, 10), (82, 0)]
267	2	4	8	8	[(317, 5), (314, 5), (267, 9), (498, 10), (422, 0), (298, 5), (445, 9), (305, 9)]
268	1	4	8	6	[(252, 9), (374, 8), (460, 6), (230, 4), (450, 2), (377, 6)]
269	1	2	8	3	[(433, 6), (110, 10), (296, 6)]
270	9	2	8	3	[(355, 9), (373, 0), (231, 1)]
271	3	4	8	2	[(14, 8), (188, 6)]
272	15	1	8	6	[(387, 9), (38, 2), (10, 8), (37, 8), (45, 5), (111, 6)]
273	1	1	8	5	[(18, 1), (264, 3), (315, 7), (102, 9), (248, 5)]
274	2	1	2	6	[(175, 10), (49, 4), (480, 8), (191, 4), (233, 2), (91, 6)]
275	37	1	8	4	[(66, 4), (8, 5), (453, 2), (219, 5)]
276	2	1	16	7	[(414, 4), (315, 10), (441, 1), (106, 2), (460, 4), (344, 3), (324, 4)]
277	2	6	8	4	[(457, 8), (480, 8), (182, 1), (226, 7)]
278	18	3	8	3	[(301, 0), (239, 0), (286, 6)]
279	2	1	8	1	[(404, 7)]
280	2	3	1	4	[(310, 5), (281, 3), (374, 10), (317, 7)]
281	5	2	8	6	[(137, 4), (188, 3), (310, 9), (126, 5), (144, 9), (275, 9)]
282	2	4	8	11	[(189, 5), (306, 8), (359, 5), (358, 6), (325, 2), (13, 1), (71, 3), (174, 9), (210, 7), (422, 4), (32, 4)]
283	11	5	8	3	[(256, 3), (50, 1), (352, 10)]
284	2	1	8	7	[(353, 2), (326, 2), (313, 5), (239, 3), (496, 8), (481, 3), (117, 6)]
285	3	1	3	12	[(326, 9), (107, 4), (87, 6), (362, 9), (383, 5), (443, 10), (147, 3), (58, 10), (479, 9), (42, 4), (427, 5), (216, 5)]
286	17	1	8	5	[(52, 4), (257, 7), (205, 8), (253, 0), (176, 8)]
287	1	1	8	5	[(177, 2), (228, 9), (317, 10), (480, 6), (353, 5)]
288	2	11	8	7	[(152, 8), (489, 9), (475, 7), (210, 2), (221, 9), (371, 0), (290, 4)]
289	1	1	2	1	[(201, 1)]
290	1	2	7	6	[(299, 5), (39, 2), (217, 1), (9, 9), (117, 0), (276, 6)]
291	1	1	8	5	[(183, 9), (139, 8), (140, 3), (121, 10), (259, 4)]
292	1	4	2	8	[(165, 2), (271, 8), (316, 10), (217, 8), (291, 4), (62, 3), (480, 1), (303, 5)]
293	3	1	8	8	[(403, 9), (55, 5), (33, 0), (92, 3), (331, 10), (293, 4), (297, 8), (410, 2)]
294	4	1	8	3	[(98, 6), (232, 9), (200, 7)]
295	1	1	8	5	[(468, 9), (17, 1), (21, 2), (404, 3), (192, 4)]
296	1	1	8	9	[(77, 0), (461, 6), (116, 6), (395, 3), (283, 7), (11, 9), (266, 2), (30, 5), (131, 9)]
297	4	2	8	4	[(145, 3), (353, 6), (130, 0), (150, 10)]
298	23	4	8	3	[(239, 5), (117, 4), (467, 0)]
299	2	1	2	5	[(294, 1), (50, 1), (480, 2), (342, 0), (8, 3)]
300	10	4	8	3	[(108, 3), (273, 9), (10, 6)]
301	1	1	8	5	[(342, 3), (26, 7), (427, 0), (58, 8), (443, 1)]
302	1	2	8	1	[(155, 0)]
303	6	1	8	4	[(119, 1), (440, 8), (162, 9), (206, 10)]
304	2	2	8	6	[(184, 0), (464, 2), (473, 7), (399, 8), (455, 10), (83, 6)]
305	407	1	2	7	[(184, 8), (305, 10), (192, 8), (443, 6), (90, 6), (383, 1), (483, 5)]
306	1	2	8	3	[(35, 2), (59, 0), (423, 0)]
307	2	1	8	3	[(129, 1), (434, 8), (470, 9)]
308	2	1	4	4	[(428, 9), (49, 8), (351, 4), (267, 8)]
309	9	2	7	9	[(253, 10), (467, 4), (121, 1), (311, 3), (238, 5), (180, 5), (337, 9), (407, 6), (421, 8)]
310	8	5	8	3	[(340, 6), (11, 10), (294, 2)]
311	72	2	7	1	[(452, 10)]
312	2	1	8	4	[(436, 6), (384, 5), (363, 9), (289, 2)]
313	2	1	8	5	[(268, 5), (273, 1), (270, 10), (306, 0), (94, 7)]
314	3	1	2	1	[(431, 2)]
315	1	6	8	5	[(249, 10), (362, 1), (245, 4), (290, 6), (433, 6)]
316	2	1	8	1	[(409, 0)]
317	2	1	2	6	[(374, 0), (484, 1), (231, 9), (84, 4), (176, 7), (359, 5)]
318	5	1	8	5	[(173, 9), (175, 0), (96, 1), (421, 1), (489, 6)]
319	2	1	8	4	[(256, 5), (72, 10), (489, 7), (484, 4)]
320	2	2	8	8	[(77, 8), (70, 2), (59, 7), (44, 2), (254, 2), (479, 5), (289, 7), (249, 5)]
321	3	2	8	3	[(170, 2), (68, 7), (459, 8)]
322	12	1	1	6	[(31, 8), (459, 2), (303, 2), (228, 1), (172, 1), (492, 10)]
323	1	1	8	7	[(89, 2), (180, 8), (498, 9), (155, 5), (163, 0), (81, 2), (397, 6)]
324	2	1	8	3	[(185, 3), (17, 8), (148, 9)]
325	12	1	8	4	[(289, 8), (265, 3), (42, 3), (465, 0)]
326	4	1	8	7	[(443, 1), (411, 8), (320, 9), (362, 3), (257, 2), (313, 8), (282, 8)]
327	2	1	8	6	[(496, 10), (52, 8), (33, 4), (370, 8), (201, 4), (78, 8)]
328	30	1	8	8	[(213, 3), (165, 2), (337, 9), (224, 1), (7, 9), (31, 6), (497, 1), (130, 7)]
329	5	2	8	7	[(80, 4), (379, 5), (481, 5), (342, 7), (454, 3), (198, 4), (1, 3)]
330	4	12	8	1	[(392, 1)]
331	2	1	16	6	[(327, 4), (412, 1), (240, 7), (390, 9), (335, 8), (197, 8)]
332	3	2	8	2	[(341, 5), (496, 3)]
333	6	1	1	4	[(64, 7), (448, 0), (488, 1), (445, 5)]
334	2	1	1	9	[(302, 9), (396, 7), (344, 10), (300, 5), (105, 8), (480, 10), (410, 8), (138, 4), (485, 1)]
335	1	4	16	4	[(437, 5), (250, 4), (361, 8), (274, 3)]
336	1	1	8	7	[(360, 1), (254, 4), (272, 7), (73, 4), (194, 9), (353, 9), (197, 9)]
337	1	2	8	6	[(56, 10), (169, 5), (220, 5), (10, 5), (406, 3), (41, 10)]
338	1	1	8	7	[(96, 8), (221, 7), (335, 8), (316, 5), (242, 8), (123, 10), (184, 2)]
339	20	1	8	6	[(400, 7), (178, 4), (278, 10), (218, 4), (496, 0), (350, 10)]
340	1	1	8	10	[(41, 8), (248, 4), (286, 2), (411, 2), (313, 2), (439, 4), (367, 9), (148, 1), (314, 8), (345, 0)]
341	1	4	2	5	[(341, 10), (14, 0), (226, 7), (101, 8), (194, 10)]
342	14	1	8	4	[(411, 9), (451, 10), (203, 3), (467, 6)]
343	9	1	16	3	[(282, 5), (123, 7), (164, 9)]
344	2	1	8	7	[(121, 3), (231, 0), (62, 8), (447, 2), (445, 4), (123, 4), (88, 5)]
345	2	1	8	2	[(498, 8), (500, 8)]
346	9	6	8	7	[(482, 1), (206, 3), (75, 9), (377, 8), (411, 6), (96, 3), (219, 10)]
347	1	1	8	6	[(224, 4), (236, 6), (254, 10), (153, 8), (344, 4), (3, 1)]
348	12	1	8	6	[(262, 7), (290, 0), (120, 7), (429, 10), (444, 1), (359, 10)]
349	6	3	2	6	[(126, 9), (202, 9), (83, 0), (189, 8), (496, 10), (252, 2)]
350	5	12	8	5	[(331, 0), (369, 1), (459, 3), (77, 4), (480, 10)]
351	54	1	8	4	[(455, 5), (24, 6), (135, 7), (370, 7)]
352	8	1	8	7	[(179, 3), (454, 2), (35, 4), (204, 6), (25, 0), (87, 8), (23, 4)]
353	2	2	8	8	[(494, 9), (339, 3), (496, 5), (480, 2), (418, 1), (179, 5), (30, 4), (319, 7)]
354	1	1	8	3	[(81, 9), (199, 10), (384, 0)]
355	3	1	8	5	[(400, 3), (450, 3), (35, 5), (488, 0), (399, 4)]
356	2	2	8	5	[(64, 3), (375, 0), (206, 2), (381, 2), (180, 6)]
357	2	1	8	4	[(232, 7), (32, 5), (5, 10), (82, 8)]
358	1	2	8	5	[(84, 1), (361, 1), (110, 0), (161, 5), (427, 7)]
359	9	2	8	7	[(439, 4), (147, 5), (224, 3), (190, 6), (266, 3), (203, 2), (254, 2)]
360	1	1	8	3	[(11, 10), (135, 7), (16, 9)]
361	2	1	8	4	[(129, 1), (372, 0), (71, 2), (428, 4)]
362	2	1	8	6	[(219, 4), (160, 9), (228, 4), (365, 1), (276, 8), (194, 4)]
363	2	3	8	3	[(245, 9), (460, 8), (424, 3)]
364	2	1	8	7	[(500, 10), (154, 5), (60, 0), (480, 3), (485, 0), (488, 6), (420, 1)]
365	4	1	8	10	[(17, 6), (212, 3), (170, 1), (18, 9), (156, 0), (459, 4), (238, 4), (309, 4), (278, 9), (494, 6)]
366	2	1	8	4	[(381, 9), (18, 3), (413, 8), (353, 2)]
367	1	1	8	9	[(483, 2), (384, 9), (100, 2), (31, 8), (259, 4), (278, 0), (229, 10), (310, 4), (50, 7)]
368	2	1	8	5	[(107, 8), (73, 0), (488, 10), (206, 7), (427, 5)]
369	1	1	8	7	[(8, 2), (241, 3), (271, 1), (449, 10), (137, 8), (302, 7), (243, 0)]
370	2	1	8	2	[(391, 2), (250, 3)]
371	9	1	8	4	[(315, 9), (307, 3), (484, 8), (78, 10)]
372	2	1	8	10	[(61, 0), (262, 5), (117, 0), (149, 3), (333, 4), (42, 6), (332, 5), (120, 1), (162, 7), (308, 6)]
373	1	1	8	5	[(103, 6), (28, 10), (79, 3), (261, 4), (190, 1)]
374	2	1	16	3	[(278, 6), (79, 7), (37, 0)]
375	2	1	8	10	[(251, 2), (175, 2), (95, 0), (442, 8), (362, 10), (404, 10), (107, 7), (294, 0), (80, 2), (488, 4)]
376	1	1	2	2	[(127, 1), (385, 1)]
377	2	2	16	5	[(54, 9), (459, 4), (104, 10), (108, 9), (64, 1)]
378	150	1	8	8	[(468, 8), (161, 0), (26, 8), (231, 0), (124, 2), (205, 8), (339, 1), (466, 1)]
379	2	1	8	4	[(129, 5), (41, 5), (471, 2), (197, 6)]
380	1	1	8	5	[(188, 4), (276, 3), (364, 8), (295, 9), (138, 3)]
381	1	1	8	5	[(250, 0), (247, 3), (252, 8), (82, 4), (136, 4)]
382	1	4	8	2	[(177, 6), (293, 2)]
383	6	3	2	6	[(18, 4), (220, 9), (380, 1), (219, 0), (262, 5), (193, 2)]
384	2	1	8	6	[(314, 10), (308, 4), (118, 6), (142, 3), (177, 7), (356, 4)]
385	2	1	8	4	[(95, 5), (98, 10), (235, 4), (162, 7)]
386	2	6	2	9	[(147, 3), (345, 0), (283, 6), (410, 6), (385, 5), (496, 3), (29, 10), (12, 8), (474, 0)]
387	44	1	8	6	[(308, 3), (106, 3), (202, 0), (30, 4), (453, 6), (341, 9)]
388	2	1	8	7	[(86, 1), (349, 9), (20, 2), (65, 7), (174, 4), (94, 7), (493, 10)]
389	2	1	2	7	[(16, 3), (498, 10), (165, 9), (187, 5), (266, 9), (178, 9), (151, 9)]
390	1	1	8	3	[(450, 1), (447, 1), (266, 8)]
391	1	3	8	3	[(260, 9), (91, 8), (352, 9)]
392	1	1	8	4	[(499, 6), (21, 0), (378, 5), (17, 6)]
393	4	1	8	2	[(393, 6), (431, 10)]
394	1	1	8	3	[(203, 0), (215, 7), (370, 8)]
395	2	2	8	9	[(264, 6), (366, 6), (172, 7), (398, 9), (140, 4), (275, 0), (498, 6), (62, 4), (330, 7)]
396	5	1	8	3	[(331, 9), (290, 5), (397, 7)]
397	5	2	2	6	[(366, 9), (194, 3), (290, 0), (424, 5), (271, 10), (416, 6)]
398	2	1	8	4	[(446, 5), (47, 9), (35, 7), (203, 10)]
399	2	1	4	9	[(273, 0), (7, 2), (330, 3), (251, 7), (485, 9), (185, 6), (410, 9), (346, 2), (55, 8)]
400	2	1	8	4	[(139, 4), (37, 4), (275, 10), (382, 6)]
401	4	4	8	3	[(423, 10), (482, 9), (97, 0)]
402	42	1	8	6	[(398, 2), (277, 0), (15, 4), (61, 2), (345, 8), (475, 10)]
403	2	1	8	5	[(125, 5), (457, 0), (366, 7), (283, 5), (3, 3)]
404	2	1	8	2	[(63, 4), (52, 6)]
405	1	1	8	4	[(454, 10), (97, 2), (155, 4), (106, 8)]
406	2	1	2	5	[(275, 4), (161, 7), (167, 5), (447, 0), (34, 0)]
407	1	1	8	5	[(188, 9), (33, 5), (213, 9), (419, 5), (489, 7)]
408	1	1	8	6	[(93, 8), (324, 3), (299, 4), (169, 0), (375, 4), (310, 3)]
409	10	1	2	1	[(227, 0)]
410	1	6	16	5	[(1, 1), (244, 8), (30, 3), (275, 8), (146, 9)]
411	7	1	8	3	[(285, 3), (398, 8), (310, 2)]
412	2	1	7	7	[(246, 3), (268, 1), (357, 1), (62, 6), (433, 0), (254, 0), (366, 3)]
413	1	1	8	9	[(329, 2), (130, 0), (499, 1), (246, 10), (400, 6), (277, 3), (213, 1), (186, 4), (169, 1)]
414	4	1	8	7	[(266, 7), (434, 3), (198, 0), (244, 4), (288, 9), (238, 6), (162, 5)]
415	3	1	8	4	[(419, 9), (473, 9), (67, 4), (109, 3)]
416	2	36	8	2	[(245, 3), (125, 0)]
417	1	1	8	2	[(378, 6), (98, 10)]
418	2	1	8	8	[(433, 4), (6, 2), (493, 6), (293, 3), (430, 1), (451, 9), (359, 4), (322, 10)]
419	1	1	3	8	[(104, 8), (75, 2), (273, 9), (303, 2), (20, 7), (308, 0), (233, 2), (446, 5)]
420	1	1	8	3	[(394, 1), (35, 8), (330, 7)]
421	2	1	2	3	[(6, 4), (310, 6), (421, 4)]
422	3	1	7	3	[(94, 3), (348, 5), (442, 10)]
423	2	1	8	4	[(432, 5), (208, 9), (69, 7), (72, 6)]
424	2	4	8	8	[(32, 4), (382, 0), (444, 10), (344, 7), (359, 9), (8, 1), (333, 8), (405, 7)]
425	7	1	8	8	[(366, 6), (113, 1), (355, 6), (280, 1), (100, 10), (289, 7), (137, 6), (423, 0)]
426	1	1	8	5	[(137, 6), (351, 7), (138, 0), (499, 10), (400, 5)]
427	2	2	8	7	[(401, 1), (495, 9), (436, 2), (3, 8), (94, 3), (427, 5), (240, 3)]
428	2	1	8	4	[(330, 6), (425, 0), (352, 9), (438, 0)]
429	7	1	16	2	[(411, 10), (18, 5)]
430	5	1	1	1	[(228, 6)]
431	4	1	8	7	[(422, 6), (140, 3), (411, 3), (349, 8), (233, 2), (279, 1), (497, 9)]
432	1	1	7	7	[(97, 2), (296, 2), (99, 7), (6, 0), (299, 8), (277, 10), (139, 5)]
433	1	1	8	7	[(389, 9), (479, 8), (200, 6), (91, 2), (56, 2), (131, 2), (461, 0)]
434	2	2	8	4	[(155, 2), (421, 1), (289, 3), (472, 1)]
435	4	1	8	2	[(81, 5), (468, 7)]
436	1	1	8	4	[(375, 9), (148, 3), (350, 1), (15, 4)]
437	22	1	8	8	[(302, 3), (275, 5), (98, 7), (160, 4), (335, 0), (403, 3), (309, 9), (135, 8)]
438	2	6	8	4	[(7, 10), (409, 10), (208, 7), (251, 2)]
439	4	4	8	5	[(333, 2), (136, 5), (103, 5), (447, 5), (135, 4)]
440	3	1	2	2	[(299, 0), (133, 1)]
441	7	1	8	4	[(492, 10), (79, 2), (274, 9), (50, 2)]
442	43	2	8	5	[(296, 4), (483, 0), (41, 10), (425, 4), (454, 5)]
443	7	2	8	2	[(372, 9), (182, 1)]
444	5	4	8	6	[(448, 3), (221, 9), (427, 8), (169, 6), (179, 7), (415, 3)]
445	2	1	8	3	[(240, 0), (267, 9), (231, 4)]
446	1	1	8	3	[(447, 9), (5, 1), (490, 1)]
447	10	1	8	5	[(420, 8), (354, 4), (230, 10), (391, 1), (34, 10)]
448	5	1	8	5	[(171, 5), (438, 8), (68, 3), (291, 0), (326, 3)]
449	1	1	2	4	[(65, 8), (164, 3), (74, 6), (20, 6)]
450	2	4	32	8	[(380, 2), (109, 9), (446, 3), (211, 3), (357, 7), (303, 9), (346, 1), (161, 6)]
451	6	1	2	9	[(236, 7), (367, 5), (41, 0), (198, 4), (1, 7), (30, 4), (406, 10), (401, 0), (77, 2)]
452	1	1	8	10	[(259, 2), (459, 0), (417, 7), (109, 6), (310, 6), (178, 10), (403, 2), (3, 0), (210, 2), (452, 8)]
453	1	1	2	7	[(395, 8), (312, 9), (370, 7), (95, 2), (412, 3), (406, 1), (401, 8)]
454	5	2	16	8	[(38, 10), (86, 4), (136, 0), (199, 5), (487, 6), (359, 7), (284, 8), (87, 7)]
455	2	2	8	3	[(129, 9), (190, 3), (338, 10)]
456	2	6	8	6	[(151, 9), (497, 2), (316, 1), (278, 10), (68, 4), (173, 0)]
457	2	4	16	5	[(97, 2), (369, 5), (327, 6), (183, 3), (305, 0)]
458	3	1	8	5	[(391, 9), (453, 7), (492, 8), (320, 10), (31, 2)]
459	2	1	8	5	[(439, 2), (117, 6), (88, 7), (380, 1), (317, 9)]
460	23	1	8	3	[(481, 10), (120, 9), (38, 3)]
461	12	1	8	0	[]
462	2	1	8	11	[(302, 1), (4, 10), (340, 10), (298, 0), (423, 10), (438, 2), (103, 3), (3, 9), (9, 1), (487, 0), (479, 7)]
463	4	1	8	2	[(211, 8), (310, 6)]
464	1	2	16	8	[(106, 8), (43, 7), (426, 5), (492, 10), (421, 6), (173, 8), (363, 10), (41, 10)]
465	1	1	8	7	[(317, 5), (446, 4), (308, 0), (484, 6), (318, 4), (54, 9), (263, 8)]
466	25	1	16	3	[(70, 5), (166, 9), (140, 7)]
467	1	6	8	9	[(374, 4), (320, 6), (77, 4), (264, 4), (64, 10), (369, 1), (486, 1), (266, 0), (215, 9)]
468	1	1	16	4	[(164, 3), (300, 8), (204, 9), (462, 4)]
469	5	4	8	3	[(78, 3), (302, 7), (491, 2)]
470	4	1	16	3	[(257, 8), (319, 4), (194, 3)]
471	2	1	8	7	[(253, 2), (122, 0), (346, 5), (13, 4), (7, 0), (144, 5), (90, 10)]
472	2	1	2	3	[(194, 2), (266, 5), (124, 2)]
473	3	1	8	1	[(135, 0)]
474	1	1	8	10	[(287, 1), (231, 1), (194, 9), (197, 9), (204, 6), (220, 8), (238, 3), (417, 3), (237, 5), (92, 3)]
475	2	1	8	3	[(103, 2), (365, 5), (413, 3)]
476	3	1	8	5	[(148, 0), (63, 6), (485, 1), (342, 5), (171, 6)]
477	2	1	6	4	[(404, 9), (294, 4), (65, 3), (255, 8)]
478	2	6	2	10	[(124, 4), (194, 7), (362, 7), (126, 9), (177, 10), (373, 8), (66, 0), (184, 6), (75, 5), (94, 9)]
479	2	1	32	3	[(132, 7), (134, 7), (104, 7)]
480	1	1	8	5	[(204, 0), (318, 7), (60, 7), (42, 8), (471, 0)]
481	1	1	3	3	[(274, 2), (16, 10), (227, 8)]
482	2	1	8	3	[(236, 5), (470, 9), (477, 6)]
483	1	2	1	5	[(284, 7), (256, 8), (369, 2), (363, 2), (450, 0)]
484	4	2	8	8	[(114, 10), (187, 6), (181, 9), (438, 8), (403, 7), (65, 6), (499, 1), (468, 6)]
485	1	2	8	3	[(51, 10), (292, 8), (272, 5)]
486	2	1	8	5	[(9, 4), (439, 0), (194, 10), (453, 4), (341, 6)]
487	2	4	8	2	[(293, 7), (273, 7)]
488	55	1	8	4	[(438, 2), (183, 6), (497, 7), (425, 0)]
489	27	1	8	8	[(263, 4), (337, 10), (71, 8), (291, 9), (386, 8), (107, 10), (144, 7), (209, 5)]
490	1	1	1	4	[(54, 7), (217, 0), (85, 10), (438, 9)]
491	2	1	4	1	[(250, 3)]
492	1	1	8	4	[(294, 9), (185, 4), (176, 3), (136, 2)]
493	1	1	8	5	[(207, 6), (11, 4), (210, 5), (277, 3), (168, 10)]
494	2	1	10	7	[(443, 7), (285, 9), (125, 8), (144, 6), (286, 7), (18, 9), (136, 2)]
495	2	1	8	8	[(219, 0), (99, 8), (67, 7), (194, 0), (459, 0), (389, 7), (122, 10), (295, 8)]
496	1	1	8	10	[(442, 1), (192, 10), (414, 7), (312, 8), (300, 6), (211, 10), (119, 5), (150, 3), (170, 9), (399, 6)]
497	1	1	8	7	[(408, 3), (476, 7), (435, 3), (132, 9), (223, 8), (129, 9), (206, 3)]
498	1	1	8	4	[(446, 8), (56, 2), (153, 10), (328, 0)]
499	24	1	8	5	[(165, 4), (205, 2), (461, 3), (364, 3), (202, 10)]
500	2	3	8	9	[(283, 10), (309, 4), (194, 10), (199, 4), (281, 4), (248, 6), (230, 9), (342, 9), (177, 0)]
